<?xml version="1.0"?>
<timestep time="1001.00">
        <edge id=":gneJ11_20">
            <lane id=":gneJ11_20_0">
                <vehicle id="867" pos="14.27" speed="6.80"/>
            </lane>
        </edge>
        <edge id=":gneJ11_28">
            <lane id=":gneJ11_28_0">
                <vehicle id="977" pos="3.09" speed="4.11"/>
            </lane>
        </edge>
        <edge id=":gneJ15_8">
            <lane id=":gneJ15_8_0">
                <vehicle id="852" pos="2.06" speed="6.86"/>
            </lane>
        </edge>
        <edge id=":gneJ15_18">
            <lane id=":gneJ15_18_0">
                <vehicle id="847" pos="4.41" speed="0.00"/>
            </lane>
        </edge>
        <edge id=":gneJ3_3">
            <lane id=":gneJ3_3_0">
                <vehicle id="957" pos="4.71" speed="8.47"/>
            </lane>
        </edge>
        <edge id=":gneJ30_6">
            <lane id=":gneJ30_6_0">
                <vehicle id="976" pos="4.89" speed="6.00"/>
            </lane>
        </edge>
        <edge id=":gneJ4_4">
            <lane id=":gneJ4_4_0">
                <vehicle id="979" pos="6.27" speed="6.85"/>
            </lane>
        </edge>
        <edge id=":gneJ8_1">
            <lane id=":gneJ8_1_0">
                <vehicle id="855" pos="4.18" speed="6.85"/>
            </lane>
        </edge>
        <edge id=":gneJ9_2">
            <lane id=":gneJ9_2_0">
                <vehicle id="793" pos="0.81" speed="8.21"/>
            </lane>
        </edge>
        <edge id="gneE10">
            <lane id="gneE10_0">
                <vehicle id="994" pos="7.38" speed="2.28"/>
                <vehicle id="827" pos="21.86" speed="5.23"/>
                <vehicle id="934" pos="38.00" speed="5.81"/>
                <vehicle id="869" pos="131.44" speed="0.00"/>
                <vehicle id="963" pos="138.94" speed="0.00"/>
            </lane>
        </edge>
        <edge id="gneE11">
            <lane id="gneE11_0">
                <vehicle id="924" pos="74.41" speed="7.97"/>
                <vehicle id="831" pos="96.63" speed="7.75"/>
            </lane>
        </edge>
        <edge id="gneE12">
            <lane id="gneE12_0">
                <vehicle id="806" pos="19.24" speed="11.80"/>
                <vehicle id="913" pos="47.70" speed="11.47"/>
                <vehicle id="985" pos="72.13" speed="13.45"/>
                <vehicle id="B1_3" pos="137.43" speed="13.67"/>
                <vehicle id="810" pos="167.25" speed="12.79"/>
                <vehicle id="655" pos="190.71" speed="13.07"/>
                <vehicle id="807" pos="259.30" speed="6.99"/>
                <vehicle id="951" pos="270.91" speed="0.31"/>
                <vehicle id="919" pos="278.67" speed="0.00"/>
                <vehicle id="948" pos="286.83" speed="0.65"/>
                <vehicle id="910" pos="297.29" speed="2.56"/>
            </lane>
        </edge>
        <edge id="gneE13">
            <lane id="gneE13_0">
                <vehicle id="868" pos="247.91" speed="1.79"/>
                <vehicle id="860" pos="256.41" speed="0.24"/>
                <vehicle id="821" pos="265.85" speed="1.93"/>
                <vehicle id="889" pos="275.46" speed="1.53"/>
                <vehicle id="829" pos="285.08" speed="1.61"/>
                <vehicle id="905" pos="293.53" speed="0.23"/>
                <vehicle id="845" pos="301.16" speed="0.04"/>
            </lane>
        </edge>
        <edge id="gneE14">
            <lane id="gneE14_0">
                <vehicle id="651" pos="37.56" speed="10.13"/>
                <vehicle id="992" pos="77.34" speed="9.77"/>
                <vehicle id="988" pos="117.55" speed="10.45"/>
            </lane>
        </edge>
        <edge id="gneE15">
            <lane id="gneE15_0">
                <vehicle id="875" pos="62.30" speed="8.75"/>
                <vehicle id="735" pos="101.61" speed="8.82"/>
            </lane>
        </edge>
        <edge id="gneE17">
            <lane id="gneE17_0">
                <vehicle id="794" pos="41.95" speed="9.61"/>
                <vehicle id="883" pos="77.85" speed="9.31"/>
                <vehicle id="989" pos="96.54" speed="8.71"/>
                <vehicle id="870" pos="283.82" speed="5.31"/>
            </lane>
        </edge>
        <edge id="gneE18">
            <lane id="gneE18_0">
                <vehicle id="762" pos="16.28" speed="9.78"/>
                <vehicle id="943" pos="55.92" speed="9.87"/>
                <vehicle id="932" pos="78.11" speed="9.67"/>
                <vehicle id="614" pos="104.80" speed="9.04"/>
                <vehicle id="952" pos="133.27" speed="9.45"/>
                <vehicle id="798" pos="229.21" speed="9.68"/>
            </lane>
        </edge>
        <edge id="gneE19">
            <lane id="gneE19_0">
                <vehicle id="966" pos="184.49" speed="11.74"/>
                <vehicle id="967" pos="222.81" speed="0.04"/>
                <vehicle id="936" pos="230.33" speed="0.01"/>
                <vehicle id="748" pos="237.83" speed="0.00"/>
                <vehicle id="608" pos="246.34" speed="1.01"/>
                <vehicle id="944" pos="255.99" speed="2.12"/>
                <vehicle id="878" pos="269.39" speed="4.69"/>
            </lane>
        </edge>
        <edge id="gneE20">
            <lane id="gneE20_0">
                <vehicle id="812" pos="30.02" speed="7.55"/>
                <vehicle id="825" pos="47.17" speed="8.45"/>
                <vehicle id="971" pos="65.17" speed="8.88"/>
                <vehicle id="818" pos="135.87" speed="8.98"/>
                <vehicle id="881" pos="183.26" speed="8.49"/>
                <vehicle id="787" pos="220.78" speed="7.85"/>
            </lane>
        </edge>
        <edge id="gneE23">
            <lane id="gneE23_0">
                <vehicle id="904" pos="13.83" speed="7.37"/>
                <vehicle id="693" pos="51.14" speed="7.60"/>
                <vehicle id="856" pos="120.06" speed="7.29"/>
            </lane>
        </edge>
        <edge id="gneE24">
            <lane id="gneE24_0">
                <vehicle id="911" pos="92.74" speed="11.87"/>
                <vehicle id="757" pos="157.62" speed="12.82"/>
            </lane>
        </edge>
        <edge id="gneE25">
            <lane id="gneE25_0">
                <vehicle id="996" pos="24.03" speed="7.98"/>
                <vehicle id="721" pos="174.64" speed="5.88"/>
                <vehicle id="824" pos="189.43" speed="3.79"/>
                <vehicle id="947" pos="200.42" speed="3.45"/>
                <vehicle id="920" pos="212.83" speed="4.35"/>
                <vehicle id="872" pos="224.44" speed="3.39"/>
                <vehicle id="898" pos="234.58" speed="1.24"/>
                <vehicle id="886" pos="245.14" speed="2.93"/>
                <vehicle id="816" pos="254.92" speed="1.74"/>
                <vehicle id="830" pos="266.99" speed="3.41"/>
                <vehicle id="605" pos="279.12" speed="4.12"/>
            </lane>
        </edge>
        <edge id="gneE26">
            <lane id="gneE26_0">
                <vehicle id="982" pos="98.85" speed="6.47"/>
                <vehicle id="895" pos="116.33" speed="6.10"/>
                <vehicle id="970" pos="185.78" speed="0.06"/>
                <vehicle id="935" pos="193.31" speed="0.01"/>
                <vehicle id="696" pos="200.82" speed="0.00"/>
                <vehicle id="939" pos="208.32" speed="0.00"/>
                <vehicle id="931" pos="215.82" speed="0.00"/>
                <vehicle id="719" pos="223.32" speed="0.00"/>
                <vehicle id="795" pos="230.82" speed="0.00"/>
                <vehicle id="850" pos="238.32" speed="0.00"/>
                <vehicle id="834" pos="245.82" speed="0.00"/>
                <vehicle id="801" pos="253.32" speed="0.00"/>
                <vehicle id="744" pos="260.82" speed="0.00"/>
                <vehicle id="799" pos="268.33" speed="0.00"/>
                <vehicle id="638" pos="275.83" speed="0.00"/>
                <vehicle id="633" pos="283.33" speed="0.00"/>
                <vehicle id="653" pos="290.83" speed="0.00"/>
            </lane>
        </edge>
        <edge id="gneE27">
            <lane id="gneE27_0">
                <vehicle id="759" pos="4.33" speed="5.34"/>
                <vehicle id="981" pos="104.38" speed="5.87"/>
                <vehicle id="978" pos="124.02" speed="5.68"/>
            </lane>
        </edge>
        <edge id="gneE28">
            <lane id="gneE28_0">
                <vehicle id="843" pos="9.84" speed="7.83"/>
                <vehicle id="866" pos="41.55" speed="8.08"/>
                <vehicle id="842" pos="98.12" speed="7.62"/>
                <vehicle id="828" pos="113.50" speed="3.58"/>
                <vehicle id="753" pos="122.75" speed="0.24"/>
                <vehicle id="917" pos="130.40" speed="0.05"/>
                <vehicle id="745" pos="137.92" speed="0.00"/>
            </lane>
        </edge>
        <edge id="gneE3">
            <lane id="gneE3_0">
                <vehicle id="779" pos="65.56" speed="8.98"/>
            </lane>
        </edge>
        <edge id="gneE30">
            <lane id="gneE30_0">
                <vehicle id="968" pos="45.65" speed="8.89"/>
                <vehicle id="937" pos="71.62" speed="8.68"/>
                <vehicle id="826" pos="149.72" speed="7.92"/>
                <vehicle id="778" pos="219.21" speed="8.12"/>
                <vehicle id="972" pos="236.90" speed="8.44"/>
                <vehicle id="732" pos="271.71" speed="8.65"/>
            </lane>
        </edge>
        <edge id="gneE31">
            <lane id="gneE31_0">
                <vehicle id="961" pos="5.99" speed="8.48"/>
                <vehicle id="848" pos="36.86" speed="8.68"/>
                <vehicle id="814" pos="99.08" speed="7.78"/>
                <vehicle id="841" pos="119.27" speed="8.88"/>
                <vehicle id="927" pos="200.06" speed="8.47"/>
                <vehicle id="946" pos="229.17" speed="7.90"/>
                <vehicle id="864" pos="260.82" speed="7.91"/>
                <vehicle id="857" pos="287.79" speed="8.69"/>
            </lane>
        </edge>
        <edge id="gneE32">
            <lane id="gneE32_0">
                <vehicle id="995" pos="39.99" speed="7.01"/>
                <vehicle id="596" pos="186.36" speed="7.22"/>
                <vehicle id="819" pos="232.38" speed="7.81"/>
            </lane>
        </edge>
        <edge id="gneE38">
            <lane id="gneE38_0">
                <vehicle id="928" pos="25.36" speed="8.23"/>
                <vehicle id="921" pos="83.62" speed="8.40"/>
                <vehicle id="925" pos="231.82" speed="8.41"/>
                <vehicle id="918" pos="288.27" speed="8.90"/>
                <vehicle id="893" pos="315.59" speed="8.97"/>
                <vehicle id="861" pos="327.98" speed="0.00"/>
                <vehicle id="832" pos="335.48" speed="0.00"/>
                <vehicle id="902" pos="342.98" speed="0.00"/>
            </lane>
        </edge>
        <edge id="gneE4">
            <lane id="gneE4_0">
                <vehicle id="933" pos="29.63" speed="9.22"/>
                <vehicle id="991" pos="78.95" speed="9.38"/>
            </lane>
        </edge>
        <edge id="gneE41">
            <lane id="gneE41_0">
                <vehicle id="752" pos="48.05" speed="8.25"/>
            </lane>
        </edge>
        <edge id="gneE42">
            <lane id="gneE42_0">
                <vehicle id="975" pos="5.55" speed="6.94"/>
                <vehicle id="758" pos="70.02" speed="6.75"/>
                <vehicle id="962" pos="95.75" speed="7.34"/>
            </lane>
        </edge>
        <edge id="gneE43">
            <lane id="gneE43_0">
                <vehicle id="916" pos="87.28" speed="6.44"/>
                <vehicle id="930" pos="246.72" speed="0.00"/>
                <vehicle id="839" pos="254.22" speed="0.00"/>
                <vehicle id="836" pos="261.72" speed="0.00"/>
                <vehicle id="837" pos="269.22" speed="0.00"/>
                <vehicle id="894" pos="276.72" speed="0.00"/>
                <vehicle id="657" pos="284.23" speed="0.00"/>
                <vehicle id="863" pos="291.73" speed="0.00"/>
                <vehicle id="767" pos="299.23" speed="0.00"/>
                <vehicle id="813" pos="306.73" speed="0.00"/>
            </lane>
        </edge>
        <edge id="gneE45">
            <lane id="gneE45_0">
                <vehicle id="747" pos="26.43" speed="8.98"/>
                <vehicle id="823" pos="101.13" speed="8.28"/>
                <vehicle id="965" pos="133.65" speed="8.24"/>
                <vehicle id="802" pos="272.63" speed="7.89"/>
            </lane>
        </edge>
        <edge id="gneE46">
            <lane id="gneE46_0">
                <vehicle id="998" pos="6.52" speed="1.42"/>
                <vehicle id="667" pos="27.11" speed="9.48"/>
            </lane>
        </edge>
        <edge id="gneE47">
            <lane id="gneE47_0">
                <vehicle id="909" pos="83.35" speed="8.04"/>
                <vehicle id="908" pos="113.65" speed="7.92"/>
                <vehicle id="954" pos="173.97" speed="8.39"/>
                <vehicle id="953" pos="190.28" speed="7.72"/>
            </lane>
        </edge>
        <edge id="gneE48">
            <lane id="gneE48_0">
                <vehicle id="879" pos="212.56" speed="6.81"/>
                <vehicle id="871" pos="244.63" speed="0.07"/>
                <vehicle id="903" pos="252.13" speed="0.00"/>
                <vehicle id="897" pos="259.63" speed="0.00"/>
                <vehicle id="882" pos="267.13" speed="0.00"/>
                <vehicle id="796" pos="274.63" speed="0.00"/>
                <vehicle id="791" pos="282.13" speed="0.00"/>
                <vehicle id="858" pos="289.63" speed="0.00"/>
                <vehicle id="777" pos="297.14" speed="0.00"/>
                <vehicle id="705" pos="304.64" speed="0.00"/>
                <vehicle id="790" pos="312.14" speed="0.00"/>
                <vehicle id="817" pos="319.64" speed="0.00"/>
            </lane>
        </edge>
        <edge id="gneE49">
            <lane id="gneE49_0">
                <vehicle id="973" pos="24.34" speed="7.27"/>
                <vehicle id="750" pos="78.20" speed="7.72"/>
                <vehicle id="804" pos="107.10" speed="7.01"/>
                <vehicle id="960" pos="153.60" speed="7.13"/>
                <vehicle id="783" pos="312.14" speed="0.01"/>
                <vehicle id="949" pos="319.64" speed="0.00"/>
            </lane>
        </edge>
        <edge id="gneE5">
            <lane id="gneE5_0">
                <vehicle id="959" pos="4.89" speed="5.01"/>
                <vehicle id="945" pos="21.49" speed="5.24"/>
                <vehicle id="873" pos="43.61" speed="5.87"/>
                <vehicle id="899" pos="61.35" speed="5.64"/>
                <vehicle id="964" pos="75.94" speed="5.63"/>
                <vehicle id="877" pos="94.84" speed="5.80"/>
                <vehicle id="980" pos="113.48" speed="5.45"/>
            </lane>
        </edge>
        <edge id="gneE50">
            <lane id="gneE50_0">
                <vehicle id="993" pos="36.83" speed="5.85"/>
                <vehicle id="929" pos="365.80" speed="0.01"/>
            </lane>
        </edge>
        <edge id="gneE51">
            <lane id="gneE51_0">
                <vehicle id="780" pos="209.55" speed="6.15"/>
                <vehicle id="896" pos="235.41" speed="6.83"/>
                <vehicle id="811" pos="298.08" speed="0.36"/>
                <vehicle id="844" pos="305.69" speed="0.09"/>
                <vehicle id="859" pos="313.26" speed="0.05"/>
                <vehicle id="901" pos="320.79" speed="0.01"/>
                <vehicle id="691" pos="328.29" speed="0.00"/>
                <vehicle id="891" pos="335.79" speed="0.00"/>
                <vehicle id="809" pos="343.30" speed="0.00"/>
                <vehicle id="803" pos="350.80" speed="0.00"/>
                <vehicle id="800" pos="358.30" speed="0.00"/>
                <vehicle id="846" pos="365.80" speed="0.00"/>
            </lane>
        </edge>
        <edge id="gneE52">
            <lane id="gneE52_0">
                <vehicle id="969" pos="199.94" speed="6.07"/>
                <vehicle id="688" pos="243.20" speed="6.37"/>
                <vehicle id="906" pos="319.19" speed="6.49"/>
                <vehicle id="923" pos="337.47" speed="6.90"/>
            </lane>
        </edge>
        <edge id="gneE53">
            <lane id="gneE53_0">
                <vehicle id="958" pos="126.82" speed="6.50"/>
                <vehicle id="683" pos="270.93" speed="6.00"/>
                <vehicle id="955" pos="286.69" speed="6.68"/>
                <vehicle id="914" pos="320.66" speed="0.00"/>
                <vehicle id="892" pos="329.47" speed="1.32"/>
                <vehicle id="874" pos="340.86" speed="3.79"/>
            </lane>
        </edge>
        <edge id="gneE54">
            <lane id="gneE54_0">
                <vehicle id="941" pos="23.71" speed="6.37"/>
                <vehicle id="926" pos="123.58" speed="6.75"/>
                <vehicle id="922" pos="138.49" speed="5.01"/>
            </lane>
        </edge>
        <edge id="gneE55">
            <lane id="gneE55_0">
                <vehicle id="907" pos="36.08" speed="7.84"/>
                <vehicle id="950" pos="66.96" speed="7.19"/>
                <vehicle id="983" pos="128.47" speed="7.44"/>
            </lane>
        </edge>
        <edge id="gneE56">
            <lane id="gneE56_0">
                <vehicle id="755" pos="29.97" speed="8.08"/>
            </lane>
        </edge>
        <edge id="gneE57">
            <lane id="gneE57_0">
                <vehicle id="986" pos="106.78" speed="7.16"/>
            </lane>
        </edge>
        <edge id="gneE59">
            <lane id="gneE59_0">
                <vehicle id="987" pos="78.83" speed="8.21"/>
                <vehicle id="737" pos="109.68" speed="7.87"/>
            </lane>
        </edge>
        <edge id="gneE6">
            <lane id="gneE6_0">
                <vehicle id="956" pos="11.43" speed="7.20"/>
            </lane>
        </edge>
        <edge id="gneE60">
            <lane id="gneE60_0">
                <vehicle id="974" pos="167.54" speed="6.12"/>
                <vehicle id="912" pos="195.04" speed="0.00"/>
                <vehicle id="900" pos="202.54" speed="0.00"/>
                <vehicle id="940" pos="210.04" speed="0.00"/>
                <vehicle id="582" pos="217.54" speed="0.00"/>
                <vehicle id="890" pos="225.04" speed="0.00"/>
                <vehicle id="797" pos="232.54" speed="0.00"/>
                <vehicle id="887" pos="240.05" speed="0.00"/>
                <vehicle id="720" pos="247.55" speed="0.00"/>
                <vehicle id="647" pos="255.05" speed="0.00"/>
                <vehicle id="766" pos="262.71" speed="0.16"/>
                <vehicle id="765" pos="270.83" speed="0.59"/>
                <vehicle id="716" pos="281.73" speed="2.85"/>
                <vehicle id="822" pos="293.80" speed="4.09"/>
                <vehicle id="772" pos="308.51" speed="6.25"/>
                <vehicle id="749" pos="320.41" speed="1.61"/>
                <vehicle id="808" pos="329.72" speed="0.89"/>
                <vehicle id="729" pos="337.51" speed="0.13"/>
            </lane>
        </edge>
        <edge id="gneE61">
            <lane id="gneE61_0">
                <vehicle id="997" pos="22.81" speed="7.33"/>
                <vehicle id="754" pos="234.00" speed="7.17"/>
                <vehicle id="733" pos="329.50" speed="7.15"/>
            </lane>
        </edge>
        <edge id="gneE7">
            <lane id="gneE7_0">
                <vehicle id="942" pos="91.10" speed="7.89"/>
                <vehicle id="853" pos="122.36" speed="7.87"/>
                <vehicle id="624" pos="148.28" speed="8.22"/>
                <vehicle id="915" pos="210.35" speed="8.00"/>
            </lane>
        </edge>
        <edge id="gneE8">
            <lane id="gneE8_0">
                <vehicle id="990" pos="70.32" speed="7.64"/>
            </lane>
        </edge>
    </timestep>
