<?xml version="1.0"?>
<timestep time="1047.00">
        <edge id=":gneJ11_7">
            <lane id=":gneJ11_7_0">
                <vehicle id="803" pos="8.11" speed="0.01"/>
            </lane>
        </edge>
        <edge id=":gneJ11_33">
            <lane id=":gneJ11_33_0">
                <vehicle id="749" pos="21.26" speed="7.87"/>
            </lane>
        </edge>
        <edge id=":gneJ11_34">
            <lane id=":gneJ11_34_0">
                <vehicle id="808" pos="16.64" speed="4.38"/>
            </lane>
        </edge>
        <edge id=":gneJ15_15">
            <lane id=":gneJ15_15_0">
                <vehicle id="633" pos="11.74" speed="5.67"/>
            </lane>
        </edge>
        <edge id=":gneJ28_8">
            <lane id=":gneJ28_8_0">
                <vehicle id="847" pos="2.17" speed="3.21"/>
            </lane>
        </edge>
        <edge id=":gneJ3_2">
            <lane id=":gneJ3_2_0">
                <vehicle id="794" pos="4.50" speed="3.22"/>
            </lane>
        </edge>
        <edge id=":gneJ4_1">
            <lane id=":gneJ4_1_0">
                <vehicle id="872" pos="5.10" speed="7.75"/>
            </lane>
        </edge>
        <edge id=":gneJ6_1">
            <lane id=":gneJ6_1_0">
                <vehicle id="981" pos="4.89" speed="0.16"/>
            </lane>
        </edge>
        <edge id=":gneJ8_5">
            <lane id=":gneJ8_5_0">
                <vehicle id="932" pos="4.42" speed="2.55"/>
            </lane>
        </edge>
        <edge id="gneE10">
            <lane id="gneE10_0">
                <vehicle id="952" pos="24.15" speed="4.91"/>
                <vehicle id="818" pos="41.02" speed="4.99"/>
                <vehicle id="905" pos="73.76" speed="4.82"/>
                <vehicle id="920" pos="122.21" speed="5.69"/>
                <vehicle id="898" pos="138.00" speed="1.50"/>
            </lane>
        </edge>
        <edge id="gneE11">
            <lane id="gneE11_0">
                <vehicle id="980" pos="12.06" speed="8.35"/>
                <vehicle id="978" pos="33.69" speed="8.43"/>
                <vehicle id="968" pos="123.00" speed="8.55"/>
            </lane>
        </edge>
        <edge id="gneE12">
            <lane id="gneE12_0">
                <vehicle id="942" pos="36.47" speed="13.51"/>
                <vehicle id="881" pos="142.90" speed="12.70"/>
                <vehicle id="947" pos="220.89" speed="13.31"/>
            </lane>
        </edge>
        <edge id="gneE13">
            <lane id="gneE13_0">
                <vehicle id="883" pos="33.91" speed="8.99"/>
                <vehicle id="868" pos="271.17" speed="0.00"/>
                <vehicle id="860" pos="278.68" speed="0.00"/>
                <vehicle id="821" pos="286.18" speed="0.00"/>
                <vehicle id="889" pos="293.68" speed="0.00"/>
                <vehicle id="829" pos="301.18" speed="0.00"/>
            </lane>
        </edge>
        <edge id="gneE14">
            <lane id="gneE14_0">
                <vehicle id="937" pos="2.52" speed="10.47"/>
                <vehicle id="778" pos="135.46" speed="10.02"/>
                <vehicle id="972" pos="160.68" speed="0.03"/>
            </lane>
        </edge>
        <edge id="gneE15">
            <lane id="gneE15_0">
                <vehicle id="991" pos="17.65" speed="8.88"/>
                <vehicle id="977" pos="34.50" speed="8.04"/>
                <vehicle id="943" pos="153.06" speed="8.14"/>
            </lane>
        </edge>
        <edge id="gneE17">
            <lane id="gneE17_0">
                <vehicle id="986" pos="0.22" speed="8.65"/>
                <vehicle id="992" pos="271.24" speed="0.00"/>
                <vehicle id="988" pos="280.04" speed="1.30"/>
            </lane>
        </edge>
        <edge id="gneE18">
            <lane id="gneE18_0">
                <vehicle id="956" pos="67.18" speed="9.60"/>
                <vehicle id="807" pos="142.65" speed="9.38"/>
                <vehicle id="951" pos="167.57" speed="9.78"/>
                <vehicle id="979" pos="239.47" speed="9.23"/>
            </lane>
        </edge>
        <edge id="gneE19">
            <lane id="gneE19_0">
                <vehicle id="957" pos="167.31" speed="12.45"/>
                <vehicle id="651" pos="267.58" speed="0.17"/>
                <vehicle id="966" pos="275.27" speed="0.12"/>
                <vehicle id="967" pos="282.84" speed="0.00"/>
            </lane>
        </edge>
        <edge id="gneE20">
            <lane id="gneE20_0">
                <vehicle id="902" pos="53.90" speed="8.01"/>
                <vehicle id="828" pos="110.23" speed="8.71"/>
                <vehicle id="917" pos="155.28" speed="8.60"/>
                <vehicle id="817" pos="199.44" speed="8.10"/>
                <vehicle id="846" pos="252.44" speed="8.85"/>
            </lane>
        </edge>
        <edge id="gneE23">
            <lane id="gneE23_0">
                <vehicle id="729" pos="115.24" speed="7.96"/>
            </lane>
        </edge>
        <edge id="gneE25">
            <lane id="gneE25_0">
                <vehicle id="813" pos="58.67" speed="9.79"/>
                <vehicle id="843" pos="249.91" speed="9.89"/>
                <vehicle id="842" pos="275.64" speed="0.82"/>
                <vehicle id="996" pos="283.33" speed="0.00"/>
                <vehicle id="721" pos="290.83" speed="0.00"/>
            </lane>
        </edge>
        <edge id="gneE26">
            <lane id="gneE26_0">
                <vehicle id="793" pos="161.27" speed="4.72"/>
                <vehicle id="735" pos="170.76" speed="0.02"/>
                <vehicle id="982" pos="178.29" speed="0.01"/>
                <vehicle id="895" pos="185.81" speed="0.01"/>
                <vehicle id="970" pos="193.31" speed="0.00"/>
                <vehicle id="935" pos="200.82" speed="0.00"/>
                <vehicle id="696" pos="208.32" speed="0.00"/>
                <vehicle id="939" pos="215.82" speed="0.00"/>
                <vehicle id="931" pos="223.32" speed="0.00"/>
                <vehicle id="719" pos="230.82" speed="0.00"/>
                <vehicle id="795" pos="238.32" speed="0.00"/>
                <vehicle id="850" pos="245.82" speed="0.00"/>
                <vehicle id="834" pos="253.32" speed="0.00"/>
                <vehicle id="801" pos="260.82" speed="0.00"/>
                <vehicle id="744" pos="268.33" speed="0.00"/>
                <vehicle id="799" pos="276.91" speed="1.08"/>
                <vehicle id="638" pos="288.51" speed="3.54"/>
            </lane>
        </edge>
        <edge id="gneE27">
            <lane id="gneE27_0">
                <vehicle id="878" pos="12.53" speed="4.93"/>
                <vehicle id="861" pos="98.55" speed="5.47"/>
                <vehicle id="904" pos="112.20" speed="5.19"/>
            </lane>
        </edge>
        <edge id="gneE28">
            <lane id="gneE28_0">
                <vehicle id="999" pos="30.91" speed="7.73"/>
                <vehicle id="963" pos="70.72" speed="8.92"/>
                <vehicle id="961" pos="94.27" speed="8.07"/>
                <vehicle id="848" pos="127.90" speed="8.87"/>
            </lane>
        </edge>
        <edge id="gneE3">
            <lane id="gneE3_0">
                <vehicle id="733" pos="9.53" speed="9.03"/>
                <vehicle id="987" pos="28.87" speed="8.89"/>
                <vehicle id="737" pos="107.15" speed="8.91"/>
            </lane>
        </edge>
        <edge id="gneE30">
            <lane id="gneE30_0">
                <vehicle id="856" pos="67.62" speed="7.96"/>
                <vehicle id="759" pos="162.04" speed="8.97"/>
            </lane>
        </edge>
        <edge id="gneE31">
            <lane id="gneE31_0">
                <vehicle id="886" pos="20.25" speed="8.49"/>
                <vehicle id="875" pos="47.77" speed="8.20"/>
                <vehicle id="845" pos="73.09" speed="8.63"/>
                <vehicle id="830" pos="105.87" speed="8.14"/>
                <vehicle id="994" pos="128.83" speed="8.81"/>
                <vehicle id="827" pos="148.25" speed="7.97"/>
                <vehicle id="934" pos="169.32" speed="7.77"/>
                <vehicle id="853" pos="194.82" speed="7.73"/>
                <vehicle id="915" pos="282.75" speed="8.39"/>
            </lane>
        </edge>
        <edge id="gneE32">
            <lane id="gneE32_0">
                <vehicle id="841" pos="37.51" speed="7.40"/>
                <vehicle id="927" pos="57.81" speed="6.73"/>
                <vehicle id="867" pos="130.52" speed="6.85"/>
            </lane>
        </edge>
        <edge id="gneE38">
            <lane id="gneE38_0">
                <vehicle id="929" pos="49.40" speed="7.94"/>
                <vehicle id="909" pos="81.92" speed="7.97"/>
                <vehicle id="908" pos="114.05" speed="8.98"/>
                <vehicle id="954" pos="169.50" speed="8.05"/>
                <vehicle id="953" pos="190.18" speed="8.37"/>
                <vehicle id="975" pos="217.68" speed="8.60"/>
                <vehicle id="962" pos="312.59" speed="3.39"/>
                <vehicle id="928" pos="320.48" speed="0.00"/>
                <vehicle id="921" pos="327.98" speed="0.00"/>
                <vehicle id="925" pos="335.48" speed="0.00"/>
                <vehicle id="918" pos="342.98" speed="0.00"/>
            </lane>
        </edge>
        <edge id="gneE41">
            <lane id="gneE41_0">
                <vehicle id="995" pos="40.00" speed="8.92"/>
            </lane>
        </edge>
        <edge id="gneE42">
            <lane id="gneE42_0">
                <vehicle id="941" pos="8.94" speed="6.84"/>
                <vehicle id="823" pos="75.86" speed="7.85"/>
                <vehicle id="949" pos="102.70" speed="7.37"/>
                <vehicle id="926" pos="119.09" speed="7.22"/>
                <vehicle id="922" pos="143.33" speed="7.73"/>
            </lane>
        </edge>
        <edge id="gneE43">
            <lane id="gneE43_0">
                <vehicle id="819" pos="69.09" speed="5.91"/>
                <vehicle id="916" pos="239.34" speed="0.12"/>
                <vehicle id="930" pos="247.78" speed="0.93"/>
                <vehicle id="839" pos="257.35" speed="1.92"/>
                <vehicle id="836" pos="269.24" speed="3.90"/>
                <vehicle id="837" pos="281.69" speed="3.10"/>
                <vehicle id="894" pos="291.07" speed="1.33"/>
                <vehicle id="657" pos="299.01" speed="0.34"/>
                <vehicle id="863" pos="306.72" speed="0.07"/>
            </lane>
        </edge>
        <edge id="gneE45">
            <lane id="gneE45_0">
                <vehicle id="946" pos="80.68" speed="8.82"/>
                <vehicle id="864" pos="106.58" speed="8.40"/>
                <vehicle id="857" pos="125.34" speed="8.07"/>
                <vehicle id="693" pos="214.08" speed="8.04"/>
                <vehicle id="653" pos="232.22" speed="8.86"/>
            </lane>
        </edge>
        <edge id="gneE46">
            <lane id="gneE46_0">
                <vehicle id="852" pos="53.73" speed="9.50"/>
                <vehicle id="747" pos="77.65" speed="9.61"/>
            </lane>
        </edge>
        <edge id="gneE47">
            <lane id="gneE47_0">
                <vehicle id="750" pos="93.76" speed="7.93"/>
                <vehicle id="804" pos="136.27" speed="8.62"/>
            </lane>
        </edge>
        <edge id="gneE48">
            <lane id="gneE48_0">
                <vehicle id="802" pos="118.18" speed="5.81"/>
                <vehicle id="976" pos="237.13" speed="0.00"/>
                <vehicle id="879" pos="244.63" speed="0.00"/>
                <vehicle id="871" pos="252.13" speed="0.00"/>
                <vehicle id="903" pos="259.63" speed="0.00"/>
                <vehicle id="897" pos="267.13" speed="0.00"/>
                <vehicle id="882" pos="274.63" speed="0.00"/>
                <vehicle id="796" pos="282.13" speed="0.00"/>
                <vehicle id="791" pos="289.63" speed="0.00"/>
                <vehicle id="858" pos="297.14" speed="0.00"/>
                <vehicle id="777" pos="304.64" speed="0.00"/>
                <vehicle id="705" pos="312.14" speed="0.00"/>
                <vehicle id="790" pos="319.64" speed="0.00"/>
            </lane>
        </edge>
        <edge id="gneE49">
            <lane id="gneE49_0">
                <vehicle id="936" pos="3.25" speed="6.75"/>
            </lane>
        </edge>
        <edge id="gneE5">
            <lane id="gneE5_0">
                <vehicle id="924" pos="70.00" speed="5.31"/>
                <vehicle id="B1_3" pos="141.70" speed="5.81"/>
            </lane>
        </edge>
        <edge id="gneE50">
            <lane id="gneE50_0">
                <vehicle id="993" pos="286.24" speed="5.85"/>
            </lane>
        </edge>
        <edge id="gneE51">
            <lane id="gneE51_0">
                <vehicle id="780" pos="290.79" speed="0.00"/>
                <vehicle id="896" pos="298.64" speed="0.35"/>
                <vehicle id="811" pos="307.25" speed="1.07"/>
                <vehicle id="844" pos="315.62" speed="0.82"/>
                <vehicle id="859" pos="326.61" speed="3.03"/>
                <vehicle id="901" pos="338.13" speed="3.23"/>
                <vehicle id="691" pos="350.20" speed="3.39"/>
                <vehicle id="891" pos="358.21" speed="0.11"/>
                <vehicle id="809" pos="365.79" speed="0.06"/>
            </lane>
        </edge>
        <edge id="gneE52">
            <lane id="gneE52_0">
                <vehicle id="866" pos="61.13" speed="6.16"/>
                <vehicle id="753" pos="80.31" speed="6.14"/>
                <vehicle id="745" pos="122.96" speed="5.95"/>
            </lane>
        </edge>
        <edge id="gneE53">
            <lane id="gneE53_0">
                <vehicle id="998" pos="20.01" speed="6.03"/>
                <vehicle id="983" pos="279.58" speed="6.71"/>
                <vehicle id="958" pos="305.65" speed="0.00"/>
                <vehicle id="683" pos="313.16" speed="0.00"/>
                <vehicle id="955" pos="320.66" speed="0.00"/>
                <vehicle id="914" pos="328.16" speed="0.00"/>
                <vehicle id="892" pos="335.66" speed="0.00"/>
                <vehicle id="874" pos="343.16" speed="0.00"/>
            </lane>
        </edge>
        <edge id="gneE54">
            <lane id="gneE54_0">
                <vehicle id="969" pos="138.34" speed="5.77"/>
            </lane>
        </edge>
        <edge id="gneE58">
            <lane id="gneE58_0">
                <vehicle id="913" pos="13.55" speed="7.32"/>
                <vehicle id="655" pos="87.03" speed="7.64"/>
                <vehicle id="948" pos="160.79" speed="6.93"/>
            </lane>
        </edge>
        <edge id="gneE59">
            <lane id="gneE59_0">
                <vehicle id="997" pos="24.70" speed="8.84"/>
                <vehicle id="754" pos="260.86" speed="8.32"/>
            </lane>
        </edge>
        <edge id="gneE6">
            <lane id="gneE6_0">
                <vehicle id="990" pos="102.56" speed="7.88"/>
            </lane>
        </edge>
        <edge id="gneE60">
            <lane id="gneE60_0">
                <vehicle id="974" pos="210.45" speed="0.30"/>
                <vehicle id="912" pos="219.86" speed="1.68"/>
                <vehicle id="900" pos="228.69" speed="0.68"/>
                <vehicle id="940" pos="237.47" speed="0.81"/>
                <vehicle id="582" pos="245.72" speed="0.67"/>
                <vehicle id="890" pos="254.16" speed="0.78"/>
                <vehicle id="797" pos="262.22" speed="0.16"/>
                <vehicle id="887" pos="269.95" speed="0.11"/>
                <vehicle id="720" pos="277.51" speed="0.02"/>
                <vehicle id="647" pos="285.04" speed="0.02"/>
                <vehicle id="766" pos="292.85" speed="0.31"/>
                <vehicle id="765" pos="301.02" speed="0.57"/>
                <vehicle id="716" pos="310.29" speed="1.35"/>
                <vehicle id="822" pos="323.03" speed="4.07"/>
                <vehicle id="772" pos="336.93" speed="4.04"/>
            </lane>
        </edge>
        <edge id="gneE61">
            <lane id="gneE61_0">
                <vehicle id="800" pos="35.55" speed="7.33"/>
                <vehicle id="944" pos="203.41" speed="7.69"/>
                <vehicle id="757" pos="310.72" speed="7.91"/>
            </lane>
        </edge>
        <edge id="gneE7">
            <lane id="gneE7_0">
                <vehicle id="810" pos="10.70" speed="8.15"/>
                <vehicle id="984" pos="55.06" speed="8.11"/>
                <vehicle id="919" pos="97.21" speed="8.49"/>
                <vehicle id="959" pos="154.12" speed="8.33"/>
                <vehicle id="945" pos="180.98" speed="8.70"/>
                <vehicle id="873" pos="216.05" speed="8.69"/>
                <vehicle id="899" pos="237.58" speed="8.86"/>
                <vehicle id="964" pos="261.30" speed="7.97"/>
                <vehicle id="877" pos="299.08" speed="8.89"/>
            </lane>
        </edge>
    </timestep>
