<?xml version="1.0"?>
<timestep time="1049.00">
        <edge id=":gneJ11_7">
            <lane id=":gneJ11_7_0">
                <vehicle id="803" pos="9.77" speed="1.66"/>
            </lane>
        </edge>
        <edge id=":gneJ11_32">
            <lane id=":gneJ11_32_0">
                <vehicle id="772" pos="13.72" speed="8.35"/>
            </lane>
        </edge>
        <edge id=":gneJ15_18">
            <lane id=":gneJ15_18_0">
                <vehicle id="848" pos="2.11" speed="6.45"/>
            </lane>
        </edge>
        <edge id=":gneJ28_8">
            <lane id=":gneJ28_8_0">
                <vehicle id="847" pos="15.22" speed="7.78"/>
            </lane>
        </edge>
        <edge id=":gneJ3_0">
            <lane id=":gneJ3_0_0">
                <vehicle id="988" pos="0.10" speed="4.31"/>
            </lane>
        </edge>
        <edge id=":gneJ3_2">
            <lane id=":gneJ3_2_0">
                <vehicle id="794" pos="16.52" speed="6.73"/>
            </lane>
        </edge>
        <edge id=":gneJ6_1">
            <lane id=":gneJ6_1_0">
                <vehicle id="981" pos="4.90" speed="0.00"/>
            </lane>
        </edge>
        <edge id=":gneJ8_3">
            <lane id=":gneJ8_3_0">
                <vehicle id="943" pos="2.05" speed="5.89"/>
            </lane>
        </edge>
        <edge id="gneE10">
            <lane id="gneE10_0">
                <vehicle id="952" pos="35.01" speed="5.62"/>
                <vehicle id="818" pos="51.22" speed="4.86"/>
                <vehicle id="905" pos="84.53" speed="5.60"/>
                <vehicle id="920" pos="131.30" speed="3.50"/>
                <vehicle id="898" pos="138.92" speed="0.03"/>
            </lane>
        </edge>
        <edge id="gneE11">
            <lane id="gneE11_0">
                <vehicle id="980" pos="28.87" speed="8.34"/>
                <vehicle id="978" pos="50.70" speed="8.50"/>
                <vehicle id="968" pos="138.04" speed="6.89"/>
            </lane>
        </edge>
        <edge id="gneE12">
            <lane id="gneE12_0">
                <vehicle id="932" pos="4.48" speed="6.64"/>
                <vehicle id="942" pos="62.36" speed="12.92"/>
                <vehicle id="881" pos="170.06" speed="13.53"/>
                <vehicle id="947" pos="248.33" speed="13.82"/>
            </lane>
        </edge>
        <edge id="gneE13">
            <lane id="gneE13_0">
                <vehicle id="883" pos="52.36" speed="9.59"/>
                <vehicle id="868" pos="271.17" speed="0.00"/>
                <vehicle id="860" pos="278.68" speed="0.00"/>
                <vehicle id="821" pos="286.18" speed="0.00"/>
                <vehicle id="889" pos="293.68" speed="0.00"/>
                <vehicle id="829" pos="301.18" speed="0.00"/>
            </lane>
        </edge>
        <edge id="gneE14">
            <lane id="gneE14_0">
                <vehicle id="937" pos="22.99" speed="10.28"/>
                <vehicle id="778" pos="150.63" speed="5.33"/>
                <vehicle id="972" pos="160.69" speed="0.00"/>
            </lane>
        </edge>
        <edge id="gneE15">
            <lane id="gneE15_0">
                <vehicle id="991" pos="33.03" speed="7.83"/>
                <vehicle id="977" pos="50.92" speed="7.71"/>
            </lane>
        </edge>
        <edge id="gneE17">
            <lane id="gneE17_0">
                <vehicle id="986" pos="18.43" speed="8.94"/>
                <vehicle id="992" pos="273.96" speed="1.81"/>
            </lane>
        </edge>
        <edge id="gneE18">
            <lane id="gneE18_0">
                <vehicle id="956" pos="85.22" speed="8.73"/>
                <vehicle id="807" pos="160.55" speed="8.97"/>
                <vehicle id="951" pos="186.63" speed="9.17"/>
                <vehicle id="979" pos="257.54" speed="9.10"/>
            </lane>
        </edge>
        <edge id="gneE19">
            <lane id="gneE19_0">
                <vehicle id="957" pos="192.18" speed="12.02"/>
                <vehicle id="651" pos="267.74" speed="0.07"/>
                <vehicle id="966" pos="275.33" speed="0.01"/>
                <vehicle id="967" pos="282.84" speed="0.00"/>
            </lane>
        </edge>
        <edge id="gneE20">
            <lane id="gneE20_0">
                <vehicle id="902" pos="70.53" speed="8.09"/>
                <vehicle id="828" pos="127.69" speed="8.96"/>
                <vehicle id="917" pos="171.56" speed="8.05"/>
                <vehicle id="817" pos="216.30" speed="8.05"/>
                <vehicle id="846" pos="268.79" speed="8.59"/>
            </lane>
        </edge>
        <edge id="gneE23">
            <lane id="gneE23_0">
                <vehicle id="808" pos="8.21" speed="7.09"/>
                <vehicle id="729" pos="129.32" speed="7.25"/>
            </lane>
        </edge>
        <edge id="gneE24">
            <lane id="gneE24_0">
                <vehicle id="638" pos="5.43" speed="7.62"/>
            </lane>
        </edge>
        <edge id="gneE25">
            <lane id="gneE25_0">
                <vehicle id="813" pos="76.60" speed="8.84"/>
                <vehicle id="843" pos="265.55" speed="6.35"/>
                <vehicle id="842" pos="275.82" speed="0.00"/>
                <vehicle id="996" pos="283.33" speed="0.00"/>
                <vehicle id="721" pos="290.83" speed="0.00"/>
            </lane>
        </edge>
        <edge id="gneE26">
            <lane id="gneE26_0">
                <vehicle id="793" pos="163.13" speed="0.57"/>
                <vehicle id="735" pos="170.80" speed="0.01"/>
                <vehicle id="982" pos="178.31" speed="0.00"/>
                <vehicle id="895" pos="185.81" speed="0.00"/>
                <vehicle id="970" pos="193.32" speed="0.00"/>
                <vehicle id="935" pos="200.82" speed="0.00"/>
                <vehicle id="696" pos="208.32" speed="0.00"/>
                <vehicle id="939" pos="215.82" speed="0.00"/>
                <vehicle id="931" pos="223.32" speed="0.00"/>
                <vehicle id="719" pos="230.82" speed="0.00"/>
                <vehicle id="795" pos="238.32" speed="0.00"/>
                <vehicle id="850" pos="245.82" speed="0.00"/>
                <vehicle id="834" pos="253.32" speed="0.00"/>
                <vehicle id="801" pos="261.26" speed="0.43"/>
                <vehicle id="744" pos="270.93" speed="1.91"/>
                <vehicle id="799" pos="284.45" speed="4.74"/>
            </lane>
        </edge>
        <edge id="gneE27">
            <lane id="gneE27_0">
                <vehicle id="633" pos="9.86" speed="5.34"/>
                <vehicle id="878" pos="23.05" speed="4.87"/>
                <vehicle id="861" pos="108.37" speed="4.31"/>
                <vehicle id="904" pos="123.07" speed="5.89"/>
            </lane>
        </edge>
        <edge id="gneE28">
            <lane id="gneE28_0">
                <vehicle id="915" pos="4.26" speed="8.85"/>
                <vehicle id="999" pos="46.76" speed="7.89"/>
                <vehicle id="963" pos="86.94" speed="7.83"/>
                <vehicle id="961" pos="110.49" speed="8.31"/>
            </lane>
        </edge>
        <edge id="gneE3">
            <lane id="gneE3_0">
                <vehicle id="733" pos="28.33" speed="9.83"/>
                <vehicle id="987" pos="47.26" speed="9.36"/>
                <vehicle id="737" pos="126.24" speed="9.67"/>
            </lane>
        </edge>
        <edge id="gneE30">
            <lane id="gneE30_0">
                <vehicle id="856" pos="84.24" speed="8.84"/>
                <vehicle id="759" pos="178.18" speed="8.07"/>
            </lane>
        </edge>
        <edge id="gneE31">
            <lane id="gneE31_0">
                <vehicle id="877" pos="4.28" speed="8.73"/>
                <vehicle id="886" pos="37.55" speed="8.51"/>
                <vehicle id="875" pos="63.56" speed="7.92"/>
                <vehicle id="845" pos="89.90" speed="7.82"/>
                <vehicle id="830" pos="122.87" speed="8.99"/>
                <vehicle id="994" pos="144.63" speed="7.76"/>
                <vehicle id="827" pos="164.76" speed="8.48"/>
                <vehicle id="934" pos="186.37" speed="8.22"/>
                <vehicle id="853" pos="211.46" speed="8.68"/>
            </lane>
        </edge>
        <edge id="gneE32">
            <lane id="gneE32_0">
                <vehicle id="841" pos="52.01" speed="7.51"/>
                <vehicle id="927" pos="72.75" speed="7.90"/>
                <vehicle id="867" pos="145.67" speed="7.79"/>
            </lane>
        </edge>
        <edge id="gneE38">
            <lane id="gneE38_0">
                <vehicle id="922" pos="2.77" speed="8.63"/>
                <vehicle id="929" pos="66.39" speed="8.60"/>
                <vehicle id="909" pos="99.10" speed="8.18"/>
                <vehicle id="908" pos="130.41" speed="8.61"/>
                <vehicle id="954" pos="186.55" speed="8.40"/>
                <vehicle id="953" pos="207.32" speed="8.64"/>
                <vehicle id="975" pos="233.31" speed="7.90"/>
                <vehicle id="962" pos="312.96" speed="0.13"/>
                <vehicle id="928" pos="320.48" speed="0.00"/>
                <vehicle id="921" pos="327.98" speed="0.00"/>
                <vehicle id="925" pos="335.48" speed="0.00"/>
                <vehicle id="918" pos="342.98" speed="0.00"/>
            </lane>
        </edge>
        <edge id="gneE4">
            <lane id="gneE4_0">
                <vehicle id="872" pos="12.48" speed="8.77"/>
            </lane>
        </edge>
        <edge id="gneE41">
            <lane id="gneE41_0">
                <vehicle id="995" pos="56.77" speed="8.58"/>
            </lane>
        </edge>
        <edge id="gneE42">
            <lane id="gneE42_0">
                <vehicle id="941" pos="24.53" speed="7.65"/>
                <vehicle id="823" pos="89.88" speed="6.94"/>
                <vehicle id="949" pos="116.69" speed="6.73"/>
                <vehicle id="926" pos="133.27" speed="6.75"/>
            </lane>
        </edge>
        <edge id="gneE43">
            <lane id="gneE43_0">
                <vehicle id="819" pos="82.35" speed="6.59"/>
                <vehicle id="916" pos="241.01" speed="1.02"/>
                <vehicle id="930" pos="253.15" speed="3.84"/>
                <vehicle id="839" pos="265.39" speed="4.60"/>
                <vehicle id="836" pos="275.12" speed="1.76"/>
                <vehicle id="837" pos="283.93" speed="0.71"/>
                <vehicle id="894" pos="291.60" speed="0.16"/>
                <vehicle id="657" pos="299.20" speed="0.05"/>
                <vehicle id="863" pos="306.73" speed="0.00"/>
            </lane>
        </edge>
        <edge id="gneE45">
            <lane id="gneE45_0">
                <vehicle id="946" pos="97.03" speed="8.43"/>
                <vehicle id="864" pos="122.57" speed="7.77"/>
                <vehicle id="857" pos="142.95" speed="8.97"/>
                <vehicle id="693" pos="230.17" speed="8.39"/>
                <vehicle id="653" pos="248.77" speed="7.96"/>
            </lane>
        </edge>
        <edge id="gneE46">
            <lane id="gneE46_0">
                <vehicle id="852" pos="72.08" speed="9.21"/>
                <vehicle id="747" pos="96.22" speed="9.46"/>
            </lane>
        </edge>
        <edge id="gneE47">
            <lane id="gneE47_0">
                <vehicle id="969" pos="0.52" speed="8.63"/>
                <vehicle id="750" pos="111.35" speed="8.63"/>
                <vehicle id="804" pos="153.35" speed="8.89"/>
            </lane>
        </edge>
        <edge id="gneE48">
            <lane id="gneE48_0">
                <vehicle id="802" pos="130.40" speed="6.27"/>
                <vehicle id="976" pos="237.13" speed="0.00"/>
                <vehicle id="879" pos="244.63" speed="0.00"/>
                <vehicle id="871" pos="252.13" speed="0.00"/>
                <vehicle id="903" pos="259.63" speed="0.00"/>
                <vehicle id="897" pos="267.13" speed="0.00"/>
                <vehicle id="882" pos="274.63" speed="0.00"/>
                <vehicle id="796" pos="282.13" speed="0.00"/>
                <vehicle id="791" pos="289.63" speed="0.00"/>
                <vehicle id="858" pos="297.14" speed="0.00"/>
                <vehicle id="777" pos="304.64" speed="0.00"/>
                <vehicle id="705" pos="312.14" speed="0.00"/>
                <vehicle id="790" pos="319.64" speed="0.00"/>
            </lane>
        </edge>
        <edge id="gneE49">
            <lane id="gneE49_0">
                <vehicle id="936" pos="17.57" speed="7.38"/>
            </lane>
        </edge>
        <edge id="gneE5">
            <lane id="gneE5_0">
                <vehicle id="924" pos="81.21" speed="5.73"/>
            </lane>
        </edge>
        <edge id="gneE50">
            <lane id="gneE50_0">
                <vehicle id="749" pos="3.65" speed="4.72"/>
                <vehicle id="993" pos="297.16" speed="5.86"/>
            </lane>
        </edge>
        <edge id="gneE51">
            <lane id="gneE51_0">
                <vehicle id="780" pos="291.77" speed="0.65"/>
                <vehicle id="896" pos="300.38" speed="0.96"/>
                <vehicle id="811" pos="310.36" speed="2.34"/>
                <vehicle id="844" pos="321.45" speed="3.39"/>
                <vehicle id="859" pos="334.18" speed="4.37"/>
                <vehicle id="901" pos="342.93" speed="0.36"/>
                <vehicle id="691" pos="350.72" speed="0.15"/>
                <vehicle id="891" pos="358.29" speed="0.01"/>
                <vehicle id="809" pos="365.80" speed="0.00"/>
            </lane>
        </edge>
        <edge id="gneE52">
            <lane id="gneE52_0">
                <vehicle id="866" pos="73.34" speed="6.19"/>
                <vehicle id="753" pos="93.02" speed="6.94"/>
                <vehicle id="745" pos="135.26" speed="5.97"/>
            </lane>
        </edge>
        <edge id="gneE53">
            <lane id="gneE53_0">
                <vehicle id="998" pos="33.08" speed="6.30"/>
                <vehicle id="983" pos="292.12" speed="6.48"/>
                <vehicle id="958" pos="305.65" speed="0.00"/>
                <vehicle id="683" pos="313.16" speed="0.00"/>
                <vehicle id="955" pos="320.66" speed="0.00"/>
                <vehicle id="914" pos="328.16" speed="0.00"/>
                <vehicle id="892" pos="335.66" speed="0.00"/>
                <vehicle id="874" pos="343.16" speed="0.00"/>
            </lane>
        </edge>
        <edge id="gneE58">
            <lane id="gneE58_0">
                <vehicle id="913" pos="28.11" speed="6.70"/>
                <vehicle id="655" pos="101.89" speed="7.95"/>
                <vehicle id="948" pos="174.66" speed="7.03"/>
            </lane>
        </edge>
        <edge id="gneE59">
            <lane id="gneE59_0">
                <vehicle id="997" pos="41.27" speed="7.87"/>
                <vehicle id="754" pos="277.11" speed="7.75"/>
            </lane>
        </edge>
        <edge id="gneE6">
            <lane id="gneE6_0">
                <vehicle id="990" pos="117.74" speed="7.34"/>
            </lane>
        </edge>
        <edge id="gneE60">
            <lane id="gneE60_0">
                <vehicle id="974" pos="212.78" speed="0.57"/>
                <vehicle id="912" pos="222.22" speed="1.43"/>
                <vehicle id="900" pos="230.22" speed="0.36"/>
                <vehicle id="940" pos="239.09" speed="1.04"/>
                <vehicle id="582" pos="247.05" speed="0.43"/>
                <vehicle id="890" pos="254.75" speed="0.16"/>
                <vehicle id="797" pos="262.43" speed="0.08"/>
                <vehicle id="887" pos="270.01" speed="0.02"/>
                <vehicle id="720" pos="277.65" speed="0.12"/>
                <vehicle id="647" pos="285.85" speed="0.65"/>
                <vehicle id="766" pos="294.43" speed="1.03"/>
                <vehicle id="765" pos="304.24" speed="2.29"/>
                <vehicle id="716" pos="317.97" speed="4.97"/>
                <vehicle id="822" pos="333.91" speed="5.90"/>
            </lane>
        </edge>
        <edge id="gneE61">
            <lane id="gneE61_0">
                <vehicle id="800" pos="50.31" speed="6.91"/>
                <vehicle id="944" pos="217.80" speed="6.98"/>
                <vehicle id="757" pos="325.54" speed="7.06"/>
            </lane>
        </edge>
        <edge id="gneE7">
            <lane id="gneE7_0">
                <vehicle id="810" pos="28.44" speed="8.90"/>
                <vehicle id="984" pos="71.38" speed="8.09"/>
                <vehicle id="919" pos="113.09" speed="7.90"/>
                <vehicle id="959" pos="170.28" speed="7.92"/>
                <vehicle id="945" pos="198.30" speed="8.35"/>
                <vehicle id="873" pos="231.67" speed="7.84"/>
                <vehicle id="899" pos="253.77" speed="8.47"/>
                <vehicle id="964" pos="278.43" speed="8.99"/>
            </lane>
        </edge>
    </timestep>
