<?xml version="1.0"?>
<timestep time="1054.00">
        <edge id=":gneJ11_7">
            <lane id=":gneJ11_7_0">
                <vehicle id="891" pos="4.15" speed="5.63"/>
            </lane>
        </edge>
        <edge id=":gneJ11_36">
            <lane id=":gneJ11_36_0">
                <vehicle id="966" pos="2.33" speed="4.94"/>
            </lane>
        </edge>
        <edge id=":gneJ18_0">
            <lane id=":gneJ18_0_0">
                <vehicle id="949" pos="9.33" speed="8.80"/>
            </lane>
        </edge>
        <edge id=":gneJ4_5">
            <lane id=":gneJ4_5_0">
                <vehicle id="990" pos="3.29" speed="5.42"/>
            </lane>
        </edge>
        <edge id=":gneJ8_2">
            <lane id=":gneJ8_2_0">
                <vehicle id="721" pos="9.99" speed="5.14"/>
            </lane>
        </edge>
        <edge id=":gneJ8_8">
            <lane id=":gneJ8_8_0">
                <vehicle id="829" pos="9.76" speed="4.94"/>
            </lane>
        </edge>
        <edge id="gneE10">
            <lane id="gneE10_0">
                <vehicle id="952" pos="61.69" speed="5.82"/>
                <vehicle id="818" pos="79.67" speed="5.25"/>
                <vehicle id="905" pos="111.49" speed="5.70"/>
                <vehicle id="920" pos="131.44" speed="0.00"/>
                <vehicle id="898" pos="138.94" speed="0.00"/>
            </lane>
        </edge>
        <edge id="gneE11">
            <lane id="gneE11_0">
                <vehicle id="981" pos="22.58" speed="9.00"/>
                <vehicle id="980" pos="70.92" speed="7.81"/>
                <vehicle id="978" pos="92.50" speed="7.90"/>
            </lane>
        </edge>
        <edge id="gneE12">
            <lane id="gneE12_0">
                <vehicle id="932" pos="62.87" speed="13.49"/>
                <vehicle id="942" pos="128.27" speed="13.79"/>
                <vehicle id="881" pos="234.91" speed="12.99"/>
                <vehicle id="947" pos="300.03" speed="4.02"/>
            </lane>
        </edge>
        <edge id="gneE13">
            <lane id="gneE13_0">
                <vehicle id="883" pos="98.90" speed="9.10"/>
                <vehicle id="868" pos="271.17" speed="0.00"/>
                <vehicle id="860" pos="278.68" speed="0.00"/>
                <vehicle id="821" pos="287.22" speed="1.04"/>
                <vehicle id="889" pos="298.07" speed="3.26"/>
            </lane>
        </edge>
        <edge id="gneE14">
            <lane id="gneE14_0">
                <vehicle id="968" pos="38.52" speed="10.80"/>
                <vehicle id="937" pos="73.96" speed="10.37"/>
                <vehicle id="778" pos="153.17" speed="0.02"/>
                <vehicle id="972" pos="160.69" speed="0.00"/>
            </lane>
        </edge>
        <edge id="gneE15">
            <lane id="gneE15_0">
                <vehicle id="979" pos="1.41" speed="7.44"/>
                <vehicle id="991" pos="73.37" speed="8.94"/>
                <vehicle id="977" pos="93.04" speed="8.47"/>
            </lane>
        </edge>
        <edge id="gneE17">
            <lane id="gneE17_0">
                <vehicle id="846" pos="20.88" speed="8.98"/>
                <vehicle id="986" pos="65.45" speed="9.03"/>
            </lane>
        </edge>
        <edge id="gneE18">
            <lane id="gneE18_0">
                <vehicle id="956" pos="131.24" speed="9.11"/>
                <vehicle id="807" pos="208.00" speed="9.79"/>
                <vehicle id="951" pos="233.47" speed="9.60"/>
            </lane>
        </edge>
        <edge id="gneE19">
            <lane id="gneE19_0">
                <vehicle id="957" pos="251.65" speed="10.78"/>
                <vehicle id="651" pos="271.90" speed="2.98"/>
            </lane>
        </edge>
        <edge id="gneE20">
            <lane id="gneE20_0">
                <vehicle id="803" pos="16.83" speed="8.00"/>
                <vehicle id="902" pos="113.36" speed="8.71"/>
                <vehicle id="828" pos="169.92" speed="8.21"/>
                <vehicle id="917" pos="212.50" speed="7.94"/>
                <vehicle id="817" pos="258.79" speed="8.00"/>
            </lane>
        </edge>
        <edge id="gneE23">
            <lane id="gneE23_0">
                <vehicle id="967" pos="0.14" speed="7.25"/>
                <vehicle id="808" pos="44.41" speed="7.14"/>
                <vehicle id="729" pos="164.09" speed="6.80"/>
            </lane>
        </edge>
        <edge id="gneE24">
            <lane id="gneE24_0">
                <vehicle id="961" pos="2.04" speed="10.29"/>
                <vehicle id="638" pos="62.75" speed="12.50"/>
            </lane>
        </edge>
        <edge id="gneE25">
            <lane id="gneE25_0">
                <vehicle id="813" pos="125.38" speed="9.77"/>
                <vehicle id="843" pos="268.33" speed="0.00"/>
                <vehicle id="842" pos="276.90" speed="1.07"/>
                <vehicle id="996" pos="287.49" speed="2.77"/>
            </lane>
        </edge>
        <edge id="gneE26">
            <lane id="gneE26_0">
                <vehicle id="943" pos="27.39" speed="6.44"/>
                <vehicle id="793" pos="163.31" speed="0.01"/>
                <vehicle id="735" pos="170.81" speed="0.00"/>
                <vehicle id="982" pos="178.31" speed="0.00"/>
                <vehicle id="895" pos="185.81" speed="0.00"/>
                <vehicle id="970" pos="193.32" speed="0.00"/>
                <vehicle id="935" pos="200.82" speed="0.00"/>
                <vehicle id="696" pos="208.32" speed="0.00"/>
                <vehicle id="939" pos="215.82" speed="0.00"/>
                <vehicle id="931" pos="223.39" speed="0.07"/>
                <vehicle id="719" pos="231.54" speed="0.59"/>
                <vehicle id="795" pos="242.68" speed="3.27"/>
                <vehicle id="850" pos="254.57" speed="4.21"/>
                <vehicle id="834" pos="267.08" speed="4.08"/>
                <vehicle id="801" pos="275.55" speed="0.90"/>
                <vehicle id="744" pos="283.32" speed="0.02"/>
                <vehicle id="799" pos="290.83" speed="0.00"/>
            </lane>
        </edge>
        <edge id="gneE27">
            <lane id="gneE27_0">
                <vehicle id="863" pos="4.85" speed="4.77"/>
                <vehicle id="633" pos="35.73" speed="5.59"/>
                <vehicle id="878" pos="50.57" speed="4.95"/>
                <vehicle id="861" pos="135.09" speed="5.07"/>
            </lane>
        </edge>
        <edge id="gneE28">
            <lane id="gneE28_0">
                <vehicle id="915" pos="44.95" speed="8.07"/>
                <vehicle id="999" pos="87.05" speed="8.20"/>
                <vehicle id="963" pos="128.44" speed="8.14"/>
            </lane>
        </edge>
        <edge id="gneE3">
            <lane id="gneE3_0">
                <vehicle id="992" pos="10.14" speed="9.82"/>
                <vehicle id="988" pos="28.73" speed="9.16"/>
                <vehicle id="733" pos="74.42" speed="9.36"/>
                <vehicle id="987" pos="93.81" speed="9.27"/>
            </lane>
        </edge>
        <edge id="gneE30">
            <lane id="gneE30_0">
                <vehicle id="904" pos="1.79" speed="7.45"/>
                <vehicle id="856" pos="126.25" speed="8.68"/>
                <vehicle id="759" pos="220.72" speed="8.60"/>
            </lane>
        </edge>
        <edge id="gneE31">
            <lane id="gneE31_0">
                <vehicle id="964" pos="6.03" speed="7.94"/>
                <vehicle id="877" pos="46.87" speed="8.33"/>
                <vehicle id="886" pos="80.01" speed="8.62"/>
                <vehicle id="875" pos="104.44" speed="7.71"/>
                <vehicle id="845" pos="131.94" speed="8.69"/>
                <vehicle id="830" pos="164.80" speed="8.75"/>
                <vehicle id="994" pos="185.64" speed="7.95"/>
                <vehicle id="827" pos="203.99" speed="7.71"/>
                <vehicle id="934" pos="227.39" speed="7.88"/>
                <vehicle id="853" pos="253.37" speed="8.97"/>
            </lane>
        </edge>
        <edge id="gneE32">
            <lane id="gneE32_0">
                <vehicle id="841" pos="89.89" speed="7.80"/>
                <vehicle id="927" pos="110.00" speed="7.10"/>
                <vehicle id="867" pos="183.35" speed="7.50"/>
            </lane>
        </edge>
        <edge id="gneE38">
            <lane id="gneE38_0">
                <vehicle id="922" pos="45.11" speed="7.99"/>
                <vehicle id="929" pos="108.43" speed="8.41"/>
                <vehicle id="909" pos="140.92" speed="8.39"/>
                <vehicle id="908" pos="170.45" speed="7.73"/>
                <vehicle id="954" pos="227.46" speed="8.28"/>
                <vehicle id="953" pos="250.05" speed="8.72"/>
                <vehicle id="975" pos="274.89" speed="7.94"/>
                <vehicle id="962" pos="312.97" speed="0.00"/>
                <vehicle id="928" pos="320.48" speed="0.00"/>
                <vehicle id="921" pos="327.98" speed="0.00"/>
                <vehicle id="925" pos="335.48" speed="0.00"/>
                <vehicle id="918" pos="342.98" speed="0.00"/>
            </lane>
        </edge>
        <edge id="gneE4">
            <lane id="gneE4_0">
                <vehicle id="872" pos="59.62" speed="9.07"/>
            </lane>
        </edge>
        <edge id="gneE41">
            <lane id="gneE41_0">
                <vehicle id="995" pos="98.77" speed="7.79"/>
            </lane>
        </edge>
        <edge id="gneE42">
            <lane id="gneE42_0">
                <vehicle id="847" pos="33.85" speed="6.75"/>
                <vehicle id="941" pos="61.35" speed="7.23"/>
                <vehicle id="823" pos="127.38" speed="7.32"/>
            </lane>
        </edge>
        <edge id="gneE43">
            <lane id="gneE43_0">
                <vehicle id="819" pos="114.32" speed="6.12"/>
                <vehicle id="916" pos="252.99" speed="1.03"/>
                <vehicle id="930" pos="261.48" speed="0.76"/>
                <vehicle id="839" pos="269.12" speed="0.08"/>
                <vehicle id="836" pos="277.36" speed="0.69"/>
                <vehicle id="837" pos="286.88" speed="2.01"/>
                <vehicle id="894" pos="299.10" speed="4.58"/>
            </lane>
        </edge>
        <edge id="gneE45">
            <lane id="gneE45_0">
                <vehicle id="848" pos="23.16" speed="8.97"/>
                <vehicle id="946" pos="137.50" speed="7.89"/>
                <vehicle id="864" pos="164.69" speed="8.59"/>
                <vehicle id="857" pos="184.79" speed="7.80"/>
                <vehicle id="693" pos="271.62" speed="8.02"/>
                <vehicle id="653" pos="290.39" speed="7.97"/>
            </lane>
        </edge>
        <edge id="gneE46">
            <lane id="gneE46_0">
                <vehicle id="852" pos="118.26" speed="9.27"/>
                <vehicle id="747" pos="141.59" speed="8.93"/>
            </lane>
        </edge>
        <edge id="gneE47">
            <lane id="gneE47_0">
                <vehicle id="969" pos="42.50" speed="8.86"/>
                <vehicle id="750" pos="152.95" speed="8.67"/>
            </lane>
        </edge>
        <edge id="gneE48">
            <lane id="gneE48_0">
                <vehicle id="802" pos="162.55" speed="6.85"/>
                <vehicle id="976" pos="237.13" speed="0.00"/>
                <vehicle id="879" pos="244.63" speed="0.00"/>
                <vehicle id="871" pos="252.13" speed="0.00"/>
                <vehicle id="903" pos="259.63" speed="0.00"/>
                <vehicle id="897" pos="267.13" speed="0.00"/>
                <vehicle id="882" pos="274.63" speed="0.00"/>
                <vehicle id="796" pos="282.13" speed="0.00"/>
                <vehicle id="791" pos="289.64" speed="0.00"/>
                <vehicle id="858" pos="297.14" speed="0.00"/>
                <vehicle id="777" pos="304.64" speed="0.00"/>
                <vehicle id="705" pos="312.14" speed="0.00"/>
                <vehicle id="790" pos="319.64" speed="0.00"/>
            </lane>
        </edge>
        <edge id="gneE49">
            <lane id="gneE49_0">
                <vehicle id="822" pos="5.81" speed="6.77"/>
                <vehicle id="772" pos="24.36" speed="7.31"/>
                <vehicle id="936" pos="53.88" speed="7.68"/>
            </lane>
        </edge>
        <edge id="gneE5">
            <lane id="gneE5_0">
                <vehicle id="924" pos="109.09" speed="5.93"/>
            </lane>
        </edge>
        <edge id="gneE50">
            <lane id="gneE50_0">
                <vehicle id="749" pos="29.43" speed="5.14"/>
                <vehicle id="993" pos="324.60" speed="5.62"/>
            </lane>
        </edge>
        <edge id="gneE51">
            <lane id="gneE51_0">
                <vehicle id="780" pos="303.15" speed="3.96"/>
                <vehicle id="896" pos="311.91" speed="0.62"/>
                <vehicle id="811" pos="320.46" speed="0.71"/>
                <vehicle id="844" pos="328.20" speed="0.10"/>
                <vehicle id="859" pos="335.78" speed="0.05"/>
                <vehicle id="901" pos="344.71" speed="1.42"/>
                <vehicle id="691" pos="356.29" speed="3.62"/>
            </lane>
        </edge>
        <edge id="gneE52">
            <lane id="gneE52_0">
                <vehicle id="866" pos="104.53" speed="6.18"/>
                <vehicle id="753" pos="124.51" speed="6.73"/>
                <vehicle id="745" pos="166.37" speed="6.05"/>
            </lane>
        </edge>
        <edge id="gneE53">
            <lane id="gneE53_0">
                <vehicle id="998" pos="64.94" speed="6.90"/>
                <vehicle id="983" pos="298.14" speed="0.08"/>
                <vehicle id="958" pos="305.65" speed="0.00"/>
                <vehicle id="683" pos="313.16" speed="0.00"/>
                <vehicle id="955" pos="320.66" speed="0.00"/>
                <vehicle id="914" pos="328.16" speed="0.00"/>
                <vehicle id="892" pos="335.66" speed="0.00"/>
                <vehicle id="874" pos="343.16" speed="0.00"/>
            </lane>
        </edge>
        <edge id="gneE56">
            <lane id="gneE56_0">
                <vehicle id="809" pos="0.91" speed="8.07"/>
            </lane>
        </edge>
        <edge id="gneE58">
            <lane id="gneE58_0">
                <vehicle id="794" pos="29.99" speed="7.27"/>
                <vehicle id="913" pos="64.92" speed="6.86"/>
                <vehicle id="655" pos="139.48" speed="7.79"/>
                <vehicle id="948" pos="212.76" speed="7.28"/>
            </lane>
        </edge>
        <edge id="gneE59">
            <lane id="gneE59_0">
                <vehicle id="757" pos="24.68" speed="7.83"/>
                <vehicle id="997" pos="82.40" speed="7.98"/>
            </lane>
        </edge>
        <edge id="gneE60">
            <lane id="gneE60_0">
                <vehicle id="974" pos="216.77" speed="0.59"/>
                <vehicle id="912" pos="224.58" speed="0.25"/>
                <vehicle id="900" pos="232.30" speed="0.09"/>
                <vehicle id="940" pos="240.01" speed="0.18"/>
                <vehicle id="582" pos="247.74" speed="0.16"/>
                <vehicle id="890" pos="255.94" speed="0.56"/>
                <vehicle id="797" pos="264.44" speed="0.99"/>
                <vehicle id="887" pos="274.31" speed="2.25"/>
                <vehicle id="720" pos="288.64" speed="4.13"/>
                <vehicle id="647" pos="303.47" speed="5.79"/>
                <vehicle id="766" pos="319.01" speed="6.19"/>
                <vehicle id="765" pos="334.05" speed="6.77"/>
            </lane>
        </edge>
        <edge id="gneE61">
            <lane id="gneE61_0">
                <vehicle id="800" pos="86.25" speed="7.55"/>
                <vehicle id="944" pos="253.75" speed="7.32"/>
            </lane>
        </edge>
        <edge id="gneE7">
            <lane id="gneE7_0">
                <vehicle id="810" pos="70.77" speed="7.70"/>
                <vehicle id="984" pos="111.65" speed="7.81"/>
                <vehicle id="919" pos="154.52" speed="8.01"/>
                <vehicle id="959" pos="211.92" speed="8.94"/>
                <vehicle id="945" pos="241.75" speed="8.76"/>
                <vehicle id="873" pos="273.96" speed="8.11"/>
                <vehicle id="899" pos="296.44" speed="8.71"/>
            </lane>
        </edge>
    </timestep>
