<?xml version="1.0"?>
<timestep time="1056.00">
        <edge id=":gneJ11_7">
            <lane id=":gneJ11_7_0">
                <vehicle id="891" pos="16.60" speed="7.29"/>
            </lane>
        </edge>
        <edge id=":gneJ11_8">
            <lane id=":gneJ11_8_0">
                <vehicle id="691" pos="2.26" speed="6.49"/>
            </lane>
        </edge>
        <edge id=":gneJ15_17">
            <lane id=":gneJ15_17_0">
                <vehicle id="963" pos="3.56" speed="8.12"/>
            </lane>
        </edge>
        <edge id=":gneJ6_2">
            <lane id=":gneJ6_2_0">
                <vehicle id="898" pos="3.96" speed="2.71"/>
            </lane>
        </edge>
        <edge id=":gneJ8_0">
            <lane id=":gneJ8_0_0">
                <vehicle id="996" pos="2.14" speed="2.39"/>
            </lane>
        </edge>
        <edge id=":gneJ9_1">
            <lane id=":gneJ9_1_0">
                <vehicle id="972" pos="4.88" speed="3.14"/>
            </lane>
        </edge>
        <edge id="gneE10">
            <lane id="gneE10_0">
                <vehicle id="829" pos="10.23" speed="5.64"/>
                <vehicle id="952" pos="73.47" speed="5.88"/>
                <vehicle id="818" pos="90.77" speed="5.59"/>
                <vehicle id="905" pos="121.14" speed="4.78"/>
                <vehicle id="920" pos="132.66" speed="1.22"/>
            </lane>
        </edge>
        <edge id="gneE11">
            <lane id="gneE11_0">
                <vehicle id="899" pos="5.61" speed="8.71"/>
                <vehicle id="981" pos="40.20" speed="8.65"/>
                <vehicle id="980" pos="87.03" speed="7.75"/>
                <vehicle id="978" pos="108.59" speed="7.99"/>
            </lane>
        </edge>
        <edge id="gneE12">
            <lane id="gneE12_0">
                <vehicle id="932" pos="89.94" speed="13.71"/>
                <vehicle id="942" pos="154.99" speed="13.08"/>
                <vehicle id="881" pos="260.89" speed="13.38"/>
                <vehicle id="947" pos="301.17" speed="0.10"/>
            </lane>
        </edge>
        <edge id="gneE13">
            <lane id="gneE13_0">
                <vehicle id="990" pos="9.78" speed="9.74"/>
                <vehicle id="883" pos="117.92" speed="9.49"/>
                <vehicle id="868" pos="271.94" speed="0.76"/>
                <vehicle id="860" pos="282.28" speed="2.62"/>
                <vehicle id="821" pos="292.05" speed="1.56"/>
                <vehicle id="889" pos="301.02" speed="0.84"/>
            </lane>
        </edge>
        <edge id="gneE14">
            <lane id="gneE14_0">
                <vehicle id="721" pos="16.31" speed="9.45"/>
                <vehicle id="968" pos="59.88" speed="10.52"/>
                <vehicle id="937" pos="94.40" speed="10.27"/>
                <vehicle id="778" pos="154.25" speed="1.07"/>
            </lane>
        </edge>
        <edge id="gneE15">
            <lane id="gneE15_0">
                <vehicle id="979" pos="19.13" speed="8.95"/>
                <vehicle id="991" pos="90.22" speed="8.08"/>
                <vehicle id="977" pos="108.84" speed="7.74"/>
            </lane>
        </edge>
        <edge id="gneE17">
            <lane id="gneE17_0">
                <vehicle id="846" pos="39.40" speed="9.41"/>
                <vehicle id="986" pos="84.18" speed="9.49"/>
            </lane>
        </edge>
        <edge id="gneE18">
            <lane id="gneE18_0">
                <vehicle id="956" pos="150.20" speed="9.35"/>
                <vehicle id="807" pos="227.79" speed="9.88"/>
                <vehicle id="951" pos="252.06" speed="8.84"/>
            </lane>
        </edge>
        <edge id="gneE19">
            <lane id="gneE19_0">
                <vehicle id="957" pos="267.21" speed="7.46"/>
            </lane>
        </edge>
        <edge id="gneE20">
            <lane id="gneE20_0">
                <vehicle id="803" pos="33.16" speed="7.79"/>
                <vehicle id="902" pos="129.85" speed="8.49"/>
                <vehicle id="828" pos="186.34" speed="8.18"/>
                <vehicle id="917" pos="229.45" speed="8.30"/>
                <vehicle id="817" pos="275.48" speed="7.87"/>
            </lane>
        </edge>
        <edge id="gneE23">
            <lane id="gneE23_0">
                <vehicle id="967" pos="14.38" speed="7.08"/>
                <vehicle id="808" pos="59.01" speed="7.01"/>
                <vehicle id="729" pos="177.69" speed="6.75"/>
            </lane>
        </edge>
        <edge id="gneE24">
            <lane id="gneE24_0">
                <vehicle id="961" pos="25.87" speed="12.00"/>
                <vehicle id="638" pos="87.34" speed="12.49"/>
            </lane>
        </edge>
        <edge id="gneE25">
            <lane id="gneE25_0">
                <vehicle id="813" pos="144.56" speed="9.98"/>
                <vehicle id="843" pos="271.25" speed="1.87"/>
                <vehicle id="842" pos="282.64" speed="3.68"/>
            </lane>
        </edge>
        <edge id="gneE26">
            <lane id="gneE26_0">
                <vehicle id="943" pos="40.38" speed="6.71"/>
                <vehicle id="793" pos="163.31" speed="0.00"/>
                <vehicle id="735" pos="170.81" speed="0.00"/>
                <vehicle id="982" pos="178.31" speed="0.00"/>
                <vehicle id="895" pos="185.81" speed="0.00"/>
                <vehicle id="970" pos="193.32" speed="0.00"/>
                <vehicle id="935" pos="200.82" speed="0.00"/>
                <vehicle id="696" pos="208.35" speed="0.03"/>
                <vehicle id="939" pos="216.22" speed="0.34"/>
                <vehicle id="931" pos="225.48" speed="1.54"/>
                <vehicle id="719" pos="238.33" speed="4.09"/>
                <vehicle id="795" pos="250.16" speed="4.22"/>
                <vehicle id="850" pos="259.70" speed="1.14"/>
                <vehicle id="834" pos="268.15" speed="0.56"/>
                <vehicle id="801" pos="275.81" speed="0.02"/>
                <vehicle id="744" pos="283.33" speed="0.00"/>
                <vehicle id="799" pos="290.83" speed="0.00"/>
            </lane>
        </edge>
        <edge id="gneE27">
            <lane id="gneE27_0">
                <vehicle id="863" pos="15.75" speed="5.37"/>
                <vehicle id="633" pos="46.99" speed="5.32"/>
                <vehicle id="878" pos="60.71" speed="5.20"/>
            </lane>
        </edge>
        <edge id="gneE28">
            <lane id="gneE28_0">
                <vehicle id="915" pos="61.32" speed="8.54"/>
                <vehicle id="999" pos="103.06" speed="8.18"/>
            </lane>
        </edge>
        <edge id="gneE3">
            <lane id="gneE3_0">
                <vehicle id="992" pos="28.38" speed="8.89"/>
                <vehicle id="988" pos="47.21" speed="8.71"/>
                <vehicle id="733" pos="93.71" speed="9.40"/>
                <vehicle id="987" pos="111.72" speed="8.86"/>
            </lane>
        </edge>
        <edge id="gneE30">
            <lane id="gneE30_0">
                <vehicle id="904" pos="18.57" speed="8.27"/>
                <vehicle id="856" pos="142.84" speed="8.11"/>
                <vehicle id="759" pos="238.40" speed="8.94"/>
            </lane>
        </edge>
        <edge id="gneE31">
            <lane id="gneE31_0">
                <vehicle id="964" pos="22.28" speed="7.74"/>
                <vehicle id="877" pos="62.73" speed="7.90"/>
                <vehicle id="886" pos="96.33" speed="8.22"/>
                <vehicle id="875" pos="121.41" speed="8.34"/>
                <vehicle id="845" pos="148.77" speed="8.66"/>
                <vehicle id="830" pos="181.02" speed="7.74"/>
                <vehicle id="994" pos="203.23" speed="8.94"/>
                <vehicle id="827" pos="221.17" speed="8.44"/>
                <vehicle id="934" pos="243.63" speed="7.79"/>
                <vehicle id="853" pos="270.39" speed="8.39"/>
            </lane>
        </edge>
        <edge id="gneE32">
            <lane id="gneE32_0">
                <vehicle id="841" pos="104.70" speed="7.23"/>
                <vehicle id="927" pos="124.91" speed="7.32"/>
                <vehicle id="867" pos="198.62" speed="7.75"/>
            </lane>
        </edge>
        <edge id="gneE38">
            <lane id="gneE38_0">
                <vehicle id="949" pos="16.52" speed="8.99"/>
                <vehicle id="922" pos="62.33" speed="8.99"/>
                <vehicle id="929" pos="124.33" speed="8.15"/>
                <vehicle id="909" pos="157.94" speed="8.03"/>
                <vehicle id="908" pos="187.17" speed="8.69"/>
                <vehicle id="954" pos="244.99" speed="8.71"/>
                <vehicle id="953" pos="267.48" speed="8.55"/>
                <vehicle id="975" pos="291.73" speed="8.76"/>
                <vehicle id="962" pos="312.97" speed="0.00"/>
                <vehicle id="928" pos="320.48" speed="0.00"/>
                <vehicle id="921" pos="327.98" speed="0.00"/>
                <vehicle id="925" pos="335.48" speed="0.00"/>
                <vehicle id="918" pos="342.98" speed="0.00"/>
            </lane>
        </edge>
        <edge id="gneE4">
            <lane id="gneE4_0">
                <vehicle id="872" pos="78.28" speed="9.77"/>
            </lane>
        </edge>
        <edge id="gneE41">
            <lane id="gneE41_0">
                <vehicle id="995" pos="115.03" speed="8.12"/>
            </lane>
        </edge>
        <edge id="gneE42">
            <lane id="gneE42_0">
                <vehicle id="847" pos="48.99" speed="7.81"/>
                <vehicle id="941" pos="76.89" speed="7.70"/>
                <vehicle id="823" pos="141.56" speed="7.16"/>
            </lane>
        </edge>
        <edge id="gneE43">
            <lane id="gneE43_0">
                <vehicle id="819" pos="126.01" speed="5.72"/>
                <vehicle id="916" pos="253.98" speed="0.22"/>
                <vehicle id="930" pos="261.98" speed="0.38"/>
                <vehicle id="839" pos="270.76" speed="1.23"/>
                <vehicle id="836" pos="281.56" speed="2.68"/>
                <vehicle id="837" pos="296.04" speed="5.75"/>
                <vehicle id="894" pos="306.30" speed="1.87"/>
            </lane>
        </edge>
        <edge id="gneE45">
            <lane id="gneE45_0">
                <vehicle id="848" pos="39.94" speed="8.07"/>
                <vehicle id="946" pos="154.41" speed="8.19"/>
                <vehicle id="864" pos="181.40" speed="8.85"/>
                <vehicle id="857" pos="201.49" speed="8.72"/>
                <vehicle id="693" pos="288.40" speed="8.40"/>
            </lane>
        </edge>
        <edge id="gneE46">
            <lane id="gneE46_0">
                <vehicle id="852" pos="136.76" speed="9.59"/>
                <vehicle id="747" pos="159.85" speed="9.53"/>
            </lane>
        </edge>
        <edge id="gneE47">
            <lane id="gneE47_0">
                <vehicle id="969" pos="58.92" speed="8.54"/>
                <vehicle id="750" pos="168.67" speed="7.89"/>
            </lane>
        </edge>
        <edge id="gneE48">
            <lane id="gneE48_0">
                <vehicle id="802" pos="175.70" speed="6.80"/>
                <vehicle id="976" pos="237.13" speed="0.00"/>
                <vehicle id="879" pos="244.63" speed="0.00"/>
                <vehicle id="871" pos="252.13" speed="0.00"/>
                <vehicle id="903" pos="259.63" speed="0.00"/>
                <vehicle id="897" pos="267.13" speed="0.00"/>
                <vehicle id="882" pos="274.63" speed="0.00"/>
                <vehicle id="796" pos="282.13" speed="0.00"/>
                <vehicle id="791" pos="289.64" speed="0.00"/>
                <vehicle id="858" pos="297.14" speed="0.00"/>
                <vehicle id="777" pos="304.64" speed="0.00"/>
                <vehicle id="705" pos="312.14" speed="0.00"/>
                <vehicle id="790" pos="319.64" speed="0.00"/>
            </lane>
        </edge>
        <edge id="gneE49">
            <lane id="gneE49_0">
                <vehicle id="822" pos="20.14" speed="6.98"/>
                <vehicle id="772" pos="39.12" speed="7.83"/>
                <vehicle id="936" pos="69.81" speed="7.94"/>
            </lane>
        </edge>
        <edge id="gneE5">
            <lane id="gneE5_0">
                <vehicle id="924" pos="120.25" speed="5.35"/>
            </lane>
        </edge>
        <edge id="gneE50">
            <lane id="gneE50_0">
                <vehicle id="749" pos="39.60" speed="4.92"/>
                <vehicle id="993" pos="334.94" speed="5.09"/>
            </lane>
        </edge>
        <edge id="gneE51">
            <lane id="gneE51_0">
                <vehicle id="780" pos="304.78" speed="0.59"/>
                <vehicle id="896" pos="312.81" speed="0.29"/>
                <vehicle id="811" pos="320.72" speed="0.13"/>
                <vehicle id="844" pos="329.30" speed="1.04"/>
                <vehicle id="859" pos="340.56" speed="3.57"/>
                <vehicle id="901" pos="352.76" speed="4.48"/>
            </lane>
        </edge>
        <edge id="gneE52">
            <lane id="gneE52_0">
                <vehicle id="866" pos="117.27" speed="6.82"/>
                <vehicle id="753" pos="137.23" speed="6.73"/>
                <vehicle id="745" pos="179.25" speed="6.19"/>
            </lane>
        </edge>
        <edge id="gneE53">
            <lane id="gneE53_0">
                <vehicle id="998" pos="77.12" speed="6.27"/>
                <vehicle id="983" pos="298.15" speed="0.00"/>
                <vehicle id="958" pos="305.65" speed="0.00"/>
                <vehicle id="683" pos="313.16" speed="0.00"/>
                <vehicle id="955" pos="320.66" speed="0.00"/>
                <vehicle id="914" pos="328.16" speed="0.00"/>
                <vehicle id="892" pos="335.66" speed="0.00"/>
                <vehicle id="874" pos="343.16" speed="0.00"/>
            </lane>
        </edge>
        <edge id="gneE56">
            <lane id="gneE56_0">
                <vehicle id="809" pos="16.50" speed="7.75"/>
            </lane>
        </edge>
        <edge id="gneE58">
            <lane id="gneE58_0">
                <vehicle id="794" pos="45.08" speed="7.24"/>
                <vehicle id="913" pos="80.59" speed="7.98"/>
                <vehicle id="655" pos="154.06" speed="7.13"/>
                <vehicle id="948" pos="227.05" speed="7.26"/>
            </lane>
        </edge>
        <edge id="gneE59">
            <lane id="gneE59_0">
                <vehicle id="757" pos="40.93" speed="7.84"/>
                <vehicle id="997" pos="98.87" speed="8.41"/>
            </lane>
        </edge>
        <edge id="gneE60">
            <lane id="gneE60_0">
                <vehicle id="974" pos="217.22" speed="0.18"/>
                <vehicle id="912" pos="224.91" speed="0.13"/>
                <vehicle id="900" pos="232.69" speed="0.21"/>
                <vehicle id="940" pos="240.49" speed="0.29"/>
                <vehicle id="582" pos="248.69" speed="0.48"/>
                <vehicle id="890" pos="259.22" speed="2.56"/>
                <vehicle id="797" pos="270.64" speed="3.84"/>
                <vehicle id="887" pos="285.23" speed="6.49"/>
                <vehicle id="720" pos="301.82" speed="6.71"/>
                <vehicle id="647" pos="316.85" speed="6.91"/>
                <vehicle id="766" pos="328.77" speed="3.30"/>
                <vehicle id="765" pos="337.45" speed="1.13"/>
            </lane>
        </edge>
        <edge id="gneE61">
            <lane id="gneE61_0">
                <vehicle id="966" pos="7.60" speed="6.89"/>
                <vehicle id="800" pos="100.12" speed="7.04"/>
                <vehicle id="944" pos="269.08" speed="7.71"/>
            </lane>
        </edge>
        <edge id="gneE7">
            <lane id="gneE7_0">
                <vehicle id="810" pos="88.15" speed="8.98"/>
                <vehicle id="984" pos="128.24" speed="8.56"/>
                <vehicle id="919" pos="171.33" speed="8.62"/>
                <vehicle id="959" pos="227.84" speed="8.17"/>
                <vehicle id="945" pos="259.05" speed="8.98"/>
                <vehicle id="873" pos="290.43" speed="8.13"/>
            </lane>
        </edge>
    </timestep>
