<?xml version="1.0"?>
<timestep time="1064.00">
        <edge id=":gneJ11_20">
            <lane id=":gneJ11_20_0">
                <vehicle id="892" pos="19.24" speed="7.08"/>
            </lane>
        </edge>
        <edge id=":gneJ11_21">
            <lane id=":gneJ11_21_0">
                <vehicle id="914" pos="3.55" speed="6.74"/>
            </lane>
        </edge>
        <edge id=":gneJ15_2">
            <lane id=":gneJ15_2_0">
                <vehicle id="918" pos="1.26" speed="1.37"/>
            </lane>
        </edge>
        <edge id=":gneJ28_4">
            <lane id=":gneJ28_4_0">
                <vehicle id="993" pos="11.55" speed="7.70"/>
            </lane>
        </edge>
        <edge id=":gneJ4_3">
            <lane id=":gneJ4_3_0">
                <vehicle id="733" pos="5.42" speed="5.98"/>
            </lane>
        </edge>
        <edge id=":gneJ8_5">
            <lane id=":gneJ8_5_0">
                <vehicle id="977" pos="5.24" speed="1.94"/>
            </lane>
        </edge>
        <edge id="gneE10">
            <lane id="gneE10_0">
                <vehicle id="889" pos="14.93" speed="5.87"/>
                <vehicle id="996" pos="37.65" speed="4.96"/>
                <vehicle id="829" pos="55.40" speed="5.01"/>
                <vehicle id="952" pos="114.10" speed="4.08"/>
                <vehicle id="818" pos="123.60" speed="0.33"/>
                <vehicle id="905" pos="131.43" speed="0.02"/>
                <vehicle id="920" pos="138.94" speed="0.00"/>
            </lane>
        </edge>
        <edge id="gneE11">
            <lane id="gneE11_0">
                <vehicle id="899" pos="73.99" speed="8.12"/>
                <vehicle id="981" pos="107.73" speed="8.95"/>
            </lane>
        </edge>
        <edge id="gneE12">
            <lane id="gneE12_0">
                <vehicle id="980" pos="10.35" speed="10.68"/>
                <vehicle id="978" pos="46.38" speed="13.06"/>
                <vehicle id="932" pos="198.27" speed="13.72"/>
                <vehicle id="942" pos="260.64" speed="13.71"/>
                <vehicle id="881" pos="301.17" speed="0.01"/>
            </lane>
        </edge>
        <edge id="gneE13">
            <lane id="gneE13_0">
                <vehicle id="990" pos="83.25" speed="9.63"/>
                <vehicle id="883" pos="191.83" speed="9.31"/>
                <vehicle id="868" pos="283.21" speed="2.10"/>
                <vehicle id="860" pos="292.96" speed="1.02"/>
                <vehicle id="821" pos="301.15" speed="0.15"/>
            </lane>
        </edge>
        <edge id="gneE14">
            <lane id="gneE14_0">
                <vehicle id="721" pos="100.31" speed="10.85"/>
                <vehicle id="968" pos="140.82" speed="10.54"/>
            </lane>
        </edge>
        <edge id="gneE15">
            <lane id="gneE15_0">
                <vehicle id="917" pos="7.21" speed="7.88"/>
                <vehicle id="979" pos="86.01" speed="8.61"/>
                <vehicle id="991" pos="153.68" speed="5.12"/>
            </lane>
        </edge>
        <edge id="gneE17">
            <lane id="gneE17_0">
                <vehicle id="817" pos="55.15" speed="9.58"/>
                <vehicle id="846" pos="112.74" speed="9.37"/>
                <vehicle id="986" pos="158.47" speed="8.97"/>
            </lane>
        </edge>
        <edge id="gneE18">
            <lane id="gneE18_0">
                <vehicle id="956" pos="225.21" speed="9.39"/>
            </lane>
        </edge>
        <edge id="gneE19">
            <lane id="gneE19_0">
                <vehicle id="778" pos="17.31" speed="8.74"/>
                <vehicle id="972" pos="78.61" speed="12.55"/>
            </lane>
        </edge>
        <edge id="gneE20">
            <lane id="gneE20_0">
                <vehicle id="874" pos="13.77" speed="7.78"/>
                <vehicle id="891" pos="59.32" speed="8.21"/>
                <vehicle id="803" pos="99.18" speed="8.66"/>
                <vehicle id="902" pos="197.10" speed="8.20"/>
                <vehicle id="828" pos="251.27" speed="8.02"/>
            </lane>
        </edge>
        <edge id="gneE23">
            <lane id="gneE23_0">
                <vehicle id="901" pos="33.62" speed="7.79"/>
                <vehicle id="967" pos="73.67" speed="7.63"/>
                <vehicle id="808" pos="117.54" speed="7.54"/>
            </lane>
        </edge>
        <edge id="gneE24">
            <lane id="gneE24_0">
                <vehicle id="799" pos="31.14" speed="10.50"/>
                <vehicle id="963" pos="86.53" speed="12.22"/>
                <vehicle id="961" pos="123.58" speed="12.61"/>
                <vehicle id="638" pos="183.40" speed="9.33"/>
            </lane>
        </edge>
        <edge id="gneE25">
            <lane id="gneE25_0">
                <vehicle id="813" pos="219.90" speed="9.76"/>
            </lane>
        </edge>
        <edge id="gneE26">
            <lane id="gneE26_0">
                <vehicle id="943" pos="91.93" speed="6.95"/>
                <vehicle id="793" pos="163.56" speed="0.19"/>
                <vehicle id="735" pos="172.08" speed="0.94"/>
                <vehicle id="982" pos="181.47" speed="1.23"/>
                <vehicle id="895" pos="193.79" speed="4.04"/>
                <vehicle id="970" pos="203.28" speed="1.91"/>
                <vehicle id="935" pos="212.99" speed="1.90"/>
                <vehicle id="696" pos="222.45" speed="0.96"/>
                <vehicle id="939" pos="230.53" speed="0.46"/>
                <vehicle id="931" pos="238.29" speed="0.12"/>
                <vehicle id="719" pos="245.82" speed="0.01"/>
                <vehicle id="795" pos="253.76" speed="0.44"/>
                <vehicle id="850" pos="263.59" speed="2.05"/>
                <vehicle id="834" pos="274.41" speed="2.28"/>
                <vehicle id="801" pos="282.86" speed="0.58"/>
                <vehicle id="744" pos="290.82" speed="0.13"/>
            </lane>
        </edge>
        <edge id="gneE27">
            <lane id="gneE27_0">
                <vehicle id="863" pos="59.11" speed="4.80"/>
                <vehicle id="633" pos="89.83" speed="5.35"/>
                <vehicle id="878" pos="104.20" speed="5.40"/>
            </lane>
        </edge>
        <edge id="gneE28">
            <lane id="gneE28_0">
                <vehicle id="934" pos="15.51" speed="8.53"/>
                <vehicle id="853" pos="40.95" speed="8.82"/>
                <vehicle id="915" pos="128.91" speed="8.68"/>
            </lane>
        </edge>
        <edge id="gneE3">
            <lane id="gneE3_0">
                <vehicle id="992" pos="103.17" speed="9.35"/>
                <vehicle id="988" pos="121.53" speed="8.84"/>
            </lane>
        </edge>
        <edge id="gneE30">
            <lane id="gneE30_0">
                <vehicle id="904" pos="84.98" speed="7.83"/>
                <vehicle id="856" pos="209.92" speed="8.31"/>
            </lane>
        </edge>
        <edge id="gneE31">
            <lane id="gneE31_0">
                <vehicle id="945" pos="13.67" speed="8.67"/>
                <vehicle id="873" pos="39.81" speed="7.93"/>
                <vehicle id="898" pos="60.57" speed="8.79"/>
                <vehicle id="964" pos="88.74" speed="8.71"/>
                <vehicle id="877" pos="128.55" speed="8.35"/>
                <vehicle id="886" pos="162.30" speed="7.90"/>
                <vehicle id="875" pos="187.46" speed="7.88"/>
                <vehicle id="845" pos="217.19" speed="8.28"/>
                <vehicle id="830" pos="247.43" speed="8.35"/>
                <vehicle id="994" pos="269.69" speed="8.02"/>
                <vehicle id="827" pos="290.09" speed="8.71"/>
            </lane>
        </edge>
        <edge id="gneE32">
            <lane id="gneE32_0">
                <vehicle id="999" pos="5.76" speed="7.14"/>
                <vehicle id="729" pos="34.70" speed="7.34"/>
                <vehicle id="841" pos="164.42" speed="7.14"/>
                <vehicle id="927" pos="183.56" speed="7.06"/>
                <vehicle id="867" pos="257.25" speed="6.83"/>
            </lane>
        </edge>
        <edge id="gneE38">
            <lane id="gneE38_0">
                <vehicle id="823" pos="50.28" speed="8.54"/>
                <vehicle id="949" pos="83.09" speed="8.61"/>
                <vehicle id="922" pos="129.52" speed="8.86"/>
                <vehicle id="929" pos="191.59" speed="8.52"/>
                <vehicle id="909" pos="224.51" speed="8.18"/>
                <vehicle id="908" pos="255.78" speed="8.60"/>
                <vehicle id="954" pos="290.39" speed="0.89"/>
                <vehicle id="953" pos="297.97" speed="0.02"/>
                <vehicle id="975" pos="305.47" speed="0.00"/>
                <vehicle id="962" pos="312.98" speed="0.00"/>
                <vehicle id="928" pos="320.48" speed="0.00"/>
                <vehicle id="921" pos="327.98" speed="0.00"/>
                <vehicle id="925" pos="335.48" speed="0.00"/>
            </lane>
        </edge>
        <edge id="gneE4">
            <lane id="gneE4_0">
                <vehicle id="947" pos="48.91" speed="8.90"/>
                <vehicle id="872" pos="153.32" speed="9.44"/>
            </lane>
        </edge>
        <edge id="gneE42">
            <lane id="gneE42_0">
                <vehicle id="847" pos="106.83" speed="7.21"/>
                <vehicle id="941" pos="136.87" speed="7.06"/>
            </lane>
        </edge>
        <edge id="gneE43">
            <lane id="gneE43_0">
                <vehicle id="819" pos="176.64" speed="6.10"/>
                <vehicle id="916" pos="268.92" speed="0.51"/>
                <vehicle id="930" pos="276.67" speed="0.08"/>
                <vehicle id="839" pos="284.22" speed="0.01"/>
                <vehicle id="836" pos="291.73" speed="0.00"/>
                <vehicle id="837" pos="299.23" speed="0.00"/>
                <vehicle id="894" pos="306.73" speed="0.00"/>
            </lane>
        </edge>
        <edge id="gneE45">
            <lane id="gneE45_0">
                <vehicle id="848" pos="105.91" speed="8.95"/>
                <vehicle id="946" pos="219.69" speed="8.11"/>
                <vehicle id="864" pos="247.37" speed="7.92"/>
                <vehicle id="857" pos="267.85" speed="8.78"/>
            </lane>
        </edge>
        <edge id="gneE46">
            <lane id="gneE46_0">
                <vehicle id="995" pos="27.78" speed="8.72"/>
            </lane>
        </edge>
        <edge id="gneE47">
            <lane id="gneE47_0">
                <vehicle id="969" pos="125.46" speed="8.23"/>
            </lane>
        </edge>
        <edge id="gneE48">
            <lane id="gneE48_0">
                <vehicle id="852" pos="6.98" speed="6.01"/>
                <vehicle id="802" pos="226.07" speed="6.99"/>
                <vehicle id="976" pos="237.13" speed="0.00"/>
                <vehicle id="879" pos="244.63" speed="0.00"/>
                <vehicle id="871" pos="252.13" speed="0.00"/>
                <vehicle id="903" pos="259.63" speed="0.00"/>
                <vehicle id="897" pos="267.13" speed="0.00"/>
                <vehicle id="882" pos="274.63" speed="0.00"/>
                <vehicle id="796" pos="282.13" speed="0.00"/>
                <vehicle id="791" pos="289.64" speed="0.00"/>
                <vehicle id="858" pos="297.14" speed="0.00"/>
                <vehicle id="777" pos="304.64" speed="0.00"/>
                <vehicle id="705" pos="312.14" speed="0.00"/>
                <vehicle id="790" pos="319.64" speed="0.00"/>
            </lane>
        </edge>
        <edge id="gneE49">
            <lane id="gneE49_0">
                <vehicle id="822" pos="78.90" speed="7.10"/>
                <vehicle id="772" pos="97.46" speed="7.60"/>
                <vehicle id="936" pos="128.35" speed="6.89"/>
            </lane>
        </edge>
        <edge id="gneE5">
            <lane id="gneE5_0">
                <vehicle id="987" pos="10.89" speed="5.84"/>
            </lane>
        </edge>
        <edge id="gneE50">
            <lane id="gneE50_0">
                <vehicle id="749" pos="82.84" speed="5.80"/>
            </lane>
        </edge>
        <edge id="gneE51">
            <lane id="gneE51_0">
                <vehicle id="780" pos="325.24" speed="5.84"/>
                <vehicle id="896" pos="339.16" speed="4.83"/>
                <vehicle id="811" pos="349.65" speed="1.36"/>
                <vehicle id="844" pos="358.15" speed="0.10"/>
                <vehicle id="859" pos="365.78" speed="0.08"/>
            </lane>
        </edge>
        <edge id="gneE52">
            <lane id="gneE52_0">
                <vehicle id="957" pos="14.48" speed="6.37"/>
                <vehicle id="866" pos="168.76" speed="5.93"/>
                <vehicle id="753" pos="189.72" speed="6.93"/>
                <vehicle id="745" pos="229.76" speed="5.79"/>
            </lane>
        </edge>
        <edge id="gneE53">
            <lane id="gneE53_0">
                <vehicle id="998" pos="126.70" speed="6.66"/>
                <vehicle id="983" pos="298.49" speed="0.33"/>
                <vehicle id="958" pos="307.51" speed="1.40"/>
                <vehicle id="683" pos="317.91" speed="2.54"/>
                <vehicle id="955" pos="331.17" speed="4.72"/>
            </lane>
        </edge>
        <edge id="gneE56">
            <lane id="gneE56_0">
                <vehicle id="809" pos="83.63" speed="8.29"/>
            </lane>
        </edge>
        <edge id="gneE58">
            <lane id="gneE58_0">
                <vehicle id="794" pos="105.08" speed="7.77"/>
                <vehicle id="913" pos="137.95" speed="7.12"/>
                <vehicle id="655" pos="211.95" speed="7.30"/>
                <vehicle id="948" pos="285.11" speed="6.83"/>
            </lane>
        </edge>
        <edge id="gneE59">
            <lane id="gneE59_0">
                <vehicle id="757" pos="106.91" speed="8.18"/>
                <vehicle id="997" pos="166.42" speed="8.11"/>
            </lane>
        </edge>
        <edge id="gneE60">
            <lane id="gneE60_0">
                <vehicle id="974" pos="228.52" speed="4.81"/>
                <vehicle id="912" pos="244.37" speed="6.44"/>
                <vehicle id="900" pos="258.52" speed="5.62"/>
                <vehicle id="940" pos="272.36" speed="5.51"/>
                <vehicle id="582" pos="282.69" speed="1.84"/>
                <vehicle id="890" pos="291.80" speed="0.76"/>
                <vehicle id="797" pos="299.84" speed="0.30"/>
                <vehicle id="887" pos="307.52" speed="0.08"/>
                <vehicle id="720" pos="315.05" speed="0.00"/>
                <vehicle id="647" pos="322.56" speed="0.00"/>
                <vehicle id="766" pos="330.06" speed="0.00"/>
                <vehicle id="765" pos="337.56" speed="0.00"/>
            </lane>
        </edge>
        <edge id="gneE61">
            <lane id="gneE61_0">
                <vehicle id="691" pos="39.70" speed="7.74"/>
                <vehicle id="966" pos="67.08" speed="6.90"/>
                <vehicle id="800" pos="159.17" speed="6.97"/>
                <vehicle id="944" pos="328.89" speed="7.33"/>
            </lane>
        </edge>
        <edge id="gneE7">
            <lane id="gneE7_0">
                <vehicle id="924" pos="17.82" speed="8.60"/>
                <vehicle id="810" pos="153.19" speed="8.02"/>
                <vehicle id="984" pos="195.24" speed="8.22"/>
                <vehicle id="919" pos="237.27" speed="8.04"/>
                <vehicle id="959" pos="293.91" speed="7.85"/>
            </lane>
        </edge>
    </timestep>
