<?xml version="1.0"?>
<timestep time="1067.00">
        <edge id=":gneJ11_44">
            <lane id=":gneJ11_44_0">
                <vehicle id="638" pos="12.17" speed="6.40"/>
            </lane>
        </edge>
        <edge id=":gneJ15_2">
            <lane id=":gneJ15_2_0">
                <vehicle id="918" pos="16.86" speed="7.45"/>
            </lane>
        </edge>
        <edge id=":gneJ16_1">
            <lane id=":gneJ16_1_0">
                <vehicle id="994" pos="0.30" speed="7.88"/>
            </lane>
        </edge>
        <edge id="gneE10">
            <lane id="gneE10_0">
                <vehicle id="991" pos="4.78" speed="4.95"/>
                <vehicle id="889" pos="30.15" speed="4.81"/>
                <vehicle id="996" pos="53.71" speed="4.97"/>
                <vehicle id="829" pos="70.38" speed="5.21"/>
                <vehicle id="952" pos="116.38" speed="0.42"/>
                <vehicle id="818" pos="123.93" speed="0.02"/>
                <vehicle id="905" pos="131.44" speed="0.00"/>
                <vehicle id="920" pos="138.94" speed="0.00"/>
            </lane>
        </edge>
        <edge id="gneE11">
            <lane id="gneE11_0">
                <vehicle id="899" pos="100.23" speed="8.88"/>
                <vehicle id="981" pos="132.31" speed="7.93"/>
            </lane>
        </edge>
        <edge id="gneE12">
            <lane id="gneE12_0">
                <vehicle id="977" pos="13.32" speed="8.16"/>
                <vehicle id="980" pos="49.16" speed="12.89"/>
                <vehicle id="978" pos="85.78" speed="13.20"/>
                <vehicle id="932" pos="236.83" speed="12.68"/>
                <vehicle id="942" pos="289.83" speed="5.92"/>
                <vehicle id="881" pos="301.18" speed="0.00"/>
            </lane>
        </edge>
        <edge id="gneE13">
            <lane id="gneE13_0">
                <vehicle id="990" pos="110.76" speed="9.40"/>
                <vehicle id="883" pos="219.67" speed="9.24"/>
                <vehicle id="868" pos="286.14" speed="0.43"/>
                <vehicle id="860" pos="293.67" speed="0.01"/>
                <vehicle id="821" pos="301.18" speed="0.00"/>
            </lane>
        </edge>
        <edge id="gneE14">
            <lane id="gneE14_0">
                <vehicle id="721" pos="131.22" speed="10.14"/>
            </lane>
        </edge>
        <edge id="gneE15">
            <lane id="gneE15_0">
                <vehicle id="917" pos="33.06" speed="8.41"/>
                <vehicle id="979" pos="110.71" speed="7.87"/>
            </lane>
        </edge>
        <edge id="gneE17">
            <lane id="gneE17_0">
                <vehicle id="817" pos="82.64" speed="8.70"/>
                <vehicle id="846" pos="140.27" speed="8.88"/>
                <vehicle id="986" pos="187.19" speed="9.89"/>
            </lane>
        </edge>
        <edge id="gneE18">
            <lane id="gneE18_0">
                <vehicle id="956" pos="252.86" speed="8.70"/>
            </lane>
        </edge>
        <edge id="gneE19">
            <lane id="gneE19_0">
                <vehicle id="778" pos="52.46" speed="11.94"/>
                <vehicle id="972" pos="115.54" speed="12.41"/>
            </lane>
        </edge>
        <edge id="gneE2">
            <lane id="gneE2_0">
                <vehicle id="872" pos="18.12" speed="10.65"/>
            </lane>
        </edge>
        <edge id="gneE20">
            <lane id="gneE20_0">
                <vehicle id="914" pos="1.36" speed="8.96"/>
                <vehicle id="874" pos="39.04" speed="8.04"/>
                <vehicle id="891" pos="84.20" speed="8.60"/>
                <vehicle id="803" pos="124.01" speed="7.83"/>
                <vehicle id="902" pos="222.41" speed="8.89"/>
                <vehicle id="828" pos="276.83" speed="8.81"/>
            </lane>
        </edge>
        <edge id="gneE23">
            <lane id="gneE23_0">
                <vehicle id="892" pos="20.95" speed="6.85"/>
                <vehicle id="901" pos="55.84" speed="7.40"/>
                <vehicle id="967" pos="96.35" speed="7.66"/>
                <vehicle id="808" pos="140.00" speed="7.58"/>
            </lane>
        </edge>
        <edge id="gneE24">
            <lane id="gneE24_0">
                <vehicle id="799" pos="68.34" speed="12.71"/>
                <vehicle id="963" pos="124.76" speed="12.64"/>
                <vehicle id="961" pos="160.55" speed="11.94"/>
            </lane>
        </edge>
        <edge id="gneE25">
            <lane id="gneE25_0">
                <vehicle id="813" pos="248.74" speed="9.03"/>
            </lane>
        </edge>
        <edge id="gneE26">
            <lane id="gneE26_0">
                <vehicle id="943" pos="111.59" speed="6.21"/>
                <vehicle id="793" pos="168.87" speed="3.22"/>
                <vehicle id="735" pos="178.77" speed="2.07"/>
                <vehicle id="982" pos="189.22" speed="2.53"/>
                <vehicle id="895" pos="199.44" speed="1.84"/>
                <vehicle id="970" pos="207.43" speed="0.35"/>
                <vehicle id="935" pos="215.36" speed="0.28"/>
                <vehicle id="696" pos="223.25" speed="0.17"/>
                <vehicle id="939" pos="231.13" speed="0.36"/>
                <vehicle id="931" pos="239.70" speed="1.01"/>
                <vehicle id="719" pos="250.33" speed="2.12"/>
                <vehicle id="795" pos="259.35" speed="0.76"/>
                <vehicle id="850" pos="267.72" speed="0.53"/>
                <vehicle id="834" pos="275.64" speed="0.30"/>
                <vehicle id="801" pos="283.33" speed="0.06"/>
                <vehicle id="744" pos="290.83" speed="0.00"/>
            </lane>
        </edge>
        <edge id="gneE27">
            <lane id="gneE27_0">
                <vehicle id="863" pos="75.66" speed="5.72"/>
                <vehicle id="633" pos="105.23" speed="4.70"/>
                <vehicle id="878" pos="120.00" speed="5.54"/>
            </lane>
        </edge>
        <edge id="gneE28">
            <lane id="gneE28_0">
                <vehicle id="827" pos="19.70" speed="8.84"/>
                <vehicle id="934" pos="41.77" speed="8.96"/>
                <vehicle id="853" pos="65.69" speed="7.74"/>
                <vehicle id="915" pos="140.88" speed="0.27"/>
            </lane>
        </edge>
        <edge id="gneE3">
            <lane id="gneE3_0">
                <vehicle id="992" pos="130.93" speed="9.00"/>
                <vehicle id="988" pos="149.81" speed="9.94"/>
            </lane>
        </edge>
        <edge id="gneE30">
            <lane id="gneE30_0">
                <vehicle id="904" pos="110.36" speed="8.62"/>
                <vehicle id="856" pos="235.62" speed="8.76"/>
            </lane>
        </edge>
        <edge id="gneE31">
            <lane id="gneE31_0">
                <vehicle id="959" pos="8.17" speed="8.81"/>
                <vehicle id="945" pos="38.62" speed="7.98"/>
                <vehicle id="873" pos="66.45" speed="8.78"/>
                <vehicle id="898" pos="85.21" speed="7.86"/>
                <vehicle id="964" pos="113.61" speed="7.82"/>
                <vehicle id="877" pos="154.72" speed="8.78"/>
                <vehicle id="886" pos="187.02" speed="7.71"/>
                <vehicle id="875" pos="212.48" speed="8.07"/>
                <vehicle id="845" pos="241.88" speed="8.05"/>
                <vehicle id="830" pos="272.28" speed="8.43"/>
            </lane>
        </edge>
        <edge id="gneE32">
            <lane id="gneE32_0">
                <vehicle id="999" pos="26.96" speed="6.84"/>
                <vehicle id="729" pos="57.03" speed="7.52"/>
                <vehicle id="841" pos="186.47" speed="7.09"/>
                <vehicle id="927" pos="206.29" speed="7.36"/>
                <vehicle id="867" pos="279.71" speed="7.95"/>
            </lane>
        </edge>
        <edge id="gneE38">
            <lane id="gneE38_0">
                <vehicle id="941" pos="3.12" speed="8.10"/>
                <vehicle id="823" pos="74.89" speed="8.42"/>
                <vehicle id="949" pos="109.57" speed="8.74"/>
                <vehicle id="922" pos="154.26" speed="8.38"/>
                <vehicle id="929" pos="217.44" speed="8.86"/>
                <vehicle id="909" pos="249.70" speed="8.17"/>
                <vehicle id="908" pos="280.10" speed="7.30"/>
                <vehicle id="954" pos="290.47" speed="0.01"/>
                <vehicle id="953" pos="297.97" speed="0.00"/>
                <vehicle id="975" pos="305.47" speed="0.00"/>
                <vehicle id="962" pos="312.98" speed="0.00"/>
                <vehicle id="928" pos="321.27" speed="0.80"/>
                <vehicle id="921" pos="330.57" speed="1.75"/>
                <vehicle id="925" pos="341.79" speed="2.45"/>
            </lane>
        </edge>
        <edge id="gneE4">
            <lane id="gneE4_0">
                <vehicle id="947" pos="77.26" speed="9.77"/>
            </lane>
        </edge>
        <edge id="gneE42">
            <lane id="gneE42_0">
                <vehicle id="993" pos="14.47" speed="7.64"/>
                <vehicle id="847" pos="128.50" speed="6.94"/>
            </lane>
        </edge>
        <edge id="gneE43">
            <lane id="gneE43_0">
                <vehicle id="819" pos="195.83" speed="6.33"/>
                <vehicle id="916" pos="269.22" speed="0.03"/>
                <vehicle id="930" pos="276.72" speed="0.00"/>
                <vehicle id="839" pos="284.23" speed="0.00"/>
                <vehicle id="836" pos="291.73" speed="0.00"/>
                <vehicle id="837" pos="299.23" speed="0.00"/>
                <vehicle id="894" pos="306.73" speed="0.00"/>
            </lane>
        </edge>
        <edge id="gneE45">
            <lane id="gneE45_0">
                <vehicle id="848" pos="131.04" speed="8.25"/>
                <vehicle id="946" pos="244.28" speed="8.25"/>
                <vehicle id="864" pos="271.83" speed="8.02"/>
                <vehicle id="857" pos="293.68" speed="8.98"/>
            </lane>
        </edge>
        <edge id="gneE46">
            <lane id="gneE46_0">
                <vehicle id="995" pos="55.85" speed="9.07"/>
            </lane>
        </edge>
        <edge id="gneE47">
            <lane id="gneE47_0">
                <vehicle id="969" pos="150.61" speed="8.44"/>
            </lane>
        </edge>
        <edge id="gneE48">
            <lane id="gneE48_0">
                <vehicle id="852" pos="24.30" speed="5.79"/>
                <vehicle id="802" pos="229.60" speed="0.06"/>
                <vehicle id="976" pos="237.13" speed="0.00"/>
                <vehicle id="879" pos="244.63" speed="0.00"/>
                <vehicle id="871" pos="252.13" speed="0.00"/>
                <vehicle id="903" pos="259.63" speed="0.00"/>
                <vehicle id="897" pos="267.13" speed="0.00"/>
                <vehicle id="882" pos="274.63" speed="0.00"/>
                <vehicle id="796" pos="282.13" speed="0.00"/>
                <vehicle id="791" pos="289.64" speed="0.00"/>
                <vehicle id="858" pos="297.14" speed="0.00"/>
                <vehicle id="777" pos="304.64" speed="0.00"/>
                <vehicle id="705" pos="312.14" speed="0.00"/>
                <vehicle id="790" pos="319.64" speed="0.00"/>
            </lane>
        </edge>
        <edge id="gneE49">
            <lane id="gneE49_0">
                <vehicle id="822" pos="101.47" speed="7.52"/>
                <vehicle id="772" pos="119.66" speed="7.96"/>
                <vehicle id="936" pos="151.80" speed="8.00"/>
            </lane>
        </edge>
        <edge id="gneE5">
            <lane id="gneE5_0">
                <vehicle id="733" pos="11.72" speed="5.65"/>
                <vehicle id="987" pos="27.60" speed="5.80"/>
            </lane>
        </edge>
        <edge id="gneE50">
            <lane id="gneE50_0">
                <vehicle id="749" pos="98.92" speed="5.37"/>
            </lane>
        </edge>
        <edge id="gneE51">
            <lane id="gneE51_0">
                <vehicle id="780" pos="334.30" speed="0.81"/>
                <vehicle id="896" pos="342.78" speed="0.56"/>
                <vehicle id="811" pos="350.75" speed="0.11"/>
                <vehicle id="844" pos="358.29" speed="0.02"/>
                <vehicle id="859" pos="365.80" speed="0.00"/>
            </lane>
        </edge>
        <edge id="gneE52">
            <lane id="gneE52_0">
                <vehicle id="957" pos="34.70" speed="6.50"/>
                <vehicle id="866" pos="188.54" speed="6.80"/>
                <vehicle id="753" pos="208.80" speed="6.05"/>
                <vehicle id="745" pos="247.58" speed="5.83"/>
            </lane>
        </edge>
        <edge id="gneE53">
            <lane id="gneE53_0">
                <vehicle id="998" pos="146.79" speed="6.64"/>
                <vehicle id="983" pos="304.66" speed="3.46"/>
                <vehicle id="958" pos="319.05" speed="4.97"/>
                <vehicle id="683" pos="332.15" speed="4.21"/>
                <vehicle id="955" pos="342.86" speed="1.46"/>
            </lane>
        </edge>
        <edge id="gneE56">
            <lane id="gneE56_0">
                <vehicle id="809" pos="110.05" speed="8.94"/>
            </lane>
        </edge>
        <edge id="gneE58">
            <lane id="gneE58_0">
                <vehicle id="794" pos="127.18" speed="7.16"/>
                <vehicle id="913" pos="159.68" speed="7.47"/>
                <vehicle id="655" pos="232.93" speed="7.08"/>
                <vehicle id="948" pos="307.94" speed="7.41"/>
            </lane>
        </edge>
        <edge id="gneE59">
            <lane id="gneE59_0">
                <vehicle id="944" pos="12.47" speed="8.58"/>
                <vehicle id="757" pos="131.49" speed="8.76"/>
                <vehicle id="997" pos="189.78" speed="7.71"/>
            </lane>
        </edge>
        <edge id="gneE60">
            <lane id="gneE60_0">
                <vehicle id="974" pos="246.56" speed="6.72"/>
                <vehicle id="912" pos="258.71" speed="3.47"/>
                <vehicle id="900" pos="267.96" speed="1.68"/>
                <vehicle id="940" pos="276.75" speed="0.85"/>
                <vehicle id="582" pos="284.89" speed="0.11"/>
                <vehicle id="890" pos="292.51" speed="0.07"/>
                <vehicle id="797" pos="300.05" speed="0.02"/>
                <vehicle id="887" pos="307.55" speed="0.00"/>
                <vehicle id="720" pos="315.06" speed="0.00"/>
                <vehicle id="647" pos="322.56" speed="0.00"/>
                <vehicle id="766" pos="330.06" speed="0.00"/>
                <vehicle id="765" pos="337.56" speed="0.00"/>
            </lane>
        </edge>
        <edge id="gneE61">
            <lane id="gneE61_0">
                <vehicle id="691" pos="62.68" speed="7.89"/>
                <vehicle id="966" pos="89.36" speed="7.68"/>
                <vehicle id="800" pos="180.82" speed="7.18"/>
            </lane>
        </edge>
        <edge id="gneE7">
            <lane id="gneE7_0">
                <vehicle id="924" pos="43.03" speed="8.05"/>
                <vehicle id="810" pos="177.24" speed="8.27"/>
                <vehicle id="984" pos="221.44" speed="8.98"/>
                <vehicle id="919" pos="262.57" speed="7.89"/>
            </lane>
        </edge>
    </timestep>
