<?xml version="1.0"?>
<timestep time="107.00">
        <edge id=":gneJ11_13">
            <lane id=":gneJ11_13_0">
                <vehicle id="29" pos="12.72" speed="7.81"/>
            </lane>
        </edge>
        <edge id=":gneJ15_8">
            <lane id=":gneJ15_8_0">
                <vehicle id="51" pos="15.14" speed="10.15"/>
            </lane>
        </edge>
        <edge id="gneE1">
            <lane id="gneE1_0">
                <vehicle id="76" pos="140.18" speed="4.19"/>
            </lane>
        </edge>
        <edge id="gneE11">
            <lane id="gneE11_0">
                <vehicle id="65" pos="33.67" speed="7.75"/>
            </lane>
        </edge>
        <edge id="gneE12">
            <lane id="gneE12_0">
                <vehicle id="105" pos="11.69" speed="4.43"/>
                <vehicle id="80" pos="60.72" speed="13.03"/>
                <vehicle id="42" pos="119.97" speed="13.59"/>
                <vehicle id="92" pos="168.08" speed="13.30"/>
            </lane>
        </edge>
        <edge id="gneE14">
            <lane id="gneE14_0">
                <vehicle id="100" pos="47.64" speed="10.37"/>
                <vehicle id="61" pos="87.05" speed="10.10"/>
                <vehicle id="53" pos="121.01" speed="9.87"/>
                <vehicle id="56" pos="152.86" speed="3.00"/>
                <vehicle id="31" pos="160.69" speed="0.03"/>
            </lane>
        </edge>
        <edge id="gneE15">
            <lane id="gneE15_0">
                <vehicle id="103" pos="24.08" speed="7.67"/>
            </lane>
        </edge>
        <edge id="gneE18">
            <lane id="gneE18_0">
                <vehicle id="6" pos="19.67" speed="9.66"/>
                <vehicle id="1" pos="46.30" speed="8.87"/>
                <vehicle id="72" pos="130.28" speed="9.79"/>
                <vehicle id="50" pos="196.49" speed="9.30"/>
                <vehicle id="78" pos="259.02" speed="8.85"/>
            </lane>
        </edge>
        <edge id="gneE19">
            <lane id="gneE19_0">
                <vehicle id="33" pos="24.74" speed="12.59"/>
                <vehicle id="15" pos="79.27" speed="12.58"/>
                <vehicle id="24" pos="120.66" speed="12.86"/>
                <vehicle id="28" pos="145.27" speed="12.52"/>
                <vehicle id="19" pos="175.99" speed="11.98"/>
            </lane>
        </edge>
        <edge id="gneE20">
            <lane id="gneE20_0">
                <vehicle id="48" pos="22.15" speed="8.02"/>
                <vehicle id="21" pos="268.62" speed="8.68"/>
            </lane>
        </edge>
        <edge id="gneE23">
            <lane id="gneE23_0">
                <vehicle id="11" pos="74.69" speed="7.76"/>
                <vehicle id="91" pos="106.60" speed="7.57"/>
                <vehicle id="36" pos="128.71" speed="6.84"/>
                <vehicle id="20" pos="166.96" speed="7.63"/>
            </lane>
        </edge>
        <edge id="gneE24">
            <lane id="gneE24_0">
                <vehicle id="34" pos="24.92" speed="12.81"/>
            </lane>
        </edge>
        <edge id="gneE25">
            <lane id="gneE25_0">
                <vehicle id="26" pos="7.91" speed="8.58"/>
                <vehicle id="37" pos="26.92" speed="9.10"/>
                <vehicle id="101" pos="45.11" speed="9.49"/>
                <vehicle id="18" pos="85.10" speed="9.82"/>
                <vehicle id="16" pos="115.73" speed="9.59"/>
                <vehicle id="86" pos="140.48" speed="8.79"/>
                <vehicle id="4" pos="179.80" speed="9.34"/>
                <vehicle id="5" pos="206.77" speed="9.22"/>
                <vehicle id="25" pos="259.82" speed="8.86"/>
                <vehicle id="74" pos="286.93" speed="6.41"/>
            </lane>
        </edge>
        <edge id="gneE26">
            <lane id="gneE26_0">
                <vehicle id="43" pos="7.64" speed="6.31"/>
                <vehicle id="90" pos="66.02" speed="6.99"/>
                <vehicle id="38" pos="83.37" speed="6.47"/>
                <vehicle id="35" pos="101.16" speed="5.72"/>
                <vehicle id="77" pos="188.00" speed="5.81"/>
            </lane>
        </edge>
        <edge id="gneE27">
            <lane id="gneE27_0">
                <vehicle id="0" pos="10.23" speed="5.31"/>
            </lane>
        </edge>
        <edge id="gneE28">
            <lane id="gneE28_0">
                <vehicle id="68" pos="15.85" speed="8.68"/>
                <vehicle id="102" pos="34.52" speed="8.74"/>
            </lane>
        </edge>
        <edge id="gneE3">
            <lane id="gneE3_0">
                <vehicle id="69" pos="20.28" speed="9.58"/>
                <vehicle id="94" pos="106.34" speed="8.98"/>
            </lane>
        </edge>
        <edge id="gneE30">
            <lane id="gneE30_0">
                <vehicle id="71" pos="66.20" speed="7.77"/>
            </lane>
        </edge>
        <edge id="gneE31">
            <lane id="gneE31_0">
                <vehicle id="75" pos="40.62" speed="8.64"/>
                <vehicle id="96" pos="81.66" speed="8.92"/>
                <vehicle id="49" pos="263.16" speed="8.26"/>
            </lane>
        </edge>
        <edge id="gneE32">
            <lane id="gneE32_0">
                <vehicle id="89" pos="128.97" speed="7.31"/>
            </lane>
        </edge>
        <edge id="gneE38">
            <lane id="gneE38_0">
                <vehicle id="81" pos="36.02" speed="7.87"/>
            </lane>
        </edge>
        <edge id="gneE42">
            <lane id="gneE42_0">
                <vehicle id="57" pos="7.91" speed="6.74"/>
            </lane>
        </edge>
        <edge id="gneE45">
            <lane id="gneE45_0">
                <vehicle id="88" pos="154.60" speed="8.54"/>
            </lane>
        </edge>
        <edge id="gneE47">
            <lane id="gneE47_0">
                <vehicle id="39" pos="187.33" speed="8.94"/>
            </lane>
        </edge>
        <edge id="gneE48">
            <lane id="gneE48_0">
                <vehicle id="106" pos="7.38" speed="2.28"/>
                <vehicle id="84" pos="141.19" speed="6.55"/>
                <vehicle id="73" pos="214.28" speed="6.68"/>
                <vehicle id="59" pos="299.76" speed="5.85"/>
                <vehicle id="55" pos="315.74" speed="6.79"/>
            </lane>
        </edge>
        <edge id="gneE49">
            <lane id="gneE49_0">
                <vehicle id="17" pos="132.59" speed="7.06"/>
                <vehicle id="79" pos="199.97" speed="7.99"/>
                <vehicle id="27" pos="246.31" speed="6.71"/>
                <vehicle id="63" pos="315.87" speed="7.08"/>
            </lane>
        </edge>
        <edge id="gneE5">
            <lane id="gneE5_0">
                <vehicle id="93" pos="76.50" speed="5.72"/>
            </lane>
        </edge>
        <edge id="gneE50">
            <lane id="gneE50_0">
                <vehicle id="52" pos="42.71" speed="5.69"/>
            </lane>
        </edge>
        <edge id="gneE51">
            <lane id="gneE51_0">
                <vehicle id="12" pos="51.98" speed="6.46"/>
                <vehicle id="30" pos="66.99" speed="6.13"/>
                <vehicle id="14" pos="160.99" speed="6.27"/>
                <vehicle id="62" pos="287.05" speed="6.64"/>
            </lane>
        </edge>
        <edge id="gneE52">
            <lane id="gneE52_0">
                <vehicle id="107" pos="5.10" speed="0.00"/>
            </lane>
        </edge>
        <edge id="gneE53">
            <lane id="gneE53_0">
                <vehicle id="70" pos="103.93" speed="6.91"/>
                <vehicle id="87" pos="127.43" speed="5.74"/>
                <vehicle id="58" pos="179.53" speed="6.51"/>
                <vehicle id="22" pos="271.80" speed="5.96"/>
                <vehicle id="40" pos="297.18" speed="6.60"/>
            </lane>
        </edge>
        <edge id="gneE55">
            <lane id="gneE55_0">
                <vehicle id="99" pos="54.48" speed="6.87"/>
            </lane>
        </edge>
        <edge id="gneE58">
            <lane id="gneE58_0">
                <vehicle id="83" pos="169.25" speed="6.82"/>
                <vehicle id="67" pos="293.32" speed="7.42"/>
            </lane>
        </edge>
        <edge id="gneE59">
            <lane id="gneE59_0">
                <vehicle id="97" pos="70.53" speed="8.36"/>
                <vehicle id="95" pos="89.62" speed="8.55"/>
                <vehicle id="45" pos="121.95" speed="8.60"/>
            </lane>
        </edge>
        <edge id="gneE6">
            <lane id="gneE6_0">
                <vehicle id="64" pos="1.00" speed="7.66"/>
            </lane>
        </edge>
        <edge id="gneE60">
            <lane id="gneE60_0">
                <vehicle id="44" pos="117.43" speed="5.87"/>
                <vehicle id="41" pos="138.90" speed="6.03"/>
                <vehicle id="60" pos="294.58" speed="6.71"/>
                <vehicle id="13" pos="312.88" speed="6.16"/>
            </lane>
        </edge>
        <edge id="gneE61">
            <lane id="gneE61_0">
                <vehicle id="32" pos="100.03" speed="7.66"/>
                <vehicle id="85" pos="135.13" speed="7.85"/>
                <vehicle id="9" pos="154.52" speed="7.09"/>
                <vehicle id="7" pos="315.82" speed="6.95"/>
            </lane>
        </edge>
        <edge id="gneE7">
            <lane id="gneE7_0">
                <vehicle id="66" pos="105.18" speed="7.86"/>
                <vehicle id="82" pos="197.19" speed="8.71"/>
                <vehicle id="47" pos="265.53" speed="8.08"/>
            </lane>
        </edge>
        <edge id="gneE8">
            <lane id="gneE8_0">
                <vehicle id="104" pos="17.47" speed="5.75"/>
                <vehicle id="98" pos="64.79" speed="7.33"/>
            </lane>
        </edge>
    </timestep>
