<?xml version="1.0"?>
<timestep time="1082.00">
        <edge id=":gneJ11_1">
            <lane id=":gneJ11_1_0">
                <vehicle id="799" pos="17.39" speed="6.04"/>
            </lane>
        </edge>
        <edge id=":gneJ11_41">
            <lane id=":gneJ11_41_0">
                <vehicle id="972" pos="3.25" speed="6.54"/>
            </lane>
        </edge>
        <edge id=":gneJ15_18">
            <lane id=":gneJ15_18_0">
                <vehicle id="853" pos="4.41" speed="0.00"/>
            </lane>
        </edge>
        <edge id=":gneJ28_8">
            <lane id=":gneJ28_8_0">
                <vehicle id="946" pos="12.49" speed="8.51"/>
            </lane>
        </edge>
        <edge id=":gneJ30_5">
            <lane id=":gneJ30_5_0">
                <vehicle id="995" pos="1.66" speed="9.61"/>
            </lane>
        </edge>
        <edge id="gneE10">
            <lane id="gneE10_0">
                <vehicle id="821" pos="11.35" speed="5.68"/>
                <vehicle id="813" pos="26.35" speed="5.02"/>
                <vehicle id="979" pos="40.28" speed="4.98"/>
                <vehicle id="991" pos="85.71" speed="5.44"/>
                <vehicle id="889" pos="101.22" speed="0.74"/>
                <vehicle id="996" pos="108.92" speed="0.04"/>
                <vehicle id="829" pos="116.43" speed="0.01"/>
                <vehicle id="952" pos="124.41" speed="0.47"/>
                <vehicle id="818" pos="134.34" speed="2.21"/>
            </lane>
        </edge>
        <edge id="gneE11">
            <lane id="gneE11_0">
                <vehicle id="856" pos="49.90" speed="8.73"/>
            </lane>
        </edge>
        <edge id="gneE12">
            <lane id="gneE12_0">
                <vehicle id="977" pos="206.18" speed="13.32"/>
                <vehicle id="980" pos="247.19" speed="13.22"/>
                <vehicle id="978" pos="283.60" speed="13.49"/>
            </lane>
        </edge>
        <edge id="gneE13">
            <lane id="gneE13_0">
                <vehicle id="990" pos="251.70" speed="9.35"/>
                <vehicle id="883" pos="281.60" speed="1.97"/>
                <vehicle id="868" pos="292.33" speed="2.26"/>
                <vehicle id="860" pos="301.12" speed="0.99"/>
            </lane>
        </edge>
        <edge id="gneE14">
            <lane id="gneE14_0">
                <vehicle id="981" pos="138.62" speed="10.26"/>
            </lane>
        </edge>
        <edge id="gneE15">
            <lane id="gneE15_0">
                <vehicle id="956" pos="81.28" speed="8.06"/>
                <vehicle id="917" pos="159.61" speed="8.75"/>
            </lane>
        </edge>
        <edge id="gneE17">
            <lane id="gneE17_0">
                <vehicle id="902" pos="65.79" speed="9.89"/>
                <vehicle id="721" pos="103.47" speed="9.48"/>
                <vehicle id="828" pos="124.03" speed="9.65"/>
                <vehicle id="817" pos="223.27" speed="9.91"/>
                <vehicle id="846" pos="278.56" speed="9.88"/>
            </lane>
        </edge>
        <edge id="gneE18">
            <lane id="gneE18_0">
                <vehicle id="947" pos="34.83" speed="9.48"/>
            </lane>
        </edge>
        <edge id="gneE19">
            <lane id="gneE19_0">
                <vehicle id="778" pos="237.63" speed="12.32"/>
            </lane>
        </edge>
        <edge id="gneE20">
            <lane id="gneE20_0">
                <vehicle id="790" pos="22.85" speed="8.20"/>
                <vehicle id="963" pos="72.25" speed="8.44"/>
                <vehicle id="914" pos="127.70" speed="8.73"/>
                <vehicle id="874" pos="164.15" speed="8.14"/>
                <vehicle id="891" pos="209.85" speed="8.41"/>
                <vehicle id="803" pos="249.25" speed="8.87"/>
            </lane>
        </edge>
        <edge id="gneE23">
            <lane id="gneE23_0">
                <vehicle id="887" pos="6.44" speed="7.69"/>
                <vehicle id="765" pos="79.62" speed="6.76"/>
                <vehicle id="892" pos="131.11" speed="6.87"/>
                <vehicle id="901" pos="165.51" speed="7.23"/>
            </lane>
        </edge>
        <edge id="gneE24">
            <lane id="gneE24_0">
                <vehicle id="915" pos="127.16" speed="12.69"/>
                <vehicle id="918" pos="175.25" speed="12.65"/>
            </lane>
        </edge>
        <edge id="gneE26">
            <lane id="gneE26_0">
                <vehicle id="943" pos="177.29" speed="1.25"/>
                <vehicle id="793" pos="185.37" speed="0.32"/>
                <vehicle id="735" pos="193.00" speed="0.10"/>
                <vehicle id="982" pos="200.64" speed="0.08"/>
                <vehicle id="895" pos="208.24" speed="0.04"/>
                <vehicle id="970" pos="215.78" speed="0.03"/>
                <vehicle id="935" pos="223.32" speed="0.02"/>
                <vehicle id="696" pos="230.82" speed="0.00"/>
                <vehicle id="939" pos="238.32" speed="0.00"/>
                <vehicle id="931" pos="245.82" speed="0.00"/>
                <vehicle id="719" pos="253.32" speed="0.00"/>
                <vehicle id="795" pos="260.82" speed="0.00"/>
                <vehicle id="850" pos="268.33" speed="0.00"/>
                <vehicle id="834" pos="275.83" speed="0.00"/>
                <vehicle id="801" pos="283.33" speed="0.00"/>
                <vehicle id="744" pos="290.83" speed="0.00"/>
            </lane>
        </edge>
        <edge id="gneE27">
            <lane id="gneE27_0">
                <vehicle id="808" pos="40.84" speed="4.88"/>
            </lane>
        </edge>
        <edge id="gneE28">
            <lane id="gneE28_0">
                <vehicle id="886" pos="18.66" speed="8.96"/>
                <vehicle id="845" pos="72.78" speed="8.12"/>
                <vehicle id="994" pos="119.75" speed="4.16"/>
                <vehicle id="827" pos="130.21" speed="0.82"/>
                <vehicle id="934" pos="137.92" speed="0.00"/>
            </lane>
        </edge>
        <edge id="gneE30">
            <lane id="gneE30_0">
                <vehicle id="878" pos="83.60" speed="8.16"/>
                <vehicle id="904" pos="233.42" speed="8.42"/>
            </lane>
        </edge>
        <edge id="gneE31">
            <lane id="gneE31_0">
                <vehicle id="905" pos="3.59" speed="4.76"/>
                <vehicle id="984" pos="31.94" speed="7.75"/>
                <vehicle id="919" pos="77.50" speed="7.94"/>
                <vehicle id="920" pos="105.02" speed="8.96"/>
                <vehicle id="959" pos="134.62" speed="8.94"/>
                <vehicle id="945" pos="166.20" speed="8.39"/>
                <vehicle id="873" pos="189.81" speed="8.35"/>
                <vehicle id="898" pos="212.58" speed="8.58"/>
                <vehicle id="964" pos="237.05" speed="8.89"/>
                <vehicle id="877" pos="282.88" speed="8.52"/>
            </lane>
        </edge>
        <edge id="gneE32">
            <lane id="gneE32_0">
                <vehicle id="999" pos="137.70" speed="7.70"/>
                <vehicle id="729" pos="166.16" speed="7.78"/>
                <vehicle id="841" pos="295.33" speed="6.81"/>
                <vehicle id="927" pos="317.09" speed="7.94"/>
            </lane>
        </edge>
        <edge id="gneE38">
            <lane id="gneE38_0">
                <vehicle id="941" pos="129.38" speed="8.69"/>
                <vehicle id="823" pos="200.20" speed="7.96"/>
                <vehicle id="949" pos="235.46" speed="8.67"/>
                <vehicle id="922" pos="266.95" speed="0.87"/>
                <vehicle id="929" pos="275.20" speed="0.12"/>
                <vehicle id="909" pos="282.88" speed="0.07"/>
                <vehicle id="908" pos="290.43" speed="0.03"/>
                <vehicle id="954" pos="297.97" speed="0.01"/>
                <vehicle id="953" pos="305.47" speed="0.00"/>
                <vehicle id="975" pos="312.97" speed="0.00"/>
                <vehicle id="962" pos="320.48" speed="0.00"/>
                <vehicle id="928" pos="327.98" speed="0.00"/>
                <vehicle id="921" pos="335.48" speed="0.00"/>
                <vehicle id="925" pos="342.98" speed="0.00"/>
            </lane>
        </edge>
        <edge id="gneE4">
            <lane id="gneE4_0">
                <vehicle id="932" pos="10.84" speed="8.81"/>
                <vehicle id="942" pos="38.59" speed="9.24"/>
            </lane>
        </edge>
        <edge id="gneE42">
            <lane id="gneE42_0">
                <vehicle id="864" pos="10.96" speed="7.14"/>
                <vehicle id="857" pos="27.89" speed="7.02"/>
                <vehicle id="969" pos="61.58" speed="6.97"/>
                <vehicle id="993" pos="125.56" speed="7.02"/>
            </lane>
        </edge>
        <edge id="gneE43">
            <lane id="gneE43_0">
                <vehicle id="819" pos="261.72" speed="0.00"/>
                <vehicle id="916" pos="269.22" speed="0.00"/>
                <vehicle id="930" pos="276.72" speed="0.00"/>
                <vehicle id="839" pos="284.23" speed="0.00"/>
                <vehicle id="836" pos="291.73" speed="0.00"/>
                <vehicle id="837" pos="299.23" speed="0.00"/>
                <vehicle id="894" pos="306.73" speed="0.00"/>
            </lane>
        </edge>
        <edge id="gneE45">
            <lane id="gneE45_0">
                <vehicle id="967" pos="7.72" speed="7.98"/>
                <vehicle id="848" pos="257.32" speed="8.41"/>
            </lane>
        </edge>
        <edge id="gneE48">
            <lane id="gneE48_0">
                <vehicle id="852" pos="119.92" speed="5.78"/>
                <vehicle id="802" pos="229.63" speed="0.00"/>
                <vehicle id="976" pos="237.13" speed="0.00"/>
                <vehicle id="879" pos="244.63" speed="0.00"/>
                <vehicle id="871" pos="252.13" speed="0.00"/>
                <vehicle id="903" pos="259.63" speed="0.00"/>
                <vehicle id="897" pos="267.65" speed="0.52"/>
                <vehicle id="882" pos="275.92" speed="0.69"/>
                <vehicle id="796" pos="286.58" speed="2.90"/>
                <vehicle id="791" pos="298.72" speed="4.48"/>
                <vehicle id="858" pos="316.31" speed="6.27"/>
            </lane>
        </edge>
        <edge id="gneE49">
            <lane id="gneE49_0">
                <vehicle id="766" pos="51.42" speed="6.79"/>
                <vehicle id="859" pos="73.85" speed="6.98"/>
                <vehicle id="822" pos="213.73" speed="7.71"/>
                <vehicle id="772" pos="230.31" speed="7.22"/>
                <vehicle id="936" pos="263.07" speed="7.92"/>
            </lane>
        </edge>
        <edge id="gneE5">
            <lane id="gneE5_0">
                <vehicle id="881" pos="42.19" speed="5.97"/>
                <vehicle id="992" pos="56.96" speed="5.45"/>
                <vehicle id="988" pos="71.59" speed="4.99"/>
                <vehicle id="733" pos="91.61" speed="5.28"/>
                <vehicle id="987" pos="109.12" speed="5.79"/>
            </lane>
        </edge>
        <edge id="gneE50">
            <lane id="gneE50_0">
                <vehicle id="777" pos="0.88" speed="5.16"/>
                <vehicle id="638" pos="77.02" speed="5.14"/>
                <vehicle id="749" pos="179.74" speed="5.93"/>
            </lane>
        </edge>
        <edge id="gneE51">
            <lane id="gneE51_0">
                <vehicle id="780" pos="343.30" speed="0.00"/>
                <vehicle id="896" pos="350.80" speed="0.00"/>
                <vehicle id="811" pos="358.30" speed="0.00"/>
                <vehicle id="844" pos="365.80" speed="0.00"/>
            </lane>
        </edge>
        <edge id="gneE52">
            <lane id="gneE52_0">
                <vehicle id="957" pos="126.77" speed="6.81"/>
                <vehicle id="866" pos="283.37" speed="6.76"/>
                <vehicle id="753" pos="303.25" speed="6.62"/>
                <vehicle id="745" pos="341.88" speed="5.92"/>
            </lane>
        </edge>
        <edge id="gneE53">
            <lane id="gneE53_0">
                <vehicle id="998" pos="241.91" speed="6.10"/>
                <vehicle id="983" pos="320.66" speed="0.00"/>
                <vehicle id="958" pos="328.16" speed="0.00"/>
                <vehicle id="683" pos="335.66" speed="0.00"/>
                <vehicle id="955" pos="343.16" speed="0.00"/>
            </lane>
        </edge>
        <edge id="gneE58">
            <lane id="gneE58_0">
                <vehicle id="986" pos="6.95" speed="7.93"/>
                <vehicle id="794" pos="236.34" speed="7.84"/>
                <vehicle id="913" pos="272.10" speed="6.82"/>
            </lane>
        </edge>
        <edge id="gneE59">
            <lane id="gneE59_0">
                <vehicle id="944" pos="135.98" speed="7.86"/>
                <vehicle id="757" pos="258.00" speed="8.61"/>
                <vehicle id="997" pos="313.93" speed="6.65"/>
            </lane>
        </edge>
        <edge id="gneE60">
            <lane id="gneE60_0">
                <vehicle id="974" pos="258.48" speed="1.51"/>
                <vehicle id="912" pos="269.69" speed="2.43"/>
                <vehicle id="900" pos="282.04" speed="4.57"/>
                <vehicle id="940" pos="297.16" speed="5.15"/>
                <vehicle id="582" pos="311.52" speed="6.04"/>
                <vehicle id="890" pos="328.29" speed="6.80"/>
            </lane>
        </edge>
        <edge id="gneE61">
            <lane id="gneE61_0">
                <vehicle id="961" pos="83.23" speed="6.91"/>
                <vehicle id="691" pos="171.75" speed="7.06"/>
                <vehicle id="966" pos="199.97" speed="7.88"/>
                <vehicle id="800" pos="291.49" speed="6.88"/>
            </lane>
        </edge>
        <edge id="gneE7">
            <lane id="gneE7_0">
                <vehicle id="924" pos="169.23" speed="8.65"/>
                <vehicle id="810" pos="300.28" speed="8.77"/>
            </lane>
        </edge>
    </timestep>
