<?xml version="1.0"?>
<timestep time="1118.00">
        <edge id=":gneJ11_35">
            <lane id=":gneJ11_35_0">
                <vehicle id="890" pos="11.34" speed="5.83"/>
            </lane>
        </edge>
        <edge id=":gneJ4_3">
            <lane id=":gneJ4_3_0">
                <vehicle id="997" pos="7.96" speed="8.82"/>
            </lane>
        </edge>
        <edge id=":gneJ9_2">
            <lane id=":gneJ9_2_0">
                <vehicle id="918" pos="0.80" speed="8.69"/>
            </lane>
        </edge>
        <edge id="gneE10">
            <lane id="gneE10_0">
                <vehicle id="868" pos="111.80" speed="5.17"/>
                <vehicle id="956" pos="131.83" speed="5.01"/>
            </lane>
        </edge>
        <edge id="gneE12">
            <lane id="gneE12_0">
                <vehicle id="891" pos="72.37" speed="12.97"/>
            </lane>
        </edge>
        <edge id="gneE15">
            <lane id="gneE15_0">
                <vehicle id="790" pos="35.99" speed="8.42"/>
                <vehicle id="947" pos="57.08" speed="7.78"/>
                <vehicle id="914" pos="139.98" speed="8.27"/>
            </lane>
        </edge>
        <edge id="gneE17">
            <lane id="gneE17_0">
                <vehicle id="963" pos="89.00" speed="9.48"/>
                <vehicle id="874" pos="192.69" speed="8.89"/>
            </lane>
        </edge>
        <edge id="gneE18">
            <lane id="gneE18_0">
                <vehicle id="944" pos="118.54" speed="9.04"/>
                <vehicle id="942" pos="197.14" speed="9.77"/>
            </lane>
        </edge>
        <edge id="gneE2">
            <lane id="gneE2_0">
                <vehicle id="902" pos="74.85" speed="10.53"/>
            </lane>
        </edge>
        <edge id="gneE20">
            <lane id="gneE20_0">
                <vehicle id="976" pos="49.02" speed="8.18"/>
                <vehicle id="871" pos="91.21" speed="8.91"/>
                <vehicle id="903" pos="112.05" speed="7.75"/>
                <vehicle id="897" pos="133.70" speed="8.73"/>
                <vehicle id="882" pos="151.56" speed="8.40"/>
                <vehicle id="796" pos="170.77" speed="8.21"/>
                <vehicle id="791" pos="225.67" speed="7.73"/>
                <vehicle id="844" pos="245.54" speed="7.97"/>
            </lane>
        </edge>
        <edge id="gneE23">
            <lane id="gneE23_0">
                <vehicle id="879" pos="67.49" speed="7.66"/>
            </lane>
        </edge>
        <edge id="gneE24">
            <lane id="gneE24_0">
                <vehicle id="925" pos="2.52" speed="9.13"/>
                <vehicle id="994" pos="150.17" speed="12.43"/>
                <vehicle id="827" pos="172.39" speed="12.77"/>
            </lane>
        </edge>
        <edge id="gneE26">
            <lane id="gneE26_0">
                <vehicle id="943" pos="178.31" speed="0.00"/>
                <vehicle id="793" pos="185.82" speed="0.00"/>
                <vehicle id="735" pos="193.32" speed="0.00"/>
                <vehicle id="982" pos="200.82" speed="0.00"/>
                <vehicle id="895" pos="208.32" speed="0.00"/>
                <vehicle id="970" pos="215.82" speed="0.00"/>
                <vehicle id="935" pos="223.32" speed="0.00"/>
                <vehicle id="696" pos="230.82" speed="0.00"/>
                <vehicle id="939" pos="238.32" speed="0.00"/>
                <vehicle id="931" pos="245.82" speed="0.00"/>
                <vehicle id="719" pos="253.83" speed="0.50"/>
                <vehicle id="795" pos="262.48" speed="1.09"/>
                <vehicle id="850" pos="274.37" speed="3.70"/>
                <vehicle id="834" pos="283.13" speed="0.43"/>
                <vehicle id="801" pos="290.82" speed="0.02"/>
            </lane>
        </edge>
        <edge id="gneE27">
            <lane id="gneE27_0">
                <vehicle id="744" pos="13.80" speed="5.18"/>
                <vehicle id="765" pos="106.71" speed="4.89"/>
                <vehicle id="892" pos="139.77" speed="5.75"/>
            </lane>
        </edge>
        <edge id="gneE28">
            <lane id="gneE28_0">
                <vehicle id="905" pos="10.59" speed="8.04"/>
                <vehicle id="984" pos="32.48" speed="8.57"/>
                <vehicle id="919" pos="69.85" speed="5.26"/>
                <vehicle id="920" pos="82.36" speed="3.77"/>
                <vehicle id="959" pos="91.57" speed="0.96"/>
                <vehicle id="945" pos="102.77" speed="3.31"/>
                <vehicle id="873" pos="114.80" speed="4.42"/>
                <vehicle id="898" pos="128.18" speed="5.56"/>
                <vehicle id="964" pos="140.61" speed="3.15"/>
            </lane>
        </edge>
        <edge id="gneE30">
            <lane id="gneE30_0">
                <vehicle id="901" pos="32.95" speed="7.85"/>
                <vehicle id="808" pos="134.84" speed="8.37"/>
            </lane>
        </edge>
        <edge id="gneE31">
            <lane id="gneE31_0">
                <vehicle id="860" pos="22.94" speed="7.89"/>
                <vehicle id="813" pos="87.89" speed="8.11"/>
                <vehicle id="979" pos="113.07" speed="8.19"/>
                <vehicle id="991" pos="133.46" speed="8.56"/>
                <vehicle id="924" pos="158.89" speed="8.90"/>
                <vehicle id="889" pos="189.50" speed="8.66"/>
                <vehicle id="996" pos="212.74" speed="7.73"/>
                <vehicle id="829" pos="235.86" speed="8.02"/>
                <vehicle id="952" pos="266.81" speed="8.74"/>
            </lane>
        </edge>
        <edge id="gneE32">
            <lane id="gneE32_0">
                <vehicle id="972" pos="51.43" speed="7.48"/>
                <vehicle id="887" pos="69.22" speed="7.08"/>
                <vehicle id="934" pos="108.48" speed="7.80"/>
            </lane>
        </edge>
        <edge id="gneE38">
            <lane id="gneE38_0">
                <vehicle id="857" pos="156.74" speed="8.10"/>
                <vehicle id="969" pos="197.24" speed="8.37"/>
                <vehicle id="993" pos="237.95" speed="0.02"/>
                <vehicle id="941" pos="245.47" speed="0.00"/>
                <vehicle id="823" pos="252.97" speed="0.00"/>
                <vehicle id="949" pos="260.47" speed="0.00"/>
                <vehicle id="922" pos="267.97" speed="0.00"/>
                <vehicle id="929" pos="275.47" speed="0.00"/>
                <vehicle id="909" pos="282.97" speed="0.00"/>
                <vehicle id="908" pos="290.47" speed="0.00"/>
                <vehicle id="954" pos="297.97" speed="0.00"/>
                <vehicle id="953" pos="305.47" speed="0.00"/>
                <vehicle id="975" pos="313.43" speed="0.45"/>
                <vehicle id="962" pos="321.96" speed="0.82"/>
                <vehicle id="928" pos="334.26" speed="3.99"/>
                <vehicle id="921" pos="342.96" speed="0.09"/>
            </lane>
        </edge>
        <edge id="gneE43">
            <lane id="gneE43_0">
                <vehicle id="841" pos="62.54" speed="6.30"/>
                <vehicle id="927" pos="82.93" speed="6.33"/>
                <vehicle id="819" pos="261.72" speed="0.00"/>
                <vehicle id="916" pos="269.22" speed="0.00"/>
                <vehicle id="930" pos="276.73" speed="0.00"/>
                <vehicle id="839" pos="284.23" speed="0.00"/>
                <vehicle id="836" pos="291.73" speed="0.00"/>
                <vehicle id="837" pos="299.23" speed="0.00"/>
                <vehicle id="894" pos="306.73" speed="0.00"/>
            </lane>
        </edge>
        <edge id="gneE45">
            <lane id="gneE45_0">
                <vehicle id="845" pos="36.72" speed="8.05"/>
                <vehicle id="853" pos="187.15" speed="7.92"/>
                <vehicle id="967" pos="304.98" speed="5.90"/>
            </lane>
        </edge>
        <edge id="gneE47">
            <lane id="gneE47_0">
                <vehicle id="822" pos="171.60" speed="8.08"/>
            </lane>
        </edge>
        <edge id="gneE49">
            <lane id="gneE49_0">
                <vehicle id="766" pos="315.53" speed="7.49"/>
            </lane>
        </edge>
        <edge id="gneE50">
            <lane id="gneE50_0">
                <vehicle id="777" pos="190.45" speed="4.83"/>
                <vehicle id="638" pos="268.38" speed="5.16"/>
            </lane>
        </edge>
        <edge id="gneE52">
            <lane id="gneE52_0">
                <vehicle id="852" pos="2.95" speed="6.06"/>
                <vehicle id="981" pos="19.03" speed="6.36"/>
                <vehicle id="858" pos="206.73" speed="6.30"/>
            </lane>
        </edge>
        <edge id="gneE53">
            <lane id="gneE53_0">
                <vehicle id="995" pos="95.71" speed="5.76"/>
                <vehicle id="998" pos="313.16" speed="0.00"/>
                <vehicle id="983" pos="320.66" speed="0.00"/>
                <vehicle id="958" pos="328.16" speed="0.00"/>
                <vehicle id="683" pos="335.66" speed="0.00"/>
                <vehicle id="955" pos="343.16" speed="0.00"/>
            </lane>
        </edge>
        <edge id="gneE55">
            <lane id="gneE55_0">
                <vehicle id="848" pos="44.29" speed="7.77"/>
            </lane>
        </edge>
        <edge id="gneE58">
            <lane id="gneE58_0">
                <vehicle id="980" pos="70.69" speed="7.35"/>
                <vehicle id="932" pos="130.81" speed="7.08"/>
                <vehicle id="817" pos="190.59" speed="7.48"/>
                <vehicle id="986" pos="267.41" speed="6.92"/>
            </lane>
        </edge>
        <edge id="gneE59">
            <lane id="gneE59_0">
                <vehicle id="691" pos="113.02" speed="8.42"/>
                <vehicle id="966" pos="145.88" speed="8.23"/>
                <vehicle id="800" pos="244.54" speed="8.85"/>
            </lane>
        </edge>
        <edge id="gneE60">
            <lane id="gneE60_0">
                <vehicle id="794" pos="153.30" speed="6.32"/>
                <vehicle id="974" pos="300.05" speed="0.00"/>
                <vehicle id="912" pos="307.56" speed="0.00"/>
                <vehicle id="900" pos="315.06" speed="0.00"/>
                <vehicle id="940" pos="323.81" speed="1.25"/>
                <vehicle id="582" pos="334.66" speed="3.11"/>
            </lane>
        </edge>
        <edge id="gneE61">
            <lane id="gneE61_0">
                <vehicle id="799" pos="263.63" speed="6.84"/>
            </lane>
        </edge>
        <edge id="gneE7">
            <lane id="gneE7_0">
                <vehicle id="978" pos="33.84" speed="8.85"/>
                <vehicle id="992" pos="154.61" speed="8.76"/>
                <vehicle id="988" pos="174.78" speed="8.42"/>
                <vehicle id="987" pos="234.43" speed="8.41"/>
            </lane>
        </edge>
        <edge id="gneE8">
            <lane id="gneE8_0">
                <vehicle id="904" pos="199.89" speed="7.91"/>
            </lane>
        </edge>
    </timestep>
