<?xml version="1.0"?>
<timestep time="1119.00">
        <edge id=":gneJ11_35">
            <lane id=":gneJ11_35_0">
                <vehicle id="890" pos="19.10" speed="7.77"/>
            </lane>
        </edge>
        <edge id=":gneJ15_17">
            <lane id=":gneJ15_17_0">
                <vehicle id="964" pos="4.16" speed="4.56"/>
            </lane>
        </edge>
        <edge id=":gneJ28_8">
            <lane id=":gneJ28_8_0">
                <vehicle id="967" pos="5.88" speed="7.72"/>
            </lane>
        </edge>
        <edge id=":gneJ30_3">
            <lane id=":gneJ30_3_0">
                <vehicle id="766" pos="2.61" speed="6.82"/>
            </lane>
        </edge>
        <edge id="gneE10">
            <lane id="gneE10_0">
                <vehicle id="868" pos="117.61" speed="5.81"/>
                <vehicle id="956" pos="137.62" speed="5.79"/>
            </lane>
        </edge>
        <edge id="gneE12">
            <lane id="gneE12_0">
                <vehicle id="891" pos="86.13" speed="13.76"/>
            </lane>
        </edge>
        <edge id="gneE15">
            <lane id="gneE15_0">
                <vehicle id="918" pos="4.57" speed="8.77"/>
                <vehicle id="790" pos="44.69" speed="8.70"/>
                <vehicle id="947" pos="65.91" speed="8.83"/>
                <vehicle id="914" pos="148.75" speed="8.77"/>
            </lane>
        </edge>
        <edge id="gneE17">
            <lane id="gneE17_0">
                <vehicle id="963" pos="98.07" speed="9.07"/>
                <vehicle id="874" pos="201.69" speed="8.99"/>
            </lane>
        </edge>
        <edge id="gneE18">
            <lane id="gneE18_0">
                <vehicle id="944" pos="127.89" speed="9.34"/>
                <vehicle id="942" pos="206.11" speed="8.97"/>
            </lane>
        </edge>
        <edge id="gneE2">
            <lane id="gneE2_0">
                <vehicle id="902" pos="84.77" speed="9.92"/>
            </lane>
        </edge>
        <edge id="gneE20">
            <lane id="gneE20_0">
                <vehicle id="976" pos="57.02" speed="8.00"/>
                <vehicle id="871" pos="99.91" speed="8.70"/>
                <vehicle id="903" pos="119.76" speed="7.71"/>
                <vehicle id="897" pos="142.42" speed="8.72"/>
                <vehicle id="882" pos="159.42" speed="7.86"/>
                <vehicle id="796" pos="178.49" speed="7.72"/>
                <vehicle id="791" pos="233.84" speed="8.17"/>
                <vehicle id="844" pos="253.95" speed="8.40"/>
            </lane>
        </edge>
        <edge id="gneE23">
            <lane id="gneE23_0">
                <vehicle id="879" pos="75.22" speed="7.73"/>
            </lane>
        </edge>
        <edge id="gneE24">
            <lane id="gneE24_0">
                <vehicle id="925" pos="13.47" speed="10.95"/>
                <vehicle id="994" pos="163.10" speed="12.93"/>
                <vehicle id="827" pos="183.20" speed="10.81"/>
            </lane>
        </edge>
        <edge id="gneE26">
            <lane id="gneE26_0">
                <vehicle id="943" pos="178.31" speed="0.00"/>
                <vehicle id="793" pos="185.82" speed="0.00"/>
                <vehicle id="735" pos="193.32" speed="0.00"/>
                <vehicle id="982" pos="200.82" speed="0.00"/>
                <vehicle id="895" pos="208.32" speed="0.00"/>
                <vehicle id="970" pos="215.82" speed="0.00"/>
                <vehicle id="935" pos="223.32" speed="0.00"/>
                <vehicle id="696" pos="230.82" speed="0.00"/>
                <vehicle id="939" pos="238.32" speed="0.00"/>
                <vehicle id="931" pos="246.10" speed="0.28"/>
                <vehicle id="719" pos="254.92" speed="1.10"/>
                <vehicle id="795" pos="265.48" speed="3.00"/>
                <vehicle id="850" pos="275.31" speed="0.94"/>
                <vehicle id="834" pos="283.31" speed="0.18"/>
                <vehicle id="801" pos="290.83" speed="0.00"/>
            </lane>
        </edge>
        <edge id="gneE27">
            <lane id="gneE27_0">
                <vehicle id="744" pos="19.37" speed="5.57"/>
                <vehicle id="765" pos="112.27" speed="5.57"/>
            </lane>
        </edge>
        <edge id="gneE28">
            <lane id="gneE28_0">
                <vehicle id="905" pos="19.50" speed="8.91"/>
                <vehicle id="984" pos="41.35" speed="8.87"/>
                <vehicle id="919" pos="74.24" speed="4.39"/>
                <vehicle id="920" pos="83.66" speed="1.31"/>
                <vehicle id="959" pos="93.96" speed="2.39"/>
                <vehicle id="945" pos="107.04" speed="4.27"/>
                <vehicle id="873" pos="120.00" speed="5.20"/>
                <vehicle id="898" pos="132.15" speed="3.98"/>
            </lane>
        </edge>
        <edge id="gneE30">
            <lane id="gneE30_0">
                <vehicle id="901" pos="41.08" speed="8.12"/>
                <vehicle id="808" pos="142.80" speed="7.96"/>
            </lane>
        </edge>
        <edge id="gneE31">
            <lane id="gneE31_0">
                <vehicle id="860" pos="31.53" speed="8.58"/>
                <vehicle id="813" pos="96.75" speed="8.86"/>
                <vehicle id="979" pos="121.55" speed="8.48"/>
                <vehicle id="991" pos="141.36" speed="7.91"/>
                <vehicle id="924" pos="167.32" speed="8.43"/>
                <vehicle id="889" pos="197.62" speed="8.13"/>
                <vehicle id="996" pos="221.63" speed="8.89"/>
                <vehicle id="829" pos="244.63" speed="8.78"/>
                <vehicle id="952" pos="275.72" speed="8.91"/>
            </lane>
        </edge>
        <edge id="gneE32">
            <lane id="gneE32_0">
                <vehicle id="972" pos="58.69" speed="7.26"/>
                <vehicle id="887" pos="76.32" speed="7.10"/>
                <vehicle id="934" pos="115.41" speed="6.93"/>
            </lane>
        </edge>
        <edge id="gneE38">
            <lane id="gneE38_0">
                <vehicle id="857" pos="164.83" speed="8.09"/>
                <vehicle id="969" pos="205.43" speed="8.19"/>
                <vehicle id="993" pos="237.96" speed="0.01"/>
                <vehicle id="941" pos="245.47" speed="0.00"/>
                <vehicle id="823" pos="252.97" speed="0.00"/>
                <vehicle id="949" pos="260.47" speed="0.00"/>
                <vehicle id="922" pos="267.97" speed="0.00"/>
                <vehicle id="929" pos="275.47" speed="0.00"/>
                <vehicle id="909" pos="282.97" speed="0.00"/>
                <vehicle id="908" pos="290.47" speed="0.00"/>
                <vehicle id="954" pos="297.97" speed="0.00"/>
                <vehicle id="953" pos="305.84" speed="0.36"/>
                <vehicle id="975" pos="314.20" speed="0.78"/>
                <vehicle id="962" pos="325.28" speed="3.33"/>
                <vehicle id="928" pos="335.27" speed="1.00"/>
                <vehicle id="921" pos="342.98" speed="0.02"/>
            </lane>
        </edge>
        <edge id="gneE43">
            <lane id="gneE43_0">
                <vehicle id="841" pos="69.12" speed="6.57"/>
                <vehicle id="927" pos="88.81" speed="5.88"/>
                <vehicle id="819" pos="261.72" speed="0.00"/>
                <vehicle id="916" pos="269.22" speed="0.00"/>
                <vehicle id="930" pos="276.73" speed="0.00"/>
                <vehicle id="839" pos="284.23" speed="0.00"/>
                <vehicle id="836" pos="291.73" speed="0.00"/>
                <vehicle id="837" pos="299.23" speed="0.00"/>
                <vehicle id="894" pos="306.73" speed="0.00"/>
            </lane>
        </edge>
        <edge id="gneE45">
            <lane id="gneE45_0">
                <vehicle id="845" pos="44.43" speed="7.71"/>
                <vehicle id="853" pos="195.65" speed="8.50"/>
            </lane>
        </edge>
        <edge id="gneE47">
            <lane id="gneE47_0">
                <vehicle id="822" pos="179.60" speed="8.00"/>
            </lane>
        </edge>
        <edge id="gneE5">
            <lane id="gneE5_0">
                <vehicle id="997" pos="3.73" speed="5.29"/>
            </lane>
        </edge>
        <edge id="gneE50">
            <lane id="gneE50_0">
                <vehicle id="777" pos="196.26" speed="5.81"/>
                <vehicle id="638" pos="273.57" speed="5.18"/>
            </lane>
        </edge>
        <edge id="gneE52">
            <lane id="gneE52_0">
                <vehicle id="852" pos="8.92" speed="5.97"/>
                <vehicle id="981" pos="25.51" speed="6.48"/>
                <vehicle id="858" pos="212.58" speed="5.85"/>
            </lane>
        </edge>
        <edge id="gneE53">
            <lane id="gneE53_0">
                <vehicle id="995" pos="102.59" speed="6.88"/>
                <vehicle id="998" pos="313.16" speed="0.00"/>
                <vehicle id="983" pos="320.66" speed="0.00"/>
                <vehicle id="958" pos="328.16" speed="0.00"/>
                <vehicle id="683" pos="335.66" speed="0.00"/>
                <vehicle id="955" pos="343.16" speed="0.00"/>
            </lane>
        </edge>
        <edge id="gneE55">
            <lane id="gneE55_0">
                <vehicle id="848" pos="51.04" speed="6.74"/>
            </lane>
        </edge>
        <edge id="gneE58">
            <lane id="gneE58_0">
                <vehicle id="980" pos="77.51" speed="6.83"/>
                <vehicle id="932" pos="138.24" speed="7.42"/>
                <vehicle id="817" pos="198.24" speed="7.65"/>
                <vehicle id="986" pos="274.18" speed="6.77"/>
            </lane>
        </edge>
        <edge id="gneE59">
            <lane id="gneE59_0">
                <vehicle id="691" pos="121.08" speed="8.05"/>
                <vehicle id="966" pos="154.09" speed="8.21"/>
                <vehicle id="800" pos="252.93" speed="8.39"/>
            </lane>
        </edge>
        <edge id="gneE60">
            <lane id="gneE60_0">
                <vehicle id="794" pos="160.05" speed="6.75"/>
                <vehicle id="974" pos="300.05" speed="0.00"/>
                <vehicle id="912" pos="307.56" speed="0.00"/>
                <vehicle id="900" pos="316.11" speed="1.05"/>
                <vehicle id="940" pos="326.98" speed="3.18"/>
            </lane>
        </edge>
        <edge id="gneE61">
            <lane id="gneE61_0">
                <vehicle id="799" pos="271.24" speed="7.61"/>
            </lane>
        </edge>
        <edge id="gneE7">
            <lane id="gneE7_0">
                <vehicle id="978" pos="41.98" speed="8.15"/>
                <vehicle id="992" pos="162.39" speed="7.79"/>
                <vehicle id="988" pos="183.08" speed="8.30"/>
                <vehicle id="987" pos="243.31" speed="8.89"/>
            </lane>
        </edge>
        <edge id="gneE8">
            <lane id="gneE8_0">
                <vehicle id="904" pos="207.29" speed="7.40"/>
            </lane>
        </edge>
    </timestep>
