<?xml version="1.0"?>
<timestep time="1132.00">
        <edge id=":gneJ11_20">
            <lane id=":gneJ11_20_0">
                <vehicle id="983" pos="18.58" speed="8.92"/>
            </lane>
        </edge>
        <edge id=":gneJ15_7">
            <lane id=":gneJ15_7_0">
                <vehicle id="894" pos="2.43" speed="2.53"/>
            </lane>
        </edge>
        <edge id=":gneJ15_22">
            <lane id=":gneJ15_22_0">
                <vehicle id="920" pos="5.60" speed="8.56"/>
            </lane>
        </edge>
        <edge id=":gneJ9_3">
            <lane id=":gneJ9_3_0">
                <vehicle id="796" pos="3.30" speed="8.39"/>
            </lane>
        </edge>
        <edge id="gneE10">
            <lane id="gneE10_0">
                <vehicle id="914" pos="52.85" speed="4.99"/>
            </lane>
        </edge>
        <edge id="gneE12">
            <lane id="gneE12_0">
                <vehicle id="891" pos="257.88" speed="13.62"/>
            </lane>
        </edge>
        <edge id="gneE15">
            <lane id="gneE15_0">
                <vehicle id="942" pos="22.95" speed="8.02"/>
                <vehicle id="791" pos="55.25" speed="8.17"/>
                <vehicle id="844" pos="74.56" speed="8.93"/>
                <vehicle id="918" pos="112.80" speed="7.98"/>
                <vehicle id="790" pos="153.36" speed="8.89"/>
            </lane>
        </edge>
        <edge id="gneE17">
            <lane id="gneE17_0">
                <vehicle id="963" pos="221.84" speed="9.55"/>
            </lane>
        </edge>
        <edge id="gneE18">
            <lane id="gneE18_0">
                <vehicle id="944" pos="250.84" speed="9.24"/>
            </lane>
        </edge>
        <edge id="gneE20">
            <lane id="gneE20_0">
                <vehicle id="900" pos="19.16" speed="7.81"/>
                <vehicle id="955" pos="47.65" speed="8.76"/>
                <vehicle id="890" pos="103.30" speed="8.29"/>
                <vehicle id="976" pos="166.82" speed="8.04"/>
                <vehicle id="871" pos="211.31" speed="8.87"/>
                <vehicle id="903" pos="229.58" speed="7.81"/>
                <vehicle id="897" pos="249.09" speed="8.54"/>
                <vehicle id="882" pos="267.47" speed="8.49"/>
            </lane>
        </edge>
        <edge id="gneE23">
            <lane id="gneE23_0">
                <vehicle id="940" pos="31.65" speed="7.04"/>
                <vehicle id="879" pos="172.12" speed="7.50"/>
            </lane>
        </edge>
        <edge id="gneE24">
            <lane id="gneE24_0">
                <vehicle id="834" pos="44.96" speed="12.69"/>
                <vehicle id="801" pos="74.29" speed="12.27"/>
                <vehicle id="898" pos="117.07" speed="12.37"/>
                <vehicle id="964" pos="139.40" speed="12.17"/>
                <vehicle id="925" pos="173.15" speed="12.21"/>
            </lane>
        </edge>
        <edge id="gneE26">
            <lane id="gneE26_0">
                <vehicle id="947" pos="6.30" speed="6.49"/>
                <vehicle id="943" pos="180.11" speed="1.09"/>
                <vehicle id="793" pos="189.53" speed="1.67"/>
                <vehicle id="735" pos="199.05" speed="1.94"/>
                <vehicle id="982" pos="207.57" speed="0.59"/>
                <vehicle id="895" pos="215.67" speed="0.17"/>
                <vehicle id="970" pos="223.27" speed="0.07"/>
                <vehicle id="935" pos="230.83" speed="0.05"/>
                <vehicle id="696" pos="238.71" speed="0.38"/>
                <vehicle id="939" pos="247.35" speed="0.77"/>
                <vehicle id="931" pos="258.47" speed="3.10"/>
                <vehicle id="719" pos="272.27" speed="4.90"/>
                <vehicle id="795" pos="282.23" speed="1.46"/>
                <vehicle id="850" pos="290.82" speed="0.04"/>
            </lane>
        </edge>
        <edge id="gneE27">
            <lane id="gneE27_0">
                <vehicle id="744" pos="88.52" speed="4.81"/>
            </lane>
        </edge>
        <edge id="gneE28">
            <lane id="gneE28_0">
                <vehicle id="889" pos="8.14" speed="8.26"/>
                <vehicle id="996" pos="31.39" speed="8.23"/>
                <vehicle id="829" pos="55.91" speed="8.33"/>
                <vehicle id="952" pos="87.46" speed="7.95"/>
                <vehicle id="905" pos="104.26" speed="5.24"/>
                <vehicle id="984" pos="117.05" speed="3.90"/>
                <vehicle id="919" pos="131.99" speed="5.61"/>
            </lane>
        </edge>
        <edge id="gneE3">
            <lane id="gneE3_0">
                <vehicle id="874" pos="19.81" speed="8.78"/>
            </lane>
        </edge>
        <edge id="gneE30">
            <lane id="gneE30_0">
                <vehicle id="765" pos="50.94" speed="8.47"/>
                <vehicle id="901" pos="149.10" speed="8.07"/>
                <vehicle id="808" pos="253.78" speed="7.81"/>
            </lane>
        </edge>
        <edge id="gneE31">
            <lane id="gneE31_0">
                <vehicle id="987" pos="38.95" speed="8.66"/>
                <vehicle id="868" pos="63.46" speed="8.63"/>
                <vehicle id="956" pos="97.61" speed="8.01"/>
                <vehicle id="860" pos="140.73" speed="8.06"/>
                <vehicle id="813" pos="208.53" speed="8.95"/>
                <vehicle id="979" pos="227.66" speed="8.03"/>
                <vehicle id="991" pos="247.85" speed="8.04"/>
                <vehicle id="924" pos="274.97" speed="8.91"/>
            </lane>
        </edge>
        <edge id="gneE32">
            <lane id="gneE32_0">
                <vehicle id="972" pos="153.59" speed="7.65"/>
                <vehicle id="887" pos="171.09" speed="6.96"/>
                <vehicle id="934" pos="211.77" speed="7.42"/>
            </lane>
        </edge>
        <edge id="gneE38">
            <lane id="gneE38_0">
                <vehicle id="857" pos="223.27" speed="0.23"/>
                <vehicle id="969" pos="231.83" speed="1.05"/>
                <vehicle id="993" pos="240.16" speed="0.79"/>
                <vehicle id="941" pos="249.22" speed="1.14"/>
                <vehicle id="823" pos="257.79" speed="0.62"/>
                <vehicle id="949" pos="266.73" speed="1.02"/>
                <vehicle id="922" pos="274.76" speed="0.41"/>
                <vehicle id="929" pos="282.78" speed="0.19"/>
                <vehicle id="909" pos="290.45" speed="0.12"/>
                <vehicle id="908" pos="297.97" speed="0.00"/>
                <vehicle id="954" pos="305.47" speed="0.00"/>
                <vehicle id="953" pos="312.97" speed="0.00"/>
                <vehicle id="975" pos="320.48" speed="0.00"/>
                <vehicle id="962" pos="327.98" speed="0.00"/>
                <vehicle id="928" pos="335.48" speed="0.00"/>
                <vehicle id="921" pos="342.98" speed="0.00"/>
            </lane>
        </edge>
        <edge id="gneE42">
            <lane id="gneE42_0">
                <vehicle id="967" pos="84.71" speed="6.79"/>
            </lane>
        </edge>
        <edge id="gneE43">
            <lane id="gneE43_0">
                <vehicle id="822" pos="53.57" speed="6.09"/>
                <vehicle id="841" pos="150.52" speed="6.54"/>
                <vehicle id="927" pos="172.34" speed="5.93"/>
                <vehicle id="819" pos="261.72" speed="0.00"/>
                <vehicle id="916" pos="269.22" speed="0.00"/>
                <vehicle id="930" pos="276.73" speed="0.00"/>
                <vehicle id="839" pos="284.23" speed="0.00"/>
                <vehicle id="836" pos="291.73" speed="0.00"/>
                <vehicle id="837" pos="299.23" speed="0.00"/>
            </lane>
        </edge>
        <edge id="gneE45">
            <lane id="gneE45_0">
                <vehicle id="959" pos="7.24" speed="8.94"/>
                <vehicle id="945" pos="26.38" speed="8.00"/>
                <vehicle id="873" pos="45.62" speed="8.81"/>
                <vehicle id="845" pos="152.40" speed="8.05"/>
                <vehicle id="853" pos="303.12" speed="7.42"/>
            </lane>
        </edge>
        <edge id="gneE47">
            <lane id="gneE47_0">
                <vehicle id="766" pos="100.29" speed="8.33"/>
            </lane>
        </edge>
        <edge id="gneE5">
            <lane id="gneE5_0">
                <vehicle id="997" pos="71.32" speed="4.79"/>
            </lane>
        </edge>
        <edge id="gneE50">
            <lane id="gneE50_0">
                <vehicle id="958" pos="16.23" speed="5.76"/>
                <vehicle id="777" pos="264.53" speed="5.21"/>
                <vehicle id="638" pos="343.65" speed="4.88"/>
            </lane>
        </edge>
        <edge id="gneE52">
            <lane id="gneE52_0">
                <vehicle id="852" pos="90.31" speed="5.98"/>
                <vehicle id="981" pos="108.50" speed="6.31"/>
                <vehicle id="858" pos="294.04" speed="6.02"/>
            </lane>
        </edge>
        <edge id="gneE53">
            <lane id="gneE53_0">
                <vehicle id="995" pos="182.18" speed="6.52"/>
                <vehicle id="998" pos="342.28" speed="4.78"/>
            </lane>
        </edge>
        <edge id="gneE58">
            <lane id="gneE58_0">
                <vehicle id="980" pos="173.26" speed="7.28"/>
                <vehicle id="932" pos="234.26" speed="6.93"/>
                <vehicle id="817" pos="294.08" speed="7.45"/>
            </lane>
        </edge>
        <edge id="gneE59">
            <lane id="gneE59_0">
                <vehicle id="799" pos="31.86" speed="8.39"/>
                <vehicle id="691" pos="229.49" speed="7.77"/>
                <vehicle id="966" pos="262.20" speed="8.08"/>
            </lane>
        </edge>
        <edge id="gneE60">
            <lane id="gneE60_0">
                <vehicle id="986" pos="41.07" speed="5.76"/>
                <vehicle id="794" pos="241.80" speed="6.47"/>
                <vehicle id="974" pos="329.58" speed="0.52"/>
                <vehicle id="912" pos="337.56" speed="0.00"/>
            </lane>
        </edge>
        <edge id="gneE61">
            <lane id="gneE61_0">
                <vehicle id="827" pos="79.54" speed="7.32"/>
            </lane>
        </edge>
        <edge id="gneE7">
            <lane id="gneE7_0">
                <vehicle id="978" pos="149.65" speed="8.74"/>
                <vehicle id="992" pos="269.10" speed="7.92"/>
                <vehicle id="988" pos="291.91" speed="7.70"/>
            </lane>
        </edge>
        <edge id="gneE8">
            <lane id="gneE8_0">
                <vehicle id="904" pos="301.69" speed="6.97"/>
            </lane>
        </edge>
    </timestep>
