<?xml version="1.0"?>
<timestep time="1133.00">
        <edge id=":gneJ11_20">
            <lane id=":gneJ11_20_0">
                <vehicle id="998" pos="5.50" speed="6.48"/>
            </lane>
        </edge>
        <edge id=":gneJ15_7">
            <lane id=":gneJ15_7_0">
                <vehicle id="894" pos="6.31" speed="3.89"/>
            </lane>
        </edge>
        <edge id=":gneJ15_22">
            <lane id=":gneJ15_22_0">
                <vehicle id="920" pos="15.86" speed="10.27"/>
            </lane>
        </edge>
        <edge id=":gneJ28_7">
            <lane id=":gneJ28_7_0">
                <vehicle id="853" pos="4.76" speed="8.47"/>
            </lane>
        </edge>
        <edge id=":gneJ5_0">
            <lane id=":gneJ5_0_0">
                <vehicle id="904" pos="5.85" speed="7.02"/>
            </lane>
        </edge>
        <edge id="gneE10">
            <lane id="gneE10_0">
                <vehicle id="914" pos="58.56" speed="5.71"/>
            </lane>
        </edge>
        <edge id="gneE12">
            <lane id="gneE12_0">
                <vehicle id="891" pos="270.54" speed="12.67"/>
            </lane>
        </edge>
        <edge id="gneE15">
            <lane id="gneE15_0">
                <vehicle id="942" pos="31.02" speed="8.07"/>
                <vehicle id="791" pos="63.74" speed="8.50"/>
                <vehicle id="844" pos="83.50" speed="8.94"/>
                <vehicle id="918" pos="120.59" speed="7.78"/>
            </lane>
        </edge>
        <edge id="gneE17">
            <lane id="gneE17_0">
                <vehicle id="796" pos="3.29" speed="9.44"/>
                <vehicle id="963" pos="230.62" speed="8.78"/>
            </lane>
        </edge>
        <edge id="gneE18">
            <lane id="gneE18_0">
                <vehicle id="944" pos="260.23" speed="9.39"/>
            </lane>
        </edge>
        <edge id="gneE20">
            <lane id="gneE20_0">
                <vehicle id="900" pos="27.70" speed="8.54"/>
                <vehicle id="955" pos="56.61" speed="8.96"/>
                <vehicle id="890" pos="111.96" speed="8.66"/>
                <vehicle id="976" pos="175.36" speed="8.55"/>
                <vehicle id="871" pos="219.81" speed="8.50"/>
                <vehicle id="903" pos="237.40" speed="7.82"/>
                <vehicle id="897" pos="257.45" speed="8.36"/>
                <vehicle id="882" pos="276.25" speed="8.78"/>
            </lane>
        </edge>
        <edge id="gneE23">
            <lane id="gneE23_0">
                <vehicle id="983" pos="5.83" speed="6.84"/>
                <vehicle id="940" pos="39.30" speed="7.64"/>
                <vehicle id="879" pos="179.06" speed="6.94"/>
            </lane>
        </edge>
        <edge id="gneE24">
            <lane id="gneE24_0">
                <vehicle id="834" pos="57.18" speed="12.22"/>
                <vehicle id="801" pos="86.71" speed="12.42"/>
                <vehicle id="898" pos="130.03" speed="12.96"/>
                <vehicle id="964" pos="151.22" speed="11.82"/>
                <vehicle id="925" pos="184.98" speed="11.83"/>
            </lane>
        </edge>
        <edge id="gneE26">
            <lane id="gneE26_0">
                <vehicle id="947" pos="12.09" speed="5.79"/>
                <vehicle id="943" pos="182.01" speed="1.90"/>
                <vehicle id="793" pos="190.78" speed="1.25"/>
                <vehicle id="735" pos="199.56" speed="0.52"/>
                <vehicle id="982" pos="208.08" speed="0.51"/>
                <vehicle id="895" pos="215.75" speed="0.08"/>
                <vehicle id="970" pos="223.32" speed="0.06"/>
                <vehicle id="935" pos="231.02" speed="0.19"/>
                <vehicle id="696" pos="239.78" speed="1.07"/>
                <vehicle id="939" pos="250.61" speed="3.26"/>
                <vehicle id="931" pos="263.70" speed="5.22"/>
                <vehicle id="719" pos="273.75" speed="1.48"/>
                <vehicle id="795" pos="282.83" speed="0.59"/>
                <vehicle id="850" pos="290.83" speed="0.00"/>
            </lane>
        </edge>
        <edge id="gneE27">
            <lane id="gneE27_0">
                <vehicle id="744" pos="94.08" speed="5.56"/>
            </lane>
        </edge>
        <edge id="gneE28">
            <lane id="gneE28_0">
                <vehicle id="889" pos="16.23" speed="8.10"/>
                <vehicle id="996" pos="39.54" speed="8.15"/>
                <vehicle id="829" pos="64.23" speed="8.32"/>
                <vehicle id="952" pos="93.43" speed="5.97"/>
                <vehicle id="905" pos="108.70" speed="4.44"/>
                <vehicle id="984" pos="122.85" speed="5.80"/>
                <vehicle id="919" pos="137.45" speed="5.47"/>
            </lane>
        </edge>
        <edge id="gneE3">
            <lane id="gneE3_0">
                <vehicle id="874" pos="28.62" speed="8.81"/>
            </lane>
        </edge>
        <edge id="gneE30">
            <lane id="gneE30_0">
                <vehicle id="765" pos="59.81" speed="8.87"/>
                <vehicle id="901" pos="157.41" speed="8.31"/>
                <vehicle id="808" pos="262.15" speed="8.38"/>
            </lane>
        </edge>
        <edge id="gneE31">
            <lane id="gneE31_0">
                <vehicle id="987" pos="47.61" speed="8.66"/>
                <vehicle id="868" pos="71.91" speed="8.44"/>
                <vehicle id="956" pos="106.22" speed="8.62"/>
                <vehicle id="860" pos="149.29" speed="8.56"/>
                <vehicle id="813" pos="217.07" speed="8.54"/>
                <vehicle id="979" pos="236.23" speed="8.57"/>
                <vehicle id="991" pos="255.62" speed="7.77"/>
                <vehicle id="924" pos="283.30" speed="8.33"/>
            </lane>
        </edge>
        <edge id="gneE32">
            <lane id="gneE32_0">
                <vehicle id="972" pos="160.34" speed="6.75"/>
                <vehicle id="887" pos="178.27" speed="7.19"/>
                <vehicle id="934" pos="218.76" speed="6.99"/>
            </lane>
        </edge>
        <edge id="gneE38">
            <lane id="gneE38_0">
                <vehicle id="857" pos="224.20" speed="0.93"/>
                <vehicle id="969" pos="232.28" speed="0.45"/>
                <vehicle id="993" pos="241.19" speed="1.03"/>
                <vehicle id="941" pos="249.87" speed="0.65"/>
                <vehicle id="823" pos="258.83" speed="1.04"/>
                <vehicle id="949" pos="267.00" speed="0.26"/>
                <vehicle id="922" pos="275.09" speed="0.33"/>
                <vehicle id="929" pos="282.89" speed="0.10"/>
                <vehicle id="909" pos="290.47" speed="0.02"/>
                <vehicle id="908" pos="297.97" speed="0.00"/>
                <vehicle id="954" pos="305.47" speed="0.00"/>
                <vehicle id="953" pos="312.97" speed="0.00"/>
                <vehicle id="975" pos="320.48" speed="0.00"/>
                <vehicle id="962" pos="327.98" speed="0.00"/>
                <vehicle id="928" pos="335.48" speed="0.00"/>
                <vehicle id="921" pos="342.98" speed="0.00"/>
            </lane>
        </edge>
        <edge id="gneE42">
            <lane id="gneE42_0">
                <vehicle id="967" pos="92.14" speed="7.43"/>
            </lane>
        </edge>
        <edge id="gneE43">
            <lane id="gneE43_0">
                <vehicle id="822" pos="59.38" speed="5.80"/>
                <vehicle id="841" pos="156.93" speed="6.41"/>
                <vehicle id="927" pos="178.46" speed="6.12"/>
                <vehicle id="819" pos="261.72" speed="0.00"/>
                <vehicle id="916" pos="269.22" speed="0.00"/>
                <vehicle id="930" pos="276.73" speed="0.00"/>
                <vehicle id="839" pos="284.23" speed="0.00"/>
                <vehicle id="836" pos="291.73" speed="0.00"/>
                <vehicle id="837" pos="301.25" speed="2.02"/>
            </lane>
        </edge>
        <edge id="gneE45">
            <lane id="gneE45_0">
                <vehicle id="959" pos="16.16" speed="8.91"/>
                <vehicle id="945" pos="34.68" speed="8.30"/>
                <vehicle id="873" pos="53.34" speed="7.72"/>
                <vehicle id="845" pos="161.35" speed="8.95"/>
            </lane>
        </edge>
        <edge id="gneE47">
            <lane id="gneE47_0">
                <vehicle id="766" pos="109.07" speed="8.78"/>
            </lane>
        </edge>
        <edge id="gneE5">
            <lane id="gneE5_0">
                <vehicle id="997" pos="76.78" speed="5.46"/>
            </lane>
        </edge>
        <edge id="gneE50">
            <lane id="gneE50_0">
                <vehicle id="958" pos="22.00" speed="5.77"/>
                <vehicle id="777" pos="270.52" speed="6.00"/>
                <vehicle id="638" pos="348.98" speed="5.33"/>
            </lane>
        </edge>
        <edge id="gneE52">
            <lane id="gneE52_0">
                <vehicle id="852" pos="97.15" speed="6.83"/>
                <vehicle id="981" pos="114.81" speed="6.32"/>
                <vehicle id="858" pos="300.04" speed="6.00"/>
            </lane>
        </edge>
        <edge id="gneE53">
            <lane id="gneE53_0">
                <vehicle id="995" pos="188.37" speed="6.20"/>
            </lane>
        </edge>
        <edge id="gneE58">
            <lane id="gneE58_0">
                <vehicle id="980" pos="181.01" speed="7.75"/>
                <vehicle id="932" pos="241.08" speed="6.83"/>
                <vehicle id="817" pos="301.47" speed="7.40"/>
            </lane>
        </edge>
        <edge id="gneE59">
            <lane id="gneE59_0">
                <vehicle id="799" pos="40.36" speed="8.50"/>
                <vehicle id="691" pos="238.14" speed="8.65"/>
                <vehicle id="966" pos="270.18" speed="7.97"/>
            </lane>
        </edge>
        <edge id="gneE60">
            <lane id="gneE60_0">
                <vehicle id="986" pos="47.80" speed="6.73"/>
                <vehicle id="794" pos="247.93" speed="6.13"/>
                <vehicle id="974" pos="329.85" speed="0.27"/>
                <vehicle id="912" pos="337.56" speed="0.00"/>
            </lane>
        </edge>
        <edge id="gneE61">
            <lane id="gneE61_0">
                <vehicle id="827" pos="86.31" speed="6.77"/>
            </lane>
        </edge>
        <edge id="gneE7">
            <lane id="gneE7_0">
                <vehicle id="978" pos="158.53" speed="8.88"/>
                <vehicle id="992" pos="277.86" speed="8.76"/>
                <vehicle id="988" pos="300.46" speed="8.55"/>
            </lane>
        </edge>
    </timestep>
