<?xml version="1.0"?>
<timestep time="1140.00">
        <edge id=":gneJ11_1">
            <lane id=":gneJ11_1_0">
                <vehicle id="898" pos="13.36" speed="10.35"/>
            </lane>
        </edge>
        <edge id=":gneJ11_34">
            <lane id=":gneJ11_34_0">
                <vehicle id="912" pos="1.30" speed="1.40"/>
            </lane>
        </edge>
        <edge id=":gneJ15_22">
            <lane id=":gneJ15_22_0">
                <vehicle id="984" pos="4.94" speed="6.11"/>
            </lane>
        </edge>
        <edge id=":gneJ16_1">
            <lane id=":gneJ16_1_0">
                <vehicle id="979" pos="1.57" speed="8.71"/>
            </lane>
        </edge>
        <edge id=":gneJ3_0">
            <lane id=":gneJ3_0_0">
                <vehicle id="963" pos="6.43" speed="8.37"/>
            </lane>
        </edge>
        <edge id=":gneJ3_3">
            <lane id=":gneJ3_3_0">
                <vehicle id="966" pos="6.70" speed="7.00"/>
            </lane>
        </edge>
        <edge id="gneE10">
            <lane id="gneE10_0">
                <vehicle id="914" pos="96.83" speed="4.77"/>
            </lane>
        </edge>
        <edge id="gneE11">
            <lane id="gneE11_0">
                <vehicle id="808" pos="11.39" speed="7.38"/>
                <vehicle id="992" pos="28.99" speed="8.91"/>
                <vehicle id="988" pos="53.03" speed="8.92"/>
            </lane>
        </edge>
        <edge id="gneE15">
            <lane id="gneE15_0">
                <vehicle id="944" pos="10.05" speed="6.37"/>
                <vehicle id="897" pos="26.70" speed="8.22"/>
                <vehicle id="882" pos="44.16" speed="8.66"/>
                <vehicle id="942" pos="90.31" speed="8.19"/>
                <vehicle id="791" pos="122.32" speed="8.19"/>
                <vehicle id="844" pos="142.69" speed="8.87"/>
            </lane>
        </edge>
        <edge id="gneE17">
            <lane id="gneE17_0">
                <vehicle id="796" pos="69.94" speed="9.73"/>
            </lane>
        </edge>
        <edge id="gneE20">
            <lane id="gneE20_0">
                <vehicle id="900" pos="84.73" speed="8.08"/>
                <vehicle id="955" pos="114.72" speed="8.94"/>
                <vehicle id="890" pos="171.87" speed="8.30"/>
                <vehicle id="976" pos="232.40" speed="7.91"/>
                <vehicle id="871" pos="276.11" speed="8.08"/>
            </lane>
        </edge>
        <edge id="gneE23">
            <lane id="gneE23_0">
                <vehicle id="998" pos="37.93" speed="7.92"/>
                <vehicle id="983" pos="58.27" speed="7.91"/>
                <vehicle id="940" pos="91.23" speed="6.96"/>
            </lane>
        </edge>
        <edge id="gneE24">
            <lane id="gneE24_0">
                <vehicle id="919" pos="15.72" speed="9.02"/>
                <vehicle id="894" pos="52.43" speed="12.17"/>
                <vehicle id="834" pos="142.79" speed="12.42"/>
                <vehicle id="801" pos="171.41" speed="11.29"/>
            </lane>
        </edge>
        <edge id="gneE25">
            <lane id="gneE25_0">
                <vehicle id="879" pos="2.02" speed="4.79"/>
            </lane>
        </edge>
        <edge id="gneE26">
            <lane id="gneE26_0">
                <vehicle id="947" pos="58.36" speed="6.94"/>
                <vehicle id="943" pos="186.08" speed="0.34"/>
                <vehicle id="793" pos="194.27" speed="0.67"/>
                <vehicle id="735" pos="204.36" speed="2.36"/>
                <vehicle id="982" pos="215.62" speed="2.38"/>
                <vehicle id="895" pos="225.34" speed="1.42"/>
                <vehicle id="970" pos="236.61" speed="2.72"/>
                <vehicle id="935" pos="245.06" speed="0.28"/>
                <vehicle id="696" pos="253.09" speed="0.29"/>
                <vehicle id="939" pos="260.76" speed="0.06"/>
                <vehicle id="931" pos="268.31" speed="0.02"/>
                <vehicle id="719" pos="275.83" speed="0.00"/>
                <vehicle id="795" pos="283.33" speed="0.00"/>
                <vehicle id="850" pos="290.83" speed="0.00"/>
            </lane>
        </edge>
        <edge id="gneE27">
            <lane id="gneE27_0">
                <vehicle id="744" pos="131.80" speed="5.34"/>
            </lane>
        </edge>
        <edge id="gneE28">
            <lane id="gneE28_0">
                <vehicle id="991" pos="17.31" speed="8.17"/>
                <vehicle id="924" pos="46.41" speed="7.92"/>
                <vehicle id="889" pos="74.78" speed="8.25"/>
                <vehicle id="996" pos="95.70" speed="7.00"/>
                <vehicle id="829" pos="110.20" speed="2.84"/>
                <vehicle id="952" pos="123.60" speed="4.97"/>
                <vehicle id="905" pos="135.09" speed="3.70"/>
            </lane>
        </edge>
        <edge id="gneE3">
            <lane id="gneE3_0">
                <vehicle id="874" pos="93.16" speed="9.27"/>
            </lane>
        </edge>
        <edge id="gneE30">
            <lane id="gneE30_0">
                <vehicle id="765" pos="117.84" speed="8.61"/>
                <vehicle id="901" pos="216.19" speed="7.91"/>
            </lane>
        </edge>
        <edge id="gneE31">
            <lane id="gneE31_0">
                <vehicle id="987" pos="108.05" speed="8.80"/>
                <vehicle id="868" pos="128.39" speed="8.08"/>
                <vehicle id="956" pos="164.61" speed="8.88"/>
                <vehicle id="860" pos="208.85" speed="8.15"/>
                <vehicle id="813" pos="276.55" speed="8.88"/>
            </lane>
        </edge>
        <edge id="gneE32">
            <lane id="gneE32_0">
                <vehicle id="920" pos="52.50" speed="7.73"/>
                <vehicle id="972" pos="211.33" speed="7.00"/>
                <vehicle id="887" pos="228.08" speed="7.36"/>
                <vehicle id="934" pos="269.88" speed="7.51"/>
            </lane>
        </edge>
        <edge id="gneE38">
            <lane id="gneE38_0">
                <vehicle id="857" pos="229.45" speed="0.29"/>
                <vehicle id="969" pos="237.30" speed="0.25"/>
                <vehicle id="993" pos="245.24" speed="0.33"/>
                <vehicle id="941" pos="252.91" speed="0.05"/>
                <vehicle id="823" pos="260.46" speed="0.02"/>
                <vehicle id="949" pos="267.97" speed="0.00"/>
                <vehicle id="922" pos="275.47" speed="0.00"/>
                <vehicle id="929" pos="282.97" speed="0.00"/>
                <vehicle id="909" pos="290.47" speed="0.00"/>
                <vehicle id="908" pos="297.97" speed="0.00"/>
                <vehicle id="954" pos="305.47" speed="0.00"/>
                <vehicle id="953" pos="312.97" speed="0.00"/>
                <vehicle id="975" pos="320.48" speed="0.00"/>
                <vehicle id="962" pos="327.98" speed="0.00"/>
                <vehicle id="928" pos="335.48" speed="0.00"/>
                <vehicle id="921" pos="342.98" speed="0.00"/>
            </lane>
        </edge>
        <edge id="gneE42">
            <lane id="gneE42_0">
                <vehicle id="967" pos="144.59" speed="7.13"/>
            </lane>
        </edge>
        <edge id="gneE43">
            <lane id="gneE43_0">
                <vehicle id="822" pos="105.30" speed="6.52"/>
                <vehicle id="841" pos="201.14" speed="5.88"/>
                <vehicle id="927" pos="221.66" speed="6.14"/>
                <vehicle id="819" pos="266.37" speed="3.03"/>
                <vehicle id="916" pos="274.56" speed="0.58"/>
                <vehicle id="930" pos="283.58" speed="1.10"/>
                <vehicle id="839" pos="291.57" speed="0.38"/>
                <vehicle id="836" pos="299.21" speed="0.01"/>
                <vehicle id="837" pos="306.73" speed="0.00"/>
            </lane>
        </edge>
        <edge id="gneE45">
            <lane id="gneE45_0">
                <vehicle id="959" pos="75.17" speed="8.58"/>
                <vehicle id="945" pos="92.38" speed="8.07"/>
                <vehicle id="873" pos="110.97" speed="8.79"/>
                <vehicle id="845" pos="221.22" speed="7.89"/>
            </lane>
        </edge>
        <edge id="gneE46">
            <lane id="gneE46_0">
                <vehicle id="853" pos="57.27" speed="9.14"/>
            </lane>
        </edge>
        <edge id="gneE47">
            <lane id="gneE47_0">
                <vehicle id="766" pos="168.15" speed="8.11"/>
            </lane>
        </edge>
        <edge id="gneE49">
            <lane id="gneE49_0">
                <vehicle id="964" pos="5.42" speed="7.91"/>
            </lane>
        </edge>
        <edge id="gneE5">
            <lane id="gneE5_0">
                <vehicle id="997" pos="114.05" speed="5.35"/>
            </lane>
        </edge>
        <edge id="gneE50">
            <lane id="gneE50_0">
                <vehicle id="958" pos="60.42" speed="5.95"/>
                <vehicle id="777" pos="308.38" speed="5.31"/>
            </lane>
        </edge>
        <edge id="gneE52">
            <lane id="gneE52_0">
                <vehicle id="852" pos="139.01" speed="5.84"/>
                <vehicle id="981" pos="160.00" speed="6.15"/>
            </lane>
        </edge>
        <edge id="gneE53">
            <lane id="gneE53_0">
                <vehicle id="995" pos="231.74" speed="6.40"/>
            </lane>
        </edge>
        <edge id="gneE56">
            <lane id="gneE56_0">
                <vehicle id="925" pos="49.96" speed="8.79"/>
            </lane>
        </edge>
        <edge id="gneE58">
            <lane id="gneE58_0">
                <vehicle id="980" pos="233.72" speed="6.71"/>
                <vehicle id="932" pos="294.31" speed="7.82"/>
            </lane>
        </edge>
        <edge id="gneE59">
            <lane id="gneE59_0">
                <vehicle id="799" pos="99.37" speed="8.06"/>
                <vehicle id="691" pos="296.97" speed="7.76"/>
            </lane>
        </edge>
        <edge id="gneE6">
            <lane id="gneE6_0">
                <vehicle id="904" pos="51.39" speed="6.72"/>
            </lane>
        </edge>
        <edge id="gneE60">
            <lane id="gneE60_0">
                <vehicle id="986" pos="91.07" speed="6.61"/>
                <vehicle id="794" pos="293.45" speed="7.00"/>
                <vehicle id="974" pos="330.06" speed="0.00"/>
            </lane>
        </edge>
        <edge id="gneE61">
            <lane id="gneE61_0">
                <vehicle id="827" pos="136.67" speed="6.80"/>
            </lane>
        </edge>
        <edge id="gneE7">
            <lane id="gneE7_0">
                <vehicle id="978" pos="218.37" speed="8.52"/>
            </lane>
        </edge>
    </timestep>
