<?xml version="1.0"?>
<timestep time="1143.00">
        <edge id=":gneJ11_34">
            <lane id=":gneJ11_34_0">
                <vehicle id="912" pos="17.12" speed="7.40"/>
            </lane>
        </edge>
        <edge id=":gneJ15_22">
            <lane id=":gneJ15_22_0">
                <vehicle id="905" pos="5.88" speed="6.17"/>
            </lane>
        </edge>
        <edge id=":gneJ8_5">
            <lane id=":gneJ8_5_0">
                <vehicle id="844" pos="3.31" speed="5.07"/>
            </lane>
        </edge>
        <edge id="gneE10">
            <lane id="gneE10_0">
                <vehicle id="914" pos="112.16" speed="5.65"/>
            </lane>
        </edge>
        <edge id="gneE11">
            <lane id="gneE11_0">
                <vehicle id="808" pos="35.47" speed="8.26"/>
                <vehicle id="992" pos="54.22" speed="8.16"/>
                <vehicle id="988" pos="77.89" speed="8.79"/>
            </lane>
        </edge>
        <edge id="gneE15">
            <lane id="gneE15_0">
                <vehicle id="871" pos="12.39" speed="8.52"/>
                <vehicle id="944" pos="35.92" speed="8.56"/>
                <vehicle id="897" pos="52.65" speed="8.52"/>
                <vehicle id="882" pos="70.08" speed="8.35"/>
                <vehicle id="942" pos="114.92" speed="7.78"/>
                <vehicle id="791" pos="146.70" speed="7.88"/>
            </lane>
        </edge>
        <edge id="gneE17">
            <lane id="gneE17_0">
                <vehicle id="796" pos="96.99" speed="9.23"/>
            </lane>
        </edge>
        <edge id="gneE18">
            <lane id="gneE18_0">
                <vehicle id="966" pos="26.01" speed="8.98"/>
            </lane>
        </edge>
        <edge id="gneE20">
            <lane id="gneE20_0">
                <vehicle id="900" pos="108.29" speed="7.70"/>
                <vehicle id="955" pos="138.75" speed="8.51"/>
                <vehicle id="890" pos="196.90" speed="8.61"/>
                <vehicle id="976" pos="256.36" speed="7.76"/>
            </lane>
        </edge>
        <edge id="gneE23">
            <lane id="gneE23_0">
                <vehicle id="998" pos="59.89" speed="7.84"/>
                <vehicle id="983" pos="81.04" speed="7.66"/>
                <vehicle id="940" pos="113.71" speed="7.97"/>
            </lane>
        </edge>
        <edge id="gneE24">
            <lane id="gneE24_0">
                <vehicle id="919" pos="52.71" speed="12.48"/>
                <vehicle id="894" pos="89.62" speed="11.88"/>
                <vehicle id="834" pos="181.23" speed="12.84"/>
            </lane>
        </edge>
        <edge id="gneE25">
            <lane id="gneE25_0">
                <vehicle id="879" pos="27.74" speed="9.33"/>
            </lane>
        </edge>
        <edge id="gneE26">
            <lane id="gneE26_0">
                <vehicle id="947" pos="77.93" speed="6.82"/>
                <vehicle id="943" pos="190.59" speed="2.61"/>
                <vehicle id="793" pos="200.38" speed="1.29"/>
                <vehicle id="735" pos="211.98" speed="3.10"/>
                <vehicle id="982" pos="221.89" speed="1.94"/>
                <vehicle id="895" pos="230.30" speed="0.74"/>
                <vehicle id="970" pos="238.05" speed="0.18"/>
                <vehicle id="935" pos="245.72" speed="0.07"/>
                <vehicle id="696" pos="253.32" speed="0.06"/>
                <vehicle id="939" pos="260.82" speed="0.00"/>
                <vehicle id="931" pos="268.33" speed="0.00"/>
                <vehicle id="719" pos="275.83" speed="0.00"/>
                <vehicle id="795" pos="283.33" speed="0.00"/>
                <vehicle id="850" pos="290.83" speed="0.00"/>
            </lane>
        </edge>
        <edge id="gneE28">
            <lane id="gneE28_0">
                <vehicle id="979" pos="24.63" speed="8.44"/>
                <vehicle id="991" pos="42.95" speed="9.00"/>
                <vehicle id="924" pos="72.76" speed="8.90"/>
                <vehicle id="889" pos="97.30" speed="7.28"/>
                <vehicle id="996" pos="110.31" speed="3.88"/>
                <vehicle id="829" pos="122.74" speed="4.60"/>
                <vehicle id="952" pos="137.16" speed="4.71"/>
            </lane>
        </edge>
        <edge id="gneE3">
            <lane id="gneE3_0">
                <vehicle id="963" pos="21.74" speed="9.43"/>
                <vehicle id="874" pos="121.02" speed="9.52"/>
            </lane>
        </edge>
        <edge id="gneE30">
            <lane id="gneE30_0">
                <vehicle id="744" pos="1.56" speed="8.26"/>
                <vehicle id="765" pos="142.56" speed="8.51"/>
                <vehicle id="901" pos="241.83" speed="8.45"/>
            </lane>
        </edge>
        <edge id="gneE31">
            <lane id="gneE31_0">
                <vehicle id="987" pos="133.70" speed="8.69"/>
                <vehicle id="868" pos="153.02" speed="8.47"/>
                <vehicle id="956" pos="189.08" speed="7.79"/>
                <vehicle id="860" pos="233.72" speed="8.15"/>
            </lane>
        </edge>
        <edge id="gneE32">
            <lane id="gneE32_0">
                <vehicle id="984" pos="11.46" speed="7.73"/>
                <vehicle id="920" pos="74.27" speed="6.74"/>
                <vehicle id="972" pos="233.55" speed="6.83"/>
                <vehicle id="887" pos="249.87" speed="7.42"/>
                <vehicle id="934" pos="291.84" speed="7.28"/>
            </lane>
        </edge>
        <edge id="gneE38">
            <lane id="gneE38_0">
                <vehicle id="967" pos="11.62" speed="8.17"/>
                <vehicle id="857" pos="230.20" speed="0.14"/>
                <vehicle id="969" pos="237.82" speed="0.09"/>
                <vehicle id="993" pos="245.44" speed="0.03"/>
                <vehicle id="941" pos="252.96" speed="0.00"/>
                <vehicle id="823" pos="260.47" speed="0.00"/>
                <vehicle id="949" pos="267.97" speed="0.00"/>
                <vehicle id="922" pos="275.47" speed="0.00"/>
                <vehicle id="929" pos="282.97" speed="0.00"/>
                <vehicle id="909" pos="290.47" speed="0.00"/>
                <vehicle id="908" pos="297.97" speed="0.00"/>
                <vehicle id="954" pos="305.47" speed="0.00"/>
                <vehicle id="953" pos="312.97" speed="0.00"/>
                <vehicle id="975" pos="320.48" speed="0.00"/>
                <vehicle id="962" pos="327.98" speed="0.00"/>
                <vehicle id="928" pos="335.48" speed="0.00"/>
                <vehicle id="921" pos="342.98" speed="0.00"/>
            </lane>
        </edge>
        <edge id="gneE43">
            <lane id="gneE43_0">
                <vehicle id="822" pos="124.43" speed="6.44"/>
                <vehicle id="841" pos="220.67" speed="6.82"/>
                <vehicle id="927" pos="240.09" speed="5.98"/>
                <vehicle id="819" pos="268.64" speed="0.64"/>
                <vehicle id="916" pos="276.50" speed="0.17"/>
                <vehicle id="930" pos="284.19" speed="0.02"/>
                <vehicle id="839" pos="291.73" speed="0.01"/>
                <vehicle id="836" pos="299.23" speed="0.00"/>
                <vehicle id="837" pos="306.73" speed="0.00"/>
            </lane>
        </edge>
        <edge id="gneE45">
            <lane id="gneE45_0">
                <vehicle id="959" pos="99.61" speed="7.75"/>
                <vehicle id="945" pos="118.42" speed="8.61"/>
                <vehicle id="873" pos="135.63" speed="8.04"/>
                <vehicle id="845" pos="245.70" speed="8.67"/>
            </lane>
        </edge>
        <edge id="gneE46">
            <lane id="gneE46_0">
                <vehicle id="853" pos="85.01" speed="9.74"/>
            </lane>
        </edge>
        <edge id="gneE47">
            <lane id="gneE47_0">
                <vehicle id="766" pos="193.54" speed="8.82"/>
            </lane>
        </edge>
        <edge id="gneE49">
            <lane id="gneE49_0">
                <vehicle id="964" pos="27.80" speed="7.22"/>
            </lane>
        </edge>
        <edge id="gneE5">
            <lane id="gneE5_0">
                <vehicle id="997" pos="131.54" speed="5.88"/>
            </lane>
        </edge>
        <edge id="gneE50">
            <lane id="gneE50_0">
                <vehicle id="958" pos="77.19" speed="5.57"/>
                <vehicle id="777" pos="324.45" speed="5.05"/>
            </lane>
        </edge>
        <edge id="gneE52">
            <lane id="gneE52_0">
                <vehicle id="852" pos="157.48" speed="5.93"/>
                <vehicle id="981" pos="178.81" speed="6.70"/>
            </lane>
        </edge>
        <edge id="gneE53">
            <lane id="gneE53_0">
                <vehicle id="995" pos="251.35" speed="6.23"/>
            </lane>
        </edge>
        <edge id="gneE56">
            <lane id="gneE56_0">
                <vehicle id="925" pos="74.45" speed="7.98"/>
            </lane>
        </edge>
        <edge id="gneE58">
            <lane id="gneE58_0">
                <vehicle id="980" pos="255.29" speed="6.87"/>
                <vehicle id="932" pos="316.25" speed="7.25"/>
            </lane>
        </edge>
        <edge id="gneE59">
            <lane id="gneE59_0">
                <vehicle id="799" pos="123.88" speed="8.32"/>
            </lane>
        </edge>
        <edge id="gneE6">
            <lane id="gneE6_0">
                <vehicle id="904" pos="73.91" speed="7.82"/>
            </lane>
        </edge>
        <edge id="gneE60">
            <lane id="gneE60_0">
                <vehicle id="986" pos="110.48" speed="6.61"/>
                <vehicle id="794" pos="312.34" speed="6.21"/>
                <vehicle id="974" pos="336.91" speed="2.68"/>
            </lane>
        </edge>
        <edge id="gneE61">
            <lane id="gneE61_0">
                <vehicle id="898" pos="17.70" speed="7.86"/>
                <vehicle id="827" pos="158.11" speed="7.15"/>
            </lane>
        </edge>
        <edge id="gneE7">
            <lane id="gneE7_0">
                <vehicle id="978" pos="243.81" speed="8.00"/>
            </lane>
        </edge>
    </timestep>
