<?xml version="1.0"?>
<timestep time="1160.00">
        <edge id=":gneJ11_21">
            <lane id=":gneJ11_21_0">
                <vehicle id="995" pos="20.79" speed="9.65"/>
            </lane>
        </edge>
        <edge id=":gneJ15_2">
            <lane id=":gneJ15_2_0">
                <vehicle id="921" pos="10.62" speed="5.69"/>
            </lane>
        </edge>
        <edge id=":gneJ8_4">
            <lane id=":gneJ8_4_0">
                <vehicle id="944" pos="9.41" speed="6.67"/>
            </lane>
        </edge>
        <edge id="gneE10">
            <lane id="gneE10_0">
                <vehicle id="882" pos="26.32" speed="5.60"/>
                <vehicle id="791" pos="73.41" speed="4.90"/>
            </lane>
        </edge>
        <edge id="gneE12">
            <lane id="gneE12_0">
                <vehicle id="897" pos="17.16" speed="9.40"/>
                <vehicle id="988" pos="116.76" speed="12.92"/>
                <vehicle id="844" pos="205.68" speed="12.74"/>
            </lane>
        </edge>
        <edge id="gneE13">
            <lane id="gneE13_0">
                <vehicle id="874" pos="121.52" speed="9.97"/>
            </lane>
        </edge>
        <edge id="gneE15">
            <lane id="gneE15_0">
                <vehicle id="890" pos="48.63" speed="8.18"/>
                <vehicle id="976" pos="107.58" speed="8.19"/>
                <vehicle id="871" pos="154.34" speed="7.34"/>
            </lane>
        </edge>
        <edge id="gneE17">
            <lane id="gneE17_0">
                <vehicle id="796" pos="257.72" speed="9.91"/>
            </lane>
        </edge>
        <edge id="gneE18">
            <lane id="gneE18_0">
                <vehicle id="966" pos="187.84" speed="9.58"/>
            </lane>
        </edge>
        <edge id="gneE20">
            <lane id="gneE20_0">
                <vehicle id="894" pos="65.65" speed="7.90"/>
                <vehicle id="834" pos="124.83" speed="7.98"/>
                <vehicle id="900" pos="250.42" speed="8.43"/>
                <vehicle id="955" pos="281.03" speed="8.08"/>
            </lane>
        </edge>
        <edge id="gneE23">
            <lane id="gneE23_0">
                <vehicle id="912" pos="121.03" speed="6.92"/>
                <vehicle id="998" pos="184.74" speed="6.79"/>
            </lane>
        </edge>
        <edge id="gneE24">
            <lane id="gneE24_0">
                <vehicle id="991" pos="50.97" speed="11.97"/>
                <vehicle id="924" pos="76.99" speed="12.52"/>
                <vehicle id="996" pos="130.25" speed="12.76"/>
            </lane>
        </edge>
        <edge id="gneE25">
            <lane id="gneE25_0">
                <vehicle id="889" pos="82.97" speed="8.74"/>
                <vehicle id="879" pos="189.92" speed="9.50"/>
            </lane>
        </edge>
        <edge id="gneE26">
            <lane id="gneE26_0">
                <vehicle id="947" pos="187.27" speed="6.03"/>
                <vehicle id="943" pos="200.82" speed="0.00"/>
                <vehicle id="793" pos="208.32" speed="0.00"/>
                <vehicle id="735" pos="215.82" speed="0.00"/>
                <vehicle id="982" pos="223.32" speed="0.00"/>
                <vehicle id="895" pos="230.82" speed="0.00"/>
                <vehicle id="970" pos="238.32" speed="0.00"/>
                <vehicle id="935" pos="245.82" speed="0.00"/>
                <vehicle id="696" pos="253.32" speed="0.00"/>
                <vehicle id="939" pos="260.82" speed="0.00"/>
                <vehicle id="931" pos="269.07" speed="0.74"/>
                <vehicle id="719" pos="279.33" speed="2.74"/>
            </lane>
        </edge>
        <edge id="gneE27">
            <lane id="gneE27_0">
                <vehicle id="850" pos="5.06" speed="5.08"/>
                <vehicle id="940" pos="30.54" speed="5.81"/>
                <vehicle id="836" pos="47.22" speed="4.96"/>
            </lane>
        </edge>
        <edge id="gneE28">
            <lane id="gneE28_0">
                <vehicle id="868" pos="0.39" speed="8.70"/>
                <vehicle id="956" pos="35.46" speed="8.42"/>
                <vehicle id="860" pos="79.10" speed="9.00"/>
            </lane>
        </edge>
        <edge id="gneE30">
            <lane id="gneE30_0">
                <vehicle id="744" pos="140.58" speed="7.73"/>
                <vehicle id="765" pos="280.88" speed="7.89"/>
            </lane>
        </edge>
        <edge id="gneE31">
            <lane id="gneE31_0">
                <vehicle id="914" pos="52.13" speed="8.75"/>
                <vehicle id="978" pos="73.25" speed="8.85"/>
                <vehicle id="987" pos="278.56" speed="8.72"/>
            </lane>
        </edge>
        <edge id="gneE32">
            <lane id="gneE32_0">
                <vehicle id="983" pos="4.59" speed="7.39"/>
                <vehicle id="837" pos="90.31" speed="7.24"/>
                <vehicle id="905" pos="117.41" speed="7.75"/>
                <vehicle id="984" pos="134.49" speed="6.88"/>
                <vehicle id="920" pos="198.42" speed="7.38"/>
            </lane>
        </edge>
        <edge id="gneE38">
            <lane id="gneE38_0">
                <vehicle id="967" pos="155.24" speed="8.97"/>
                <vehicle id="857" pos="230.46" speed="0.00"/>
                <vehicle id="969" pos="237.96" speed="0.00"/>
                <vehicle id="993" pos="245.47" speed="0.00"/>
                <vehicle id="941" pos="252.97" speed="0.00"/>
                <vehicle id="823" pos="260.47" speed="0.00"/>
                <vehicle id="949" pos="267.97" speed="0.00"/>
                <vehicle id="922" pos="275.47" speed="0.00"/>
                <vehicle id="929" pos="282.97" speed="0.00"/>
                <vehicle id="909" pos="290.47" speed="0.00"/>
                <vehicle id="908" pos="297.97" speed="0.00"/>
                <vehicle id="954" pos="305.47" speed="0.00"/>
                <vehicle id="953" pos="312.98" speed="0.00"/>
                <vehicle id="975" pos="320.48" speed="0.00"/>
                <vehicle id="962" pos="328.80" speed="0.82"/>
                <vehicle id="928" pos="339.71" speed="2.96"/>
            </lane>
        </edge>
        <edge id="gneE41">
            <lane id="gneE41_0">
                <vehicle id="972" pos="11.40" speed="8.02"/>
                <vehicle id="887" pos="30.51" speed="7.89"/>
                <vehicle id="934" pos="76.44" speed="8.05"/>
            </lane>
        </edge>
        <edge id="gneE42">
            <lane id="gneE42_0">
                <vehicle id="845" pos="56.67" speed="7.81"/>
            </lane>
        </edge>
        <edge id="gneE43">
            <lane id="gneE43_0">
                <vehicle id="822" pos="233.05" speed="5.70"/>
                <vehicle id="841" pos="268.26" speed="1.12"/>
                <vehicle id="927" pos="276.66" speed="0.37"/>
                <vehicle id="819" pos="284.20" speed="0.02"/>
                <vehicle id="916" pos="291.72" speed="0.01"/>
                <vehicle id="930" pos="299.23" speed="0.00"/>
                <vehicle id="839" pos="306.73" speed="0.00"/>
            </lane>
        </edge>
        <edge id="gneE45">
            <lane id="gneE45_0">
                <vehicle id="829" pos="96.28" speed="7.78"/>
                <vehicle id="952" pos="115.09" speed="8.63"/>
                <vehicle id="959" pos="242.27" speed="8.65"/>
                <vehicle id="945" pos="259.70" speed="8.68"/>
                <vehicle id="873" pos="276.66" speed="8.19"/>
            </lane>
        </edge>
        <edge id="gneE46">
            <lane id="gneE46_0">
                <vehicle id="777" pos="66.31" speed="9.33"/>
            </lane>
        </edge>
        <edge id="gneE49">
            <lane id="gneE49_0">
                <vehicle id="964" pos="153.07" speed="7.81"/>
            </lane>
        </edge>
        <edge id="gneE5">
            <lane id="gneE5_0">
                <vehicle id="963" pos="9.08" speed="4.74"/>
            </lane>
        </edge>
        <edge id="gneE50">
            <lane id="gneE50_0">
                <vehicle id="958" pos="167.31" speed="5.85"/>
            </lane>
        </edge>
        <edge id="gneE52">
            <lane id="gneE52_0">
                <vehicle id="919" pos="18.84" speed="6.96"/>
                <vehicle id="852" pos="265.62" speed="6.12"/>
                <vehicle id="981" pos="287.45" speed="6.55"/>
            </lane>
        </edge>
        <edge id="gneE55">
            <lane id="gneE55_0">
                <vehicle id="853" pos="33.25" speed="6.89"/>
            </lane>
        </edge>
        <edge id="gneE59">
            <lane id="gneE59_0">
                <vehicle id="799" pos="267.52" speed="8.35"/>
            </lane>
        </edge>
        <edge id="gneE60">
            <lane id="gneE60_0">
                <vehicle id="986" pos="220.23" speed="6.35"/>
                <vehicle id="794" pos="330.06" speed="0.00"/>
                <vehicle id="974" pos="337.56" speed="0.00"/>
            </lane>
        </edge>
        <edge id="gneE61">
            <lane id="gneE61_0">
                <vehicle id="898" pos="143.65" speed="7.71"/>
                <vehicle id="827" pos="282.98" speed="7.46"/>
            </lane>
        </edge>
        <edge id="gneE7">
            <lane id="gneE7_0">
                <vehicle id="997" pos="110.72" speed="8.33"/>
            </lane>
        </edge>
    </timestep>
