<?xml version="1.0"?>
<timestep time="1162.00">
        <edge id=":gneJ15_10">
            <lane id=":gneJ15_10_0">
                <vehicle id="998" pos="5.48" speed="1.92"/>
            </lane>
        </edge>
        <edge id=":gneJ8_4">
            <lane id=":gneJ8_4_0">
                <vehicle id="871" pos="6.88" speed="5.93"/>
            </lane>
        </edge>
        <edge id="gneE10">
            <lane id="gneE10_0">
                <vehicle id="944" pos="11.05" speed="5.95"/>
                <vehicle id="882" pos="36.29" speed="5.26"/>
                <vehicle id="791" pos="84.15" speed="5.29"/>
            </lane>
        </edge>
        <edge id="gneE12">
            <lane id="gneE12_0">
                <vehicle id="897" pos="41.72" speed="13.16"/>
                <vehicle id="988" pos="143.91" speed="13.34"/>
                <vehicle id="844" pos="231.65" speed="12.63"/>
            </lane>
        </edge>
        <edge id="gneE13">
            <lane id="gneE13_0">
                <vehicle id="874" pos="139.85" speed="8.81"/>
            </lane>
        </edge>
        <edge id="gneE15">
            <lane id="gneE15_0">
                <vehicle id="890" pos="66.00" speed="8.67"/>
                <vehicle id="976" pos="124.90" speed="8.88"/>
            </lane>
        </edge>
        <edge id="gneE17">
            <lane id="gneE17_0">
                <vehicle id="955" pos="6.57" speed="9.46"/>
                <vehicle id="796" pos="277.26" speed="9.99"/>
            </lane>
        </edge>
        <edge id="gneE18">
            <lane id="gneE18_0">
                <vehicle id="966" pos="206.26" speed="9.48"/>
            </lane>
        </edge>
        <edge id="gneE20">
            <lane id="gneE20_0">
                <vehicle id="995" pos="8.16" speed="8.65"/>
                <vehicle id="894" pos="82.12" speed="8.07"/>
                <vehicle id="834" pos="141.44" speed="8.82"/>
                <vehicle id="900" pos="267.67" speed="8.35"/>
            </lane>
        </edge>
        <edge id="gneE23">
            <lane id="gneE23_0">
                <vehicle id="912" pos="134.96" speed="6.98"/>
            </lane>
        </edge>
        <edge id="gneE24">
            <lane id="gneE24_0">
                <vehicle id="921" pos="5.91" speed="9.37"/>
                <vehicle id="991" pos="75.50" speed="12.45"/>
                <vehicle id="924" pos="100.97" speed="12.16"/>
                <vehicle id="996" pos="155.75" speed="12.90"/>
            </lane>
        </edge>
        <edge id="gneE25">
            <lane id="gneE25_0">
                <vehicle id="889" pos="101.30" speed="9.45"/>
                <vehicle id="879" pos="208.84" speed="9.11"/>
            </lane>
        </edge>
        <edge id="gneE26">
            <lane id="gneE26_0">
                <vehicle id="947" pos="192.93" speed="1.07"/>
                <vehicle id="943" pos="200.82" speed="0.00"/>
                <vehicle id="793" pos="208.32" speed="0.00"/>
                <vehicle id="735" pos="215.82" speed="0.00"/>
                <vehicle id="982" pos="223.32" speed="0.00"/>
                <vehicle id="895" pos="230.82" speed="0.00"/>
                <vehicle id="970" pos="238.32" speed="0.00"/>
                <vehicle id="935" pos="245.82" speed="0.00"/>
                <vehicle id="696" pos="253.71" speed="0.39"/>
                <vehicle id="939" pos="263.05" speed="1.72"/>
                <vehicle id="931" pos="275.07" speed="3.74"/>
                <vehicle id="719" pos="290.37" speed="6.73"/>
            </lane>
        </edge>
        <edge id="gneE27">
            <lane id="gneE27_0">
                <vehicle id="850" pos="16.28" speed="5.66"/>
                <vehicle id="940" pos="41.83" speed="5.73"/>
                <vehicle id="836" pos="57.80" speed="4.83"/>
            </lane>
        </edge>
        <edge id="gneE28">
            <lane id="gneE28_0">
                <vehicle id="868" pos="17.78" speed="8.49"/>
                <vehicle id="956" pos="52.65" speed="8.63"/>
                <vehicle id="860" pos="96.33" speed="8.85"/>
            </lane>
        </edge>
        <edge id="gneE30">
            <lane id="gneE30_0">
                <vehicle id="744" pos="158.02" speed="8.88"/>
            </lane>
        </edge>
        <edge id="gneE31">
            <lane id="gneE31_0">
                <vehicle id="914" pos="69.41" speed="8.42"/>
                <vehicle id="978" pos="90.59" speed="8.37"/>
            </lane>
        </edge>
        <edge id="gneE32">
            <lane id="gneE32_0">
                <vehicle id="983" pos="19.26" speed="7.11"/>
                <vehicle id="837" pos="105.01" speed="7.96"/>
                <vehicle id="905" pos="132.39" speed="7.11"/>
                <vehicle id="984" pos="149.10" speed="6.74"/>
                <vehicle id="920" pos="212.46" speed="6.88"/>
            </lane>
        </edge>
        <edge id="gneE38">
            <lane id="gneE38_0">
                <vehicle id="967" pos="171.43" speed="8.10"/>
                <vehicle id="857" pos="230.46" speed="0.00"/>
                <vehicle id="969" pos="237.96" speed="0.00"/>
                <vehicle id="993" pos="245.47" speed="0.00"/>
                <vehicle id="941" pos="252.97" speed="0.00"/>
                <vehicle id="823" pos="260.47" speed="0.00"/>
                <vehicle id="949" pos="267.97" speed="0.00"/>
                <vehicle id="922" pos="275.47" speed="0.00"/>
                <vehicle id="929" pos="282.97" speed="0.00"/>
                <vehicle id="909" pos="290.47" speed="0.00"/>
                <vehicle id="908" pos="297.97" speed="0.00"/>
                <vehicle id="954" pos="305.47" speed="0.00"/>
                <vehicle id="953" pos="313.43" speed="0.46"/>
                <vehicle id="975" pos="323.57" speed="2.58"/>
                <vehicle id="962" pos="335.33" speed="3.93"/>
                <vehicle id="928" pos="342.95" speed="0.06"/>
            </lane>
        </edge>
        <edge id="gneE41">
            <lane id="gneE41_0">
                <vehicle id="972" pos="28.04" speed="8.28"/>
                <vehicle id="887" pos="46.45" speed="7.85"/>
                <vehicle id="934" pos="93.25" speed="8.28"/>
            </lane>
        </edge>
        <edge id="gneE42">
            <lane id="gneE42_0">
                <vehicle id="845" pos="71.22" speed="6.99"/>
            </lane>
        </edge>
        <edge id="gneE43">
            <lane id="gneE43_0">
                <vehicle id="822" pos="245.91" speed="6.64"/>
                <vehicle id="841" pos="269.14" speed="0.41"/>
                <vehicle id="927" pos="276.71" speed="0.01"/>
                <vehicle id="819" pos="284.22" speed="0.00"/>
                <vehicle id="916" pos="291.73" speed="0.00"/>
                <vehicle id="930" pos="299.23" speed="0.00"/>
                <vehicle id="839" pos="306.73" speed="0.00"/>
            </lane>
        </edge>
        <edge id="gneE45">
            <lane id="gneE45_0">
                <vehicle id="829" pos="112.26" speed="7.85"/>
                <vehicle id="952" pos="132.36" speed="8.72"/>
                <vehicle id="959" pos="257.99" speed="7.81"/>
                <vehicle id="945" pos="276.54" speed="8.63"/>
                <vehicle id="873" pos="292.91" speed="7.99"/>
            </lane>
        </edge>
        <edge id="gneE46">
            <lane id="gneE46_0">
                <vehicle id="777" pos="84.08" speed="8.87"/>
            </lane>
        </edge>
        <edge id="gneE49">
            <lane id="gneE49_0">
                <vehicle id="964" pos="167.65" speed="7.84"/>
            </lane>
        </edge>
        <edge id="gneE5">
            <lane id="gneE5_0">
                <vehicle id="963" pos="20.11" speed="5.12"/>
            </lane>
        </edge>
        <edge id="gneE50">
            <lane id="gneE50_0">
                <vehicle id="958" pos="178.06" speed="5.55"/>
            </lane>
        </edge>
        <edge id="gneE52">
            <lane id="gneE52_0">
                <vehicle id="919" pos="31.74" speed="6.86"/>
                <vehicle id="852" pos="278.50" speed="6.55"/>
                <vehicle id="981" pos="301.01" speed="6.77"/>
            </lane>
        </edge>
        <edge id="gneE55">
            <lane id="gneE55_0">
                <vehicle id="853" pos="48.06" speed="7.63"/>
            </lane>
        </edge>
        <edge id="gneE59">
            <lane id="gneE59_0">
                <vehicle id="799" pos="284.86" speed="8.96"/>
            </lane>
        </edge>
        <edge id="gneE60">
            <lane id="gneE60_0">
                <vehicle id="986" pos="233.74" speed="6.87"/>
                <vehicle id="794" pos="330.06" speed="0.00"/>
                <vehicle id="974" pos="337.56" speed="0.00"/>
            </lane>
        </edge>
        <edge id="gneE61">
            <lane id="gneE61_0">
                <vehicle id="898" pos="157.62" speed="7.06"/>
                <vehicle id="827" pos="297.38" speed="7.08"/>
            </lane>
        </edge>
        <edge id="gneE7">
            <lane id="gneE7_0">
                <vehicle id="997" pos="127.40" speed="8.52"/>
            </lane>
        </edge>
    </timestep>
