<?xml version="1.0"?>
<timestep time="1166.00">
        <edge id=":gneJ11_44">
            <lane id=":gneJ11_44_0">
                <vehicle id="996" pos="5.52" speed="8.93"/>
            </lane>
        </edge>
        <edge id=":gneJ11_35">
            <lane id=":gneJ11_35_0">
                <vehicle id="974" pos="20.44" speed="8.02"/>
            </lane>
        </edge>
        <edge id=":gneJ15_7">
            <lane id=":gneJ15_7_0">
                <vehicle id="839" pos="3.99" speed="2.70"/>
            </lane>
        </edge>
        <edge id=":gneJ28_8">
            <lane id=":gneJ28_8_0">
                <vehicle id="873" pos="12.49" speed="8.03"/>
            </lane>
        </edge>
        <edge id="gneE10">
            <lane id="gneE10_0">
                <vehicle id="871" pos="17.16" speed="5.81"/>
                <vehicle id="944" pos="31.13" speed="4.76"/>
                <vehicle id="882" pos="57.59" speed="5.06"/>
                <vehicle id="791" pos="105.97" speed="5.27"/>
            </lane>
        </edge>
        <edge id="gneE12">
            <lane id="gneE12_0">
                <vehicle id="897" pos="93.74" speed="13.03"/>
                <vehicle id="988" pos="196.62" speed="13.40"/>
                <vehicle id="844" pos="286.06" speed="13.50"/>
            </lane>
        </edge>
        <edge id="gneE13">
            <lane id="gneE13_0">
                <vehicle id="874" pos="176.21" speed="9.69"/>
            </lane>
        </edge>
        <edge id="gneE15">
            <lane id="gneE15_0">
                <vehicle id="900" pos="12.85" speed="8.55"/>
                <vehicle id="890" pos="98.95" speed="8.49"/>
                <vehicle id="976" pos="159.49" speed="8.25"/>
            </lane>
        </edge>
        <edge id="gneE17">
            <lane id="gneE17_0">
                <vehicle id="955" pos="43.72" speed="9.18"/>
            </lane>
        </edge>
        <edge id="gneE18">
            <lane id="gneE18_0">
                <vehicle id="966" pos="243.26" speed="8.97"/>
            </lane>
        </edge>
        <edge id="gneE20">
            <lane id="gneE20_0">
                <vehicle id="995" pos="41.44" speed="7.79"/>
                <vehicle id="894" pos="115.64" speed="8.97"/>
                <vehicle id="834" pos="173.69" speed="8.02"/>
            </lane>
        </edge>
        <edge id="gneE23">
            <lane id="gneE23_0">
                <vehicle id="912" pos="163.32" speed="6.83"/>
            </lane>
        </edge>
        <edge id="gneE24">
            <lane id="gneE24_0">
                <vehicle id="921" pos="53.54" speed="11.98"/>
                <vehicle id="991" pos="125.16" speed="12.87"/>
                <vehicle id="924" pos="150.34" speed="12.15"/>
            </lane>
        </edge>
        <edge id="gneE25">
            <lane id="gneE25_0">
                <vehicle id="889" pos="138.29" speed="9.60"/>
                <vehicle id="879" pos="245.77" speed="9.75"/>
            </lane>
        </edge>
        <edge id="gneE26">
            <lane id="gneE26_0">
                <vehicle id="947" pos="193.32" speed="0.00"/>
                <vehicle id="943" pos="200.82" speed="0.00"/>
                <vehicle id="793" pos="208.32" speed="0.00"/>
                <vehicle id="735" pos="215.82" speed="0.00"/>
                <vehicle id="982" pos="223.49" speed="0.17"/>
                <vehicle id="895" pos="231.79" speed="0.77"/>
                <vehicle id="970" pos="242.44" speed="2.70"/>
                <vehicle id="935" pos="254.59" speed="3.91"/>
                <vehicle id="696" pos="268.54" speed="5.34"/>
                <vehicle id="939" pos="281.21" speed="3.91"/>
                <vehicle id="931" pos="290.72" speed="0.47"/>
            </lane>
        </edge>
        <edge id="gneE27">
            <lane id="gneE27_0">
                <vehicle id="998" pos="13.83" speed="5.42"/>
                <vehicle id="850" pos="37.50" speed="5.43"/>
                <vehicle id="940" pos="64.40" speed="5.96"/>
                <vehicle id="836" pos="79.09" speed="5.82"/>
            </lane>
        </edge>
        <edge id="gneE28">
            <lane id="gneE28_0">
                <vehicle id="868" pos="51.13" speed="8.02"/>
                <vehicle id="956" pos="86.73" speed="8.10"/>
                <vehicle id="860" pos="128.84" speed="7.99"/>
            </lane>
        </edge>
        <edge id="gneE3">
            <lane id="gneE3_0">
                <vehicle id="796" pos="8.48" speed="9.23"/>
            </lane>
        </edge>
        <edge id="gneE30">
            <lane id="gneE30_0">
                <vehicle id="744" pos="191.44" speed="8.18"/>
            </lane>
        </edge>
        <edge id="gneE31">
            <lane id="gneE31_0">
                <vehicle id="914" pos="102.46" speed="7.90"/>
                <vehicle id="978" pos="124.22" speed="8.73"/>
            </lane>
        </edge>
        <edge id="gneE32">
            <lane id="gneE32_0">
                <vehicle id="983" pos="49.61" speed="7.84"/>
                <vehicle id="837" pos="134.06" speed="7.48"/>
                <vehicle id="905" pos="161.64" speed="7.98"/>
                <vehicle id="984" pos="178.82" speed="7.83"/>
                <vehicle id="920" pos="240.92" speed="7.25"/>
            </lane>
        </edge>
        <edge id="gneE38">
            <lane id="gneE38_0">
                <vehicle id="967" pos="205.03" speed="8.79"/>
                <vehicle id="857" pos="230.46" speed="0.00"/>
                <vehicle id="969" pos="237.96" speed="0.00"/>
                <vehicle id="993" pos="245.47" speed="0.00"/>
                <vehicle id="941" pos="252.97" speed="0.00"/>
                <vehicle id="823" pos="260.47" speed="0.00"/>
                <vehicle id="949" pos="267.97" speed="0.00"/>
                <vehicle id="922" pos="275.47" speed="0.00"/>
                <vehicle id="929" pos="283.13" speed="0.15"/>
                <vehicle id="909" pos="291.62" speed="0.98"/>
                <vehicle id="908" pos="302.56" speed="3.40"/>
                <vehicle id="954" pos="311.95" speed="1.78"/>
                <vehicle id="953" pos="320.19" speed="0.25"/>
                <vehicle id="975" pos="327.96" speed="0.10"/>
                <vehicle id="962" pos="335.48" speed="0.00"/>
                <vehicle id="928" pos="342.98" speed="0.00"/>
            </lane>
        </edge>
        <edge id="gneE41">
            <lane id="gneE41_0">
                <vehicle id="972" pos="61.71" speed="8.27"/>
                <vehicle id="887" pos="79.92" speed="8.03"/>
                <vehicle id="934" pos="127.10" speed="8.25"/>
            </lane>
        </edge>
        <edge id="gneE42">
            <lane id="gneE42_0">
                <vehicle id="845" pos="100.29" speed="7.88"/>
            </lane>
        </edge>
        <edge id="gneE43">
            <lane id="gneE43_0">
                <vehicle id="822" pos="261.70" speed="0.14"/>
                <vehicle id="841" pos="269.22" speed="0.00"/>
                <vehicle id="927" pos="276.72" speed="0.00"/>
                <vehicle id="819" pos="284.23" speed="0.00"/>
                <vehicle id="916" pos="291.73" speed="0.00"/>
                <vehicle id="930" pos="300.57" speed="1.34"/>
            </lane>
        </edge>
        <edge id="gneE45">
            <lane id="gneE45_0">
                <vehicle id="829" pos="144.97" speed="8.28"/>
                <vehicle id="952" pos="165.65" speed="7.97"/>
                <vehicle id="959" pos="288.26" speed="5.91"/>
                <vehicle id="945" pos="303.35" speed="6.32"/>
            </lane>
        </edge>
        <edge id="gneE46">
            <lane id="gneE46_0">
                <vehicle id="777" pos="122.83" speed="9.71"/>
            </lane>
        </edge>
        <edge id="gneE49">
            <lane id="gneE49_0">
                <vehicle id="964" pos="197.66" speed="7.36"/>
            </lane>
        </edge>
        <edge id="gneE5">
            <lane id="gneE5_0">
                <vehicle id="963" pos="42.01" speed="5.39"/>
            </lane>
        </edge>
        <edge id="gneE50">
            <lane id="gneE50_0">
                <vehicle id="958" pos="197.87" speed="4.71"/>
            </lane>
        </edge>
        <edge id="gneE52">
            <lane id="gneE52_0">
                <vehicle id="919" pos="56.97" speed="6.27"/>
                <vehicle id="852" pos="303.79" speed="6.26"/>
                <vehicle id="981" pos="326.24" speed="5.82"/>
            </lane>
        </edge>
        <edge id="gneE55">
            <lane id="gneE55_0">
                <vehicle id="853" pos="77.80" speed="7.95"/>
            </lane>
        </edge>
        <edge id="gneE60">
            <lane id="gneE60_0">
                <vehicle id="986" pos="257.28" speed="5.70"/>
            </lane>
        </edge>
        <edge id="gneE61">
            <lane id="gneE61_0">
                <vehicle id="898" pos="186.62" speed="7.97"/>
                <vehicle id="827" pos="327.95" speed="7.99"/>
            </lane>
        </edge>
        <edge id="gneE7">
            <lane id="gneE7_0">
                <vehicle id="997" pos="161.06" speed="8.75"/>
            </lane>
        </edge>
    </timestep>
