<?xml version="1.0"?>
<timestep time="1179.00">
        <edge id=":gneJ11_43">
            <lane id=":gneJ11_43_0">
                <vehicle id="921" pos="6.86" speed="7.56"/>
            </lane>
        </edge>
        <edge id=":gneJ15_13">
            <lane id=":gneJ15_13_0">
                <vehicle id="931" pos="1.49" speed="1.59"/>
            </lane>
        </edge>
        <edge id="gneE10">
            <lane id="gneE10_0">
                <vehicle id="890" pos="23.24" speed="5.79"/>
                <vehicle id="871" pos="84.12" speed="4.83"/>
                <vehicle id="944" pos="98.91" speed="5.96"/>
                <vehicle id="882" pos="126.53" speed="4.72"/>
            </lane>
        </edge>
        <edge id="gneE12">
            <lane id="gneE12_0">
                <vehicle id="897" pos="265.29" speed="13.27"/>
            </lane>
        </edge>
        <edge id="gneE13">
            <lane id="gneE13_0">
                <vehicle id="874" pos="297.52" speed="9.89"/>
            </lane>
        </edge>
        <edge id="gneE15">
            <lane id="gneE15_0">
                <vehicle id="966" pos="59.59" speed="7.78"/>
                <vehicle id="900" pos="119.37" speed="7.75"/>
            </lane>
        </edge>
        <edge id="gneE17">
            <lane id="gneE17_0">
                <vehicle id="955" pos="165.49" speed="9.68"/>
            </lane>
        </edge>
        <edge id="gneE20">
            <lane id="gneE20_0">
                <vehicle id="974" pos="106.21" speed="8.64"/>
                <vehicle id="995" pos="150.10" speed="8.13"/>
                <vehicle id="894" pos="224.68" speed="8.92"/>
                <vehicle id="834" pos="280.57" speed="8.23"/>
            </lane>
        </edge>
        <edge id="gneE24">
            <lane id="gneE24_0">
                <vehicle id="868" pos="11.84" speed="11.25"/>
                <vehicle id="956" pos="63.57" speed="12.13"/>
                <vehicle id="839" pos="124.98" speed="12.29"/>
            </lane>
        </edge>
        <edge id="gneE25">
            <lane id="gneE25_0">
                <vehicle id="889" pos="260.75" speed="9.23"/>
            </lane>
        </edge>
        <edge id="gneE26">
            <lane id="gneE26_0">
                <vehicle id="947" pos="214.36" speed="0.61"/>
                <vehicle id="943" pos="222.38" speed="0.36"/>
                <vehicle id="793" pos="230.46" speed="0.33"/>
                <vehicle id="735" pos="238.26" speed="0.08"/>
                <vehicle id="982" pos="245.82" speed="0.02"/>
                <vehicle id="895" pos="253.32" speed="0.00"/>
                <vehicle id="970" pos="260.82" speed="0.00"/>
                <vehicle id="935" pos="268.33" speed="0.00"/>
                <vehicle id="696" pos="275.83" speed="0.00"/>
                <vehicle id="939" pos="283.33" speed="0.00"/>
            </lane>
        </edge>
        <edge id="gneE27">
            <lane id="gneE27_0">
                <vehicle id="998" pos="82.97" speed="5.61"/>
                <vehicle id="850" pos="107.34" speed="4.97"/>
                <vehicle id="940" pos="134.01" speed="5.37"/>
            </lane>
        </edge>
        <edge id="gneE3">
            <lane id="gneE3_0">
                <vehicle id="796" pos="130.29" speed="9.83"/>
            </lane>
        </edge>
        <edge id="gneE31">
            <lane id="gneE31_0">
                <vehicle id="914" pos="213.50" speed="8.68"/>
                <vehicle id="978" pos="233.40" speed="8.72"/>
            </lane>
        </edge>
        <edge id="gneE32">
            <lane id="gneE32_0">
                <vehicle id="930" pos="69.89" speed="7.18"/>
                <vehicle id="983" pos="144.05" speed="7.88"/>
                <vehicle id="837" pos="229.67" speed="6.77"/>
                <vehicle id="905" pos="256.47" speed="6.97"/>
                <vehicle id="984" pos="273.76" speed="7.30"/>
                <vehicle id="920" pos="339.53" speed="8.00"/>
            </lane>
        </edge>
        <edge id="gneE38">
            <lane id="gneE38_0">
                <vehicle id="967" pos="226.67" speed="1.07"/>
                <vehicle id="857" pos="235.94" speed="1.11"/>
                <vehicle id="969" pos="243.99" speed="0.52"/>
                <vehicle id="993" pos="252.22" speed="0.58"/>
                <vehicle id="941" pos="260.25" speed="0.15"/>
                <vehicle id="823" pos="267.92" speed="0.03"/>
                <vehicle id="949" pos="275.45" speed="0.02"/>
                <vehicle id="922" pos="282.97" speed="0.01"/>
                <vehicle id="929" pos="290.47" speed="0.00"/>
                <vehicle id="909" pos="297.97" speed="0.00"/>
                <vehicle id="908" pos="305.47" speed="0.00"/>
                <vehicle id="954" pos="312.97" speed="0.00"/>
                <vehicle id="953" pos="320.48" speed="0.00"/>
                <vehicle id="975" pos="327.98" speed="0.00"/>
                <vehicle id="962" pos="335.48" speed="0.00"/>
                <vehicle id="928" pos="342.98" speed="0.00"/>
            </lane>
        </edge>
        <edge id="gneE4">
            <lane id="gneE4_0">
                <vehicle id="988" pos="32.73" speed="8.82"/>
            </lane>
        </edge>
        <edge id="gneE42">
            <lane id="gneE42_0">
                <vehicle id="959" pos="55.90" speed="7.08"/>
                <vehicle id="945" pos="73.73" speed="7.36"/>
                <vehicle id="873" pos="90.64" speed="7.24"/>
            </lane>
        </edge>
        <edge id="gneE43">
            <lane id="gneE43_0">
                <vehicle id="822" pos="296.09" speed="5.81"/>
            </lane>
        </edge>
        <edge id="gneE45">
            <lane id="gneE45_0">
                <vehicle id="860" pos="46.53" speed="8.83"/>
                <vehicle id="912" pos="66.56" speed="8.67"/>
                <vehicle id="829" pos="251.92" speed="8.17"/>
                <vehicle id="952" pos="274.62" speed="8.79"/>
            </lane>
        </edge>
        <edge id="gneE49">
            <lane id="gneE49_0">
                <vehicle id="964" pos="293.24" speed="7.44"/>
            </lane>
        </edge>
        <edge id="gneE5">
            <lane id="gneE5_0">
                <vehicle id="844" pos="53.04" speed="5.84"/>
                <vehicle id="963" pos="113.46" speed="5.74"/>
            </lane>
        </edge>
        <edge id="gneE50">
            <lane id="gneE50_0">
                <vehicle id="996" pos="63.40" speed="5.66"/>
                <vehicle id="958" pos="268.24" speed="5.31"/>
            </lane>
        </edge>
        <edge id="gneE52">
            <lane id="gneE52_0">
                <vehicle id="919" pos="140.09" speed="6.35"/>
            </lane>
        </edge>
        <edge id="gneE53">
            <lane id="gneE53_0">
                <vehicle id="853" pos="23.87" speed="6.28"/>
            </lane>
        </edge>
        <edge id="gneE61">
            <lane id="gneE61_0">
                <vehicle id="924" pos="60.42" speed="7.55"/>
                <vehicle id="898" pos="282.77" speed="6.98"/>
            </lane>
        </edge>
        <edge id="gneE7">
            <lane id="gneE7_0">
                <vehicle id="997" pos="270.12" speed="8.71"/>
            </lane>
        </edge>
    </timestep>
