<?xml version="1.0"?>
<timestep time="118.00">
        <edge id=":gneJ11_41">
            <lane id=":gneJ11_41_0">
                <vehicle id="19" pos="15.15" speed="10.47"/>
            </lane>
        </edge>
        <edge id=":gneJ15_11">
            <lane id=":gneJ15_11_0">
                <vehicle id="91" pos="1.00" speed="7.36"/>
            </lane>
        </edge>
        <edge id=":gneJ30_3">
            <lane id=":gneJ30_3_0">
                <vehicle id="27" pos="4.90" speed="7.45"/>
            </lane>
        </edge>
        <edge id="gneE1">
            <lane id="gneE1_0">
                <vehicle id="113" pos="24.85" speed="4.99"/>
            </lane>
        </edge>
        <edge id="gneE10">
            <lane id="gneE10_0">
                <vehicle id="5" pos="4.81" speed="5.42"/>
            </lane>
        </edge>
        <edge id="gneE11">
            <lane id="gneE11_0">
                <vehicle id="47" pos="35.51" speed="7.83"/>
                <vehicle id="110" pos="52.37" speed="8.19"/>
                <vehicle id="65" pos="125.20" speed="7.93"/>
            </lane>
        </edge>
        <edge id="gneE12">
            <lane id="gneE12_0">
                <vehicle id="105" pos="140.94" speed="13.49"/>
                <vehicle id="80" pos="203.96" speed="12.93"/>
                <vehicle id="42" pos="265.01" speed="13.73"/>
                <vehicle id="92" pos="300.23" speed="4.26"/>
            </lane>
        </edge>
        <edge id="gneE13">
            <lane id="gneE13_0">
                <vehicle id="94" pos="49.44" speed="9.14"/>
            </lane>
        </edge>
        <edge id="gneE14">
            <lane id="gneE14_0">
                <vehicle id="74" pos="95.81" speed="10.61"/>
                <vehicle id="100" pos="132.55" speed="1.01"/>
                <vehicle id="61" pos="144.24" speed="3.74"/>
                <vehicle id="53" pos="157.58" speed="4.98"/>
            </lane>
        </edge>
        <edge id="gneE15">
            <lane id="gneE15_0">
                <vehicle id="21" pos="72.92" speed="8.58"/>
                <vehicle id="103" pos="116.82" speed="8.57"/>
            </lane>
        </edge>
        <edge id="gneE17">
            <lane id="gneE17_0">
                <vehicle id="56" pos="11.96" speed="8.51"/>
            </lane>
        </edge>
        <edge id="gneE18">
            <lane id="gneE18_0">
                <vehicle id="111" pos="36.46" speed="8.88"/>
                <vehicle id="76" pos="67.56" speed="8.99"/>
                <vehicle id="6" pos="123.07" speed="9.42"/>
                <vehicle id="1" pos="146.52" speed="8.89"/>
                <vehicle id="72" pos="233.07" speed="8.98"/>
            </lane>
        </edge>
        <edge id="gneE19">
            <lane id="gneE19_0">
                <vehicle id="50" pos="3.91" speed="10.23"/>
                <vehicle id="31" pos="26.35" speed="10.52"/>
                <vehicle id="78" pos="89.13" speed="12.92"/>
                <vehicle id="33" pos="159.54" speed="11.82"/>
                <vehicle id="15" pos="215.06" speed="12.20"/>
                <vehicle id="24" pos="255.51" speed="11.42"/>
                <vehicle id="28" pos="274.78" speed="9.24"/>
            </lane>
        </edge>
        <edge id="gneE20">
            <lane id="gneE20_0">
                <vehicle id="60" pos="7.23" speed="7.70"/>
                <vehicle id="13" pos="31.78" speed="8.33"/>
                <vehicle id="55" pos="59.50" speed="8.67"/>
                <vehicle id="48" pos="114.48" speed="7.90"/>
            </lane>
        </edge>
        <edge id="gneE23">
            <lane id="gneE23_0">
                <vehicle id="29" pos="77.24" speed="6.79"/>
                <vehicle id="11" pos="154.10" speed="7.80"/>
            </lane>
        </edge>
        <edge id="gneE24">
            <lane id="gneE24_0">
                <vehicle id="112" pos="45.63" speed="11.46"/>
                <vehicle id="34" pos="159.83" speed="11.76"/>
            </lane>
        </edge>
        <edge id="gneE25">
            <lane id="gneE25_0">
                <vehicle id="36" pos="8.19" speed="7.81"/>
                <vehicle id="20" pos="66.49" speed="9.51"/>
                <vehicle id="26" pos="108.05" speed="9.11"/>
                <vehicle id="37" pos="127.05" speed="8.81"/>
                <vehicle id="101" pos="147.61" speed="9.48"/>
                <vehicle id="18" pos="186.04" speed="8.74"/>
                <vehicle id="16" pos="218.63" speed="9.45"/>
                <vehicle id="86" pos="241.69" speed="8.78"/>
                <vehicle id="4" pos="283.56" speed="9.25"/>
            </lane>
        </edge>
        <edge id="gneE26">
            <lane id="gneE26_0">
                <vehicle id="43" pos="77.46" speed="6.03"/>
                <vehicle id="90" pos="134.16" speed="5.84"/>
                <vehicle id="38" pos="153.86" speed="5.80"/>
                <vehicle id="35" pos="171.24" speed="6.86"/>
                <vehicle id="77" pos="258.91" speed="6.95"/>
            </lane>
        </edge>
        <edge id="gneE27">
            <lane id="gneE27_0">
                <vehicle id="0" pos="67.39" speed="5.88"/>
            </lane>
        </edge>
        <edge id="gneE28">
            <lane id="gneE28_0">
                <vehicle id="49" pos="60.04" speed="7.71"/>
                <vehicle id="68" pos="108.41" speed="8.71"/>
                <vehicle id="102" pos="124.38" speed="7.98"/>
            </lane>
        </edge>
        <edge id="gneE3">
            <lane id="gneE3_0">
                <vehicle id="69" pos="122.80" speed="9.26"/>
            </lane>
        </edge>
        <edge id="gneE30">
            <lane id="gneE30_0">
                <vehicle id="71" pos="159.19" speed="8.52"/>
            </lane>
        </edge>
        <edge id="gneE31">
            <lane id="gneE31_0">
                <vehicle id="115" pos="15.99" speed="5.22"/>
                <vehicle id="75" pos="132.68" speed="8.26"/>
                <vehicle id="96" pos="174.99" speed="7.77"/>
            </lane>
        </edge>
        <edge id="gneE32">
            <lane id="gneE32_0">
                <vehicle id="116" pos="9.70" speed="3.18"/>
                <vehicle id="109" pos="60.05" speed="6.76"/>
                <vehicle id="89" pos="210.50" speed="7.92"/>
            </lane>
        </edge>
        <edge id="gneE38">
            <lane id="gneE38_0">
                <vehicle id="81" pos="126.82" speed="7.84"/>
            </lane>
        </edge>
        <edge id="gneE42">
            <lane id="gneE42_0">
                <vehicle id="57" pos="88.95" speed="7.60"/>
            </lane>
        </edge>
        <edge id="gneE43">
            <lane id="gneE43_0">
                <vehicle id="39" pos="49.92" speed="6.29"/>
            </lane>
        </edge>
        <edge id="gneE45">
            <lane id="gneE45_0">
                <vehicle id="117" pos="7.23" speed="2.13"/>
                <vehicle id="51" pos="93.98" speed="8.07"/>
                <vehicle id="88" pos="245.92" speed="8.76"/>
            </lane>
        </edge>
        <edge id="gneE47">
            <lane id="gneE47_0">
                <vehicle id="63" pos="75.68" speed="7.97"/>
            </lane>
        </edge>
        <edge id="gneE48">
            <lane id="gneE48_0">
                <vehicle id="106" pos="73.99" speed="6.94"/>
                <vehicle id="84" pos="210.57" speed="6.20"/>
                <vehicle id="73" pos="284.62" speed="6.10"/>
            </lane>
        </edge>
        <edge id="gneE49">
            <lane id="gneE49_0">
                <vehicle id="40" pos="17.17" speed="7.54"/>
                <vehicle id="17" pos="214.60" speed="7.97"/>
                <vehicle id="79" pos="278.54" speed="7.42"/>
            </lane>
        </edge>
        <edge id="gneE5">
            <lane id="gneE5_0">
                <vehicle id="93" pos="133.84" speed="5.28"/>
            </lane>
        </edge>
        <edge id="gneE50">
            <lane id="gneE50_0">
                <vehicle id="52" pos="101.24" speed="5.10"/>
            </lane>
        </edge>
        <edge id="gneE51">
            <lane id="gneE51_0">
                <vehicle id="12" pos="121.72" speed="6.64"/>
                <vehicle id="30" pos="136.44" speed="5.76"/>
                <vehicle id="14" pos="232.21" speed="6.87"/>
                <vehicle id="62" pos="355.46" speed="5.74"/>
            </lane>
        </edge>
        <edge id="gneE52">
            <lane id="gneE52_0">
                <vehicle id="107" pos="67.33" speed="6.10"/>
            </lane>
        </edge>
        <edge id="gneE53">
            <lane id="gneE53_0">
                <vehicle id="70" pos="173.45" speed="6.10"/>
                <vehicle id="87" pos="197.15" speed="6.20"/>
                <vehicle id="58" pos="248.89" speed="6.16"/>
                <vehicle id="22" pos="341.34" speed="4.68"/>
            </lane>
        </edge>
        <edge id="gneE55">
            <lane id="gneE55_0">
                <vehicle id="99" pos="135.15" speed="7.80"/>
            </lane>
        </edge>
        <edge id="gneE58">
            <lane id="gneE58_0">
                <vehicle id="83" pos="252.52" speed="7.65"/>
            </lane>
        </edge>
        <edge id="gneE59">
            <lane id="gneE59_0">
                <vehicle id="97" pos="161.17" speed="7.87"/>
                <vehicle id="95" pos="181.78" speed="8.42"/>
                <vehicle id="45" pos="213.08" speed="8.36"/>
            </lane>
        </edge>
        <edge id="gneE6">
            <lane id="gneE6_0">
                <vehicle id="64" pos="82.14" speed="7.31"/>
            </lane>
        </edge>
        <edge id="gneE60">
            <lane id="gneE60_0">
                <vehicle id="67" pos="43.72" speed="6.43"/>
                <vehicle id="44" pos="189.01" speed="6.33"/>
                <vehicle id="41" pos="208.88" speed="6.65"/>
            </lane>
        </edge>
        <edge id="gneE61">
            <lane id="gneE61_0">
                <vehicle id="32" pos="180.21" speed="7.99"/>
                <vehicle id="85" pos="214.91" speed="7.86"/>
                <vehicle id="9" pos="233.99" speed="6.75"/>
            </lane>
        </edge>
        <edge id="gneE7">
            <lane id="gneE7_0">
                <vehicle id="108" pos="76.96" speed="8.72"/>
                <vehicle id="66" pos="197.02" speed="7.92"/>
                <vehicle id="82" pos="291.59" speed="8.42"/>
            </lane>
        </edge>
        <edge id="gneE8">
            <lane id="gneE8_0">
                <vehicle id="104" pos="98.56" speed="7.07"/>
                <vehicle id="98" pos="145.49" speed="7.68"/>
            </lane>
        </edge>
    </timestep>
