<?xml version="1.0"?>
<timestep time="1191.00">
        <edge id=":gneJ16_0">
            <lane id=":gneJ16_0_0">
                <vehicle id="998" pos="6.51" speed="6.40"/>
            </lane>
        </edge>
        <edge id=":gneJ18_1">
            <lane id=":gneJ18_1_0">
                <vehicle id="905" pos="2.44" speed="6.92"/>
            </lane>
        </edge>
        <edge id="gneE10">
            <lane id="gneE10_0">
                <vehicle id="890" pos="88.20" speed="5.32"/>
            </lane>
        </edge>
        <edge id="gneE13">
            <lane id="gneE13_0">
                <vehicle id="796" pos="82.26" speed="9.02"/>
            </lane>
        </edge>
        <edge id="gneE15">
            <lane id="gneE15_0">
                <vehicle id="894" pos="36.28" speed="7.88"/>
                <vehicle id="834" pos="91.90" speed="7.96"/>
                <vehicle id="966" pos="160.72" speed="8.46"/>
            </lane>
        </edge>
        <edge id="gneE17">
            <lane id="gneE17_0">
                <vehicle id="955" pos="276.21" speed="9.91"/>
            </lane>
        </edge>
        <edge id="gneE20">
            <lane id="gneE20_0">
                <vehicle id="974" pos="204.93" speed="8.89"/>
                <vehicle id="995" pos="250.86" speed="8.38"/>
            </lane>
        </edge>
        <edge id="gneE24">
            <lane id="gneE24_0">
                <vehicle id="970" pos="7.28" speed="8.18"/>
                <vehicle id="696" pos="66.99" speed="12.63"/>
                <vehicle id="868" pos="159.31" speed="11.94"/>
            </lane>
        </edge>
        <edge id="gneE26">
            <lane id="gneE26_0">
                <vehicle id="947" pos="218.09" speed="1.65"/>
                <vehicle id="943" pos="229.16" speed="3.46"/>
                <vehicle id="793" pos="242.34" speed="5.50"/>
                <vehicle id="735" pos="258.08" speed="6.23"/>
                <vehicle id="982" pos="271.81" speed="5.28"/>
                <vehicle id="895" pos="285.78" speed="5.81"/>
            </lane>
        </edge>
        <edge id="gneE28">
            <lane id="gneE28_0">
                <vehicle id="914" pos="19.08" speed="8.53"/>
            </lane>
        </edge>
        <edge id="gneE30">
            <lane id="gneE30_0">
                <vehicle id="850" pos="36.93" speed="8.89"/>
                <vehicle id="940" pos="75.80" speed="8.71"/>
            </lane>
        </edge>
        <edge id="gneE31">
            <lane id="gneE31_0">
                <vehicle id="871" pos="4.07" speed="7.01"/>
                <vehicle id="997" pos="59.36" speed="8.62"/>
            </lane>
        </edge>
        <edge id="gneE32">
            <lane id="gneE32_0">
                <vehicle id="930" pos="157.90" speed="7.46"/>
                <vehicle id="983" pos="233.45" speed="7.96"/>
                <vehicle id="837" pos="318.37" speed="7.30"/>
            </lane>
        </edge>
        <edge id="gneE38">
            <lane id="gneE38_0">
                <vehicle id="945" pos="7.97" speed="8.29"/>
                <vehicle id="873" pos="27.91" speed="8.75"/>
                <vehicle id="967" pos="230.46" speed="0.00"/>
                <vehicle id="857" pos="237.96" speed="0.00"/>
                <vehicle id="969" pos="245.47" speed="0.00"/>
                <vehicle id="993" pos="252.97" speed="0.00"/>
                <vehicle id="941" pos="260.47" speed="0.00"/>
                <vehicle id="823" pos="267.97" speed="0.00"/>
                <vehicle id="949" pos="275.47" speed="0.00"/>
                <vehicle id="922" pos="282.97" speed="0.00"/>
                <vehicle id="929" pos="290.47" speed="0.00"/>
                <vehicle id="909" pos="297.97" speed="0.00"/>
                <vehicle id="908" pos="305.47" speed="0.00"/>
                <vehicle id="954" pos="312.98" speed="0.00"/>
                <vehicle id="953" pos="320.48" speed="0.00"/>
                <vehicle id="975" pos="327.98" speed="0.00"/>
                <vehicle id="962" pos="335.48" speed="0.00"/>
                <vehicle id="928" pos="342.98" speed="0.00"/>
            </lane>
        </edge>
        <edge id="gneE4">
            <lane id="gneE4_0">
                <vehicle id="988" pos="146.03" speed="9.58"/>
            </lane>
        </edge>
        <edge id="gneE42">
            <lane id="gneE42_0">
                <vehicle id="829" pos="16.91" speed="6.85"/>
                <vehicle id="959" pos="144.27" speed="7.50"/>
            </lane>
        </edge>
        <edge id="gneE43">
            <lane id="gneE43_0">
                <vehicle id="822" pos="306.73" speed="0.00"/>
            </lane>
        </edge>
        <edge id="gneE45">
            <lane id="gneE45_0">
                <vehicle id="935" pos="16.66" speed="8.15"/>
                <vehicle id="939" pos="55.72" speed="7.55"/>
                <vehicle id="931" pos="72.91" speed="8.72"/>
                <vehicle id="860" pos="147.15" speed="8.99"/>
                <vehicle id="912" pos="168.28" speed="8.24"/>
            </lane>
        </edge>
        <edge id="gneE49">
            <lane id="gneE49_0">
                <vehicle id="839" pos="26.02" speed="7.30"/>
                <vehicle id="921" pos="81.48" speed="7.21"/>
            </lane>
        </edge>
        <edge id="gneE5">
            <lane id="gneE5_0">
                <vehicle id="897" pos="41.91" speed="5.36"/>
                <vehicle id="844" pos="119.79" speed="5.65"/>
            </lane>
        </edge>
        <edge id="gneE50">
            <lane id="gneE50_0">
                <vehicle id="996" pos="127.17" speed="5.24"/>
                <vehicle id="958" pos="334.41" speed="5.70"/>
            </lane>
        </edge>
        <edge id="gneE52">
            <lane id="gneE52_0">
                <vehicle id="919" pos="216.24" speed="6.43"/>
            </lane>
        </edge>
        <edge id="gneE53">
            <lane id="gneE53_0">
                <vehicle id="853" pos="98.69" speed="6.29"/>
            </lane>
        </edge>
        <edge id="gneE56">
            <lane id="gneE56_0">
                <vehicle id="956" pos="7.93" speed="8.42"/>
            </lane>
        </edge>
        <edge id="gneE59">
            <lane id="gneE59_0">
                <vehicle id="898" pos="36.10" speed="8.15"/>
            </lane>
        </edge>
        <edge id="gneE61">
            <lane id="gneE61_0">
                <vehicle id="924" pos="149.39" speed="7.96"/>
            </lane>
        </edge>
    </timestep>
