<?xml version="1.0"?>
<timestep time="1195.00">
        <edge id=":gneJ15_12">
            <lane id=":gneJ15_12_0">
                <vehicle id="982" pos="2.54" speed="6.54"/>
            </lane>
        </edge>
        <edge id=":gneJ15_13">
            <lane id=":gneJ15_13_0">
                <vehicle id="895" pos="19.81" speed="8.03"/>
            </lane>
        </edge>
        <edge id=":gneJ9_2">
            <lane id=":gneJ9_2_0">
                <vehicle id="995" pos="0.35" speed="7.80"/>
            </lane>
        </edge>
        <edge id="gneE10">
            <lane id="gneE10_0">
                <vehicle id="966" pos="14.09" speed="5.79"/>
                <vehicle id="890" pos="108.50" speed="4.75"/>
            </lane>
        </edge>
        <edge id="gneE13">
            <lane id="gneE13_0">
                <vehicle id="796" pos="121.24" speed="9.73"/>
            </lane>
        </edge>
        <edge id="gneE15">
            <lane id="gneE15_0">
                <vehicle id="894" pos="69.44" speed="7.71"/>
                <vehicle id="834" pos="125.04" speed="8.34"/>
            </lane>
        </edge>
        <edge id="gneE20">
            <lane id="gneE20_0">
                <vehicle id="868" pos="3.85" speed="8.19"/>
                <vehicle id="974" pos="237.72" speed="8.30"/>
            </lane>
        </edge>
        <edge id="gneE24">
            <lane id="gneE24_0">
                <vehicle id="970" pos="52.87" speed="11.90"/>
                <vehicle id="696" pos="116.59" speed="13.00"/>
            </lane>
        </edge>
        <edge id="gneE26">
            <lane id="gneE26_0">
                <vehicle id="947" pos="238.60" speed="6.43"/>
                <vehicle id="943" pos="252.30" speed="4.89"/>
                <vehicle id="793" pos="264.79" speed="3.83"/>
                <vehicle id="735" pos="278.04" speed="4.37"/>
            </lane>
        </edge>
        <edge id="gneE28">
            <lane id="gneE28_0">
                <vehicle id="914" pos="51.02" speed="7.90"/>
            </lane>
        </edge>
        <edge id="gneE3">
            <lane id="gneE3_0">
                <vehicle id="955" pos="10.45" speed="9.62"/>
            </lane>
        </edge>
        <edge id="gneE30">
            <lane id="gneE30_0">
                <vehicle id="998" pos="32.16" speed="8.75"/>
                <vehicle id="850" pos="72.04" speed="8.99"/>
                <vehicle id="940" pos="110.88" speed="8.99"/>
            </lane>
        </edge>
        <edge id="gneE31">
            <lane id="gneE31_0">
                <vehicle id="871" pos="36.52" speed="7.83"/>
                <vehicle id="997" pos="92.02" speed="8.46"/>
            </lane>
        </edge>
        <edge id="gneE32">
            <lane id="gneE32_0">
                <vehicle id="930" pos="187.22" speed="7.28"/>
                <vehicle id="983" pos="264.36" speed="7.44"/>
            </lane>
        </edge>
        <edge id="gneE38">
            <lane id="gneE38_0">
                <vehicle id="945" pos="41.49" speed="8.38"/>
                <vehicle id="873" pos="60.29" speed="8.23"/>
                <vehicle id="967" pos="230.46" speed="0.00"/>
                <vehicle id="857" pos="237.96" speed="0.00"/>
                <vehicle id="969" pos="245.47" speed="0.00"/>
                <vehicle id="993" pos="252.97" speed="0.00"/>
                <vehicle id="941" pos="260.47" speed="0.00"/>
                <vehicle id="823" pos="267.97" speed="0.00"/>
                <vehicle id="949" pos="275.47" speed="0.00"/>
                <vehicle id="922" pos="282.97" speed="0.00"/>
                <vehicle id="929" pos="290.47" speed="0.00"/>
                <vehicle id="909" pos="297.97" speed="0.00"/>
                <vehicle id="908" pos="305.47" speed="0.00"/>
                <vehicle id="954" pos="312.98" speed="0.00"/>
                <vehicle id="953" pos="320.48" speed="0.00"/>
                <vehicle id="975" pos="327.98" speed="0.00"/>
                <vehicle id="962" pos="335.48" speed="0.00"/>
                <vehicle id="928" pos="342.98" speed="0.00"/>
            </lane>
        </edge>
        <edge id="gneE41">
            <lane id="gneE41_0">
                <vehicle id="837" pos="1.68" speed="7.25"/>
                <vehicle id="905" pos="31.45" speed="7.79"/>
            </lane>
        </edge>
        <edge id="gneE42">
            <lane id="gneE42_0">
                <vehicle id="829" pos="45.95" speed="7.42"/>
            </lane>
        </edge>
        <edge id="gneE43">
            <lane id="gneE43_0">
                <vehicle id="822" pos="306.73" speed="0.00"/>
            </lane>
        </edge>
        <edge id="gneE45">
            <lane id="gneE45_0">
                <vehicle id="935" pos="49.64" speed="8.10"/>
                <vehicle id="939" pos="88.66" speed="7.71"/>
                <vehicle id="931" pos="107.23" speed="8.53"/>
                <vehicle id="860" pos="180.32" speed="8.75"/>
                <vehicle id="912" pos="201.66" speed="7.85"/>
            </lane>
        </edge>
        <edge id="gneE49">
            <lane id="gneE49_0">
                <vehicle id="839" pos="54.52" speed="7.64"/>
                <vehicle id="921" pos="111.30" speed="7.87"/>
            </lane>
        </edge>
        <edge id="gneE5">
            <lane id="gneE5_0">
                <vehicle id="897" pos="63.51" speed="5.62"/>
                <vehicle id="844" pos="140.48" speed="4.99"/>
            </lane>
        </edge>
        <edge id="gneE50">
            <lane id="gneE50_0">
                <vehicle id="996" pos="147.18" speed="4.75"/>
                <vehicle id="958" pos="356.56" speed="5.62"/>
            </lane>
        </edge>
        <edge id="gneE52">
            <lane id="gneE52_0">
                <vehicle id="919" pos="241.89" speed="6.06"/>
            </lane>
        </edge>
        <edge id="gneE53">
            <lane id="gneE53_0">
                <vehicle id="853" pos="124.56" speed="5.92"/>
            </lane>
        </edge>
        <edge id="gneE56">
            <lane id="gneE56_0">
                <vehicle id="956" pos="42.04" speed="8.73"/>
            </lane>
        </edge>
        <edge id="gneE59">
            <lane id="gneE59_0">
                <vehicle id="898" pos="70.57" speed="8.48"/>
            </lane>
        </edge>
        <edge id="gneE61">
            <lane id="gneE61_0">
                <vehicle id="924" pos="179.54" speed="7.86"/>
            </lane>
        </edge>
    </timestep>
