<?xml version="1.0"?>
<timestep time="1197.00">
        <edge id=":gneJ15_2">
            <lane id=":gneJ15_2_0">
                <vehicle id="928" pos="1.73" speed="1.83"/>
            </lane>
        </edge>
        <edge id=":gneJ28_3">
            <lane id=":gneJ28_3_0">
                <vehicle id="958" pos="0.58" speed="5.06"/>
            </lane>
        </edge>
        <edge id="gneE10">
            <lane id="gneE10_0">
                <vehicle id="966" pos="24.89" speed="4.97"/>
                <vehicle id="890" pos="118.41" speed="5.02"/>
            </lane>
        </edge>
        <edge id="gneE13">
            <lane id="gneE13_0">
                <vehicle id="796" pos="140.26" speed="9.45"/>
            </lane>
        </edge>
        <edge id="gneE15">
            <lane id="gneE15_0">
                <vehicle id="995" pos="12.07" speed="8.63"/>
                <vehicle id="894" pos="86.79" speed="8.65"/>
                <vehicle id="834" pos="142.13" speed="8.45"/>
            </lane>
        </edge>
        <edge id="gneE20">
            <lane id="gneE20_0">
                <vehicle id="868" pos="20.64" speed="8.56"/>
                <vehicle id="974" pos="253.73" speed="7.75"/>
            </lane>
        </edge>
        <edge id="gneE24">
            <lane id="gneE24_0">
                <vehicle id="982" pos="17.62" speed="11.17"/>
                <vehicle id="970" pos="78.01" speed="12.98"/>
                <vehicle id="696" pos="140.08" speed="11.71"/>
            </lane>
        </edge>
        <edge id="gneE26">
            <lane id="gneE26_0">
                <vehicle id="947" pos="247.79" speed="3.93"/>
                <vehicle id="943" pos="261.06" speed="4.38"/>
                <vehicle id="793" pos="274.79" speed="5.95"/>
            </lane>
        </edge>
        <edge id="gneE28">
            <lane id="gneE28_0">
                <vehicle id="914" pos="67.27" speed="7.92"/>
            </lane>
        </edge>
        <edge id="gneE3">
            <lane id="gneE3_0">
                <vehicle id="955" pos="29.67" speed="9.82"/>
            </lane>
        </edge>
        <edge id="gneE30">
            <lane id="gneE30_0">
                <vehicle id="998" pos="49.00" speed="8.04"/>
                <vehicle id="850" pos="88.65" speed="8.27"/>
                <vehicle id="940" pos="127.85" speed="8.90"/>
            </lane>
        </edge>
        <edge id="gneE31">
            <lane id="gneE31_0">
                <vehicle id="871" pos="53.09" speed="8.17"/>
                <vehicle id="997" pos="108.82" speed="8.19"/>
            </lane>
        </edge>
        <edge id="gneE32">
            <lane id="gneE32_0">
                <vehicle id="930" pos="202.75" speed="7.81"/>
                <vehicle id="983" pos="279.22" speed="7.41"/>
            </lane>
        </edge>
        <edge id="gneE38">
            <lane id="gneE38_0">
                <vehicle id="945" pos="59.25" speed="8.99"/>
                <vehicle id="873" pos="77.17" speed="8.44"/>
                <vehicle id="967" pos="230.46" speed="0.00"/>
                <vehicle id="857" pos="237.96" speed="0.00"/>
                <vehicle id="969" pos="245.47" speed="0.00"/>
                <vehicle id="993" pos="252.97" speed="0.00"/>
                <vehicle id="941" pos="260.47" speed="0.00"/>
                <vehicle id="823" pos="267.97" speed="0.00"/>
                <vehicle id="949" pos="275.47" speed="0.00"/>
                <vehicle id="922" pos="282.97" speed="0.00"/>
                <vehicle id="929" pos="290.47" speed="0.00"/>
                <vehicle id="909" pos="297.97" speed="0.00"/>
                <vehicle id="908" pos="305.47" speed="0.00"/>
                <vehicle id="954" pos="312.98" speed="0.00"/>
                <vehicle id="953" pos="320.48" speed="0.00"/>
                <vehicle id="975" pos="327.98" speed="0.00"/>
                <vehicle id="962" pos="335.48" speed="0.00"/>
            </lane>
        </edge>
        <edge id="gneE41">
            <lane id="gneE41_0">
                <vehicle id="837" pos="19.13" speed="8.84"/>
                <vehicle id="905" pos="47.97" speed="8.10"/>
            </lane>
        </edge>
        <edge id="gneE42">
            <lane id="gneE42_0">
                <vehicle id="829" pos="61.23" speed="7.75"/>
            </lane>
        </edge>
        <edge id="gneE43">
            <lane id="gneE43_0">
                <vehicle id="822" pos="306.73" speed="0.00"/>
            </lane>
        </edge>
        <edge id="gneE45">
            <lane id="gneE45_0">
                <vehicle id="895" pos="15.81" speed="8.98"/>
                <vehicle id="935" pos="65.67" speed="8.32"/>
                <vehicle id="939" pos="105.02" speed="8.65"/>
                <vehicle id="931" pos="124.84" speed="8.62"/>
                <vehicle id="860" pos="197.47" speed="8.80"/>
                <vehicle id="912" pos="218.68" speed="8.14"/>
            </lane>
        </edge>
        <edge id="gneE49">
            <lane id="gneE49_0">
                <vehicle id="839" pos="68.96" speed="7.13"/>
                <vehicle id="921" pos="126.04" speed="7.87"/>
            </lane>
        </edge>
        <edge id="gneE5">
            <lane id="gneE5_0">
                <vehicle id="897" pos="74.87" speed="5.93"/>
            </lane>
        </edge>
        <edge id="gneE50">
            <lane id="gneE50_0">
                <vehicle id="996" pos="157.53" speed="5.49"/>
            </lane>
        </edge>
        <edge id="gneE52">
            <lane id="gneE52_0">
                <vehicle id="919" pos="254.74" speed="6.15"/>
            </lane>
        </edge>
        <edge id="gneE53">
            <lane id="gneE53_0">
                <vehicle id="853" pos="137.27" speed="6.81"/>
            </lane>
        </edge>
        <edge id="gneE56">
            <lane id="gneE56_0">
                <vehicle id="956" pos="58.74" speed="8.78"/>
            </lane>
        </edge>
        <edge id="gneE59">
            <lane id="gneE59_0">
                <vehicle id="898" pos="86.43" speed="7.74"/>
            </lane>
        </edge>
        <edge id="gneE61">
            <lane id="gneE61_0">
                <vehicle id="924" pos="194.68" speed="7.86"/>
            </lane>
        </edge>
    </timestep>
