<?xml version="1.0"?>
<timestep time="1235.00">
        <edge id=":gneJ11_0">
            <lane id=":gneJ11_0_0">
                <vehicle id="909" pos="10.62" speed="11.82"/>
            </lane>
        </edge>
        <edge id=":gneJ15_3">
            <lane id=":gneJ15_3_0">
                <vehicle id="969" pos="15.75" speed="9.92"/>
            </lane>
        </edge>
        <edge id=":gneJ8_10">
            <lane id=":gneJ8_10_0">
                <vehicle id="940" pos="1.34" speed="8.42"/>
            </lane>
        </edge>
        <edge id="gneE10">
            <lane id="gneE10_0">
                <vehicle id="974" pos="68.25" speed="5.44"/>
                <vehicle id="995" pos="100.13" speed="5.92"/>
            </lane>
        </edge>
        <edge id="gneE11">
            <lane id="gneE11_0">
                <vehicle id="850" pos="90.84" speed="8.58"/>
            </lane>
        </edge>
        <edge id="gneE17">
            <lane id="gneE17_0">
                <vehicle id="868" pos="52.85" speed="9.67"/>
            </lane>
        </edge>
        <edge id="gneE20">
            <lane id="gneE20_0">
                <vehicle id="954" pos="39.06" speed="8.45"/>
                <vehicle id="953" pos="58.91" speed="8.55"/>
                <vehicle id="928" pos="151.65" speed="8.88"/>
            </lane>
        </edge>
        <edge id="gneE24">
            <lane id="gneE24_0">
                <vehicle id="993" pos="19.80" speed="11.99"/>
                <vehicle id="941" pos="42.56" speed="12.67"/>
                <vehicle id="822" pos="66.99" speed="12.03"/>
                <vehicle id="922" pos="140.70" speed="12.96"/>
                <vehicle id="929" pos="174.48" speed="12.30"/>
            </lane>
        </edge>
        <edge id="gneE27">
            <lane id="gneE27_0">
                <vehicle id="908" pos="106.28" speed="4.73"/>
            </lane>
        </edge>
        <edge id="gneE28">
            <lane id="gneE28_0">
                <vehicle id="997" pos="133.22" speed="8.87"/>
            </lane>
        </edge>
        <edge id="gneE3">
            <lane id="gneE3_0">
                <vehicle id="898" pos="83.86" speed="9.57"/>
            </lane>
        </edge>
        <edge id="gneE31">
            <lane id="gneE31_0">
                <vehicle id="834" pos="57.98" speed="8.90"/>
                <vehicle id="890" pos="272.41" speed="8.21"/>
            </lane>
        </edge>
        <edge id="gneE38">
            <lane id="gneE38_0">
                <vehicle id="912" pos="26.14" speed="8.40"/>
                <vehicle id="829" pos="210.21" speed="8.93"/>
                <vehicle id="945" pos="295.49" speed="6.10"/>
                <vehicle id="873" pos="310.39" speed="6.76"/>
                <vehicle id="967" pos="323.98" speed="5.15"/>
                <vehicle id="857" pos="340.59" speed="7.46"/>
            </lane>
        </edge>
        <edge id="gneE4">
            <lane id="gneE4_0">
                <vehicle id="894" pos="3.38" speed="8.34"/>
            </lane>
        </edge>
        <edge id="gneE42">
            <lane id="gneE42_0">
                <vehicle id="935" pos="48.26" speed="7.62"/>
                <vehicle id="931" pos="99.55" speed="7.41"/>
            </lane>
        </edge>
        <edge id="gneE43">
            <lane id="gneE43_0">
                <vehicle id="905" pos="159.81" speed="6.10"/>
            </lane>
        </edge>
        <edge id="gneE45">
            <lane id="gneE45_0">
                <vehicle id="975" pos="247.59" speed="8.62"/>
            </lane>
        </edge>
        <edge id="gneE46">
            <lane id="gneE46_0">
                <vehicle id="895" pos="17.86" speed="9.39"/>
            </lane>
        </edge>
        <edge id="gneE50">
            <lane id="gneE50_0">
                <vehicle id="996" pos="356.86" speed="4.93"/>
            </lane>
        </edge>
        <edge id="gneE51">
            <lane id="gneE51_0">
                <vehicle id="939" pos="79.20" speed="6.24"/>
            </lane>
        </edge>
        <edge id="gneE52">
            <lane id="gneE52_0">
                <vehicle id="962" pos="93.38" speed="6.64"/>
            </lane>
        </edge>
        <edge id="gneE55">
            <lane id="gneE55_0">
                <vehicle id="860" pos="7.03" speed="7.69"/>
            </lane>
        </edge>
        <edge id="gneE61">
            <lane id="gneE61_0">
                <vehicle id="982" pos="168.32" speed="7.35"/>
                <vehicle id="970" pos="199.24" speed="7.36"/>
            </lane>
        </edge>
        <edge id="gneE7">
            <lane id="gneE7_0">
                <vehicle id="897" pos="198.28" speed="8.30"/>
            </lane>
        </edge>
    </timestep>
