<?xml version="1.0"?>
<timestep time="1238.00">
        <edge id="gneE10">
            <lane id="gneE10_0">
                <vehicle id="974" pos="84.99" speed="5.58"/>
                <vehicle id="995" pos="115.95" speed="4.82"/>
            </lane>
        </edge>
        <edge id="gneE11">
            <lane id="gneE11_0">
                <vehicle id="850" pos="116.77" speed="8.46"/>
            </lane>
        </edge>
        <edge id="gneE14">
            <lane id="gneE14_0">
                <vehicle id="940" pos="22.86" speed="10.35"/>
            </lane>
        </edge>
        <edge id="gneE17">
            <lane id="gneE17_0">
                <vehicle id="868" pos="80.80" speed="9.56"/>
            </lane>
        </edge>
        <edge id="gneE20">
            <lane id="gneE20_0">
                <vehicle id="909" pos="20.92" speed="8.13"/>
                <vehicle id="954" pos="63.61" speed="8.09"/>
                <vehicle id="953" pos="84.18" speed="8.10"/>
                <vehicle id="928" pos="176.14" speed="8.37"/>
            </lane>
        </edge>
        <edge id="gneE24">
            <lane id="gneE24_0">
                <vehicle id="997" pos="12.51" speed="12.76"/>
                <vehicle id="993" pos="56.18" speed="11.70"/>
                <vehicle id="941" pos="79.26" speed="11.85"/>
                <vehicle id="822" pos="104.40" speed="12.57"/>
                <vehicle id="922" pos="178.15" speed="12.15"/>
            </lane>
        </edge>
        <edge id="gneE27">
            <lane id="gneE27_0">
                <vehicle id="908" pos="121.88" speed="5.43"/>
            </lane>
        </edge>
        <edge id="gneE28">
            <lane id="gneE28_0">
                <vehicle id="890" pos="2.70" speed="8.55"/>
            </lane>
        </edge>
        <edge id="gneE3">
            <lane id="gneE3_0">
                <vehicle id="898" pos="112.44" speed="9.79"/>
            </lane>
        </edge>
        <edge id="gneE31">
            <lane id="gneE31_0">
                <vehicle id="834" pos="83.24" speed="8.27"/>
            </lane>
        </edge>
        <edge id="gneE38">
            <lane id="gneE38_0">
                <vehicle id="912" pos="50.80" speed="7.88"/>
                <vehicle id="829" pos="235.29" speed="8.51"/>
                <vehicle id="945" pos="312.76" speed="6.27"/>
                <vehicle id="873" pos="328.73" speed="7.23"/>
                <vehicle id="967" pos="341.69" speed="3.50"/>
            </lane>
        </edge>
        <edge id="gneE4">
            <lane id="gneE4_0">
                <vehicle id="894" pos="32.02" speed="9.04"/>
            </lane>
        </edge>
        <edge id="gneE42">
            <lane id="gneE42_0">
                <vehicle id="935" pos="70.00" speed="6.95"/>
                <vehicle id="931" pos="120.71" speed="6.80"/>
            </lane>
        </edge>
        <edge id="gneE43">
            <lane id="gneE43_0">
                <vehicle id="905" pos="179.89" speed="6.56"/>
            </lane>
        </edge>
        <edge id="gneE45">
            <lane id="gneE45_0">
                <vehicle id="969" pos="17.39" speed="8.57"/>
                <vehicle id="975" pos="272.63" speed="8.30"/>
            </lane>
        </edge>
        <edge id="gneE46">
            <lane id="gneE46_0">
                <vehicle id="895" pos="46.05" speed="9.15"/>
            </lane>
        </edge>
        <edge id="gneE51">
            <lane id="gneE51_0">
                <vehicle id="939" pos="97.48" speed="5.86"/>
            </lane>
        </edge>
        <edge id="gneE52">
            <lane id="gneE52_0">
                <vehicle id="962" pos="112.49" speed="5.87"/>
            </lane>
        </edge>
        <edge id="gneE55">
            <lane id="gneE55_0">
                <vehicle id="860" pos="29.54" speed="7.29"/>
            </lane>
        </edge>
        <edge id="gneE61">
            <lane id="gneE61_0">
                <vehicle id="929" pos="1.40" speed="7.10"/>
                <vehicle id="982" pos="189.20" speed="7.10"/>
                <vehicle id="970" pos="220.77" speed="7.16"/>
            </lane>
        </edge>
        <edge id="gneE7">
            <lane id="gneE7_0">
                <vehicle id="897" pos="223.37" speed="7.78"/>
            </lane>
        </edge>
    </timestep>
