<?xml version="1.0"?>
<timestep time="1248.00">
        <edge id=":gneJ11_2">
            <lane id=":gneJ11_2_0">
                <vehicle id="941" pos="13.70" speed="8.58"/>
            </lane>
        </edge>
        <edge id="gneE10">
            <lane id="gneE10_0">
                <vehicle id="974" pos="138.07" speed="3.91"/>
            </lane>
        </edge>
        <edge id="gneE14">
            <lane id="gneE14_0">
                <vehicle id="940" pos="126.45" speed="10.78"/>
            </lane>
        </edge>
        <edge id="gneE17">
            <lane id="gneE17_0">
                <vehicle id="868" pos="176.49" speed="9.31"/>
            </lane>
        </edge>
        <edge id="gneE20">
            <lane id="gneE20_0">
                <vehicle id="909" pos="103.52" speed="8.31"/>
                <vehicle id="954" pos="146.40" speed="8.34"/>
                <vehicle id="953" pos="168.15" speed="8.04"/>
                <vehicle id="928" pos="256.41" speed="7.76"/>
            </lane>
        </edge>
        <edge id="gneE24">
            <lane id="gneE24_0">
                <vehicle id="967" pos="82.03" speed="12.50"/>
                <vehicle id="997" pos="135.56" speed="12.39"/>
                <vehicle id="993" pos="178.88" speed="12.23"/>
            </lane>
        </edge>
        <edge id="gneE27">
            <lane id="gneE27_0">
                <vehicle id="945" pos="15.19" speed="5.62"/>
            </lane>
        </edge>
        <edge id="gneE28">
            <lane id="gneE28_0">
                <vehicle id="890" pos="86.06" speed="8.70"/>
            </lane>
        </edge>
        <edge id="gneE31">
            <lane id="gneE31_0">
                <vehicle id="995" pos="37.75" speed="8.05"/>
                <vehicle id="834" pos="168.83" speed="8.55"/>
            </lane>
        </edge>
        <edge id="gneE38">
            <lane id="gneE38_0">
                <vehicle id="931" pos="43.90" speed="8.31"/>
                <vehicle id="912" pos="133.94" speed="8.12"/>
                <vehicle id="829" pos="316.04" speed="8.22"/>
            </lane>
        </edge>
        <edge id="gneE4">
            <lane id="gneE4_0">
                <vehicle id="894" pos="126.73" speed="9.91"/>
            </lane>
        </edge>
        <edge id="gneE42">
            <lane id="gneE42_0">
                <vehicle id="935" pos="142.40" speed="7.11"/>
            </lane>
        </edge>
        <edge id="gneE43">
            <lane id="gneE43_0">
                <vehicle id="905" pos="243.38" speed="5.99"/>
            </lane>
        </edge>
        <edge id="gneE45">
            <lane id="gneE45_0">
                <vehicle id="969" pos="99.81" speed="8.62"/>
            </lane>
        </edge>
        <edge id="gneE46">
            <lane id="gneE46_0">
                <vehicle id="975" pos="35.77" speed="9.66"/>
                <vehicle id="895" pos="138.61" speed="9.87"/>
            </lane>
        </edge>
        <edge id="gneE51">
            <lane id="gneE51_0">
                <vehicle id="939" pos="163.01" speed="6.63"/>
            </lane>
        </edge>
        <edge id="gneE52">
            <lane id="gneE52_0">
                <vehicle id="962" pos="178.58" speed="6.86"/>
            </lane>
        </edge>
        <edge id="gneE55">
            <lane id="gneE55_0">
                <vehicle id="860" pos="102.54" speed="6.86"/>
            </lane>
        </edge>
        <edge id="gneE61">
            <lane id="gneE61_0">
                <vehicle id="929" pos="73.47" speed="6.80"/>
                <vehicle id="982" pos="264.16" speed="7.98"/>
                <vehicle id="970" pos="296.19" speed="7.87"/>
            </lane>
        </edge>
    </timestep>
