<?xml version="1.0"?>
<timestep time="1281.00">
        <edge id="gneE15">
            <lane id="gneE15_0">
                <vehicle id="909" pos="88.56" speed="7.95"/>
            </lane>
        </edge>
        <edge id="gneE17">
            <lane id="gneE17_0">
                <vehicle id="954" pos="144.57" speed="9.15"/>
                <vehicle id="953" pos="174.52" speed="8.94"/>
                <vehicle id="928" pos="269.29" speed="9.53"/>
            </lane>
        </edge>
        <edge id="gneE20">
            <lane id="gneE20_0">
                <vehicle id="967" pos="194.07" speed="8.73"/>
            </lane>
        </edge>
        <edge id="gneE31">
            <lane id="gneE31_0">
                <vehicle id="974" pos="262.72" speed="8.56"/>
            </lane>
        </edge>
        <edge id="gneE38">
            <lane id="gneE38_0">
                <vehicle id="931" pos="316.73" speed="7.94"/>
            </lane>
        </edge>
        <edge id="gneE48">
            <lane id="gneE48_0">
                <vehicle id="975" pos="99.22" speed="6.19"/>
            </lane>
        </edge>
        <edge id="gneE50">
            <lane id="gneE50_0">
                <vehicle id="997" pos="136.72" speed="4.90"/>
            </lane>
        </edge>
        <edge id="gneE53">
            <lane id="gneE53_0">
                <vehicle id="860" pos="173.20" speed="7.00"/>
            </lane>
        </edge>
        <edge id="gneE54">
            <lane id="gneE54_0">
                <vehicle id="962" pos="36.20" speed="6.96"/>
            </lane>
        </edge>
        <edge id="gneE61">
            <lane id="gneE61_0">
                <vehicle id="890" pos="62.30" speed="6.79"/>
                <vehicle id="993" pos="229.06" speed="7.56"/>
                <vehicle id="929" pos="310.29" speed="7.30"/>
            </lane>
        </edge>
    </timestep>
