<?xml version="1.0"?>
<timestep time="1283.00">
        <edge id="gneE15">
            <lane id="gneE15_0">
                <vehicle id="909" pos="105.89" speed="8.86"/>
            </lane>
        </edge>
        <edge id="gneE17">
            <lane id="gneE17_0">
                <vehicle id="954" pos="164.00" speed="10.00"/>
                <vehicle id="953" pos="193.24" speed="9.96"/>
                <vehicle id="928" pos="283.81" speed="5.13"/>
            </lane>
        </edge>
        <edge id="gneE20">
            <lane id="gneE20_0">
                <vehicle id="967" pos="211.47" speed="8.98"/>
            </lane>
        </edge>
        <edge id="gneE31">
            <lane id="gneE31_0">
                <vehicle id="974" pos="279.99" speed="8.35"/>
            </lane>
        </edge>
        <edge id="gneE38">
            <lane id="gneE38_0">
                <vehicle id="931" pos="332.94" speed="7.87"/>
            </lane>
        </edge>
        <edge id="gneE48">
            <lane id="gneE48_0">
                <vehicle id="975" pos="111.50" speed="6.40"/>
            </lane>
        </edge>
        <edge id="gneE50">
            <lane id="gneE50_0">
                <vehicle id="997" pos="146.94" speed="5.26"/>
            </lane>
        </edge>
        <edge id="gneE53">
            <lane id="gneE53_0">
                <vehicle id="860" pos="185.70" speed="6.74"/>
            </lane>
        </edge>
        <edge id="gneE54">
            <lane id="gneE54_0">
                <vehicle id="962" pos="49.04" speed="6.53"/>
            </lane>
        </edge>
        <edge id="gneE61">
            <lane id="gneE61_0">
                <vehicle id="890" pos="77.49" speed="7.89"/>
                <vehicle id="993" pos="243.38" speed="7.15"/>
                <vehicle id="929" pos="325.74" speed="7.66"/>
            </lane>
        </edge>
    </timestep>
