<?xml version="1.0"?>
<timestep time="1301.00">
        <edge id="gneE10">
            <lane id="gneE10_0">
                <vehicle id="909" pos="54.16" speed="5.97"/>
            </lane>
        </edge>
        <edge id="gneE28">
            <lane id="gneE28_0">
                <vehicle id="974" pos="136.15" speed="8.58"/>
            </lane>
        </edge>
        <edge id="gneE3">
            <lane id="gneE3_0">
                <vehicle id="928" pos="148.97" speed="9.67"/>
            </lane>
        </edge>
        <edge id="gneE48">
            <lane id="gneE48_0">
                <vehicle id="975" pos="226.10" speed="5.87"/>
            </lane>
        </edge>
        <edge id="gneE50">
            <lane id="gneE50_0">
                <vehicle id="997" pos="240.79" speed="5.78"/>
            </lane>
        </edge>
        <edge id="gneE53">
            <lane id="gneE53_0">
                <vehicle id="860" pos="298.54" speed="6.15"/>
            </lane>
        </edge>
        <edge id="gneE58">
            <lane id="gneE58_0">
                <vehicle id="953" pos="38.72" speed="7.56"/>
            </lane>
        </edge>
        <edge id="gneE59">
            <lane id="gneE59_0">
                <vehicle id="993" pos="43.85" speed="8.22"/>
                <vehicle id="929" pos="132.54" speed="8.25"/>
            </lane>
        </edge>
        <edge id="gneE61">
            <lane id="gneE61_0">
                <vehicle id="890" pos="211.01" speed="7.95"/>
            </lane>
        </edge>
    </timestep>
