<?xml version="1.0"?>
<timestep time="1309.00">
        <edge id="gneE10">
            <lane id="gneE10_0">
                <vehicle id="909" pos="96.01" speed="5.72"/>
            </lane>
        </edge>
        <edge id="gneE24">
            <lane id="gneE24_0">
                <vehicle id="974" pos="76.64" speed="12.57"/>
            </lane>
        </edge>
        <edge id="gneE48">
            <lane id="gneE48_0">
                <vehicle id="975" pos="279.23" speed="6.66"/>
            </lane>
        </edge>
        <edge id="gneE5">
            <lane id="gneE5_0">
                <vehicle id="928" pos="29.90" speed="4.89"/>
            </lane>
        </edge>
        <edge id="gneE50">
            <lane id="gneE50_0">
                <vehicle id="997" pos="284.48" speed="5.46"/>
            </lane>
        </edge>
        <edge id="gneE58">
            <lane id="gneE58_0">
                <vehicle id="953" pos="98.25" speed="7.51"/>
            </lane>
        </edge>
        <edge id="gneE59">
            <lane id="gneE59_0">
                <vehicle id="993" pos="110.60" speed="7.73"/>
                <vehicle id="929" pos="199.33" speed="8.26"/>
            </lane>
        </edge>
        <edge id="gneE61">
            <lane id="gneE61_0">
                <vehicle id="890" pos="268.37" speed="7.17"/>
            </lane>
        </edge>
    </timestep>
