<?xml version="1.0"?>
<timestep time="1314.00">
        <edge id="gneE10">
            <lane id="gneE10_0">
                <vehicle id="909" pos="123.66" speed="4.93"/>
            </lane>
        </edge>
        <edge id="gneE24">
            <lane id="gneE24_0">
                <vehicle id="974" pos="137.73" speed="12.13"/>
            </lane>
        </edge>
        <edge id="gneE48">
            <lane id="gneE48_0">
                <vehicle id="975" pos="311.54" speed="5.96"/>
            </lane>
        </edge>
        <edge id="gneE5">
            <lane id="gneE5_0">
                <vehicle id="928" pos="56.36" speed="5.40"/>
            </lane>
        </edge>
        <edge id="gneE50">
            <lane id="gneE50_0">
                <vehicle id="997" pos="311.23" speed="5.68"/>
            </lane>
        </edge>
        <edge id="gneE58">
            <lane id="gneE58_0">
                <vehicle id="953" pos="134.15" speed="6.82"/>
            </lane>
        </edge>
        <edge id="gneE59">
            <lane id="gneE59_0">
                <vehicle id="993" pos="151.20" speed="8.05"/>
                <vehicle id="929" pos="241.25" speed="8.89"/>
            </lane>
        </edge>
        <edge id="gneE61">
            <lane id="gneE61_0">
                <vehicle id="890" pos="303.68" speed="6.97"/>
            </lane>
        </edge>
    </timestep>
