<?xml version="1.0"?>
<timestep time="1354.00">
        <edge id="gneE59">
            <lane id="gneE59_0">
                <vehicle id="890" pos="295.65" speed="7.91"/>
            </lane>
        </edge>
        <edge id="gneE60">
            <lane id="gneE60_0">
                <vehicle id="953" pos="87.83" speed="6.37"/>
            </lane>
        </edge>
        <edge id="gneE61">
            <lane id="gneE61_0">
                <vehicle id="974" pos="252.24" speed="7.53"/>
            </lane>
        </edge>
        <edge id="gneE7">
            <lane id="gneE7_0">
                <vehicle id="928" pos="181.97" speed="8.45"/>
            </lane>
        </edge>
    </timestep>
