<?xml version="1.0"?>
<timestep time="1361.00">
        <edge id="gneE60">
            <lane id="gneE60_0">
                <vehicle id="953" pos="132.45" speed="6.82"/>
            </lane>
        </edge>
        <edge id="gneE61">
            <lane id="gneE61_0">
                <vehicle id="974" pos="303.09" speed="7.11"/>
            </lane>
        </edge>
        <edge id="gneE7">
            <lane id="gneE7_0">
                <vehicle id="928" pos="241.69" speed="8.83"/>
            </lane>
        </edge>
    </timestep>
