<?xml version="1.0"?>
<timestep time="1366.00">
        <edge id="gneE60">
            <lane id="gneE60_0">
                <vehicle id="953" pos="164.60" speed="6.24"/>
            </lane>
        </edge>
        <edge id="gneE7">
            <lane id="gneE7_0">
                <vehicle id="928" pos="283.21" speed="7.88"/>
            </lane>
        </edge>
    </timestep>
