<?xml version="1.0"?>
<timestep time="1369.00">
        <edge id="gneE60">
            <lane id="gneE60_0">
                <vehicle id="953" pos="182.88" speed="5.75"/>
            </lane>
        </edge>
    </timestep>
