<?xml version="1.0"?>
<timestep time="1378.00">
        <edge id="gneE60">
            <lane id="gneE60_0">
                <vehicle id="953" pos="240.19" speed="6.76"/>
            </lane>
        </edge>
    </timestep>
