<?xml version="1.0"?>
<timestep time="1380.00">
        <edge id="gneE60">
            <lane id="gneE60_0">
                <vehicle id="953" pos="252.63" speed="5.72"/>
            </lane>
        </edge>
    </timestep>
