<?xml version="1.0"?>
<timestep time="139.00">
        <edge id=":gneJ11_42">
            <lane id=":gneJ11_42_0">
                <vehicle id="120" pos="5.23" speed="9.34"/>
            </lane>
        </edge>
        <edge id=":gneJ15_14">
            <lane id=":gneJ15_14_0">
                <vehicle id="35" pos="14.63" speed="8.75"/>
            </lane>
        </edge>
        <edge id=":gneJ3_3">
            <lane id=":gneJ3_3_0">
                <vehicle id="97" pos="4.82" speed="5.56"/>
            </lane>
        </edge>
        <edge id="gneE1">
            <lane id="gneE1_0">
                <vehicle id="113" pos="115.84" speed="4.58"/>
            </lane>
        </edge>
        <edge id="gneE10">
            <lane id="gneE10_0">
                <vehicle id="21" pos="43.84" speed="4.82"/>
                <vehicle id="5" pos="118.47" speed="5.12"/>
            </lane>
        </edge>
        <edge id="gneE11">
            <lane id="gneE11_0">
                <vehicle id="71" pos="26.75" speed="8.76"/>
            </lane>
        </edge>
        <edge id="gneE12">
            <lane id="gneE12_0">
                <vehicle id="86" pos="173.61" speed="13.50"/>
                <vehicle id="4" pos="196.89" speed="13.14"/>
                <vehicle id="65" pos="243.85" speed="12.85"/>
            </lane>
        </edge>
        <edge id="gneE13">
            <lane id="gneE13_0">
                <vehicle id="134" pos="33.08" speed="8.86"/>
                <vehicle id="69" pos="160.30" speed="8.83"/>
                <vehicle id="94" pos="244.33" speed="9.60"/>
            </lane>
        </edge>
        <edge id="gneE14">
            <lane id="gneE14_0">
                <vehicle id="101" pos="31.51" speed="10.24"/>
                <vehicle id="47" pos="74.29" speed="9.74"/>
            </lane>
        </edge>
        <edge id="gneE15">
            <lane id="gneE15_0">
                <vehicle id="6" pos="17.76" speed="8.76"/>
                <vehicle id="125" pos="92.84" speed="8.40"/>
                <vehicle id="72" pos="115.12" speed="8.05"/>
            </lane>
        </edge>
        <edge id="gneE17">
            <lane id="gneE17_0">
                <vehicle id="127" pos="98.41" speed="9.79"/>
                <vehicle id="118" pos="172.31" speed="9.27"/>
                <vehicle id="56" pos="208.87" speed="9.46"/>
            </lane>
        </edge>
        <edge id="gneE18">
            <lane id="gneE18_0">
                <vehicle id="45" pos="62.15" speed="9.04"/>
                <vehicle id="111" pos="232.67" speed="9.97"/>
                <vehicle id="76" pos="264.20" speed="9.82"/>
            </lane>
        </edge>
        <edge id="gneE19">
            <lane id="gneE19_0">
                <vehicle id="74" pos="89.68" speed="12.74"/>
                <vehicle id="100" pos="117.44" speed="12.16"/>
                <vehicle id="61" pos="200.53" speed="12.09"/>
                <vehicle id="53" pos="236.69" speed="12.49"/>
                <vehicle id="50" pos="255.28" speed="6.51"/>
                <vehicle id="31" pos="267.35" speed="1.45"/>
                <vehicle id="78" pos="275.34" speed="0.00"/>
                <vehicle id="33" pos="282.84" speed="0.00"/>
            </lane>
        </edge>
        <edge id="gneE20">
            <lane id="gneE20_0">
                <vehicle id="73" pos="13.94" speed="8.83"/>
                <vehicle id="62" pos="93.44" speed="8.02"/>
                <vehicle id="119" pos="130.56" speed="8.58"/>
                <vehicle id="114" pos="156.36" speed="8.87"/>
                <vehicle id="60" pos="178.79" speed="8.02"/>
                <vehicle id="13" pos="205.56" speed="8.56"/>
                <vehicle id="55" pos="236.12" speed="7.94"/>
            </lane>
        </edge>
        <edge id="gneE23">
            <lane id="gneE23_0">
                <vehicle id="58" pos="4.92" speed="7.89"/>
                <vehicle id="126" pos="91.70" speed="7.69"/>
                <vehicle id="19" pos="148.64" speed="6.82"/>
            </lane>
        </edge>
        <edge id="gneE24">
            <lane id="gneE24_0">
                <vehicle id="49" pos="123.01" speed="12.28"/>
                <vehicle id="124" pos="158.48" speed="12.70"/>
            </lane>
        </edge>
        <edge id="gneE25">
            <lane id="gneE25_0">
                <vehicle id="91" pos="128.32" speed="9.19"/>
                <vehicle id="68" pos="149.98" speed="9.38"/>
                <vehicle id="102" pos="170.14" speed="9.20"/>
                <vehicle id="36" pos="205.38" speed="9.52"/>
                <vehicle id="20" pos="264.01" speed="9.22"/>
                <vehicle id="26" pos="282.58" speed="0.53"/>
                <vehicle id="37" pos="290.67" speed="0.17"/>
            </lane>
        </edge>
        <edge id="gneE26">
            <lane id="gneE26_0">
                <vehicle id="82" pos="5.86" speed="6.91"/>
                <vehicle id="110" pos="47.40" speed="6.13"/>
                <vehicle id="103" pos="93.99" speed="6.69"/>
                <vehicle id="43" pos="211.68" speed="6.05"/>
                <vehicle id="90" pos="269.75" speed="6.54"/>
                <vehicle id="38" pos="286.66" speed="6.18"/>
            </lane>
        </edge>
        <edge id="gneE28">
            <lane id="gneE28_0">
                <vehicle id="75" pos="14.36" speed="8.03"/>
                <vehicle id="96" pos="54.56" speed="8.67"/>
            </lane>
        </edge>
        <edge id="gneE3">
            <lane id="gneE3_0">
                <vehicle id="95" pos="14.84" speed="9.06"/>
            </lane>
        </edge>
        <edge id="gneE30">
            <lane id="gneE30_0">
                <vehicle id="136" pos="14.86" speed="5.21"/>
                <vehicle id="0" pos="39.97" speed="7.75"/>
                <vehicle id="131" pos="59.04" speed="8.89"/>
                <vehicle id="121" pos="139.00" speed="8.41"/>
            </lane>
        </edge>
        <edge id="gneE31">
            <lane id="gneE31_0">
                <vehicle id="135" pos="25.86" speed="8.16"/>
                <vehicle id="66" pos="60.11" speed="8.43"/>
                <vehicle id="115" pos="193.86" speed="8.72"/>
            </lane>
        </edge>
        <edge id="gneE32">
            <lane id="gneE32_0">
                <vehicle id="116" pos="155.59" speed="6.99"/>
                <vehicle id="109" pos="213.84" speed="6.75"/>
            </lane>
        </edge>
        <edge id="gneE38">
            <lane id="gneE38_0">
                <vehicle id="57" pos="98.60" speed="7.80"/>
                <vehicle id="81" pos="302.39" speed="8.28"/>
            </lane>
        </edge>
        <edge id="gneE4">
            <lane id="gneE4_0">
                <vehicle id="132" pos="6.50" speed="1.40"/>
                <vehicle id="130" pos="26.03" speed="8.20"/>
                <vehicle id="105" pos="54.16" speed="9.51"/>
                <vehicle id="80" pos="73.55" speed="9.50"/>
                <vehicle id="64" pos="99.35" speed="9.16"/>
            </lane>
        </edge>
        <edge id="gneE41">
            <lane id="gneE41_0">
                <vehicle id="89" pos="23.11" speed="8.82"/>
            </lane>
        </edge>
        <edge id="gneE42">
            <lane id="gneE42_0">
                <vehicle id="63" pos="43.58" speed="7.61"/>
                <vehicle id="88" pos="82.33" speed="6.71"/>
                <vehicle id="122" pos="120.83" speed="7.16"/>
            </lane>
        </edge>
        <edge id="gneE43">
            <lane id="gneE43_0">
                <vehicle id="128" pos="65.37" speed="6.52"/>
                <vehicle id="39" pos="180.10" speed="6.49"/>
            </lane>
        </edge>
        <edge id="gneE45">
            <lane id="gneE45_0">
                <vehicle id="77" pos="49.29" speed="8.04"/>
                <vehicle id="11" pos="125.67" speed="8.49"/>
                <vehicle id="117" pos="175.91" speed="8.19"/>
                <vehicle id="51" pos="271.04" speed="8.59"/>
            </lane>
        </edge>
        <edge id="gneE47">
            <lane id="gneE47_0">
                <vehicle id="17" pos="42.83" speed="8.93"/>
                <vehicle id="129" pos="74.85" speed="8.49"/>
                <vehicle id="79" pos="107.42" speed="8.87"/>
                <vehicle id="123" pos="127.89" speed="8.61"/>
                <vehicle id="27" pos="169.63" speed="8.60"/>
            </lane>
        </edge>
        <edge id="gneE48">
            <lane id="gneE48_0">
                <vehicle id="106" pos="204.26" speed="6.27"/>
                <vehicle id="84" pos="319.64" speed="0.00"/>
            </lane>
        </edge>
        <edge id="gneE49">
            <lane id="gneE49_0">
                <vehicle id="112" pos="50.17" speed="7.20"/>
                <vehicle id="22" pos="141.56" speed="6.91"/>
                <vehicle id="40" pos="171.92" speed="7.36"/>
            </lane>
        </edge>
        <edge id="gneE5">
            <lane id="gneE5_0">
                <vehicle id="42" pos="83.54" speed="5.34"/>
                <vehicle id="92" pos="106.64" speed="4.82"/>
            </lane>
        </edge>
        <edge id="gneE50">
            <lane id="gneE50_0">
                <vehicle id="15" pos="64.36" speed="4.96"/>
                <vehicle id="34" pos="85.59" speed="5.24"/>
                <vehicle id="52" pos="216.56" speed="5.87"/>
            </lane>
        </edge>
        <edge id="gneE51">
            <lane id="gneE51_0">
                <vehicle id="133" pos="33.43" speed="6.87"/>
                <vehicle id="12" pos="253.54" speed="6.36"/>
                <vehicle id="30" pos="270.26" speed="6.54"/>
                <vehicle id="14" pos="363.10" speed="5.77"/>
            </lane>
        </edge>
        <edge id="gneE52">
            <lane id="gneE52_0">
                <vehicle id="107" pos="200.65" speed="5.98"/>
            </lane>
        </edge>
        <edge id="gneE53">
            <lane id="gneE53_0">
                <vehicle id="99" pos="124.53" speed="6.85"/>
                <vehicle id="70" pos="305.24" speed="6.86"/>
                <vehicle id="87" pos="330.98" speed="6.56"/>
            </lane>
        </edge>
        <edge id="gneE54">
            <lane id="gneE54_0">
                <vehicle id="138" pos="7.11" speed="2.01"/>
            </lane>
        </edge>
        <edge id="gneE56">
            <lane id="gneE56_0">
                <vehicle id="24" pos="120.19" speed="7.82"/>
            </lane>
        </edge>
        <edge id="gneE59">
            <lane id="gneE59_0">
                <vehicle id="85" pos="33.65" speed="8.16"/>
            </lane>
        </edge>
        <edge id="gneE60">
            <lane id="gneE60_0">
                <vehicle id="83" pos="75.15" speed="6.82"/>
                <vehicle id="67" pos="181.07" speed="7.00"/>
                <vehicle id="44" pos="321.63" speed="6.17"/>
                <vehicle id="41" pos="337.12" speed="2.10"/>
            </lane>
        </edge>
        <edge id="gneE61">
            <lane id="gneE61_0">
                <vehicle id="139" pos="5.10" speed="0.00"/>
                <vehicle id="28" pos="135.78" speed="7.57"/>
                <vehicle id="32" pos="336.51" speed="7.01"/>
            </lane>
        </edge>
        <edge id="gneE7">
            <lane id="gneE7_0">
                <vehicle id="137" pos="9.39" speed="2.96"/>
                <vehicle id="93" pos="146.71" speed="7.73"/>
                <vehicle id="108" pos="254.25" speed="7.92"/>
            </lane>
        </edge>
        <edge id="gneE8">
            <lane id="gneE8_0">
                <vehicle id="104" pos="250.35" speed="7.79"/>
                <vehicle id="98" pos="301.56" speed="7.63"/>
            </lane>
        </edge>
    </timestep>
