<?xml version="1.0"?>
<timestep time="15.00">
        <edge id="gneE12">
            <lane id="gneE12_0">
                <vehicle id="15" pos="5.10" speed="0.00"/>
            </lane>
        </edge>
        <edge id="gneE13">
            <lane id="gneE13_0">
                <vehicle id="9" pos="48.30" speed="9.55"/>
                <vehicle id="2" pos="112.44" speed="9.47"/>
            </lane>
        </edge>
        <edge id="gneE18">
            <lane id="gneE18_0">
                <vehicle id="7" pos="64.27" speed="9.07"/>
            </lane>
        </edge>
        <edge id="gneE20">
            <lane id="gneE20_0">
                <vehicle id="1" pos="110.82" speed="8.61"/>
            </lane>
        </edge>
        <edge id="gneE26">
            <lane id="gneE26_0">
                <vehicle id="12" pos="15.87" speed="5.19"/>
            </lane>
        </edge>
        <edge id="gneE30">
            <lane id="gneE30_0">
                <vehicle id="6" pos="66.62" speed="8.63"/>
            </lane>
        </edge>
        <edge id="gneE32">
            <lane id="gneE32_0">
                <vehicle id="14" pos="6.55" speed="1.45"/>
            </lane>
        </edge>
        <edge id="gneE45">
            <lane id="gneE45_0">
                <vehicle id="0" pos="114.13" speed="7.74"/>
            </lane>
        </edge>
        <edge id="gneE48">
            <lane id="gneE48_0">
                <vehicle id="5" pos="62.67" speed="5.98"/>
            </lane>
        </edge>
        <edge id="gneE55">
            <lane id="gneE55_0">
                <vehicle id="11" pos="26.24" speed="7.84"/>
            </lane>
        </edge>
        <edge id="gneE57">
            <lane id="gneE57_0">
                <vehicle id="10" pos="24.86" speed="7.39"/>
                <vehicle id="8" pos="46.44" speed="7.87"/>
                <vehicle id="3" pos="81.70" speed="7.09"/>
            </lane>
        </edge>
        <edge id="gneE58">
            <lane id="gneE58_0">
                <vehicle id="13" pos="11.23" speed="4.27"/>
            </lane>
        </edge>
        <edge id="gneE60">
            <lane id="gneE60_0">
                <vehicle id="4" pos="64.81" speed="6.14"/>
            </lane>
        </edge>
    </timestep>
