<?xml version="1.0"?>
<timestep time="158.00">
        <edge id=":gneJ11_6">
            <lane id=":gneJ11_6_0">
                <vehicle id="12" pos="1.98" speed="6.10"/>
            </lane>
        </edge>
        <edge id=":gneJ11_8">
            <lane id=":gneJ11_8_0">
                <vehicle id="30" pos="17.49" speed="7.54"/>
            </lane>
        </edge>
        <edge id=":gneJ11_35">
            <lane id=":gneJ11_35_0">
                <vehicle id="44" pos="2.21" speed="2.73"/>
            </lane>
        </edge>
        <edge id=":gneJ3_10">
            <lane id=":gneJ3_10_0">
                <vehicle id="132" pos="0.25" speed="6.43"/>
            </lane>
        </edge>
        <edge id=":gneJ3_13">
            <lane id=":gneJ3_13_0">
                <vehicle id="130" pos="13.43" speed="8.19"/>
            </lane>
        </edge>
        <edge id=":gneJ6_1">
            <lane id=":gneJ6_1_0">
                <vehicle id="121" pos="2.86" speed="5.33"/>
            </lane>
        </edge>
        <edge id=":gneJ6_5">
            <lane id=":gneJ6_5_0">
                <vehicle id="93" pos="1.90" speed="7.91"/>
            </lane>
        </edge>
        <edge id=":gneJ9_2">
            <lane id=":gneJ9_2_0">
                <vehicle id="119" pos="4.57" speed="8.47"/>
            </lane>
        </edge>
        <edge id="gneE10">
            <lane id="gneE10_0">
                <vehicle id="6" pos="1.41" speed="4.94"/>
                <vehicle id="20" pos="35.77" speed="5.42"/>
                <vehicle id="21" pos="138.57" speed="1.09"/>
            </lane>
        </edge>
        <edge id="gneE12">
            <lane id="gneE12_0">
                <vehicle id="26" pos="97.69" speed="13.01"/>
                <vehicle id="72" pos="156.89" speed="13.74"/>
                <vehicle id="37" pos="206.84" speed="13.64"/>
            </lane>
        </edge>
        <edge id="gneE13">
            <lane id="gneE13_0">
                <vehicle id="141" pos="145.15" speed="9.16"/>
                <vehicle id="134" pos="210.69" speed="9.74"/>
            </lane>
        </edge>
        <edge id="gneE14">
            <lane id="gneE14_0">
                <vehicle id="69" pos="29.88" speed="9.68"/>
                <vehicle id="71" pos="47.99" speed="9.79"/>
                <vehicle id="148" pos="86.50" speed="10.49"/>
                <vehicle id="94" pos="123.13" speed="10.47"/>
            </lane>
        </edge>
        <edge id="gneE15">
            <lane id="gneE15_0">
                <vehicle id="114" pos="26.49" speed="8.49"/>
                <vehicle id="60" pos="46.03" speed="8.97"/>
                <vehicle id="149" pos="63.82" speed="8.08"/>
                <vehicle id="55" pos="103.81" speed="7.78"/>
            </lane>
        </edge>
        <edge id="gneE17">
            <lane id="gneE17_0">
                <vehicle id="101" pos="32.00" speed="8.72"/>
                <vehicle id="47" pos="50.71" speed="9.30"/>
                <vehicle id="13" pos="81.29" speed="8.90"/>
                <vehicle id="127" pos="274.71" speed="8.06"/>
                <vehicle id="118" pos="286.24" speed="0.01"/>
            </lane>
        </edge>
        <edge id="gneE18">
            <lane id="gneE18_0">
                <vehicle id="105" pos="27.89" speed="9.45"/>
                <vehicle id="64" pos="58.54" speed="9.14"/>
                <vehicle id="113" pos="88.67" speed="9.52"/>
                <vehicle id="97" pos="169.76" speed="8.89"/>
                <vehicle id="45" pos="241.33" speed="8.91"/>
            </lane>
        </edge>
        <edge id="gneE19">
            <lane id="gneE19_0">
                <vehicle id="147" pos="93.30" speed="11.99"/>
                <vehicle id="111" pos="153.83" speed="12.12"/>
                <vehicle id="76" pos="194.46" speed="12.00"/>
                <vehicle id="74" pos="260.10" speed="0.31"/>
                <vehicle id="100" pos="267.83" speed="0.04"/>
                <vehicle id="61" pos="275.34" speed="0.00"/>
                <vehicle id="53" pos="282.84" speed="0.00"/>
            </lane>
        </edge>
        <edge id="gneE20">
            <lane id="gneE20_0">
                <vehicle id="84" pos="54.20" speed="8.20"/>
                <vehicle id="124" pos="128.66" speed="8.25"/>
                <vehicle id="73" pos="172.93" speed="7.95"/>
                <vehicle id="62" pos="250.42" speed="7.81"/>
            </lane>
        </edge>
        <edge id="gneE23">
            <lane id="gneE23_0">
                <vehicle id="41" pos="13.49" speed="6.73"/>
                <vehicle id="70" pos="71.93" speed="7.53"/>
                <vehicle id="33" pos="100.31" speed="7.71"/>
                <vehicle id="58" pos="141.85" speed="6.97"/>
            </lane>
        </edge>
        <edge id="gneE24">
            <lane id="gneE24_0">
                <vehicle id="43" pos="0.26" speed="3.42"/>
                <vehicle id="75" pos="38.79" speed="12.75"/>
            </lane>
        </edge>
        <edge id="gneE25">
            <lane id="gneE25_0">
                <vehicle id="157" pos="6.70" speed="1.60"/>
                <vehicle id="96" pos="73.03" speed="9.11"/>
                <vehicle id="81" pos="104.07" speed="9.51"/>
                <vehicle id="91" pos="267.82" speed="0.25"/>
                <vehicle id="68" pos="275.61" speed="0.21"/>
                <vehicle id="102" pos="283.29" speed="0.03"/>
                <vehicle id="36" pos="290.82" speed="0.01"/>
            </lane>
        </edge>
        <edge id="gneE26">
            <lane id="gneE26_0">
                <vehicle id="125" pos="64.36" speed="6.06"/>
                <vehicle id="82" pos="129.25" speed="6.60"/>
                <vehicle id="110" pos="165.21" speed="5.81"/>
                <vehicle id="103" pos="211.72" speed="5.95"/>
            </lane>
        </edge>
        <edge id="gneE27">
            <lane id="gneE27_0">
                <vehicle id="126" pos="25.38" speed="5.39"/>
                <vehicle id="90" pos="41.54" speed="4.78"/>
            </lane>
        </edge>
        <edge id="gneE28">
            <lane id="gneE28_0">
                <vehicle id="152" pos="31.23" speed="7.89"/>
                <vehicle id="115" pos="55.73" speed="7.82"/>
                <vehicle id="143" pos="111.63" speed="7.80"/>
            </lane>
        </edge>
        <edge id="gneE3">
            <lane id="gneE3_0">
                <vehicle id="56" pos="88.79" speed="9.36"/>
            </lane>
        </edge>
        <edge id="gneE30">
            <lane id="gneE30_0">
                <vehicle id="136" pos="174.84" speed="8.65"/>
                <vehicle id="0" pos="199.75" speed="8.44"/>
                <vehicle id="131" pos="216.62" speed="8.24"/>
            </lane>
        </edge>
        <edge id="gneE31">
            <lane id="gneE31_0">
                <vehicle id="108" pos="102.42" speed="8.44"/>
                <vehicle id="135" pos="184.72" speed="8.26"/>
                <vehicle id="66" pos="217.68" speed="8.58"/>
            </lane>
        </edge>
        <edge id="gneE32">
            <lane id="gneE32_0">
                <vehicle id="35" pos="134.17" speed="7.76"/>
                <vehicle id="116" pos="296.19" speed="7.79"/>
            </lane>
        </edge>
        <edge id="gneE38">
            <lane id="gneE38_0">
                <vehicle id="156" pos="10.56" speed="3.85"/>
                <vehicle id="63" pos="31.32" speed="8.40"/>
                <vehicle id="88" pos="77.41" speed="8.25"/>
                <vehicle id="122" pos="117.72" speed="8.27"/>
                <vehicle id="57" pos="256.50" speed="7.87"/>
            </lane>
        </edge>
        <edge id="gneE4">
            <lane id="gneE4_0">
                <vehicle id="154" pos="21.38" speed="6.75"/>
                <vehicle id="86" pos="49.09" speed="8.89"/>
                <vehicle id="4" pos="77.59" speed="9.65"/>
            </lane>
        </edge>
        <edge id="gneE41">
            <lane id="gneE41_0">
                <vehicle id="109" pos="9.57" speed="8.89"/>
                <vehicle id="153" pos="35.48" speed="8.69"/>
            </lane>
        </edge>
        <edge id="gneE42">
            <lane id="gneE42_0">
                <vehicle id="117" pos="2.21" speed="7.16"/>
                <vehicle id="129" pos="21.51" speed="7.17"/>
                <vehicle id="151" pos="47.31" speed="7.35"/>
            </lane>
        </edge>
        <edge id="gneE43">
            <lane id="gneE43_0">
                <vehicle id="123" pos="56.88" speed="5.93"/>
                <vehicle id="128" pos="187.74" speed="6.93"/>
                <vehicle id="39" pos="300.08" speed="6.74"/>
            </lane>
        </edge>
        <edge id="gneE45">
            <lane id="gneE45_0">
                <vehicle id="38" pos="134.29" speed="7.79"/>
                <vehicle id="77" pos="209.27" speed="8.87"/>
                <vehicle id="11" pos="281.86" speed="8.58"/>
            </lane>
        </edge>
        <edge id="gneE47">
            <lane id="gneE47_0">
                <vehicle id="158" pos="5.10" speed="0.00"/>
            </lane>
        </edge>
        <edge id="gneE48">
            <lane id="gneE48_0">
                <vehicle id="106" pos="318.54" speed="1.39"/>
            </lane>
        </edge>
        <edge id="gneE49">
            <lane id="gneE49_0">
                <vehicle id="50" pos="35.96" speed="7.74"/>
                <vehicle id="87" pos="115.47" speed="7.83"/>
                <vehicle id="112" pos="189.03" speed="7.43"/>
                <vehicle id="22" pos="281.90" speed="7.99"/>
                <vehicle id="40" pos="309.88" speed="6.83"/>
            </lane>
        </edge>
        <edge id="gneE5">
            <lane id="gneE5_0">
                <vehicle id="95" pos="14.75" speed="4.71"/>
                <vehicle id="65" pos="68.44" speed="4.94"/>
            </lane>
        </edge>
        <edge id="gneE50">
            <lane id="gneE50_0">
                <vehicle id="140" pos="95.58" speed="4.87"/>
                <vehicle id="15" pos="165.46" speed="5.92"/>
                <vehicle id="34" pos="186.59" speed="5.41"/>
                <vehicle id="52" pos="316.97" speed="4.75"/>
            </lane>
        </edge>
        <edge id="gneE51">
            <lane id="gneE51_0">
                <vehicle id="89" pos="16.41" speed="6.11"/>
                <vehicle id="79" pos="35.76" speed="5.91"/>
                <vehicle id="51" pos="85.05" speed="6.78"/>
                <vehicle id="133" pos="154.19" speed="6.11"/>
            </lane>
        </edge>
        <edge id="gneE52">
            <lane id="gneE52_0">
                <vehicle id="14" pos="88.83" speed="5.98"/>
                <vehicle id="120" pos="110.32" speed="6.75"/>
                <vehicle id="107" pos="320.84" speed="6.98"/>
            </lane>
        </edge>
        <edge id="gneE53">
            <lane id="gneE53_0">
                <vehicle id="99" pos="244.81" speed="5.91"/>
            </lane>
        </edge>
        <edge id="gneE54">
            <lane id="gneE54_0">
                <vehicle id="138" pos="126.81" speed="6.95"/>
            </lane>
        </edge>
        <edge id="gneE56">
            <lane id="gneE56_0">
                <vehicle id="49" pos="102.24" speed="8.15"/>
            </lane>
        </edge>
        <edge id="gneE57">
            <lane id="gneE57_0">
                <vehicle id="142" pos="112.08" speed="6.86"/>
            </lane>
        </edge>
        <edge id="gneE59">
            <lane id="gneE59_0">
                <vehicle id="85" pos="196.40" speed="8.73"/>
            </lane>
        </edge>
        <edge id="gneE6">
            <lane id="gneE6_0">
                <vehicle id="104" pos="78.79" speed="7.77"/>
                <vehicle id="98" pos="130.27" speed="7.48"/>
            </lane>
        </edge>
        <edge id="gneE60">
            <lane id="gneE60_0">
                <vehicle id="155" pos="14.07" speed="4.97"/>
                <vehicle id="150" pos="48.95" speed="6.29"/>
                <vehicle id="144" pos="86.95" speed="6.40"/>
                <vehicle id="83" pos="194.48" speed="5.82"/>
                <vehicle id="67" pos="303.97" speed="6.64"/>
            </lane>
        </edge>
        <edge id="gneE61">
            <lane id="gneE61_0">
                <vehicle id="31" pos="74.70" speed="7.99"/>
                <vehicle id="78" pos="99.39" speed="7.63"/>
                <vehicle id="139" pos="137.71" speed="7.15"/>
                <vehicle id="28" pos="273.32" speed="7.14"/>
            </lane>
        </edge>
        <edge id="gneE7">
            <lane id="gneE7_0">
                <vehicle id="42" pos="41.47" speed="8.56"/>
                <vehicle id="146" pos="61.06" speed="8.93"/>
                <vehicle id="92" pos="80.77" speed="7.85"/>
                <vehicle id="145" pos="99.17" speed="7.99"/>
                <vehicle id="137" pos="163.96" speed="8.81"/>
            </lane>
        </edge>
    </timestep>
