<?xml version="1.0"?>
<timestep time="175.00">
        <edge id=":gneJ11_0">
            <lane id=":gneJ11_0_0">
                <vehicle id="43" pos="6.39" speed="12.42"/>
            </lane>
        </edge>
        <edge id=":gneJ11_20">
            <lane id=":gneJ11_20_0">
                <vehicle id="99" pos="13.39" speed="9.36"/>
            </lane>
        </edge>
        <edge id=":gneJ15_9">
            <lane id=":gneJ15_9_0">
                <vehicle id="70" pos="13.13" speed="9.10"/>
            </lane>
        </edge>
        <edge id=":gneJ18_0">
            <lane id=":gneJ18_0_0">
                <vehicle id="129" pos="0.22" speed="7.67"/>
            </lane>
        </edge>
        <edge id=":gneJ28_9">
            <lane id=":gneJ28_9_0">
                <vehicle id="109" pos="5.00" speed="8.84"/>
            </lane>
        </edge>
        <edge id=":gneJ6_1">
            <lane id=":gneJ6_1_0">
                <vehicle id="136" pos="4.80" speed="0.12"/>
            </lane>
        </edge>
        <edge id=":gneJ6_4">
            <lane id=":gneJ6_4_0">
                <vehicle id="137" pos="3.35" speed="8.59"/>
            </lane>
        </edge>
        <edge id=":gneJ8_5">
            <lane id=":gneJ8_5_0">
                <vehicle id="114" pos="1.15" speed="6.61"/>
            </lane>
        </edge>
        <edge id="gneE1">
            <lane id="gneE1_0">
                <vehicle id="167" pos="38.10" speed="4.90"/>
            </lane>
        </edge>
        <edge id="gneE10">
            <lane id="gneE10_0">
                <vehicle id="6" pos="92.40" speed="5.73"/>
                <vehicle id="20" pos="128.79" speed="5.31"/>
            </lane>
        </edge>
        <edge id="gneE11">
            <lane id="gneE11_0">
                <vehicle id="131" pos="47.92" speed="7.74"/>
                <vehicle id="121" pos="119.35" speed="8.07"/>
            </lane>
        </edge>
        <edge id="gneE12">
            <lane id="gneE12_0">
                <vehicle id="60" pos="7.82" speed="7.57"/>
                <vehicle id="149" pos="51.32" speed="13.76"/>
                <vehicle id="68" pos="118.55" speed="13.07"/>
                <vehicle id="102" pos="148.82" speed="12.89"/>
            </lane>
        </edge>
        <edge id="gneE13">
            <lane id="gneE13_0">
                <vehicle id="98" pos="119.54" speed="8.94"/>
                <vehicle id="141" pos="299.82" speed="4.21"/>
            </lane>
        </edge>
        <edge id="gneE14">
            <lane id="gneE14_0">
                <vehicle id="134" pos="62.18" speed="10.58"/>
                <vehicle id="36" pos="140.78" speed="9.72"/>
            </lane>
        </edge>
        <edge id="gneE15">
            <lane id="gneE15_0">
                <vehicle id="97" pos="11.53" speed="7.54"/>
                <vehicle id="45" pos="84.19" speed="8.74"/>
                <vehicle id="62" pos="104.96" speed="8.41"/>
                <vehicle id="119" pos="142.23" speed="7.84"/>
            </lane>
        </edge>
        <edge id="gneE17">
            <lane id="gneE17_0">
                <vehicle id="73" pos="26.27" speed="9.48"/>
                <vehicle id="94" pos="112.54" speed="9.90"/>
                <vehicle id="101" pos="188.10" speed="8.90"/>
                <vehicle id="47" pos="208.23" speed="9.21"/>
                <vehicle id="13" pos="242.13" speed="9.01"/>
            </lane>
        </edge>
        <edge id="gneE18">
            <lane id="gneE18_0">
                <vehicle id="154" pos="0.05" speed="8.97"/>
                <vehicle id="130" pos="159.40" speed="9.05"/>
                <vehicle id="105" pos="186.64" speed="8.73"/>
                <vehicle id="64" pos="218.70" speed="9.19"/>
                <vehicle id="113" pos="248.07" speed="9.07"/>
            </lane>
        </edge>
        <edge id="gneE19">
            <lane id="gneE19_0">
                <vehicle id="71" pos="55.24" speed="12.37"/>
                <vehicle id="148" pos="83.89" speed="12.08"/>
                <vehicle id="147" pos="237.83" speed="0.00"/>
                <vehicle id="111" pos="245.33" speed="0.00"/>
                <vehicle id="76" pos="252.83" speed="0.00"/>
                <vehicle id="74" pos="260.34" speed="0.00"/>
                <vehicle id="100" pos="267.84" speed="0.00"/>
                <vehicle id="61" pos="275.34" speed="0.00"/>
                <vehicle id="53" pos="282.84" speed="0.00"/>
            </lane>
        </edge>
        <edge id="gneE2">
            <lane id="gneE2_0">
                <vehicle id="86" pos="47.93" speed="10.42"/>
            </lane>
        </edge>
        <edge id="gneE20">
            <lane id="gneE20_0">
                <vehicle id="44" pos="112.03" speed="8.22"/>
                <vehicle id="84" pos="198.29" speed="8.24"/>
                <vehicle id="124" pos="268.17" speed="7.97"/>
            </lane>
        </edge>
        <edge id="gneE23">
            <lane id="gneE23_0">
                <vehicle id="142" pos="58.21" speed="7.38"/>
                <vehicle id="106" pos="83.44" speed="7.46"/>
                <vehicle id="12" pos="118.54" speed="7.05"/>
                <vehicle id="41" pos="138.75" speed="7.76"/>
            </lane>
        </edge>
        <edge id="gneE24">
            <lane id="gneE24_0">
                <vehicle id="115" pos="66.54" speed="12.86"/>
            </lane>
        </edge>
        <edge id="gneE25">
            <lane id="gneE25_0">
                <vehicle id="152" pos="30.92" speed="9.22"/>
                <vehicle id="39" pos="121.31" speed="9.49"/>
                <vehicle id="157" pos="156.41" speed="9.77"/>
                <vehicle id="96" pos="231.57" speed="9.76"/>
                <vehicle id="81" pos="262.40" speed="9.00"/>
                <vehicle id="91" pos="290.83" speed="0.00"/>
            </lane>
        </edge>
        <edge id="gneE26">
            <lane id="gneE26_0">
                <vehicle id="55" pos="55.70" speed="6.73"/>
                <vehicle id="125" pos="170.19" speed="5.77"/>
                <vehicle id="82" pos="239.80" speed="5.81"/>
                <vehicle id="110" pos="274.40" speed="5.97"/>
            </lane>
        </edge>
        <edge id="gneE27">
            <lane id="gneE27_0">
                <vehicle id="173" pos="7.66" speed="2.56"/>
                <vehicle id="33" pos="20.26" speed="5.40"/>
                <vehicle id="159" pos="88.28" speed="5.40"/>
                <vehicle id="126" pos="116.61" speed="5.54"/>
                <vehicle id="90" pos="130.73" speed="5.41"/>
            </lane>
        </edge>
        <edge id="gneE28">
            <lane id="gneE28_0">
                <vehicle id="135" pos="32.51" speed="7.83"/>
                <vehicle id="66" pos="62.80" speed="8.92"/>
            </lane>
        </edge>
        <edge id="gneE3">
            <lane id="gneE3_0">
                <vehicle id="127" pos="76.21" speed="8.95"/>
            </lane>
        </edge>
        <edge id="gneE31">
            <lane id="gneE31_0">
                <vehicle id="166" pos="65.98" speed="8.46"/>
                <vehicle id="21" pos="106.40" speed="8.12"/>
                <vehicle id="93" pos="135.74" speed="8.30"/>
                <vehicle id="108" pos="247.00" speed="8.13"/>
            </lane>
        </edge>
        <edge id="gneE32">
            <lane id="gneE32_0">
                <vehicle id="171" pos="24.46" speed="6.87"/>
                <vehicle id="143" pos="80.45" speed="7.00"/>
                <vehicle id="35" pos="255.42" speed="7.47"/>
            </lane>
        </edge>
        <edge id="gneE38">
            <lane id="gneE38_0">
                <vehicle id="151" pos="19.04" speed="8.31"/>
                <vehicle id="156" pos="149.70" speed="8.75"/>
                <vehicle id="63" pos="176.64" speed="8.44"/>
                <vehicle id="88" pos="219.92" speed="8.41"/>
                <vehicle id="122" pos="257.78" speed="7.74"/>
            </lane>
        </edge>
        <edge id="gneE4">
            <lane id="gneE4_0">
                <vehicle id="37" pos="27.54" speed="9.74"/>
                <vehicle id="104" pos="59.38" speed="8.76"/>
            </lane>
        </edge>
        <edge id="gneE41">
            <lane id="gneE41_0">
                <vehicle id="168" pos="53.32" speed="8.69"/>
                <vehicle id="116" pos="83.82" speed="8.82"/>
            </lane>
        </edge>
        <edge id="gneE42">
            <lane id="gneE42_0">
                <vehicle id="175" pos="5.10" speed="0.00"/>
                <vehicle id="161" pos="96.58" speed="7.20"/>
                <vehicle id="117" pos="127.53" speed="7.42"/>
            </lane>
        </edge>
        <edge id="gneE43">
            <lane id="gneE43_0">
                <vehicle id="153" pos="12.57" speed="6.20"/>
                <vehicle id="169" pos="34.97" speed="5.79"/>
                <vehicle id="123" pos="164.46" speed="6.30"/>
                <vehicle id="128" pos="297.77" speed="6.99"/>
            </lane>
        </edge>
        <edge id="gneE45">
            <lane id="gneE45_0">
                <vehicle id="38" pos="274.01" speed="8.49"/>
            </lane>
        </edge>
        <edge id="gneE46">
            <lane id="gneE46_0">
                <vehicle id="11" pos="108.42" speed="9.21"/>
                <vehicle id="160" pos="127.90" speed="8.86"/>
            </lane>
        </edge>
        <edge id="gneE47">
            <lane id="gneE47_0">
                <vehicle id="40" pos="84.96" speed="8.19"/>
                <vehicle id="138" pos="110.28" speed="8.78"/>
                <vehicle id="158" pos="132.96" speed="8.40"/>
            </lane>
        </edge>
        <edge id="gneE49">
            <lane id="gneE49_0">
                <vehicle id="75" pos="12.01" speed="7.64"/>
                <vehicle id="50" pos="159.13" speed="7.62"/>
                <vehicle id="87" pos="245.04" speed="7.63"/>
                <vehicle id="112" pos="312.36" speed="6.77"/>
            </lane>
        </edge>
        <edge id="gneE5">
            <lane id="gneE5_0">
                <vehicle id="56" pos="47.63" speed="4.76"/>
                <vehicle id="95" pos="104.58" speed="4.89"/>
            </lane>
        </edge>
        <edge id="gneE50">
            <lane id="gneE50_0">
                <vehicle id="163" pos="63.95" speed="5.10"/>
                <vehicle id="140" pos="187.23" speed="5.32"/>
                <vehicle id="15" pos="256.47" speed="5.02"/>
                <vehicle id="34" pos="279.23" speed="5.25"/>
            </lane>
        </edge>
        <edge id="gneE51">
            <lane id="gneE51_0">
                <vehicle id="77" pos="22.18" speed="6.21"/>
                <vehicle id="89" pos="123.75" speed="6.48"/>
                <vehicle id="79" pos="144.52" speed="6.03"/>
                <vehicle id="51" pos="193.12" speed="5.72"/>
                <vehicle id="133" pos="262.69" speed="6.71"/>
            </lane>
        </edge>
        <edge id="gneE52">
            <lane id="gneE52_0">
                <vehicle id="165" pos="64.14" speed="5.80"/>
                <vehicle id="14" pos="194.87" speed="5.89"/>
                <vehicle id="120" pos="218.04" speed="5.99"/>
            </lane>
        </edge>
        <edge id="gneE54">
            <lane id="gneE54_0">
                <vehicle id="107" pos="77.07" speed="6.81"/>
            </lane>
        </edge>
        <edge id="gneE55">
            <lane id="gneE55_0">
                <vehicle id="174" pos="7.48" speed="2.38"/>
            </lane>
        </edge>
        <edge id="gneE57">
            <lane id="gneE57_0">
                <vehicle id="162" pos="90.18" speed="6.95"/>
            </lane>
        </edge>
        <edge id="gneE58">
            <lane id="gneE58_0">
                <vehicle id="4" pos="43.85" speed="7.06"/>
                <vehicle id="118" pos="69.13" speed="7.73"/>
                <vehicle id="132" pos="108.14" speed="6.86"/>
            </lane>
        </edge>
        <edge id="gneE60">
            <lane id="gneE60_0">
                <vehicle id="164" pos="66.73" speed="6.63"/>
                <vehicle id="155" pos="120.38" speed="5.74"/>
                <vehicle id="150" pos="158.30" speed="5.86"/>
                <vehicle id="144" pos="197.74" speed="6.30"/>
                <vehicle id="83" pos="301.60" speed="6.87"/>
                <vehicle id="67" pos="337.56" speed="0.00"/>
            </lane>
        </edge>
        <edge id="gneE61">
            <lane id="gneE61_0">
                <vehicle id="30" pos="117.49" speed="7.49"/>
                <vehicle id="31" pos="201.20" speed="7.81"/>
                <vehicle id="78" pos="225.74" speed="7.56"/>
                <vehicle id="139" pos="261.48" speed="7.08"/>
            </lane>
        </edge>
        <edge id="gneE7">
            <lane id="gneE7_0">
                <vehicle id="42" pos="180.63" speed="8.16"/>
                <vehicle id="146" pos="202.32" speed="8.15"/>
                <vehicle id="92" pos="218.80" speed="7.85"/>
                <vehicle id="145" pos="241.84" speed="8.77"/>
            </lane>
        </edge>
    </timestep>
