<?xml version="1.0"?>
<timestep time="180.00">
        <edge id=":gneJ11_33">
            <lane id=":gneJ11_33_0">
                <vehicle id="67" pos="18.57" speed="7.43"/>
            </lane>
        </edge>
        <edge id=":gneJ16_0">
            <lane id=":gneJ16_0_0">
                <vehicle id="126" pos="2.96" speed="5.31"/>
            </lane>
        </edge>
        <edge id=":gneJ28_7">
            <lane id=":gneJ28_7_0">
                <vehicle id="38" pos="5.73" speed="8.01"/>
            </lane>
        </edge>
        <edge id=":gneJ8_6">
            <lane id=":gneJ8_6_0">
                <vehicle id="141" pos="1.42" speed="1.52"/>
            </lane>
        </edge>
        <edge id=":gneJ9_4">
            <lane id=":gneJ9_4_0">
                <vehicle id="113" pos="8.95" speed="9.69"/>
            </lane>
        </edge>
        <edge id="gneE1">
            <lane id="gneE1_0">
                <vehicle id="167" pos="61.05" speed="4.74"/>
            </lane>
        </edge>
        <edge id="gneE10">
            <lane id="gneE10_0">
                <vehicle id="6" pos="119.92" speed="5.15"/>
            </lane>
        </edge>
        <edge id="gneE11">
            <lane id="gneE11_0">
                <vehicle id="136" pos="14.82" speed="7.81"/>
                <vehicle id="137" pos="40.15" speed="7.92"/>
                <vehicle id="131" pos="90.07" speed="8.04"/>
            </lane>
        </edge>
        <edge id="gneE12">
            <lane id="gneE12_0">
                <vehicle id="114" pos="45.86" speed="12.84"/>
                <vehicle id="60" pos="69.59" speed="13.59"/>
                <vehicle id="149" pos="119.31" speed="13.28"/>
                <vehicle id="68" pos="184.45" speed="13.12"/>
                <vehicle id="102" pos="213.75" speed="13.14"/>
            </lane>
        </edge>
        <edge id="gneE13">
            <lane id="gneE13_0">
                <vehicle id="98" pos="166.28" speed="9.91"/>
            </lane>
        </edge>
        <edge id="gneE14">
            <lane id="gneE14_0">
                <vehicle id="121" pos="15.91" speed="10.28"/>
                <vehicle id="134" pos="114.78" speed="10.43"/>
                <vehicle id="36" pos="160.63" speed="0.17"/>
            </lane>
        </edge>
        <edge id="gneE15">
            <lane id="gneE15_0">
                <vehicle id="97" pos="52.02" speed="7.82"/>
                <vehicle id="45" pos="126.50" speed="8.43"/>
                <vehicle id="62" pos="145.45" speed="7.80"/>
            </lane>
        </edge>
        <edge id="gneE17">
            <lane id="gneE17_0">
                <vehicle id="124" pos="20.57" speed="9.48"/>
                <vehicle id="73" pos="73.23" speed="9.49"/>
                <vehicle id="94" pos="158.68" speed="9.22"/>
                <vehicle id="101" pos="234.41" speed="8.70"/>
                <vehicle id="47" pos="254.85" speed="9.95"/>
            </lane>
        </edge>
        <edge id="gneE18">
            <lane id="gneE18_0">
                <vehicle id="154" pos="47.76" speed="9.47"/>
                <vehicle id="130" pos="205.57" speed="8.83"/>
                <vehicle id="105" pos="233.90" speed="9.04"/>
                <vehicle id="64" pos="264.55" speed="9.78"/>
            </lane>
        </edge>
        <edge id="gneE19">
            <lane id="gneE19_0">
                <vehicle id="71" pos="116.95" speed="12.18"/>
                <vehicle id="148" pos="145.20" speed="12.19"/>
                <vehicle id="147" pos="237.83" speed="0.00"/>
                <vehicle id="111" pos="245.33" speed="0.00"/>
                <vehicle id="76" pos="252.83" speed="0.00"/>
                <vehicle id="74" pos="260.34" speed="0.00"/>
                <vehicle id="100" pos="267.84" speed="0.00"/>
                <vehicle id="61" pos="275.34" speed="0.00"/>
                <vehicle id="53" pos="282.84" speed="0.00"/>
            </lane>
        </edge>
        <edge id="gneE2">
            <lane id="gneE2_0">
                <vehicle id="86" pos="98.02" speed="10.71"/>
            </lane>
        </edge>
        <edge id="gneE20">
            <lane id="gneE20_0">
                <vehicle id="43" pos="32.50" speed="8.99"/>
                <vehicle id="44" pos="154.50" speed="8.48"/>
                <vehicle id="84" pos="239.66" speed="8.87"/>
            </lane>
        </edge>
        <edge id="gneE23">
            <lane id="gneE23_0">
                <vehicle id="99" pos="28.99" speed="7.56"/>
                <vehicle id="142" pos="95.65" speed="7.65"/>
                <vehicle id="106" pos="119.20" speed="7.95"/>
                <vehicle id="12" pos="154.12" speed="7.60"/>
                <vehicle id="41" pos="174.40" speed="6.90"/>
            </lane>
        </edge>
        <edge id="gneE24">
            <lane id="gneE24_0">
                <vehicle id="110" pos="14.59" speed="9.74"/>
                <vehicle id="115" pos="128.04" speed="12.31"/>
            </lane>
        </edge>
        <edge id="gneE25">
            <lane id="gneE25_0">
                <vehicle id="128" pos="8.76" speed="9.59"/>
                <vehicle id="152" pos="78.00" speed="9.34"/>
                <vehicle id="39" pos="168.65" speed="9.93"/>
                <vehicle id="157" pos="203.05" speed="9.72"/>
                <vehicle id="96" pos="274.19" speed="5.59"/>
                <vehicle id="81" pos="283.32" speed="0.01"/>
                <vehicle id="91" pos="290.83" speed="0.00"/>
            </lane>
        </edge>
        <edge id="gneE26">
            <lane id="gneE26_0">
                <vehicle id="119" pos="12.95" speed="6.96"/>
                <vehicle id="55" pos="88.19" speed="6.88"/>
                <vehicle id="125" pos="202.68" speed="6.35"/>
                <vehicle id="82" pos="270.31" speed="6.32"/>
            </lane>
        </edge>
        <edge id="gneE27">
            <lane id="gneE27_0">
                <vehicle id="180" pos="5.10" speed="0.00"/>
                <vehicle id="173" pos="32.23" speed="5.19"/>
                <vehicle id="33" pos="47.39" speed="5.73"/>
                <vehicle id="159" pos="114.97" speed="5.04"/>
            </lane>
        </edge>
        <edge id="gneE28">
            <lane id="gneE28_0">
                <vehicle id="135" pos="74.21" speed="8.18"/>
                <vehicle id="66" pos="104.71" speed="8.70"/>
            </lane>
        </edge>
        <edge id="gneE3">
            <lane id="gneE3_0">
                <vehicle id="127" pos="122.28" speed="8.96"/>
            </lane>
        </edge>
        <edge id="gneE30">
            <lane id="gneE30_0">
                <vehicle id="90" pos="18.21" speed="8.12"/>
            </lane>
        </edge>
        <edge id="gneE31">
            <lane id="gneE31_0">
                <vehicle id="166" pos="107.56" speed="7.94"/>
                <vehicle id="21" pos="148.83" speed="8.47"/>
                <vehicle id="93" pos="177.26" speed="7.92"/>
                <vehicle id="108" pos="289.00" speed="8.32"/>
            </lane>
        </edge>
        <edge id="gneE32">
            <lane id="gneE32_0">
                <vehicle id="70" pos="31.58" speed="6.99"/>
                <vehicle id="171" pos="61.09" speed="7.45"/>
                <vehicle id="143" pos="117.84" speed="7.93"/>
                <vehicle id="35" pos="291.67" speed="6.72"/>
            </lane>
        </edge>
        <edge id="gneE38">
            <lane id="gneE38_0">
                <vehicle id="117" pos="9.83" speed="8.27"/>
                <vehicle id="129" pos="33.28" speed="8.29"/>
                <vehicle id="151" pos="61.25" speed="8.91"/>
                <vehicle id="156" pos="191.60" speed="8.24"/>
                <vehicle id="63" pos="218.29" speed="7.79"/>
                <vehicle id="88" pos="262.54" speed="8.90"/>
                <vehicle id="122" pos="299.04" speed="8.10"/>
            </lane>
        </edge>
        <edge id="gneE4">
            <lane id="gneE4_0">
                <vehicle id="176" pos="25.17" speed="7.89"/>
                <vehicle id="37" pos="73.74" speed="9.31"/>
                <vehicle id="104" pos="105.63" speed="9.10"/>
            </lane>
        </edge>
        <edge id="gneE41">
            <lane id="gneE41_0">
                <vehicle id="168" pos="95.82" speed="8.40"/>
                <vehicle id="116" pos="125.90" speed="8.61"/>
            </lane>
        </edge>
        <edge id="gneE42">
            <lane id="gneE42_0">
                <vehicle id="175" pos="32.13" speed="7.76"/>
                <vehicle id="161" pos="131.82" speed="7.05"/>
            </lane>
        </edge>
        <edge id="gneE43">
            <lane id="gneE43_0">
                <vehicle id="170" pos="6.63" speed="1.53"/>
                <vehicle id="109" pos="24.44" speed="6.50"/>
                <vehicle id="153" pos="44.07" speed="6.82"/>
                <vehicle id="169" pos="67.47" speed="6.85"/>
                <vehicle id="123" pos="196.17" speed="6.50"/>
            </lane>
        </edge>
        <edge id="gneE46">
            <lane id="gneE46_0">
                <vehicle id="11" pos="154.36" speed="8.96"/>
                <vehicle id="160" pos="174.08" speed="9.38"/>
            </lane>
        </edge>
        <edge id="gneE47">
            <lane id="gneE47_0">
                <vehicle id="112" pos="19.06" speed="7.85"/>
                <vehicle id="40" pos="126.98" speed="8.80"/>
                <vehicle id="138" pos="151.34" speed="7.79"/>
                <vehicle id="158" pos="173.31" speed="8.44"/>
            </lane>
        </edge>
        <edge id="gneE49">
            <lane id="gneE49_0">
                <vehicle id="172" pos="26.58" speed="7.10"/>
                <vehicle id="75" pos="48.25" speed="7.19"/>
                <vehicle id="50" pos="195.12" speed="7.13"/>
                <vehicle id="87" pos="281.52" speed="7.86"/>
            </lane>
        </edge>
        <edge id="gneE5">
            <lane id="gneE5_0">
                <vehicle id="178" pos="12.26" speed="4.61"/>
                <vehicle id="56" pos="74.40" speed="5.17"/>
                <vehicle id="95" pos="131.20" speed="5.33"/>
            </lane>
        </edge>
        <edge id="gneE50">
            <lane id="gneE50_0">
                <vehicle id="163" pos="90.56" speed="4.74"/>
                <vehicle id="140" pos="215.11" speed="5.38"/>
                <vehicle id="15" pos="281.60" speed="4.93"/>
                <vehicle id="34" pos="306.51" speed="5.85"/>
            </lane>
        </edge>
        <edge id="gneE51">
            <lane id="gneE51_0">
                <vehicle id="77" pos="54.58" speed="6.91"/>
                <vehicle id="89" pos="156.81" speed="6.87"/>
                <vehicle id="79" pos="176.40" speed="6.64"/>
                <vehicle id="51" pos="225.38" speed="6.08"/>
                <vehicle id="133" pos="295.49" speed="6.97"/>
            </lane>
        </edge>
        <edge id="gneE52">
            <lane id="gneE52_0">
                <vehicle id="165" pos="96.50" speed="6.71"/>
                <vehicle id="14" pos="225.82" speed="5.86"/>
                <vehicle id="120" pos="248.78" speed="6.31"/>
            </lane>
        </edge>
        <edge id="gneE54">
            <lane id="gneE54_0">
                <vehicle id="107" pos="109.12" speed="6.81"/>
            </lane>
        </edge>
        <edge id="gneE55">
            <lane id="gneE55_0">
                <vehicle id="174" pos="39.71" speed="7.05"/>
            </lane>
        </edge>
        <edge id="gneE57">
            <lane id="gneE57_0">
                <vehicle id="162" pos="127.83" speed="6.96"/>
            </lane>
        </edge>
        <edge id="gneE58">
            <lane id="gneE58_0">
                <vehicle id="177" pos="17.60" speed="5.91"/>
                <vehicle id="4" pos="81.33" speed="7.58"/>
                <vehicle id="118" pos="105.60" speed="7.42"/>
                <vehicle id="132" pos="144.43" speed="7.39"/>
            </lane>
        </edge>
        <edge id="gneE60">
            <lane id="gneE60_0">
                <vehicle id="164" pos="98.05" speed="6.74"/>
                <vehicle id="155" pos="153.24" speed="6.38"/>
                <vehicle id="150" pos="191.16" speed="6.54"/>
                <vehicle id="144" pos="229.80" speed="6.62"/>
                <vehicle id="83" pos="332.48" speed="6.08"/>
            </lane>
        </edge>
        <edge id="gneE61">
            <lane id="gneE61_0">
                <vehicle id="30" pos="153.65" speed="7.02"/>
                <vehicle id="31" pos="239.53" speed="7.98"/>
                <vehicle id="78" pos="263.32" speed="7.94"/>
                <vehicle id="139" pos="298.41" speed="7.20"/>
            </lane>
        </edge>
        <edge id="gneE7">
            <lane id="gneE7_0">
                <vehicle id="42" pos="221.71" speed="8.19"/>
                <vehicle id="146" pos="243.97" speed="8.54"/>
                <vehicle id="92" pos="260.81" speed="8.04"/>
                <vehicle id="145" pos="283.31" speed="7.87"/>
            </lane>
        </edge>
        <edge id="gneE8">
            <lane id="gneE8_0">
                <vehicle id="179" pos="6.46" speed="1.36"/>
            </lane>
        </edge>
    </timestep>
