<?xml version="1.0"?>
<timestep time="181.00">
        <edge id=":gneJ11_33">
            <lane id=":gneJ11_33_0">
                <vehicle id="67" pos="26.57" speed="8.00"/>
            </lane>
        </edge>
        <edge id=":gneJ8_6">
            <lane id=":gneJ8_6_0">
                <vehicle id="141" pos="4.56" speed="3.14"/>
            </lane>
        </edge>
        <edge id="gneE1">
            <lane id="gneE1_0">
                <vehicle id="167" pos="64.80" speed="3.76"/>
            </lane>
        </edge>
        <edge id="gneE10">
            <lane id="gneE10_0">
                <vehicle id="6" pos="125.36" speed="5.44"/>
            </lane>
        </edge>
        <edge id="gneE11">
            <lane id="gneE11_0">
                <vehicle id="136" pos="22.61" speed="7.79"/>
                <vehicle id="137" pos="48.86" speed="8.72"/>
                <vehicle id="131" pos="98.32" speed="8.25"/>
            </lane>
        </edge>
        <edge id="gneE12">
            <lane id="gneE12_0">
                <vehicle id="114" pos="58.87" speed="13.01"/>
                <vehicle id="60" pos="83.04" speed="13.45"/>
                <vehicle id="149" pos="133.08" speed="13.77"/>
                <vehicle id="68" pos="197.18" speed="12.72"/>
                <vehicle id="102" pos="226.98" speed="13.23"/>
            </lane>
        </edge>
        <edge id="gneE13">
            <lane id="gneE13_0">
                <vehicle id="98" pos="175.69" speed="9.41"/>
            </lane>
        </edge>
        <edge id="gneE14">
            <lane id="gneE14_0">
                <vehicle id="121" pos="26.42" speed="10.51"/>
                <vehicle id="134" pos="125.69" speed="10.91"/>
                <vehicle id="36" pos="160.67" speed="0.05"/>
            </lane>
        </edge>
        <edge id="gneE15">
            <lane id="gneE15_0">
                <vehicle id="97" pos="60.66" speed="8.63"/>
                <vehicle id="45" pos="134.94" speed="8.43"/>
                <vehicle id="62" pos="153.99" speed="8.54"/>
            </lane>
        </edge>
        <edge id="gneE17">
            <lane id="gneE17_0">
                <vehicle id="124" pos="29.75" speed="9.18"/>
                <vehicle id="73" pos="82.85" speed="9.62"/>
                <vehicle id="94" pos="167.70" speed="9.02"/>
                <vehicle id="101" pos="243.29" speed="8.88"/>
                <vehicle id="47" pos="263.67" speed="8.81"/>
            </lane>
        </edge>
        <edge id="gneE18">
            <lane id="gneE18_0">
                <vehicle id="154" pos="56.57" speed="8.81"/>
                <vehicle id="130" pos="214.76" speed="9.18"/>
                <vehicle id="105" pos="243.66" speed="9.75"/>
                <vehicle id="64" pos="274.26" speed="9.71"/>
            </lane>
        </edge>
        <edge id="gneE19">
            <lane id="gneE19_0">
                <vehicle id="113" pos="11.50" speed="11.91"/>
                <vehicle id="71" pos="129.66" speed="12.71"/>
                <vehicle id="148" pos="157.80" speed="12.60"/>
                <vehicle id="147" pos="237.83" speed="0.00"/>
                <vehicle id="111" pos="245.33" speed="0.00"/>
                <vehicle id="76" pos="252.83" speed="0.00"/>
                <vehicle id="74" pos="260.34" speed="0.00"/>
                <vehicle id="100" pos="267.84" speed="0.00"/>
                <vehicle id="61" pos="275.34" speed="0.00"/>
                <vehicle id="53" pos="282.84" speed="0.00"/>
            </lane>
        </edge>
        <edge id="gneE2">
            <lane id="gneE2_0">
                <vehicle id="86" pos="108.84" speed="10.83"/>
            </lane>
        </edge>
        <edge id="gneE20">
            <lane id="gneE20_0">
                <vehicle id="181" pos="5.10" speed="0.00"/>
                <vehicle id="43" pos="41.22" speed="8.72"/>
                <vehicle id="44" pos="162.72" speed="8.22"/>
                <vehicle id="84" pos="247.46" speed="7.80"/>
            </lane>
        </edge>
        <edge id="gneE23">
            <lane id="gneE23_0">
                <vehicle id="99" pos="36.73" speed="7.73"/>
                <vehicle id="142" pos="102.93" speed="7.28"/>
                <vehicle id="106" pos="126.17" speed="6.97"/>
                <vehicle id="12" pos="161.13" speed="7.01"/>
                <vehicle id="41" pos="181.26" speed="6.86"/>
            </lane>
        </edge>
        <edge id="gneE24">
            <lane id="gneE24_0">
                <vehicle id="110" pos="26.66" speed="12.07"/>
                <vehicle id="115" pos="140.45" speed="12.41"/>
            </lane>
        </edge>
        <edge id="gneE25">
            <lane id="gneE25_0">
                <vehicle id="128" pos="18.40" speed="9.64"/>
                <vehicle id="152" pos="87.35" speed="9.35"/>
                <vehicle id="39" pos="178.27" speed="9.63"/>
                <vehicle id="157" pos="212.18" speed="9.13"/>
                <vehicle id="96" pos="275.73" speed="1.54"/>
                <vehicle id="81" pos="283.33" speed="0.01"/>
                <vehicle id="91" pos="290.83" speed="0.00"/>
            </lane>
        </edge>
        <edge id="gneE26">
            <lane id="gneE26_0">
                <vehicle id="119" pos="19.36" speed="6.42"/>
                <vehicle id="55" pos="94.22" speed="6.03"/>
                <vehicle id="125" pos="208.47" speed="5.79"/>
                <vehicle id="82" pos="276.46" speed="6.14"/>
            </lane>
        </edge>
        <edge id="gneE27">
            <lane id="gneE27_0">
                <vehicle id="180" pos="7.44" speed="2.34"/>
                <vehicle id="173" pos="37.44" speed="5.21"/>
                <vehicle id="33" pos="53.11" speed="5.72"/>
                <vehicle id="159" pos="120.82" speed="5.85"/>
            </lane>
        </edge>
        <edge id="gneE28">
            <lane id="gneE28_0">
                <vehicle id="108" pos="1.65" speed="8.53"/>
                <vehicle id="135" pos="83.15" speed="8.94"/>
                <vehicle id="66" pos="112.78" speed="8.07"/>
            </lane>
        </edge>
        <edge id="gneE3">
            <lane id="gneE3_0">
                <vehicle id="127" pos="131.70" speed="9.42"/>
            </lane>
        </edge>
        <edge id="gneE30">
            <lane id="gneE30_0">
                <vehicle id="126" pos="1.58" speed="6.99"/>
                <vehicle id="90" pos="25.97" speed="7.76"/>
            </lane>
        </edge>
        <edge id="gneE31">
            <lane id="gneE31_0">
                <vehicle id="166" pos="115.41" speed="7.85"/>
                <vehicle id="21" pos="157.12" speed="8.28"/>
                <vehicle id="93" pos="185.05" speed="7.79"/>
            </lane>
        </edge>
        <edge id="gneE32">
            <lane id="gneE32_0">
                <vehicle id="70" pos="39.30" speed="7.72"/>
                <vehicle id="171" pos="68.86" speed="7.77"/>
                <vehicle id="143" pos="124.97" speed="7.13"/>
                <vehicle id="35" pos="299.36" speed="7.69"/>
            </lane>
        </edge>
        <edge id="gneE38">
            <lane id="gneE38_0">
                <vehicle id="117" pos="17.72" speed="7.89"/>
                <vehicle id="129" pos="41.14" speed="7.86"/>
                <vehicle id="151" pos="69.92" speed="8.66"/>
                <vehicle id="156" pos="200.41" speed="8.82"/>
                <vehicle id="63" pos="227.17" speed="8.88"/>
                <vehicle id="88" pos="271.28" speed="8.74"/>
                <vehicle id="122" pos="307.84" speed="8.80"/>
            </lane>
        </edge>
        <edge id="gneE4">
            <lane id="gneE4_0">
                <vehicle id="176" pos="34.14" speed="8.97"/>
                <vehicle id="37" pos="82.61" speed="8.87"/>
                <vehicle id="104" pos="114.66" speed="9.03"/>
            </lane>
        </edge>
        <edge id="gneE41">
            <lane id="gneE41_0">
                <vehicle id="168" pos="104.77" speed="8.95"/>
                <vehicle id="116" pos="134.13" speed="8.23"/>
            </lane>
        </edge>
        <edge id="gneE42">
            <lane id="gneE42_0">
                <vehicle id="175" pos="39.96" speed="7.83"/>
                <vehicle id="161" pos="139.12" speed="7.29"/>
            </lane>
        </edge>
        <edge id="gneE43">
            <lane id="gneE43_0">
                <vehicle id="170" pos="10.16" speed="3.53"/>
                <vehicle id="109" pos="30.19" speed="5.75"/>
                <vehicle id="153" pos="49.84" speed="5.77"/>
                <vehicle id="169" pos="73.86" speed="6.39"/>
                <vehicle id="123" pos="201.97" speed="5.79"/>
            </lane>
        </edge>
        <edge id="gneE46">
            <lane id="gneE46_0">
                <vehicle id="38" pos="1.12" speed="9.80"/>
                <vehicle id="11" pos="164.10" speed="9.74"/>
                <vehicle id="160" pos="182.78" speed="8.71"/>
            </lane>
        </edge>
        <edge id="gneE47">
            <lane id="gneE47_0">
                <vehicle id="112" pos="27.17" speed="8.11"/>
                <vehicle id="40" pos="135.49" speed="8.51"/>
                <vehicle id="138" pos="159.50" speed="8.16"/>
                <vehicle id="158" pos="181.46" speed="8.15"/>
            </lane>
        </edge>
        <edge id="gneE49">
            <lane id="gneE49_0">
                <vehicle id="172" pos="33.92" speed="7.34"/>
                <vehicle id="75" pos="55.97" speed="7.72"/>
                <vehicle id="50" pos="203.06" speed="7.94"/>
                <vehicle id="87" pos="288.79" speed="7.26"/>
            </lane>
        </edge>
        <edge id="gneE5">
            <lane id="gneE5_0">
                <vehicle id="178" pos="18.08" speed="5.81"/>
                <vehicle id="56" pos="79.62" speed="5.22"/>
                <vehicle id="95" pos="136.30" speed="5.10"/>
            </lane>
        </edge>
        <edge id="gneE50">
            <lane id="gneE50_0">
                <vehicle id="163" pos="95.28" speed="4.72"/>
                <vehicle id="140" pos="221.05" speed="5.94"/>
                <vehicle id="15" pos="286.52" speed="4.92"/>
                <vehicle id="34" pos="311.88" speed="5.37"/>
            </lane>
        </edge>
        <edge id="gneE51">
            <lane id="gneE51_0">
                <vehicle id="77" pos="60.47" speed="5.89"/>
                <vehicle id="89" pos="162.71" speed="5.90"/>
                <vehicle id="79" pos="183.14" speed="6.74"/>
                <vehicle id="51" pos="232.18" speed="6.80"/>
                <vehicle id="133" pos="301.79" speed="6.30"/>
            </lane>
        </edge>
        <edge id="gneE52">
            <lane id="gneE52_0">
                <vehicle id="165" pos="102.37" speed="5.87"/>
                <vehicle id="14" pos="231.94" speed="6.12"/>
                <vehicle id="120" pos="254.81" speed="6.03"/>
            </lane>
        </edge>
        <edge id="gneE54">
            <lane id="gneE54_0">
                <vehicle id="107" pos="115.44" speed="6.31"/>
            </lane>
        </edge>
        <edge id="gneE55">
            <lane id="gneE55_0">
                <vehicle id="174" pos="46.79" speed="7.07"/>
            </lane>
        </edge>
        <edge id="gneE57">
            <lane id="gneE57_0">
                <vehicle id="162" pos="134.64" speed="6.81"/>
            </lane>
        </edge>
        <edge id="gneE58">
            <lane id="gneE58_0">
                <vehicle id="177" pos="24.75" speed="7.16"/>
                <vehicle id="4" pos="88.25" speed="6.92"/>
                <vehicle id="118" pos="113.12" speed="7.53"/>
                <vehicle id="132" pos="152.23" speed="7.79"/>
            </lane>
        </edge>
        <edge id="gneE60">
            <lane id="gneE60_0">
                <vehicle id="164" pos="104.99" speed="6.94"/>
                <vehicle id="155" pos="159.39" speed="6.15"/>
                <vehicle id="150" pos="197.37" speed="6.22"/>
                <vehicle id="144" pos="236.23" speed="6.43"/>
                <vehicle id="83" pos="336.41" speed="3.94"/>
            </lane>
        </edge>
        <edge id="gneE61">
            <lane id="gneE61_0">
                <vehicle id="30" pos="160.42" speed="6.77"/>
                <vehicle id="31" pos="246.27" speed="6.74"/>
                <vehicle id="78" pos="270.64" speed="7.32"/>
                <vehicle id="139" pos="306.28" speed="7.87"/>
            </lane>
        </edge>
        <edge id="gneE7">
            <lane id="gneE7_0">
                <vehicle id="42" pos="229.89" speed="8.18"/>
                <vehicle id="146" pos="251.87" speed="7.91"/>
                <vehicle id="92" pos="269.05" speed="8.24"/>
                <vehicle id="145" pos="291.21" speed="7.90"/>
            </lane>
        </edge>
        <edge id="gneE8">
            <lane id="gneE8_0">
                <vehicle id="179" pos="9.64" speed="3.18"/>
            </lane>
        </edge>
    </timestep>
