<?xml version="1.0"?>
<timestep time="190.00">
        <edge id=":gneJ11_35">
            <lane id=":gneJ11_35_0">
                <vehicle id="83" pos="5.55" speed="4.06"/>
            </lane>
        </edge>
        <edge id=":gneJ15_9">
            <lane id=":gneJ15_9_0">
                <vehicle id="106" pos="6.57" speed="7.98"/>
            </lane>
        </edge>
        <edge id=":gneJ15_15">
            <lane id=":gneJ15_15_0">
                <vehicle id="82" pos="11.28" speed="6.13"/>
            </lane>
        </edge>
        <edge id=":gneJ28_12">
            <lane id=":gneJ28_12_0">
                <vehicle id="138" pos="13.38" speed="6.65"/>
            </lane>
        </edge>
        <edge id=":gneJ3_10">
            <lane id=":gneJ3_10_0">
                <vehicle id="37" pos="3.35" speed="3.84"/>
            </lane>
        </edge>
        <edge id=":gneJ30_3">
            <lane id=":gneJ30_3_0">
                <vehicle id="87" pos="6.46" speed="4.43"/>
            </lane>
        </edge>
        <edge id=":gneJ6_5">
            <lane id=":gneJ6_5_0">
                <vehicle id="42" pos="0.62" speed="8.63"/>
            </lane>
        </edge>
        <edge id=":gneJ8_2">
            <lane id=":gneJ8_2_0">
                <vehicle id="81" pos="2.44" speed="2.54"/>
            </lane>
        </edge>
        <edge id=":gneJ9_4">
            <lane id=":gneJ9_4_0">
                <vehicle id="105" pos="3.52" speed="4.14"/>
            </lane>
        </edge>
        <edge id="gneE1">
            <lane id="gneE1_0">
                <vehicle id="167" pos="101.38" speed="4.02"/>
            </lane>
        </edge>
        <edge id="gneE11">
            <lane id="gneE11_0">
                <vehicle id="146" pos="13.67" speed="8.88"/>
                <vehicle id="136" pos="100.11" speed="8.45"/>
                <vehicle id="137" pos="123.83" speed="8.68"/>
            </lane>
        </edge>
        <edge id="gneE12">
            <lane id="gneE12_0">
                <vehicle id="114" pos="177.73" speed="13.11"/>
                <vehicle id="60" pos="201.83" speed="13.57"/>
                <vehicle id="149" pos="252.07" speed="12.86"/>
                <vehicle id="68" pos="300.57" speed="5.03"/>
            </lane>
        </edge>
        <edge id="gneE13">
            <lane id="gneE13_0">
                <vehicle id="127" pos="57.07" speed="9.07"/>
                <vehicle id="98" pos="259.81" speed="8.99"/>
            </lane>
        </edge>
        <edge id="gneE14">
            <lane id="gneE14_0">
                <vehicle id="186" pos="11.50" speed="3.91"/>
                <vehicle id="91" pos="40.47" speed="10.66"/>
                <vehicle id="141" pos="82.70" speed="10.68"/>
                <vehicle id="121" pos="120.57" speed="10.70"/>
                <vehicle id="134" pos="153.19" speed="0.00"/>
                <vehicle id="36" pos="160.69" speed="0.00"/>
            </lane>
        </edge>
        <edge id="gneE15">
            <lane id="gneE15_0">
                <vehicle id="64" pos="3.03" speed="4.15"/>
                <vehicle id="84" pos="32.59" speed="8.88"/>
                <vehicle id="97" pos="137.28" speed="7.73"/>
            </lane>
        </edge>
        <edge id="gneE17">
            <lane id="gneE17_0">
                <vehicle id="124" pos="113.89" speed="9.27"/>
                <vehicle id="73" pos="165.69" speed="9.31"/>
                <vehicle id="94" pos="253.36" speed="9.16"/>
            </lane>
        </edge>
        <edge id="gneE18">
            <lane id="gneE18_0">
                <vehicle id="104" pos="18.01" speed="9.72"/>
                <vehicle id="154" pos="141.75" speed="9.33"/>
                <vehicle id="130" pos="277.23" speed="1.55"/>
            </lane>
        </edge>
        <edge id="gneE19">
            <lane id="gneE19_0">
                <vehicle id="113" pos="122.06" speed="12.41"/>
                <vehicle id="71" pos="222.38" speed="1.83"/>
                <vehicle id="148" pos="233.37" speed="2.48"/>
                <vehicle id="147" pos="242.53" speed="1.44"/>
                <vehicle id="111" pos="252.01" speed="0.71"/>
                <vehicle id="76" pos="260.17" speed="0.59"/>
                <vehicle id="74" pos="267.78" speed="0.06"/>
                <vehicle id="100" pos="275.33" speed="0.02"/>
                <vehicle id="61" pos="282.84" speed="0.00"/>
            </lane>
        </edge>
        <edge id="gneE20">
            <lane id="gneE20_0">
                <vehicle id="181" pos="68.01" speed="8.73"/>
                <vehicle id="43" pos="117.47" speed="7.84"/>
                <vehicle id="44" pos="236.65" speed="8.03"/>
            </lane>
        </edge>
        <edge id="gneE23">
            <lane id="gneE23_0">
                <vehicle id="182" pos="53.72" speed="7.06"/>
                <vehicle id="99" pos="102.67" speed="7.88"/>
                <vehicle id="142" pos="170.12" speed="6.80"/>
            </lane>
        </edge>
        <edge id="gneE24">
            <lane id="gneE24_0">
                <vehicle id="110" pos="137.17" speed="11.87"/>
            </lane>
        </edge>
        <edge id="gneE25">
            <lane id="gneE25_0">
                <vehicle id="135" pos="12.52" speed="8.83"/>
                <vehicle id="41" pos="63.86" speed="9.27"/>
                <vehicle id="128" pos="101.51" speed="9.47"/>
                <vehicle id="152" pos="171.99" speed="9.84"/>
                <vehicle id="39" pos="262.60" speed="8.56"/>
                <vehicle id="157" pos="275.59" speed="0.62"/>
                <vehicle id="96" pos="283.32" speed="0.12"/>
            </lane>
        </edge>
        <edge id="gneE26">
            <lane id="gneE26_0">
                <vehicle id="185" pos="5.10" speed="0.00"/>
                <vehicle id="131" pos="14.62" speed="6.34"/>
                <vehicle id="45" pos="30.87" speed="6.55"/>
                <vehicle id="62" pos="47.50" speed="6.94"/>
                <vehicle id="119" pos="78.87" speed="6.87"/>
                <vehicle id="55" pos="150.96" speed="6.29"/>
                <vehicle id="125" pos="267.61" speed="6.45"/>
            </lane>
        </edge>
        <edge id="gneE27">
            <lane id="gneE27_0">
                <vehicle id="180" pos="53.46" speed="5.17"/>
                <vehicle id="173" pos="84.85" speed="4.76"/>
                <vehicle id="33" pos="104.24" speed="5.56"/>
            </lane>
        </edge>
        <edge id="gneE28">
            <lane id="gneE28_0">
                <vehicle id="108" pos="76.74" speed="7.83"/>
            </lane>
        </edge>
        <edge id="gneE3">
            <lane id="gneE3_0">
                <vehicle id="101" pos="20.76" speed="9.93"/>
                <vehicle id="183" pos="53.90" speed="9.89"/>
            </lane>
        </edge>
        <edge id="gneE30">
            <lane id="gneE30_0">
                <vehicle id="159" pos="29.41" speed="8.71"/>
                <vehicle id="126" pos="75.31" speed="7.91"/>
                <vehicle id="90" pos="100.89" speed="8.70"/>
            </lane>
        </edge>
        <edge id="gneE31">
            <lane id="gneE31_0">
                <vehicle id="92" pos="20.97" speed="7.55"/>
                <vehicle id="184" pos="38.22" speed="8.19"/>
                <vehicle id="166" pos="190.61" speed="8.10"/>
                <vehicle id="21" pos="232.50" speed="8.12"/>
                <vehicle id="93" pos="258.07" speed="8.31"/>
            </lane>
        </edge>
        <edge id="gneE32">
            <lane id="gneE32_0">
                <vehicle id="70" pos="104.93" speed="6.72"/>
                <vehicle id="171" pos="134.45" speed="6.81"/>
                <vehicle id="143" pos="190.11" speed="6.91"/>
            </lane>
        </edge>
        <edge id="gneE38">
            <lane id="gneE38_0">
                <vehicle id="187" pos="17.77" speed="6.34"/>
                <vehicle id="161" pos="57.93" speed="8.31"/>
                <vehicle id="117" pos="92.29" speed="7.80"/>
                <vehicle id="129" pos="119.10" speed="8.29"/>
                <vehicle id="151" pos="146.75" speed="8.74"/>
                <vehicle id="156" pos="275.51" speed="7.89"/>
                <vehicle id="63" pos="301.73" speed="8.20"/>
                <vehicle id="88" pos="335.41" speed="1.25"/>
                <vehicle id="122" pos="342.98" speed="0.00"/>
            </lane>
        </edge>
        <edge id="gneE4">
            <lane id="gneE4_0">
                <vehicle id="188" pos="5.10" speed="0.00"/>
                <vehicle id="102" pos="14.10" speed="9.34"/>
                <vehicle id="176" pos="117.36" speed="9.45"/>
            </lane>
        </edge>
        <edge id="gneE42">
            <lane id="gneE42_0">
                <vehicle id="175" pos="105.76" speed="7.38"/>
            </lane>
        </edge>
        <edge id="gneE43">
            <lane id="gneE43_0">
                <vehicle id="116" pos="38.31" speed="5.99"/>
                <vehicle id="170" pos="66.99" speed="6.75"/>
                <vehicle id="109" pos="86.26" speed="5.86"/>
                <vehicle id="153" pos="105.70" speed="6.42"/>
                <vehicle id="169" pos="129.73" speed="5.72"/>
                <vehicle id="123" pos="256.84" speed="6.15"/>
            </lane>
        </edge>
        <edge id="gneE45">
            <lane id="gneE45_0">
                <vehicle id="66" pos="20.66" speed="8.26"/>
            </lane>
        </edge>
        <edge id="gneE46">
            <lane id="gneE46_0">
                <vehicle id="168" pos="26.03" speed="9.85"/>
                <vehicle id="38" pos="85.73" speed="9.09"/>
            </lane>
        </edge>
        <edge id="gneE47">
            <lane id="gneE47_0">
                <vehicle id="112" pos="102.58" speed="8.26"/>
            </lane>
        </edge>
        <edge id="gneE48">
            <lane id="gneE48_0">
                <vehicle id="107" pos="18.96" speed="6.54"/>
            </lane>
        </edge>
        <edge id="gneE49">
            <lane id="gneE49_0">
                <vehicle id="53" pos="27.33" speed="7.40"/>
                <vehicle id="172" pos="101.11" speed="6.96"/>
                <vehicle id="75" pos="121.35" speed="8.00"/>
                <vehicle id="50" pos="268.69" speed="7.41"/>
            </lane>
        </edge>
        <edge id="gneE5">
            <lane id="gneE5_0">
                <vehicle id="178" pos="67.12" speed="5.37"/>
                <vehicle id="56" pos="127.15" speed="5.51"/>
            </lane>
        </edge>
        <edge id="gneE50">
            <lane id="gneE50_0">
                <vehicle id="67" pos="47.17" speed="5.47"/>
                <vehicle id="163" pos="145.90" speed="5.82"/>
                <vehicle id="140" pos="268.84" speed="5.29"/>
                <vehicle id="15" pos="334.45" speed="5.18"/>
                <vehicle id="34" pos="360.76" speed="5.13"/>
            </lane>
        </edge>
        <edge id="gneE51">
            <lane id="gneE51_0">
                <vehicle id="158" pos="32.46" speed="6.28"/>
                <vehicle id="77" pos="117.65" speed="6.26"/>
                <vehicle id="89" pos="219.23" speed="6.53"/>
                <vehicle id="79" pos="239.07" speed="6.62"/>
                <vehicle id="51" pos="288.78" speed="6.33"/>
                <vehicle id="133" pos="358.19" speed="6.56"/>
            </lane>
        </edge>
        <edge id="gneE52">
            <lane id="gneE52_0">
                <vehicle id="115" pos="11.85" speed="6.63"/>
                <vehicle id="165" pos="162.40" speed="6.26"/>
                <vehicle id="14" pos="289.26" speed="6.20"/>
                <vehicle id="120" pos="311.56" speed="6.21"/>
            </lane>
        </edge>
        <edge id="gneE54">
            <lane id="gneE54_0">
                <vehicle id="189" pos="6.57" speed="1.47"/>
            </lane>
        </edge>
        <edge id="gneE55">
            <lane id="gneE55_0">
                <vehicle id="160" pos="47.92" speed="7.06"/>
                <vehicle id="174" pos="112.25" speed="7.09"/>
            </lane>
        </edge>
        <edge id="gneE58">
            <lane id="gneE58_0">
                <vehicle id="177" pos="90.17" speed="6.85"/>
                <vehicle id="4" pos="154.38" speed="6.94"/>
                <vehicle id="118" pos="180.35" speed="7.82"/>
                <vehicle id="132" pos="218.51" speed="7.32"/>
            </lane>
        </edge>
        <edge id="gneE59">
            <lane id="gneE59_0">
                <vehicle id="139" pos="38.07" speed="8.67"/>
            </lane>
        </edge>
        <edge id="gneE60">
            <lane id="gneE60_0">
                <vehicle id="164" pos="162.28" speed="6.33"/>
                <vehicle id="155" pos="216.89" speed="5.74"/>
                <vehicle id="150" pos="253.38" speed="5.82"/>
                <vehicle id="144" pos="295.22" speed="6.24"/>
            </lane>
        </edge>
        <edge id="gneE61">
            <lane id="gneE61_0">
                <vehicle id="162" pos="13.69" speed="6.86"/>
                <vehicle id="30" pos="226.34" speed="7.10"/>
                <vehicle id="31" pos="313.94" speed="7.55"/>
                <vehicle id="78" pos="336.19" speed="6.98"/>
            </lane>
        </edge>
        <edge id="gneE7">
            <lane id="gneE7_0">
                <vehicle id="190" pos="5.10" speed="0.00"/>
            </lane>
        </edge>
        <edge id="gneE8">
            <lane id="gneE8_0">
                <vehicle id="179" pos="73.64" speed="7.26"/>
            </lane>
        </edge>
    </timestep>
