<?xml version="1.0"?>
<timestep time="191.00">
        <edge id=":gneJ11_35">
            <lane id=":gneJ11_35_0">
                <vehicle id="83" pos="11.34" speed="5.79"/>
            </lane>
        </edge>
        <edge id=":gneJ15_9">
            <lane id=":gneJ15_9_0">
                <vehicle id="106" pos="16.72" speed="10.15"/>
            </lane>
        </edge>
        <edge id=":gneJ3_12">
            <lane id=":gneJ3_12_0">
                <vehicle id="37" pos="4.65" speed="5.80"/>
            </lane>
        </edge>
        <edge id=":gneJ4_0">
            <lane id=":gneJ4_0_0">
                <vehicle id="68" pos="4.85" speed="5.56"/>
            </lane>
        </edge>
        <edge id=":gneJ6_5">
            <lane id=":gneJ6_5_0">
                <vehicle id="42" pos="8.91" speed="8.29"/>
            </lane>
        </edge>
        <edge id=":gneJ8_2">
            <lane id=":gneJ8_2_0">
                <vehicle id="81" pos="7.35" speed="4.92"/>
            </lane>
        </edge>
        <edge id="gneE1">
            <lane id="gneE1_0">
                <vehicle id="167" pos="105.19" speed="3.82"/>
            </lane>
        </edge>
        <edge id="gneE11">
            <lane id="gneE11_0">
                <vehicle id="146" pos="21.98" speed="8.30"/>
                <vehicle id="136" pos="108.95" speed="8.84"/>
                <vehicle id="137" pos="132.82" speed="8.99"/>
            </lane>
        </edge>
        <edge id="gneE12">
            <lane id="gneE12_0">
                <vehicle id="114" pos="190.34" speed="12.62"/>
                <vehicle id="60" pos="215.18" speed="13.35"/>
                <vehicle id="149" pos="265.39" speed="13.32"/>
            </lane>
        </edge>
        <edge id="gneE13">
            <lane id="gneE13_0">
                <vehicle id="127" pos="67.05" speed="9.98"/>
                <vehicle id="98" pos="268.81" speed="9.00"/>
            </lane>
        </edge>
        <edge id="gneE14">
            <lane id="gneE14_0">
                <vehicle id="186" pos="17.13" speed="5.63"/>
                <vehicle id="91" pos="50.23" speed="9.76"/>
                <vehicle id="141" pos="93.24" speed="10.53"/>
                <vehicle id="121" pos="130.82" speed="10.25"/>
                <vehicle id="134" pos="153.19" speed="0.00"/>
                <vehicle id="36" pos="160.69" speed="0.00"/>
            </lane>
        </edge>
        <edge id="gneE15">
            <lane id="gneE15_0">
                <vehicle id="64" pos="9.56" speed="6.53"/>
                <vehicle id="84" pos="40.57" speed="7.98"/>
                <vehicle id="97" pos="145.72" speed="8.44"/>
            </lane>
        </edge>
        <edge id="gneE17">
            <lane id="gneE17_0">
                <vehicle id="124" pos="123.69" speed="9.80"/>
                <vehicle id="73" pos="175.17" speed="9.48"/>
                <vehicle id="94" pos="262.22" speed="8.86"/>
            </lane>
        </edge>
        <edge id="gneE18">
            <lane id="gneE18_0">
                <vehicle id="104" pos="26.83" speed="8.82"/>
                <vehicle id="154" pos="151.75" speed="10.00"/>
                <vehicle id="130" pos="280.10" speed="2.88"/>
            </lane>
        </edge>
        <edge id="gneE19">
            <lane id="gneE19_0">
                <vehicle id="105" pos="0.13" speed="5.96"/>
                <vehicle id="113" pos="134.61" speed="12.56"/>
                <vehicle id="71" pos="224.79" speed="2.41"/>
                <vehicle id="148" pos="234.28" speed="0.91"/>
                <vehicle id="147" pos="244.25" speed="1.71"/>
                <vehicle id="111" pos="252.51" speed="0.50"/>
                <vehicle id="76" pos="260.24" speed="0.07"/>
                <vehicle id="74" pos="267.82" speed="0.03"/>
                <vehicle id="100" pos="275.34" speed="0.00"/>
                <vehicle id="61" pos="282.84" speed="0.00"/>
            </lane>
        </edge>
        <edge id="gneE20">
            <lane id="gneE20_0">
                <vehicle id="181" pos="76.95" speed="8.94"/>
                <vehicle id="43" pos="125.66" speed="8.19"/>
                <vehicle id="44" pos="245.45" speed="8.80"/>
            </lane>
        </edge>
        <edge id="gneE23">
            <lane id="gneE23_0">
                <vehicle id="182" pos="60.81" speed="7.08"/>
                <vehicle id="99" pos="110.33" speed="7.66"/>
                <vehicle id="142" pos="177.50" speed="7.38"/>
            </lane>
        </edge>
        <edge id="gneE24">
            <lane id="gneE24_0">
                <vehicle id="110" pos="149.97" speed="12.80"/>
            </lane>
        </edge>
        <edge id="gneE25">
            <lane id="gneE25_0">
                <vehicle id="135" pos="21.88" speed="9.37"/>
                <vehicle id="41" pos="73.29" speed="9.43"/>
                <vehicle id="128" pos="110.31" speed="8.80"/>
                <vehicle id="152" pos="180.70" speed="8.71"/>
                <vehicle id="39" pos="267.29" speed="4.69"/>
                <vehicle id="157" pos="275.74" speed="0.14"/>
                <vehicle id="96" pos="284.96" speed="1.63"/>
            </lane>
        </edge>
        <edge id="gneE26">
            <lane id="gneE26_0">
                <vehicle id="185" pos="7.47" speed="2.37"/>
                <vehicle id="131" pos="21.43" speed="6.81"/>
                <vehicle id="45" pos="37.11" speed="6.23"/>
                <vehicle id="62" pos="53.26" speed="5.75"/>
                <vehicle id="119" pos="84.91" speed="6.04"/>
                <vehicle id="55" pos="157.05" speed="6.08"/>
                <vehicle id="125" pos="274.56" speed="6.94"/>
            </lane>
        </edge>
        <edge id="gneE27">
            <lane id="gneE27_0">
                <vehicle id="82" pos="4.72" speed="5.58"/>
                <vehicle id="180" pos="58.20" speed="4.73"/>
                <vehicle id="173" pos="89.88" speed="5.04"/>
                <vehicle id="33" pos="109.50" speed="5.26"/>
            </lane>
        </edge>
        <edge id="gneE28">
            <lane id="gneE28_0">
                <vehicle id="108" pos="84.48" speed="7.74"/>
            </lane>
        </edge>
        <edge id="gneE3">
            <lane id="gneE3_0">
                <vehicle id="101" pos="30.37" speed="9.60"/>
                <vehicle id="183" pos="62.99" speed="9.09"/>
            </lane>
        </edge>
        <edge id="gneE30">
            <lane id="gneE30_0">
                <vehicle id="159" pos="37.68" speed="8.28"/>
                <vehicle id="126" pos="84.19" speed="8.87"/>
                <vehicle id="90" pos="108.90" speed="8.01"/>
            </lane>
        </edge>
        <edge id="gneE31">
            <lane id="gneE31_0">
                <vehicle id="92" pos="29.51" speed="8.54"/>
                <vehicle id="184" pos="46.89" speed="8.67"/>
                <vehicle id="166" pos="198.68" speed="8.07"/>
                <vehicle id="21" pos="240.95" speed="8.45"/>
                <vehicle id="93" pos="267.05" speed="8.98"/>
            </lane>
        </edge>
        <edge id="gneE32">
            <lane id="gneE32_0">
                <vehicle id="70" pos="112.04" speed="7.11"/>
                <vehicle id="171" pos="142.01" speed="7.56"/>
                <vehicle id="143" pos="197.90" speed="7.79"/>
            </lane>
        </edge>
        <edge id="gneE38">
            <lane id="gneE38_0">
                <vehicle id="187" pos="25.90" speed="8.13"/>
                <vehicle id="161" pos="66.18" speed="8.25"/>
                <vehicle id="117" pos="100.10" speed="7.81"/>
                <vehicle id="129" pos="127.51" speed="8.42"/>
                <vehicle id="151" pos="155.73" speed="8.97"/>
                <vehicle id="156" pos="284.31" speed="8.80"/>
                <vehicle id="63" pos="310.23" speed="8.49"/>
                <vehicle id="88" pos="335.45" speed="0.03"/>
                <vehicle id="122" pos="342.98" speed="0.00"/>
            </lane>
        </edge>
        <edge id="gneE4">
            <lane id="gneE4_0">
                <vehicle id="188" pos="7.41" speed="2.31"/>
                <vehicle id="102" pos="23.60" speed="9.51"/>
                <vehicle id="176" pos="126.79" speed="9.43"/>
            </lane>
        </edge>
        <edge id="gneE42">
            <lane id="gneE42_0">
                <vehicle id="175" pos="113.22" speed="7.45"/>
            </lane>
        </edge>
        <edge id="gneE43">
            <lane id="gneE43_0">
                <vehicle id="138" pos="5.72" speed="6.84"/>
                <vehicle id="116" pos="44.45" speed="6.14"/>
                <vehicle id="170" pos="73.15" speed="6.15"/>
                <vehicle id="109" pos="92.33" speed="6.07"/>
                <vehicle id="153" pos="111.43" speed="5.72"/>
                <vehicle id="169" pos="136.38" speed="6.65"/>
                <vehicle id="123" pos="263.61" speed="6.76"/>
            </lane>
        </edge>
        <edge id="gneE45">
            <lane id="gneE45_0">
                <vehicle id="191" pos="5.10" speed="0.00"/>
                <vehicle id="66" pos="28.64" speed="7.98"/>
            </lane>
        </edge>
        <edge id="gneE46">
            <lane id="gneE46_0">
                <vehicle id="168" pos="34.88" speed="8.84"/>
                <vehicle id="38" pos="94.67" speed="8.94"/>
            </lane>
        </edge>
        <edge id="gneE47">
            <lane id="gneE47_0">
                <vehicle id="87" pos="1.86" speed="5.98"/>
                <vehicle id="112" pos="111.01" speed="8.43"/>
            </lane>
        </edge>
        <edge id="gneE48">
            <lane id="gneE48_0">
                <vehicle id="107" pos="25.18" speed="6.22"/>
            </lane>
        </edge>
        <edge id="gneE49">
            <lane id="gneE49_0">
                <vehicle id="53" pos="34.39" speed="7.06"/>
                <vehicle id="172" pos="107.96" speed="6.84"/>
                <vehicle id="75" pos="128.72" speed="7.37"/>
                <vehicle id="50" pos="275.78" speed="7.09"/>
            </lane>
        </edge>
        <edge id="gneE5">
            <lane id="gneE5_0">
                <vehicle id="178" pos="73.00" speed="5.88"/>
                <vehicle id="56" pos="132.18" speed="5.04"/>
            </lane>
        </edge>
        <edge id="gneE50">
            <lane id="gneE50_0">
                <vehicle id="67" pos="53.05" speed="5.87"/>
                <vehicle id="163" pos="151.06" speed="5.16"/>
                <vehicle id="140" pos="273.99" speed="5.15"/>
                <vehicle id="15" pos="339.65" speed="5.21"/>
                <vehicle id="34" pos="364.24" speed="3.48"/>
            </lane>
        </edge>
        <edge id="gneE51">
            <lane id="gneE51_0">
                <vehicle id="158" pos="38.97" speed="6.51"/>
                <vehicle id="77" pos="124.58" speed="6.93"/>
                <vehicle id="89" pos="225.11" speed="5.89"/>
                <vehicle id="79" pos="245.93" speed="6.86"/>
                <vehicle id="51" pos="295.69" speed="6.91"/>
                <vehicle id="133" pos="363.91" speed="5.72"/>
            </lane>
        </edge>
        <edge id="gneE52">
            <lane id="gneE52_0">
                <vehicle id="115" pos="17.64" speed="5.79"/>
                <vehicle id="165" pos="168.26" speed="5.86"/>
                <vehicle id="14" pos="295.38" speed="6.13"/>
                <vehicle id="120" pos="317.57" speed="6.00"/>
            </lane>
        </edge>
        <edge id="gneE54">
            <lane id="gneE54_0">
                <vehicle id="189" pos="10.33" speed="3.76"/>
            </lane>
        </edge>
        <edge id="gneE55">
            <lane id="gneE55_0">
                <vehicle id="160" pos="55.63" speed="7.71"/>
                <vehicle id="174" pos="119.18" speed="6.93"/>
            </lane>
        </edge>
        <edge id="gneE58">
            <lane id="gneE58_0">
                <vehicle id="177" pos="97.01" speed="6.84"/>
                <vehicle id="4" pos="161.68" speed="7.31"/>
                <vehicle id="118" pos="188.24" speed="7.90"/>
                <vehicle id="132" pos="225.47" speed="6.96"/>
            </lane>
        </edge>
        <edge id="gneE59">
            <lane id="gneE59_0">
                <vehicle id="78" pos="4.59" speed="7.63"/>
                <vehicle id="139" pos="46.54" speed="8.47"/>
            </lane>
        </edge>
        <edge id="gneE60">
            <lane id="gneE60_0">
                <vehicle id="164" pos="168.23" speed="5.95"/>
                <vehicle id="155" pos="223.56" speed="6.67"/>
                <vehicle id="150" pos="260.27" speed="6.89"/>
                <vehicle id="144" pos="301.10" speed="5.87"/>
            </lane>
        </edge>
        <edge id="gneE61">
            <lane id="gneE61_0">
                <vehicle id="162" pos="21.17" speed="7.48"/>
                <vehicle id="30" pos="233.34" speed="7.00"/>
                <vehicle id="31" pos="321.61" speed="7.67"/>
            </lane>
        </edge>
        <edge id="gneE7">
            <lane id="gneE7_0">
                <vehicle id="190" pos="6.44" speed="1.34"/>
            </lane>
        </edge>
        <edge id="gneE8">
            <lane id="gneE8_0">
                <vehicle id="179" pos="80.67" speed="7.03"/>
            </lane>
        </edge>
    </timestep>
