<?xml version="1.0"?>
<timestep time="199.00">
        <edge id=":gneJ11_34">
            <lane id=":gneJ11_34_0">
                <vehicle id="144" pos="20.36" speed="9.02"/>
            </lane>
        </edge>
        <edge id=":gneJ28_5">
            <lane id=":gneJ28_5_0">
                <vehicle id="15" pos="20.32" speed="9.50"/>
            </lane>
        </edge>
        <edge id=":gneJ31_1">
            <lane id=":gneJ31_1_0">
                <vehicle id="14" pos="3.25" speed="5.97"/>
            </lane>
        </edge>
        <edge id=":gneJ4_0">
            <lane id=":gneJ4_0_0">
                <vehicle id="60" pos="4.13" speed="7.52"/>
            </lane>
        </edge>
        <edge id=":gneJ8_1">
            <lane id=":gneJ8_1_0">
                <vehicle id="96" pos="4.97" speed="3.63"/>
            </lane>
        </edge>
        <edge id=":gneJ9_1">
            <lane id=":gneJ9_1_0">
                <vehicle id="36" pos="4.83" speed="3.16"/>
            </lane>
        </edge>
        <edge id="gneE1">
            <lane id="gneE1_0">
                <vehicle id="167" pos="140.06" speed="4.36"/>
            </lane>
        </edge>
        <edge id="gneE10">
            <lane id="gneE10_0">
                <vehicle id="97" pos="26.45" speed="5.82"/>
            </lane>
        </edge>
        <edge id="gneE11">
            <lane id="gneE11_0">
                <vehicle id="146" pos="87.67" speed="8.28"/>
            </lane>
        </edge>
        <edge id="gneE12">
            <lane id="gneE12_0">
                <vehicle id="196" pos="17.78" speed="6.20"/>
                <vehicle id="137" pos="86.98" speed="13.65"/>
                <vehicle id="114" pos="289.11" speed="7.17"/>
            </lane>
        </edge>
        <edge id="gneE13">
            <lane id="gneE13_0">
                <vehicle id="127" pos="142.63" speed="9.39"/>
            </lane>
        </edge>
        <edge id="gneE14">
            <lane id="gneE14_0">
                <vehicle id="98" pos="27.97" speed="10.71"/>
                <vehicle id="81" pos="72.59" speed="9.86"/>
                <vehicle id="186" pos="95.15" speed="10.44"/>
                <vehicle id="91" pos="128.53" speed="6.07"/>
                <vehicle id="141" pos="138.17" speed="0.11"/>
                <vehicle id="121" pos="145.69" speed="0.00"/>
                <vehicle id="134" pos="154.79" speed="1.61"/>
            </lane>
        </edge>
        <edge id="gneE15">
            <lane id="gneE15_0">
                <vehicle id="194" pos="18.17" speed="6.54"/>
                <vehicle id="130" pos="41.69" speed="8.80"/>
                <vehicle id="64" pos="75.36" speed="8.64"/>
                <vehicle id="84" pos="107.47" speed="8.29"/>
            </lane>
        </edge>
        <edge id="gneE17">
            <lane id="gneE17_0">
                <vehicle id="44" pos="23.76" speed="9.83"/>
                <vehicle id="124" pos="197.94" speed="9.49"/>
                <vehicle id="73" pos="250.85" speed="9.85"/>
            </lane>
        </edge>
        <edge id="gneE18">
            <lane id="gneE18_0">
                <vehicle id="176" pos="19.19" speed="9.69"/>
                <vehicle id="104" pos="103.54" speed="9.08"/>
                <vehicle id="154" pos="228.44" speed="8.94"/>
            </lane>
        </edge>
        <edge id="gneE19">
            <lane id="gneE19_0">
                <vehicle id="105" pos="93.75" speed="12.80"/>
                <vehicle id="113" pos="222.15" speed="4.59"/>
                <vehicle id="71" pos="230.29" speed="0.02"/>
                <vehicle id="148" pos="237.82" speed="0.01"/>
                <vehicle id="147" pos="245.33" speed="0.00"/>
                <vehicle id="111" pos="252.83" speed="0.00"/>
                <vehicle id="76" pos="260.34" speed="0.00"/>
                <vehicle id="74" pos="267.84" speed="0.00"/>
                <vehicle id="100" pos="275.34" speed="0.00"/>
                <vehicle id="61" pos="282.84" speed="0.00"/>
            </lane>
        </edge>
        <edge id="gneE20">
            <lane id="gneE20_0">
                <vehicle id="83" pos="55.04" speed="8.32"/>
                <vehicle id="181" pos="142.60" speed="8.13"/>
                <vehicle id="43" pos="192.73" speed="8.13"/>
            </lane>
        </edge>
        <edge id="gneE23">
            <lane id="gneE23_0">
                <vehicle id="133" pos="47.11" speed="7.32"/>
                <vehicle id="182" pos="119.49" speed="7.61"/>
                <vehicle id="99" pos="168.76" speed="7.18"/>
            </lane>
        </edge>
        <edge id="gneE24">
            <lane id="gneE24_0">
                <vehicle id="125" pos="52.34" speed="12.15"/>
            </lane>
        </edge>
        <edge id="gneE25">
            <lane id="gneE25_0">
                <vehicle id="108" pos="6.05" speed="9.11"/>
                <vehicle id="122" pos="36.58" speed="8.73"/>
                <vehicle id="135" pos="98.20" speed="9.73"/>
                <vehicle id="41" pos="148.79" speed="9.37"/>
                <vehicle id="128" pos="184.04" speed="9.92"/>
                <vehicle id="152" pos="253.49" speed="8.89"/>
                <vehicle id="39" pos="275.80" speed="0.03"/>
                <vehicle id="157" pos="284.38" speed="1.07"/>
            </lane>
        </edge>
        <edge id="gneE26">
            <lane id="gneE26_0">
                <vehicle id="199" pos="5.10" speed="0.00"/>
                <vehicle id="136" pos="16.48" speed="6.39"/>
                <vehicle id="185" pos="56.78" speed="6.59"/>
                <vehicle id="131" pos="72.54" speed="6.90"/>
                <vehicle id="45" pos="88.42" speed="5.86"/>
                <vehicle id="62" pos="105.56" speed="6.73"/>
                <vehicle id="119" pos="134.00" speed="6.18"/>
                <vehicle id="55" pos="206.84" speed="6.77"/>
            </lane>
        </edge>
        <edge id="gneE27">
            <lane id="gneE27_0">
                <vehicle id="82" pos="48.30" speed="5.50"/>
                <vehicle id="180" pos="100.96" speed="5.55"/>
                <vehicle id="173" pos="134.18" speed="5.80"/>
            </lane>
        </edge>
        <edge id="gneE28">
            <lane id="gneE28_0">
                <vehicle id="21" pos="9.72" speed="7.73"/>
            </lane>
        </edge>
        <edge id="gneE3">
            <lane id="gneE3_0">
                <vehicle id="192" pos="50.88" speed="9.46"/>
                <vehicle id="101" pos="103.62" speed="8.90"/>
                <vehicle id="183" pos="137.05" speed="8.87"/>
            </lane>
        </edge>
        <edge id="gneE30">
            <lane id="gneE30_0">
                <vehicle id="33" pos="3.75" speed="8.07"/>
                <vehicle id="159" pos="103.93" speed="7.99"/>
                <vehicle id="126" pos="149.12" speed="7.93"/>
                <vehicle id="90" pos="176.10" speed="8.67"/>
            </lane>
        </edge>
        <edge id="gneE31">
            <lane id="gneE31_0">
                <vehicle id="42" pos="65.87" speed="8.55"/>
                <vehicle id="92" pos="95.17" speed="8.12"/>
                <vehicle id="184" pos="112.47" speed="8.46"/>
                <vehicle id="166" pos="267.10" speed="8.89"/>
            </lane>
        </edge>
        <edge id="gneE32">
            <lane id="gneE32_0">
                <vehicle id="106" pos="57.18" speed="7.12"/>
                <vehicle id="70" pos="168.16" speed="6.94"/>
                <vehicle id="171" pos="201.92" speed="7.68"/>
                <vehicle id="143" pos="257.36" speed="7.13"/>
            </lane>
        </edge>
        <edge id="gneE38">
            <lane id="gneE38_0">
                <vehicle id="175" pos="19.75" speed="8.31"/>
                <vehicle id="187" pos="92.45" speed="8.51"/>
                <vehicle id="161" pos="131.93" speed="8.54"/>
                <vehicle id="117" pos="165.93" speed="8.13"/>
                <vehicle id="129" pos="193.23" speed="8.34"/>
                <vehicle id="151" pos="222.76" speed="8.37"/>
                <vehicle id="156" pos="327.68" speed="0.53"/>
                <vehicle id="63" pos="335.48" speed="0.02"/>
                <vehicle id="88" pos="342.98" speed="0.00"/>
            </lane>
        </edge>
        <edge id="gneE4">
            <lane id="gneE4_0">
                <vehicle id="149" pos="33.02" speed="9.86"/>
                <vehicle id="188" pos="69.31" speed="9.28"/>
                <vehicle id="102" pos="97.06" speed="8.71"/>
            </lane>
        </edge>
        <edge id="gneE42">
            <lane id="gneE42_0">
                <vehicle id="34" pos="36.54" speed="7.76"/>
            </lane>
        </edge>
        <edge id="gneE43">
            <lane id="gneE43_0">
                <vehicle id="195" pos="23.63" speed="5.93"/>
                <vehicle id="138" pos="57.16" speed="6.91"/>
                <vehicle id="116" pos="96.00" speed="5.93"/>
                <vehicle id="170" pos="124.10" speed="5.89"/>
                <vehicle id="109" pos="141.85" speed="5.90"/>
                <vehicle id="153" pos="163.26" speed="6.54"/>
                <vehicle id="169" pos="187.17" speed="5.71"/>
                <vehicle id="123" pos="306.33" speed="1.04"/>
            </lane>
        </edge>
        <edge id="gneE45">
            <lane id="gneE45_0">
                <vehicle id="142" pos="39.48" speed="8.87"/>
                <vehicle id="191" pos="58.46" speed="8.28"/>
                <vehicle id="66" pos="95.97" speed="8.16"/>
            </lane>
        </edge>
        <edge id="gneE46">
            <lane id="gneE46_0">
                <vehicle id="168" pos="109.66" speed="9.60"/>
                <vehicle id="38" pos="170.37" speed="9.01"/>
            </lane>
        </edge>
        <edge id="gneE47">
            <lane id="gneE47_0">
                <vehicle id="87" pos="69.62" speed="7.89"/>
                <vehicle id="112" pos="176.31" speed="8.27"/>
            </lane>
        </edge>
        <edge id="gneE48">
            <lane id="gneE48_0">
                <vehicle id="107" pos="75.85" speed="6.60"/>
            </lane>
        </edge>
        <edge id="gneE49">
            <lane id="gneE49_0">
                <vehicle id="53" pos="93.81" speed="7.47"/>
                <vehicle id="172" pos="167.61" speed="7.68"/>
                <vehicle id="75" pos="186.43" speed="6.94"/>
            </lane>
        </edge>
        <edge id="gneE5">
            <lane id="gneE5_0">
                <vehicle id="193" pos="23.36" speed="5.81"/>
                <vehicle id="68" pos="42.26" speed="5.82"/>
                <vehicle id="178" pos="115.53" speed="5.76"/>
            </lane>
        </edge>
        <edge id="gneE50">
            <lane id="gneE50_0">
                <vehicle id="67" pos="96.05" speed="5.25"/>
                <vehicle id="163" pos="192.47" speed="4.99"/>
                <vehicle id="140" pos="316.58" speed="4.75"/>
            </lane>
        </edge>
        <edge id="gneE51">
            <lane id="gneE51_0">
                <vehicle id="158" pos="88.30" speed="6.65"/>
                <vehicle id="77" pos="175.30" speed="6.56"/>
                <vehicle id="89" pos="276.32" speed="6.23"/>
                <vehicle id="79" pos="296.41" speed="6.66"/>
                <vehicle id="51" pos="346.03" speed="6.30"/>
            </lane>
        </edge>
        <edge id="gneE52">
            <lane id="gneE52_0">
                <vehicle id="115" pos="68.51" speed="6.25"/>
                <vehicle id="165" pos="219.50" speed="6.43"/>
            </lane>
        </edge>
        <edge id="gneE53">
            <lane id="gneE53_0">
                <vehicle id="174" pos="26.44" speed="6.09"/>
            </lane>
        </edge>
        <edge id="gneE54">
            <lane id="gneE54_0">
                <vehicle id="120" pos="14.41" speed="6.64"/>
                <vehicle id="189" pos="61.63" speed="6.47"/>
            </lane>
        </edge>
        <edge id="gneE55">
            <lane id="gneE55_0">
                <vehicle id="160" pos="115.11" speed="7.95"/>
            </lane>
        </edge>
        <edge id="gneE58">
            <lane id="gneE58_0">
                <vehicle id="37" pos="50.16" speed="7.22"/>
                <vehicle id="177" pos="154.97" speed="7.60"/>
                <vehicle id="4" pos="220.34" speed="7.84"/>
                <vehicle id="118" pos="244.65" speed="6.73"/>
                <vehicle id="132" pos="284.49" speed="7.97"/>
            </lane>
        </edge>
        <edge id="gneE59">
            <lane id="gneE59_0">
                <vehicle id="78" pos="71.75" speed="8.93"/>
                <vehicle id="139" pos="112.29" speed="8.37"/>
            </lane>
        </edge>
        <edge id="gneE6">
            <lane id="gneE6_0">
                <vehicle id="198" pos="6.65" speed="1.55"/>
            </lane>
        </edge>
        <edge id="gneE60">
            <lane id="gneE60_0">
                <vehicle id="164" pos="219.81" speed="6.97"/>
                <vehicle id="155" pos="274.43" speed="5.75"/>
                <vehicle id="150" pos="311.88" speed="6.71"/>
            </lane>
        </edge>
        <edge id="gneE61">
            <lane id="gneE61_0">
                <vehicle id="162" pos="80.11" speed="7.56"/>
                <vehicle id="30" pos="291.51" speed="7.17"/>
            </lane>
        </edge>
        <edge id="gneE7">
            <lane id="gneE7_0">
                <vehicle id="197" pos="9.31" speed="2.88"/>
                <vehicle id="190" pos="62.10" speed="8.64"/>
            </lane>
        </edge>
        <edge id="gneE8">
            <lane id="gneE8_0">
                <vehicle id="179" pos="138.87" speed="7.31"/>
            </lane>
        </edge>
    </timestep>
