<?xml version="1.0"?>
<timestep time="220.00">
        <edge id=":gneJ11_35">
            <lane id=":gneJ11_35_0">
                <vehicle id="164" pos="6.23" speed="2.80"/>
            </lane>
        </edge>
        <edge id=":gneJ11_38">
            <lane id=":gneJ11_38_0">
                <vehicle id="100" pos="16.01" speed="7.17"/>
            </lane>
        </edge>
        <edge id=":gneJ15_11">
            <lane id=":gneJ15_11_0">
                <vehicle id="133" pos="5.31" speed="0.26"/>
            </lane>
        </edge>
        <edge id=":gneJ15_17">
            <lane id=":gneJ15_17_0">
                <vehicle id="166" pos="10.14" speed="9.92"/>
            </lane>
        </edge>
        <edge id=":gneJ31_1">
            <lane id=":gneJ31_1_0">
                <vehicle id="165" pos="8.48" speed="8.36"/>
            </lane>
        </edge>
        <edge id=":gneJ4_5">
            <lane id=":gneJ4_5_0">
                <vehicle id="198" pos="3.11" speed="5.53"/>
            </lane>
        </edge>
        <edge id="gneE10">
            <lane id="gneE10_0">
                <vehicle id="130" pos="27.16" speed="4.88"/>
                <vehicle id="152" pos="54.27" speed="4.77"/>
                <vehicle id="84" pos="69.41" speed="5.02"/>
                <vehicle id="97" pos="137.50" speed="5.58"/>
            </lane>
        </edge>
        <edge id="gneE11">
            <lane id="gneE11_0">
                <vehicle id="126" pos="17.45" speed="7.93"/>
                <vehicle id="205" pos="113.97" speed="8.13"/>
            </lane>
        </edge>
        <edge id="gneE12">
            <lane id="gneE12_0">
                <vehicle id="194" pos="20.00" speed="10.66"/>
                <vehicle id="64" pos="110.20" speed="12.85"/>
                <vehicle id="39" pos="194.17" speed="12.90"/>
                <vehicle id="157" pos="227.87" speed="12.95"/>
                <vehicle id="96" pos="256.12" speed="12.74"/>
                <vehicle id="196" pos="287.04" speed="12.81"/>
            </lane>
        </edge>
        <edge id="gneE13">
            <lane id="gneE13_0">
                <vehicle id="167" pos="3.96" speed="9.33"/>
                <vehicle id="192" pos="89.11" speed="9.37"/>
                <vehicle id="183" pos="174.83" speed="8.78"/>
                <vehicle id="127" pos="301.17" speed="0.01"/>
            </lane>
        </edge>
        <edge id="gneE14">
            <lane id="gneE14_0">
                <vehicle id="146" pos="135.08" speed="9.49"/>
                <vehicle id="98" pos="152.39" speed="1.82"/>
                <vehicle id="81" pos="160.58" speed="0.15"/>
            </lane>
        </edge>
        <edge id="gneE15">
            <lane id="gneE15_0">
                <vehicle id="181" pos="32.19" speed="8.55"/>
            </lane>
        </edge>
        <edge id="gneE17">
            <lane id="gneE17_0">
                <vehicle id="201" pos="166.85" speed="9.78"/>
                <vehicle id="44" pos="218.69" speed="8.90"/>
            </lane>
        </edge>
        <edge id="gneE18">
            <lane id="gneE18_0">
                <vehicle id="218" pos="10.15" speed="3.19"/>
                <vehicle id="176" pos="217.81" speed="9.35"/>
            </lane>
        </edge>
        <edge id="gneE19">
            <lane id="gneE19_0">
                <vehicle id="104" pos="5.25" speed="11.65"/>
                <vehicle id="186" pos="41.25" speed="12.48"/>
                <vehicle id="91" pos="66.68" speed="12.96"/>
                <vehicle id="141" pos="96.56" speed="12.85"/>
                <vehicle id="121" pos="118.14" speed="12.20"/>
                <vehicle id="154" pos="168.23" speed="12.28"/>
                <vehicle id="134" pos="199.70" speed="3.79"/>
                <vehicle id="36" pos="207.70" speed="0.15"/>
                <vehicle id="105" pos="215.33" speed="0.00"/>
                <vehicle id="113" pos="222.83" speed="0.00"/>
                <vehicle id="71" pos="230.33" speed="0.00"/>
                <vehicle id="148" pos="238.86" speed="1.03"/>
                <vehicle id="147" pos="247.67" speed="0.88"/>
                <vehicle id="111" pos="259.08" speed="3.50"/>
                <vehicle id="76" pos="270.22" speed="3.41"/>
                <vehicle id="74" pos="282.82" speed="4.45"/>
            </lane>
        </edge>
        <edge id="gneE20">
            <lane id="gneE20_0">
                <vehicle id="217" pos="14.62" speed="5.19"/>
                <vehicle id="51" pos="124.06" speed="8.40"/>
                <vehicle id="83" pos="232.07" speed="8.53"/>
            </lane>
        </edge>
        <edge id="gneE23">
            <lane id="gneE23_0">
                <vehicle id="61" pos="20.90" speed="7.65"/>
                <vehicle id="214" pos="38.77" speed="7.92"/>
                <vehicle id="150" pos="83.81" speed="7.93"/>
                <vehicle id="144" pos="154.19" speed="7.02"/>
            </lane>
        </edge>
        <edge id="gneE24">
            <lane id="gneE24_0">
                <vehicle id="151" pos="42.84" speed="11.74"/>
                <vehicle id="55" pos="78.20" speed="11.74"/>
            </lane>
        </edge>
        <edge id="gneE25">
            <lane id="gneE25_0">
                <vehicle id="156" pos="48.61" speed="9.49"/>
                <vehicle id="210" pos="79.23" speed="9.50"/>
                <vehicle id="88" pos="111.08" speed="8.89"/>
                <vehicle id="108" pos="203.77" speed="9.35"/>
                <vehicle id="122" pos="236.72" speed="9.27"/>
                <vehicle id="135" pos="275.52" speed="0.34"/>
                <vehicle id="41" pos="283.33" speed="0.00"/>
                <vehicle id="128" pos="290.83" speed="0.00"/>
            </lane>
        </edge>
        <edge id="gneE26">
            <lane id="gneE26_0">
                <vehicle id="200" pos="4.72" speed="6.42"/>
                <vehicle id="204" pos="97.70" speed="5.77"/>
                <vehicle id="199" pos="131.96" speed="5.99"/>
                <vehicle id="136" pos="151.00" speed="6.78"/>
                <vehicle id="185" pos="186.55" speed="6.64"/>
                <vehicle id="131" pos="204.02" speed="6.05"/>
                <vehicle id="45" pos="219.80" speed="5.70"/>
                <vehicle id="62" pos="240.65" speed="6.76"/>
                <vehicle id="119" pos="268.03" speed="6.22"/>
            </lane>
        </edge>
        <edge id="gneE27">
            <lane id="gneE27_0">
                <vehicle id="129" pos="4.58" speed="5.66"/>
                <vehicle id="182" pos="56.57" speed="5.96"/>
                <vehicle id="99" pos="93.19" speed="5.36"/>
            </lane>
        </edge>
        <edge id="gneE28">
            <lane id="gneE28_0">
                <vehicle id="212" pos="58.57" speed="8.29"/>
            </lane>
        </edge>
        <edge id="gneE3">
            <lane id="gneE3_0">
                <vehicle id="124" pos="29.35" speed="9.17"/>
            </lane>
        </edge>
        <edge id="gneE30">
            <lane id="gneE30_0">
                <vehicle id="82" pos="18.97" speed="8.21"/>
                <vehicle id="180" pos="101.98" speed="8.81"/>
                <vehicle id="173" pos="154.33" speed="8.71"/>
                <vehicle id="33" pos="178.36" speed="8.03"/>
                <vehicle id="159" pos="278.98" speed="8.26"/>
            </lane>
        </edge>
        <edge id="gneE31">
            <lane id="gneE31_0">
                <vehicle id="42" pos="239.55" speed="7.92"/>
                <vehicle id="92" pos="270.79" speed="8.10"/>
                <vehicle id="184" pos="289.66" speed="7.80"/>
            </lane>
        </edge>
        <edge id="gneE32">
            <lane id="gneE32_0">
                <vehicle id="106" pos="213.74" speed="7.55"/>
                <vehicle id="70" pos="321.42" speed="6.81"/>
            </lane>
        </edge>
        <edge id="gneE38">
            <lane id="gneE38_0">
                <vehicle id="34" pos="41.95" speed="8.27"/>
                <vehicle id="175" pos="193.68" speed="8.48"/>
                <vehicle id="187" pos="267.68" speed="8.44"/>
                <vehicle id="161" pos="306.83" speed="8.86"/>
                <vehicle id="117" pos="339.72" speed="6.67"/>
            </lane>
        </edge>
        <edge id="gneE41">
            <lane id="gneE41_0">
                <vehicle id="171" pos="9.88" speed="8.29"/>
                <vehicle id="206" pos="106.98" speed="8.69"/>
            </lane>
        </edge>
        <edge id="gneE43">
            <lane id="gneE43_0">
                <vehicle id="216" pos="23.79" speed="6.20"/>
                <vehicle id="140" pos="56.63" speed="6.68"/>
                <vehicle id="15" pos="133.17" speed="6.05"/>
                <vehicle id="195" pos="158.74" speed="6.10"/>
                <vehicle id="138" pos="189.79" speed="5.86"/>
                <vehicle id="116" pos="233.11" speed="6.90"/>
                <vehicle id="170" pos="254.77" speed="5.81"/>
                <vehicle id="109" pos="272.45" speed="6.08"/>
                <vehicle id="153" pos="291.48" speed="1.63"/>
                <vehicle id="169" pos="299.23" speed="0.01"/>
                <vehicle id="123" pos="306.73" speed="0.00"/>
            </lane>
        </edge>
        <edge id="gneE45">
            <lane id="gneE45_0">
                <vehicle id="63" pos="81.81" speed="7.99"/>
                <vehicle id="142" pos="214.56" speed="8.28"/>
                <vehicle id="191" pos="234.79" speed="7.98"/>
                <vehicle id="66" pos="267.42" speed="8.64"/>
            </lane>
        </edge>
        <edge id="gneE46">
            <lane id="gneE46_0">
                <vehicle id="213" pos="51.07" speed="9.07"/>
            </lane>
        </edge>
        <edge id="gneE47">
            <lane id="gneE47_0">
                <vehicle id="215" pos="32.94" speed="8.87"/>
                <vehicle id="189" pos="56.16" speed="7.98"/>
            </lane>
        </edge>
        <edge id="gneE48">
            <lane id="gneE48_0">
                <vehicle id="211" pos="49.13" speed="6.66"/>
                <vehicle id="168" pos="69.04" speed="6.07"/>
                <vehicle id="107" pos="208.13" speed="6.63"/>
            </lane>
        </edge>
        <edge id="gneE49">
            <lane id="gneE49_0">
                <vehicle id="155" pos="14.02" speed="7.13"/>
                <vehicle id="53" pos="249.15" speed="6.79"/>
                <vehicle id="172" pos="317.99" speed="5.25"/>
            </lane>
        </edge>
        <edge id="gneE5">
            <lane id="gneE5_0">
                <vehicle id="137" pos="15.05" speed="5.95"/>
                <vehicle id="209" pos="59.35" speed="5.31"/>
                <vehicle id="114" pos="96.56" speed="5.38"/>
                <vehicle id="60" pos="109.98" speed="5.54"/>
                <vehicle id="193" pos="135.06" speed="5.61"/>
            </lane>
        </edge>
        <edge id="gneE50">
            <lane id="gneE50_0">
                <vehicle id="219" pos="6.51" speed="1.41"/>
                <vehicle id="67" pos="207.97" speed="5.18"/>
                <vehicle id="163" pos="304.85" speed="5.72"/>
            </lane>
        </edge>
        <edge id="gneE51">
            <lane id="gneE51_0">
                <vehicle id="112" pos="99.14" speed="6.27"/>
                <vehicle id="158" pos="222.06" speed="5.84"/>
                <vehicle id="77" pos="309.32" speed="5.94"/>
                <vehicle id="89" pos="365.61" speed="0.24"/>
            </lane>
        </edge>
        <edge id="gneE52">
            <lane id="gneE52_0">
                <vehicle id="79" pos="3.16" speed="6.79"/>
                <vehicle id="125" pos="40.09" speed="6.06"/>
                <vehicle id="208" pos="74.71" speed="6.89"/>
                <vehicle id="115" pos="206.13" speed="6.78"/>
            </lane>
        </edge>
        <edge id="gneE53">
            <lane id="gneE53_0">
                <vehicle id="160" pos="109.82" speed="6.80"/>
                <vehicle id="174" pos="158.79" speed="6.16"/>
            </lane>
        </edge>
        <edge id="gneE54">
            <lane id="gneE54_0">
                <vehicle id="202" pos="107.19" speed="6.87"/>
                <vehicle id="14" pos="126.88" speed="6.91"/>
            </lane>
        </edge>
        <edge id="gneE58">
            <lane id="gneE58_0">
                <vehicle id="73" pos="31.93" speed="7.21"/>
                <vehicle id="188" pos="64.75" speed="7.50"/>
                <vehicle id="102" pos="86.20" speed="7.32"/>
                <vehicle id="203" pos="122.60" speed="6.94"/>
                <vehicle id="37" pos="206.24" speed="7.66"/>
                <vehicle id="177" pos="308.26" speed="7.87"/>
            </lane>
        </edge>
        <edge id="gneE59">
            <lane id="gneE59_0">
                <vehicle id="78" pos="250.15" speed="8.34"/>
                <vehicle id="139" pos="289.49" speed="8.24"/>
            </lane>
        </edge>
        <edge id="gneE60">
            <lane id="gneE60_0">
                <vehicle id="220" pos="5.10" speed="0.00"/>
                <vehicle id="118" pos="64.22" speed="6.42"/>
            </lane>
        </edge>
        <edge id="gneE61">
            <lane id="gneE61_0">
                <vehicle id="207" pos="90.85" speed="7.30"/>
                <vehicle id="162" pos="230.57" speed="6.91"/>
            </lane>
        </edge>
        <edge id="gneE7">
            <lane id="gneE7_0">
                <vehicle id="68" pos="5.97" speed="7.42"/>
                <vehicle id="178" pos="119.66" speed="8.75"/>
                <vehicle id="197" pos="181.42" speed="7.89"/>
                <vehicle id="190" pos="240.61" speed="8.56"/>
            </lane>
        </edge>
        <edge id="gneE8">
            <lane id="gneE8_0">
                <vehicle id="90" pos="42.69" speed="7.95"/>
                <vehicle id="179" pos="292.46" speed="7.32"/>
            </lane>
        </edge>
    </timestep>
