<?xml version="1.0"?>
<timestep time="232.00">
        <edge id=":gneJ11_0">
            <lane id=":gneJ11_0_0">
                <vehicle id="151" pos="1.01" speed="11.23"/>
            </lane>
        </edge>
        <edge id=":gneJ11_43">
            <lane id=":gneJ11_43_0">
                <vehicle id="55" pos="14.60" speed="8.77"/>
            </lane>
        </edge>
        <edge id=":gneJ11_38">
            <lane id=":gneJ11_38_0">
                <vehicle id="148" pos="13.81" speed="8.23"/>
            </lane>
        </edge>
        <edge id=":gneJ28_5">
            <lane id=":gneJ28_5_0">
                <vehicle id="163" pos="4.06" speed="5.56"/>
            </lane>
        </edge>
        <edge id="gneE10">
            <lane id="gneE10_0">
                <vehicle id="127" pos="6.30" speed="5.66"/>
                <vehicle id="130" pos="92.40" speed="4.75"/>
                <vehicle id="152" pos="117.28" speed="5.60"/>
                <vehicle id="84" pos="131.37" speed="5.74"/>
            </lane>
        </edge>
        <edge id="gneE11">
            <lane id="gneE11_0">
                <vehicle id="159" pos="76.01" speed="8.73"/>
                <vehicle id="126" pos="115.80" speed="7.85"/>
            </lane>
        </edge>
        <edge id="gneE12">
            <lane id="gneE12_0">
                <vehicle id="41" pos="34.18" speed="12.35"/>
                <vehicle id="128" pos="114.63" speed="13.61"/>
                <vehicle id="194" pos="177.67" speed="13.45"/>
                <vehicle id="64" pos="268.68" speed="13.23"/>
            </lane>
        </edge>
        <edge id="gneE13">
            <lane id="gneE13_0">
                <vehicle id="198" pos="95.03" speed="9.27"/>
                <vehicle id="167" pos="113.50" speed="9.06"/>
                <vehicle id="192" pos="201.77" speed="9.83"/>
                <vehicle id="183" pos="287.24" speed="9.77"/>
            </lane>
        </edge>
        <edge id="gneE14">
            <lane id="gneE14_0">
                <vehicle id="135" pos="7.70" speed="8.48"/>
            </lane>
        </edge>
        <edge id="gneE15">
            <lane id="gneE15_0">
                <vehicle id="176" pos="26.41" speed="8.70"/>
                <vehicle id="83" pos="44.59" speed="8.93"/>
                <vehicle id="181" pos="130.51" speed="8.20"/>
            </lane>
        </edge>
        <edge id="gneE17">
            <lane id="gneE17_0">
                <vehicle id="146" pos="45.09" speed="9.72"/>
                <vehicle id="98" pos="72.46" speed="8.93"/>
                <vehicle id="201" pos="279.91" speed="9.73"/>
            </lane>
        </edge>
        <edge id="gneE18">
            <lane id="gneE18_0">
                <vehicle id="139" pos="71.58" speed="9.54"/>
                <vehicle id="218" pos="116.41" speed="9.22"/>
            </lane>
        </edge>
        <edge id="gneE19">
            <lane id="gneE19_0">
                <vehicle id="81" pos="109.42" speed="12.90"/>
                <vehicle id="104" pos="148.62" speed="7.22"/>
                <vehicle id="186" pos="161.78" speed="1.18"/>
                <vehicle id="91" pos="171.55" speed="1.10"/>
                <vehicle id="141" pos="181.22" speed="1.47"/>
                <vehicle id="121" pos="192.75" speed="3.48"/>
                <vehicle id="154" pos="206.23" speed="4.97"/>
                <vehicle id="134" pos="220.60" speed="6.49"/>
                <vehicle id="36" pos="235.39" speed="5.87"/>
                <vehicle id="105" pos="252.40" speed="7.98"/>
                <vehicle id="113" pos="265.55" speed="4.51"/>
                <vehicle id="71" pos="280.79" speed="6.46"/>
            </lane>
        </edge>
        <edge id="gneE20">
            <lane id="gneE20_0">
                <vehicle id="164" pos="76.61" speed="8.77"/>
                <vehicle id="217" pos="113.34" speed="8.08"/>
                <vehicle id="51" pos="225.49" speed="8.48"/>
            </lane>
        </edge>
        <edge id="gneE23">
            <lane id="gneE23_0">
                <vehicle id="61" pos="109.28" speed="7.46"/>
                <vehicle id="214" pos="127.31" speed="7.79"/>
                <vehicle id="150" pos="173.58" speed="6.99"/>
            </lane>
        </edge>
        <edge id="gneE24">
            <lane id="gneE24_0">
                <vehicle id="212" pos="12.94" speed="12.61"/>
                <vehicle id="166" pos="146.78" speed="12.57"/>
            </lane>
        </edge>
        <edge id="gneE25">
            <lane id="gneE25_0">
                <vehicle id="123" pos="43.85" speed="9.79"/>
                <vehicle id="133" pos="91.63" speed="9.76"/>
                <vehicle id="156" pos="162.34" speed="9.31"/>
                <vehicle id="210" pos="193.27" speed="8.89"/>
                <vehicle id="88" pos="221.31" speed="9.52"/>
                <vehicle id="108" pos="275.83" speed="4.28"/>
                <vehicle id="122" pos="289.53" speed="4.51"/>
            </lane>
        </edge>
        <edge id="gneE26">
            <lane id="gneE26_0">
                <vehicle id="205" pos="33.39" speed="6.51"/>
                <vehicle id="224" pos="49.04" speed="6.01"/>
                <vehicle id="200" pos="79.43" speed="6.77"/>
                <vehicle id="204" pos="174.32" speed="6.82"/>
                <vehicle id="199" pos="208.57" speed="6.46"/>
                <vehicle id="136" pos="226.64" speed="6.41"/>
                <vehicle id="185" pos="260.06" speed="2.38"/>
                <vehicle id="131" pos="268.26" speed="0.15"/>
                <vehicle id="45" pos="275.82" speed="0.01"/>
                <vehicle id="62" pos="283.33" speed="0.00"/>
                <vehicle id="119" pos="290.83" speed="0.00"/>
            </lane>
        </edge>
        <edge id="gneE27">
            <lane id="gneE27_0">
                <vehicle id="129" pos="69.28" speed="5.64"/>
                <vehicle id="182" pos="121.81" speed="5.28"/>
            </lane>
        </edge>
        <edge id="gneE28">
            <lane id="gneE28_0">
                <vehicle id="225" pos="17.42" speed="6.59"/>
                <vehicle id="42" pos="44.98" speed="8.85"/>
                <vehicle id="184" pos="95.16" speed="8.42"/>
            </lane>
        </edge>
        <edge id="gneE3">
            <lane id="gneE3_0">
                <vehicle id="44" pos="29.84" speed="9.57"/>
                <vehicle id="124" pos="139.71" speed="9.77"/>
            </lane>
        </edge>
        <edge id="gneE30">
            <lane id="gneE30_0">
                <vehicle id="99" pos="15.58" speed="7.84"/>
                <vehicle id="82" pos="120.43" speed="8.45"/>
                <vehicle id="180" pos="202.54" speed="8.36"/>
                <vehicle id="173" pos="256.58" speed="8.15"/>
                <vehicle id="33" pos="278.31" speed="8.26"/>
            </lane>
        </edge>
        <edge id="gneE31">
            <lane id="gneE31_0">
                <vehicle id="190" pos="27.86" speed="8.70"/>
            </lane>
        </edge>
        <edge id="gneE32">
            <lane id="gneE32_0">
                <vehicle id="106" pos="303.91" speed="7.92"/>
            </lane>
        </edge>
        <edge id="gneE38">
            <lane id="gneE38_0">
                <vehicle id="227" pos="33.11" speed="8.92"/>
                <vehicle id="34" pos="140.49" speed="8.12"/>
                <vehicle id="175" pos="292.08" speed="8.80"/>
                <vehicle id="187" pos="327.98" speed="0.00"/>
                <vehicle id="161" pos="335.48" speed="0.00"/>
                <vehicle id="117" pos="342.98" speed="0.00"/>
            </lane>
        </edge>
        <edge id="gneE4">
            <lane id="gneE4_0">
                <vehicle id="157" pos="19.66" speed="9.28"/>
                <vehicle id="96" pos="50.33" speed="9.02"/>
                <vehicle id="196" pos="76.00" speed="9.02"/>
            </lane>
        </edge>
        <edge id="gneE41">
            <lane id="gneE41_0">
                <vehicle id="70" pos="72.06" speed="8.23"/>
                <vehicle id="171" pos="108.45" speed="8.66"/>
            </lane>
        </edge>
        <edge id="gneE43">
            <lane id="gneE43_0">
                <vehicle id="216" pos="100.37" speed="6.99"/>
                <vehicle id="140" pos="132.41" speed="6.23"/>
                <vehicle id="15" pos="210.94" speed="6.75"/>
                <vehicle id="195" pos="236.05" speed="6.21"/>
                <vehicle id="138" pos="265.27" speed="5.27"/>
                <vehicle id="116" pos="275.45" speed="1.70"/>
                <vehicle id="170" pos="283.72" speed="0.33"/>
                <vehicle id="109" pos="291.61" speed="0.23"/>
                <vehicle id="153" pos="299.20" speed="0.08"/>
                <vehicle id="169" pos="306.73" speed="0.00"/>
            </lane>
        </edge>
        <edge id="gneE45">
            <lane id="gneE45_0">
                <vehicle id="144" pos="48.95" speed="7.76"/>
                <vehicle id="63" pos="180.47" speed="7.93"/>
                <vehicle id="142" pos="297.92" speed="1.24"/>
                <vehicle id="191" pos="306.70" speed="0.37"/>
            </lane>
        </edge>
        <edge id="gneE46">
            <lane id="gneE46_0">
                <vehicle id="66" pos="3.72" speed="3.83"/>
                <vehicle id="229" pos="18.56" speed="6.32"/>
                <vehicle id="213" pos="164.10" speed="9.01"/>
            </lane>
        </edge>
        <edge id="gneE47">
            <lane id="gneE47_0">
                <vehicle id="202" pos="41.90" speed="8.40"/>
                <vehicle id="172" pos="84.06" speed="7.76"/>
                <vehicle id="215" pos="133.37" speed="8.51"/>
                <vehicle id="189" pos="158.09" speed="8.73"/>
            </lane>
        </edge>
        <edge id="gneE48">
            <lane id="gneE48_0">
                <vehicle id="211" pos="123.74" speed="6.13"/>
                <vehicle id="168" pos="144.58" speed="6.35"/>
                <vehicle id="107" pos="284.21" speed="6.37"/>
            </lane>
        </edge>
        <edge id="gneE49">
            <lane id="gneE49_0">
                <vehicle id="76" pos="49.82" speed="6.80"/>
                <vehicle id="155" pos="102.27" speed="7.14"/>
            </lane>
        </edge>
        <edge id="gneE5">
            <lane id="gneE5_0">
                <vehicle id="228" pos="22.45" speed="5.02"/>
                <vehicle id="137" pos="76.77" speed="5.43"/>
                <vehicle id="209" pos="121.84" speed="5.15"/>
            </lane>
        </edge>
        <edge id="gneE50">
            <lane id="gneE50_0">
                <vehicle id="231" pos="5.10" speed="0.00"/>
                <vehicle id="111" pos="17.09" speed="5.24"/>
                <vehicle id="219" pos="70.06" speed="5.83"/>
                <vehicle id="67" pos="271.85" speed="5.86"/>
            </lane>
        </edge>
        <edge id="gneE51">
            <lane id="gneE51_0">
                <vehicle id="232" pos="5.10" speed="0.00"/>
                <vehicle id="206" pos="37.15" speed="6.43"/>
                <vehicle id="112" pos="175.97" speed="6.95"/>
                <vehicle id="158" pos="296.89" speed="6.23"/>
                <vehicle id="77" pos="358.30" speed="0.00"/>
                <vehicle id="89" pos="365.80" speed="0.00"/>
            </lane>
        </edge>
        <edge id="gneE52">
            <lane id="gneE52_0">
                <vehicle id="100" pos="62.51" speed="6.19"/>
                <vehicle id="79" pos="79.94" speed="6.98"/>
                <vehicle id="125" pos="115.83" speed="6.65"/>
                <vehicle id="208" pos="151.89" speed="6.32"/>
                <vehicle id="115" pos="284.63" speed="5.94"/>
            </lane>
        </edge>
        <edge id="gneE53">
            <lane id="gneE53_0">
                <vehicle id="222" pos="57.18" speed="6.00"/>
                <vehicle id="160" pos="184.57" speed="6.76"/>
                <vehicle id="174" pos="234.19" speed="5.87"/>
            </lane>
        </edge>
        <edge id="gneE54">
            <lane id="gneE54_0">
                <vehicle id="165" pos="74.74" speed="6.37"/>
            </lane>
        </edge>
        <edge id="gneE55">
            <lane id="gneE55_0">
                <vehicle id="53" pos="6.81" speed="7.64"/>
                <vehicle id="223" pos="58.56" speed="7.93"/>
            </lane>
        </edge>
        <edge id="gneE56">
            <lane id="gneE56_0">
                <vehicle id="147" pos="23.94" speed="7.71"/>
                <vehicle id="74" pos="72.04" speed="7.93"/>
            </lane>
        </edge>
        <edge id="gneE57">
            <lane id="gneE57_0">
                <vehicle id="230" pos="11.84" speed="4.17"/>
            </lane>
        </edge>
        <edge id="gneE58">
            <lane id="gneE58_0">
                <vehicle id="73" pos="118.78" speed="7.45"/>
                <vehicle id="188" pos="152.55" speed="7.18"/>
                <vehicle id="102" pos="172.28" speed="7.20"/>
                <vehicle id="203" pos="212.32" speed="7.20"/>
                <vehicle id="37" pos="294.09" speed="7.28"/>
            </lane>
        </edge>
        <edge id="gneE59">
            <lane id="gneE59_0">
                <vehicle id="78" pos="317.71" speed="0.10"/>
            </lane>
        </edge>
        <edge id="gneE6">
            <lane id="gneE6_0">
                <vehicle id="179" pos="69.39" speed="7.11"/>
            </lane>
        </edge>
        <edge id="gneE60">
            <lane id="gneE60_0">
                <vehicle id="177" pos="57.85" speed="6.32"/>
                <vehicle id="220" pos="76.43" speed="5.90"/>
                <vehicle id="118" pos="140.48" speed="6.67"/>
            </lane>
        </edge>
        <edge id="gneE61">
            <lane id="gneE61_0">
                <vehicle id="226" pos="41.51" speed="7.08"/>
                <vehicle id="207" pos="178.05" speed="7.62"/>
                <vehicle id="162" pos="318.96" speed="7.45"/>
            </lane>
        </edge>
        <edge id="gneE7">
            <lane id="gneE7_0">
                <vehicle id="114" pos="8.25" speed="6.61"/>
                <vehicle id="193" pos="72.83" speed="7.77"/>
                <vehicle id="68" pos="104.36" speed="7.88"/>
                <vehicle id="178" pos="218.03" speed="8.99"/>
                <vehicle id="197" pos="282.14" speed="7.82"/>
            </lane>
        </edge>
        <edge id="gneE8">
            <lane id="gneE8_0">
                <vehicle id="221" pos="75.49" speed="7.29"/>
                <vehicle id="90" pos="130.59" speed="7.70"/>
            </lane>
        </edge>
    </timestep>
