<?xml version="1.0"?>
<timestep time="233.00">
        <edge id=":gneJ11_0">
            <lane id=":gneJ11_0_0">
                <vehicle id="151" pos="14.34" speed="13.34"/>
            </lane>
        </edge>
        <edge id=":gneJ11_36">
            <lane id=":gneJ11_36_0">
                <vehicle id="71" pos="6.90" speed="9.06"/>
            </lane>
        </edge>
        <edge id=":gneJ11_38">
            <lane id=":gneJ11_38_0">
                <vehicle id="148" pos="24.22" speed="10.40"/>
            </lane>
        </edge>
        <edge id=":gneJ15_14">
            <lane id=":gneJ15_14_0">
                <vehicle id="119" pos="1.91" speed="2.01"/>
            </lane>
        </edge>
        <edge id=":gneJ28_5">
            <lane id=":gneJ28_5_0">
                <vehicle id="163" pos="11.67" speed="7.61"/>
            </lane>
        </edge>
        <edge id=":gneJ8_0">
            <lane id=":gneJ8_0_0">
                <vehicle id="122" pos="2.84" speed="4.24"/>
            </lane>
        </edge>
        <edge id="gneE10">
            <lane id="gneE10_0">
                <vehicle id="127" pos="11.68" speed="5.38"/>
                <vehicle id="130" pos="97.86" speed="5.46"/>
                <vehicle id="152" pos="122.76" speed="5.47"/>
                <vehicle id="84" pos="137.33" speed="5.96"/>
            </lane>
        </edge>
        <edge id="gneE11">
            <lane id="gneE11_0">
                <vehicle id="159" pos="83.92" speed="7.91"/>
                <vehicle id="126" pos="123.86" speed="8.06"/>
            </lane>
        </edge>
        <edge id="gneE12">
            <lane id="gneE12_0">
                <vehicle id="41" pos="47.57" speed="13.39"/>
                <vehicle id="128" pos="127.72" speed="13.09"/>
                <vehicle id="194" pos="191.45" speed="13.78"/>
                <vehicle id="64" pos="281.53" speed="12.85"/>
            </lane>
        </edge>
        <edge id="gneE13">
            <lane id="gneE13_0">
                <vehicle id="198" pos="104.58" speed="9.56"/>
                <vehicle id="167" pos="122.41" speed="8.91"/>
                <vehicle id="192" pos="211.54" speed="9.77"/>
                <vehicle id="183" pos="295.95" speed="8.70"/>
            </lane>
        </edge>
        <edge id="gneE14">
            <lane id="gneE14_0">
                <vehicle id="135" pos="17.89" speed="10.20"/>
            </lane>
        </edge>
        <edge id="gneE15">
            <lane id="gneE15_0">
                <vehicle id="176" pos="34.12" speed="7.71"/>
                <vehicle id="83" pos="52.59" speed="8.00"/>
                <vehicle id="181" pos="139.07" speed="8.55"/>
            </lane>
        </edge>
        <edge id="gneE17">
            <lane id="gneE17_0">
                <vehicle id="146" pos="54.58" speed="9.49"/>
                <vehicle id="98" pos="81.69" speed="9.24"/>
                <vehicle id="201" pos="285.13" speed="5.23"/>
            </lane>
        </edge>
        <edge id="gneE18">
            <lane id="gneE18_0">
                <vehicle id="139" pos="80.62" speed="9.05"/>
                <vehicle id="218" pos="126.14" speed="9.72"/>
            </lane>
        </edge>
        <edge id="gneE19">
            <lane id="gneE19_0">
                <vehicle id="81" pos="122.08" speed="12.66"/>
                <vehicle id="104" pos="152.67" speed="4.05"/>
                <vehicle id="186" pos="162.98" speed="1.20"/>
                <vehicle id="91" pos="173.08" speed="1.53"/>
                <vehicle id="141" pos="185.19" speed="3.98"/>
                <vehicle id="121" pos="197.18" speed="4.43"/>
                <vehicle id="154" pos="212.38" speed="6.15"/>
                <vehicle id="134" pos="226.07" speed="5.47"/>
                <vehicle id="36" pos="242.57" speed="7.18"/>
                <vehicle id="105" pos="256.39" speed="3.98"/>
                <vehicle id="113" pos="271.50" speed="5.95"/>
            </lane>
        </edge>
        <edge id="gneE20">
            <lane id="gneE20_0">
                <vehicle id="164" pos="85.24" speed="8.63"/>
                <vehicle id="217" pos="122.33" speed="8.99"/>
                <vehicle id="51" pos="234.08" speed="8.59"/>
            </lane>
        </edge>
        <edge id="gneE23">
            <lane id="gneE23_0">
                <vehicle id="61" pos="116.40" speed="7.12"/>
                <vehicle id="214" pos="134.35" speed="7.04"/>
                <vehicle id="150" pos="180.78" speed="7.19"/>
            </lane>
        </edge>
        <edge id="gneE24">
            <lane id="gneE24_0">
                <vehicle id="212" pos="24.87" speed="11.93"/>
                <vehicle id="166" pos="159.39" speed="12.61"/>
            </lane>
        </edge>
        <edge id="gneE25">
            <lane id="gneE25_0">
                <vehicle id="123" pos="53.35" speed="9.50"/>
                <vehicle id="133" pos="100.90" speed="9.26"/>
                <vehicle id="156" pos="171.98" speed="9.64"/>
                <vehicle id="210" pos="203.03" speed="9.76"/>
                <vehicle id="88" pos="230.20" speed="8.90"/>
                <vehicle id="108" pos="280.37" speed="4.54"/>
            </lane>
        </edge>
        <edge id="gneE26">
            <lane id="gneE26_0">
                <vehicle id="205" pos="39.15" speed="5.76"/>
                <vehicle id="224" pos="55.63" speed="6.59"/>
                <vehicle id="200" pos="86.03" speed="6.60"/>
                <vehicle id="204" pos="180.33" speed="6.01"/>
                <vehicle id="199" pos="215.10" speed="6.53"/>
                <vehicle id="136" pos="233.15" speed="6.50"/>
                <vehicle id="185" pos="260.72" speed="0.65"/>
                <vehicle id="131" pos="268.31" speed="0.05"/>
                <vehicle id="45" pos="275.83" speed="0.00"/>
                <vehicle id="62" pos="283.33" speed="0.00"/>
            </lane>
        </edge>
        <edge id="gneE27">
            <lane id="gneE27_0">
                <vehicle id="129" pos="74.33" speed="5.05"/>
                <vehicle id="182" pos="126.57" speed="4.77"/>
            </lane>
        </edge>
        <edge id="gneE28">
            <lane id="gneE28_0">
                <vehicle id="225" pos="25.79" speed="8.37"/>
                <vehicle id="42" pos="53.25" speed="8.27"/>
                <vehicle id="184" pos="104.04" speed="8.89"/>
            </lane>
        </edge>
        <edge id="gneE3">
            <lane id="gneE3_0">
                <vehicle id="44" pos="38.73" speed="8.88"/>
                <vehicle id="124" pos="148.63" speed="8.92"/>
            </lane>
        </edge>
        <edge id="gneE30">
            <lane id="gneE30_0">
                <vehicle id="99" pos="23.75" speed="8.18"/>
                <vehicle id="82" pos="128.42" speed="7.99"/>
                <vehicle id="180" pos="210.83" speed="8.29"/>
                <vehicle id="173" pos="265.50" speed="8.93"/>
                <vehicle id="33" pos="286.34" speed="8.03"/>
            </lane>
        </edge>
        <edge id="gneE31">
            <lane id="gneE31_0">
                <vehicle id="190" pos="35.81" speed="7.95"/>
            </lane>
        </edge>
        <edge id="gneE32">
            <lane id="gneE32_0">
                <vehicle id="106" pos="310.64" speed="6.74"/>
            </lane>
        </edge>
        <edge id="gneE38">
            <lane id="gneE38_0">
                <vehicle id="227" pos="40.93" speed="7.82"/>
                <vehicle id="34" pos="148.93" speed="8.44"/>
                <vehicle id="175" pos="300.28" speed="8.20"/>
                <vehicle id="187" pos="327.98" speed="0.00"/>
                <vehicle id="161" pos="335.48" speed="0.00"/>
                <vehicle id="117" pos="342.98" speed="0.00"/>
            </lane>
        </edge>
        <edge id="gneE4">
            <lane id="gneE4_0">
                <vehicle id="157" pos="28.57" speed="8.91"/>
                <vehicle id="96" pos="59.20" speed="8.87"/>
                <vehicle id="196" pos="85.59" speed="9.60"/>
            </lane>
        </edge>
        <edge id="gneE41">
            <lane id="gneE41_0">
                <vehicle id="70" pos="80.17" speed="8.10"/>
                <vehicle id="171" pos="116.17" speed="7.72"/>
            </lane>
        </edge>
        <edge id="gneE43">
            <lane id="gneE43_0">
                <vehicle id="216" pos="107.13" speed="6.76"/>
                <vehicle id="140" pos="138.30" speed="5.90"/>
                <vehicle id="15" pos="217.41" speed="6.47"/>
                <vehicle id="195" pos="241.92" speed="5.87"/>
                <vehicle id="138" pos="266.67" speed="1.39"/>
                <vehicle id="116" pos="276.08" speed="0.63"/>
                <vehicle id="170" pos="284.06" speed="0.33"/>
                <vehicle id="109" pos="291.68" speed="0.07"/>
                <vehicle id="153" pos="299.22" speed="0.02"/>
                <vehicle id="169" pos="306.73" speed="0.00"/>
            </lane>
        </edge>
        <edge id="gneE45">
            <lane id="gneE45_0">
                <vehicle id="144" pos="57.17" speed="8.22"/>
                <vehicle id="63" pos="189.32" speed="8.85"/>
                <vehicle id="142" pos="298.78" speed="0.86"/>
                <vehicle id="191" pos="306.73" speed="0.02"/>
            </lane>
        </edge>
        <edge id="gneE46">
            <lane id="gneE46_0">
                <vehicle id="66" pos="8.97" speed="5.25"/>
                <vehicle id="229" pos="26.78" speed="8.23"/>
                <vehicle id="213" pos="172.92" speed="8.83"/>
            </lane>
        </edge>
        <edge id="gneE47">
            <lane id="gneE47_0">
                <vehicle id="202" pos="50.02" speed="8.12"/>
                <vehicle id="172" pos="92.23" speed="8.17"/>
                <vehicle id="215" pos="142.21" speed="8.84"/>
                <vehicle id="189" pos="166.70" speed="8.61"/>
            </lane>
        </edge>
        <edge id="gneE48">
            <lane id="gneE48_0">
                <vehicle id="211" pos="130.40" speed="6.67"/>
                <vehicle id="168" pos="150.86" speed="6.28"/>
                <vehicle id="107" pos="290.31" speed="6.10"/>
            </lane>
        </edge>
        <edge id="gneE49">
            <lane id="gneE49_0">
                <vehicle id="55" pos="4.18" speed="6.99"/>
                <vehicle id="76" pos="57.81" speed="7.99"/>
                <vehicle id="155" pos="109.92" speed="7.65"/>
            </lane>
        </edge>
        <edge id="gneE5">
            <lane id="gneE5_0">
                <vehicle id="228" pos="27.78" speed="5.34"/>
                <vehicle id="137" pos="81.96" speed="5.19"/>
                <vehicle id="209" pos="127.22" speed="5.38"/>
            </lane>
        </edge>
        <edge id="gneE50">
            <lane id="gneE50_0">
                <vehicle id="231" pos="7.53" speed="2.43"/>
                <vehicle id="111" pos="22.98" speed="5.89"/>
                <vehicle id="219" pos="75.90" speed="5.84"/>
                <vehicle id="67" pos="277.62" speed="5.77"/>
            </lane>
        </edge>
        <edge id="gneE51">
            <lane id="gneE51_0">
                <vehicle id="232" pos="6.98" speed="1.88"/>
                <vehicle id="206" pos="44.06" speed="6.91"/>
                <vehicle id="112" pos="182.09" speed="6.12"/>
                <vehicle id="158" pos="303.79" speed="6.90"/>
                <vehicle id="77" pos="358.30" speed="0.00"/>
                <vehicle id="89" pos="365.80" speed="0.00"/>
            </lane>
        </edge>
        <edge id="gneE52">
            <lane id="gneE52_0">
                <vehicle id="100" pos="68.58" speed="6.07"/>
                <vehicle id="79" pos="86.90" speed="6.96"/>
                <vehicle id="125" pos="121.89" speed="6.06"/>
                <vehicle id="208" pos="158.31" speed="6.42"/>
                <vehicle id="115" pos="291.51" speed="6.88"/>
            </lane>
        </edge>
        <edge id="gneE53">
            <lane id="gneE53_0">
                <vehicle id="222" pos="63.20" speed="6.01"/>
                <vehicle id="160" pos="190.56" speed="5.99"/>
                <vehicle id="174" pos="240.24" speed="6.05"/>
            </lane>
        </edge>
        <edge id="gneE54">
            <lane id="gneE54_0">
                <vehicle id="165" pos="80.71" speed="5.97"/>
            </lane>
        </edge>
        <edge id="gneE55">
            <lane id="gneE55_0">
                <vehicle id="53" pos="14.43" speed="7.63"/>
                <vehicle id="223" pos="65.79" speed="7.23"/>
            </lane>
        </edge>
        <edge id="gneE56">
            <lane id="gneE56_0">
                <vehicle id="147" pos="32.63" speed="8.69"/>
                <vehicle id="74" pos="81.01" speed="8.96"/>
            </lane>
        </edge>
        <edge id="gneE57">
            <lane id="gneE57_0">
                <vehicle id="230" pos="18.46" speed="6.62"/>
            </lane>
        </edge>
        <edge id="gneE58">
            <lane id="gneE58_0">
                <vehicle id="73" pos="126.66" speed="7.88"/>
                <vehicle id="188" pos="160.19" speed="7.64"/>
                <vehicle id="102" pos="179.85" speed="7.57"/>
                <vehicle id="203" pos="219.15" speed="6.83"/>
                <vehicle id="37" pos="301.42" speed="7.33"/>
            </lane>
        </edge>
        <edge id="gneE59">
            <lane id="gneE59_0">
                <vehicle id="78" pos="317.73" speed="0.01"/>
            </lane>
        </edge>
        <edge id="gneE6">
            <lane id="gneE6_0">
                <vehicle id="179" pos="76.57" speed="7.18"/>
            </lane>
        </edge>
        <edge id="gneE60">
            <lane id="gneE60_0">
                <vehicle id="177" pos="64.32" speed="6.47"/>
                <vehicle id="220" pos="82.71" speed="6.28"/>
                <vehicle id="118" pos="146.59" speed="6.11"/>
            </lane>
        </edge>
        <edge id="gneE61">
            <lane id="gneE61_0">
                <vehicle id="226" pos="49.26" speed="7.75"/>
                <vehicle id="207" pos="184.95" speed="6.90"/>
                <vehicle id="162" pos="326.07" speed="7.12"/>
            </lane>
        </edge>
        <edge id="gneE7">
            <lane id="gneE7_0">
                <vehicle id="114" pos="16.16" speed="7.91"/>
                <vehicle id="193" pos="81.79" speed="8.96"/>
                <vehicle id="68" pos="113.01" speed="8.65"/>
                <vehicle id="178" pos="226.80" speed="8.78"/>
                <vehicle id="197" pos="290.82" speed="8.68"/>
            </lane>
        </edge>
        <edge id="gneE8">
            <lane id="gneE8_0">
                <vehicle id="233" pos="5.10" speed="0.00"/>
                <vehicle id="221" pos="83.31" speed="7.82"/>
                <vehicle id="90" pos="137.50" speed="6.91"/>
            </lane>
        </edge>
    </timestep>
