<?xml version="1.0"?>
<timestep time="244.00">
        <edge id=":gneJ11_41">
            <lane id=":gneJ11_41_0">
                <vehicle id="105" pos="14.52" speed="7.13"/>
            </lane>
        </edge>
        <edge id=":gneJ15_10">
            <lane id=":gneJ15_10_0">
                <vehicle id="61" pos="9.70" speed="5.72"/>
            </lane>
        </edge>
        <edge id=":gneJ15_19">
            <lane id=":gneJ15_19_0">
                <vehicle id="184" pos="4.33" speed="0.06"/>
            </lane>
        </edge>
        <edge id=":gneJ28_8">
            <lane id=":gneJ28_8_0">
                <vehicle id="191" pos="6.22" speed="4.02"/>
            </lane>
        </edge>
        <edge id=":gneJ30_0">
            <lane id=":gneJ30_0_0">
                <vehicle id="165" pos="8.82" speed="7.61"/>
            </lane>
        </edge>
        <edge id=":gneJ31_0">
            <lane id=":gneJ31_0_0">
                <vehicle id="223" pos="3.05" speed="5.88"/>
            </lane>
        </edge>
        <edge id=":gneJ4_5">
            <lane id=":gneJ4_5_0">
                <vehicle id="179" pos="4.77" speed="3.43"/>
            </lane>
        </edge>
        <edge id=":gneJ8_0">
            <lane id=":gneJ8_0_0">
                <vehicle id="210" pos="4.81" speed="6.96"/>
            </lane>
        </edge>
        <edge id="gneE1">
            <lane id="gneE1_0">
                <vehicle id="240" pos="20.50" speed="3.77"/>
            </lane>
        </edge>
        <edge id="gneE10">
            <lane id="gneE10_0">
                <vehicle id="88" pos="15.70" speed="4.89"/>
                <vehicle id="108" pos="40.14" speed="5.89"/>
                <vehicle id="122" pos="54.04" speed="5.22"/>
                <vehicle id="127" pos="69.22" speed="5.85"/>
            </lane>
        </edge>
        <edge id="gneE11">
            <lane id="gneE11_0">
                <vehicle id="180" pos="0.24" speed="8.50"/>
                <vehicle id="173" pos="50.45" speed="8.51"/>
                <vehicle id="197" pos="72.77" speed="8.14"/>
            </lane>
        </edge>
        <edge id="gneE12">
            <lane id="gneE12_0">
                <vehicle id="41" pos="194.29" speed="13.49"/>
                <vehicle id="128" pos="271.02" speed="12.63"/>
                <vehicle id="194" pos="301.03" speed="0.33"/>
            </lane>
        </edge>
        <edge id="gneE13">
            <lane id="gneE13_0">
                <vehicle id="124" pos="90.68" speed="9.13"/>
                <vehicle id="198" pos="205.69" speed="9.77"/>
                <vehicle id="167" pos="224.42" speed="9.12"/>
                <vehicle id="192" pos="301.10" speed="0.88"/>
            </lane>
        </edge>
        <edge id="gneE14">
            <lane id="gneE14_0">
                <vehicle id="159" pos="38.71" speed="10.69"/>
                <vehicle id="135" pos="132.98" speed="10.48"/>
            </lane>
        </edge>
        <edge id="gneE15">
            <lane id="gneE15_0">
                <vehicle id="176" pos="125.62" speed="8.06"/>
                <vehicle id="83" pos="145.15" speed="8.27"/>
            </lane>
        </edge>
        <edge id="gneE17">
            <lane id="gneE17_0">
                <vehicle id="146" pos="158.15" speed="8.98"/>
                <vehicle id="98" pos="183.01" speed="9.02"/>
            </lane>
        </edge>
        <edge id="gneE18">
            <lane id="gneE18_0">
                <vehicle id="196" pos="9.43" speed="8.78"/>
                <vehicle id="239" pos="34.74" speed="9.79"/>
                <vehicle id="236" pos="63.93" speed="8.73"/>
                <vehicle id="139" pos="183.32" speed="8.73"/>
                <vehicle id="218" pos="229.72" speed="9.52"/>
            </lane>
        </edge>
        <edge id="gneE19">
            <lane id="gneE19_0">
                <vehicle id="81" pos="187.85" speed="4.95"/>
                <vehicle id="104" pos="202.13" speed="5.25"/>
                <vehicle id="186" pos="215.51" speed="4.68"/>
                <vehicle id="91" pos="227.31" speed="3.46"/>
                <vehicle id="141" pos="236.80" speed="1.38"/>
                <vehicle id="121" pos="245.22" speed="0.88"/>
                <vehicle id="154" pos="253.94" speed="0.93"/>
                <vehicle id="134" pos="264.44" speed="2.45"/>
                <vehicle id="36" pos="278.99" speed="5.30"/>
            </lane>
        </edge>
        <edge id="gneE2">
            <lane id="gneE2_0">
                <vehicle id="201" pos="88.73" speed="10.75"/>
            </lane>
        </edge>
        <edge id="gneE20">
            <lane id="gneE20_0">
                <vehicle id="242" pos="11.24" speed="4.13"/>
                <vehicle id="151" pos="91.27" speed="8.04"/>
                <vehicle id="164" pos="177.02" speed="8.31"/>
                <vehicle id="217" pos="215.36" speed="8.60"/>
            </lane>
        </edge>
        <edge id="gneE23">
            <lane id="gneE23_0">
                <vehicle id="113" pos="9.55" speed="7.33"/>
            </lane>
        </edge>
        <edge id="gneE24">
            <lane id="gneE24_0">
                <vehicle id="62" pos="92.31" speed="12.42"/>
                <vehicle id="212" pos="163.31" speed="12.83"/>
            </lane>
        </edge>
        <edge id="gneE25">
            <lane id="gneE25_0">
                <vehicle id="123" pos="155.62" speed="9.63"/>
                <vehicle id="133" pos="203.02" speed="8.90"/>
                <vehicle id="156" pos="274.14" speed="9.06"/>
            </lane>
        </edge>
        <edge id="gneE26">
            <lane id="gneE26_0">
                <vehicle id="126" pos="28.20" speed="6.10"/>
                <vehicle id="181" pos="46.29" speed="6.95"/>
                <vehicle id="205" pos="109.70" speed="6.72"/>
                <vehicle id="224" pos="126.60" speed="5.71"/>
                <vehicle id="200" pos="155.28" speed="5.98"/>
                <vehicle id="204" pos="247.04" speed="6.65"/>
                <vehicle id="199" pos="265.18" speed="3.67"/>
                <vehicle id="136" pos="274.54" speed="1.58"/>
                <vehicle id="185" pos="283.16" speed="0.35"/>
                <vehicle id="131" pos="290.82" speed="0.02"/>
            </lane>
        </edge>
        <edge id="gneE27">
            <lane id="gneE27_0">
                <vehicle id="214" pos="14.00" speed="5.85"/>
                <vehicle id="129" pos="132.72" speed="5.77"/>
            </lane>
        </edge>
        <edge id="gneE28">
            <lane id="gneE28_0">
                <vehicle id="225" pos="117.15" speed="8.98"/>
                <vehicle id="42" pos="137.70" speed="3.17"/>
            </lane>
        </edge>
        <edge id="gneE3">
            <lane id="gneE3_0">
                <vehicle id="78" pos="43.35" speed="8.78"/>
                <vehicle id="44" pos="142.76" speed="9.36"/>
            </lane>
        </edge>
        <edge id="gneE30">
            <lane id="gneE30_0">
                <vehicle id="182" pos="59.77" speed="8.27"/>
                <vehicle id="99" pos="115.18" speed="8.30"/>
                <vehicle id="82" pos="219.93" speed="8.07"/>
            </lane>
        </edge>
        <edge id="gneE31">
            <lane id="gneE31_0">
                <vehicle id="234" pos="53.89" speed="8.73"/>
                <vehicle id="84" pos="82.47" speed="8.80"/>
                <vehicle id="190" pos="129.15" speed="7.71"/>
            </lane>
        </edge>
        <edge id="gneE32">
            <lane id="gneE32_0">
                <vehicle id="241" pos="18.45" speed="6.08"/>
                <vehicle id="119" pos="58.88" speed="7.74"/>
            </lane>
        </edge>
        <edge id="gneE38">
            <lane id="gneE38_0">
                <vehicle id="227" pos="133.66" speed="8.95"/>
                <vehicle id="34" pos="239.72" speed="7.86"/>
                <vehicle id="175" pos="320.48" speed="0.00"/>
                <vehicle id="187" pos="327.98" speed="0.00"/>
                <vehicle id="161" pos="335.48" speed="0.00"/>
                <vehicle id="117" pos="342.98" speed="0.00"/>
            </lane>
        </edge>
        <edge id="gneE4">
            <lane id="gneE4_0">
                <vehicle id="157" pos="131.58" speed="9.21"/>
            </lane>
        </edge>
        <edge id="gneE41">
            <lane id="gneE41_0">
                <vehicle id="106" pos="51.85" speed="8.46"/>
            </lane>
        </edge>
        <edge id="gneE43">
            <lane id="gneE43_0">
                <vehicle id="215" pos="12.48" speed="6.17"/>
                <vehicle id="163" pos="64.03" speed="6.43"/>
                <vehicle id="216" pos="178.28" speed="6.07"/>
                <vehicle id="140" pos="208.62" speed="5.77"/>
                <vehicle id="15" pos="254.22" speed="0.00"/>
                <vehicle id="195" pos="261.72" speed="0.00"/>
                <vehicle id="138" pos="269.22" speed="0.00"/>
                <vehicle id="116" pos="276.72" speed="0.00"/>
                <vehicle id="170" pos="284.23" speed="0.00"/>
                <vehicle id="109" pos="291.73" speed="0.00"/>
                <vehicle id="153" pos="299.23" speed="0.00"/>
                <vehicle id="169" pos="306.73" speed="0.00"/>
            </lane>
        </edge>
        <edge id="gneE45">
            <lane id="gneE45_0">
                <vehicle id="243" pos="7.57" speed="2.47"/>
                <vehicle id="238" pos="38.35" speed="7.87"/>
                <vehicle id="144" pos="150.15" speed="8.02"/>
                <vehicle id="63" pos="281.54" speed="8.67"/>
                <vehicle id="142" pos="301.05" speed="1.82"/>
            </lane>
        </edge>
        <edge id="gneE46">
            <lane id="gneE46_0">
                <vehicle id="66" pos="105.80" speed="8.86"/>
                <vehicle id="229" pos="130.43" speed="8.98"/>
            </lane>
        </edge>
        <edge id="gneE47">
            <lane id="gneE47_0">
                <vehicle id="202" pos="140.53" speed="7.71"/>
                <vehicle id="172" pos="184.20" speed="8.00"/>
            </lane>
        </edge>
        <edge id="gneE48">
            <lane id="gneE48_0">
                <vehicle id="213" pos="50.02" speed="6.40"/>
                <vehicle id="211" pos="199.39" speed="5.71"/>
                <vehicle id="168" pos="220.06" speed="5.82"/>
                <vehicle id="107" pos="319.64" speed="0.00"/>
            </lane>
        </edge>
        <edge id="gneE49">
            <lane id="gneE49_0">
                <vehicle id="166" pos="40.18" speed="7.01"/>
                <vehicle id="55" pos="86.66" speed="7.76"/>
                <vehicle id="76" pos="138.11" speed="7.21"/>
                <vehicle id="155" pos="190.88" speed="7.38"/>
            </lane>
        </edge>
        <edge id="gneE5">
            <lane id="gneE5_0">
                <vehicle id="64" pos="42.25" speed="5.55"/>
                <vehicle id="228" pos="87.07" speed="4.84"/>
                <vehicle id="137" pos="141.44" speed="5.20"/>
            </lane>
        </edge>
        <edge id="gneE50">
            <lane id="gneE50_0">
                <vehicle id="231" pos="63.15" speed="4.77"/>
                <vehicle id="111" pos="83.19" speed="4.98"/>
                <vehicle id="219" pos="135.24" speed="5.10"/>
                <vehicle id="67" pos="338.70" speed="5.69"/>
            </lane>
        </edge>
        <edge id="gneE51">
            <lane id="gneE51_0">
                <vehicle id="189" pos="18.16" speed="6.16"/>
                <vehicle id="171" pos="36.89" speed="6.19"/>
                <vehicle id="232" pos="72.62" speed="6.67"/>
                <vehicle id="206" pos="114.48" speed="6.13"/>
                <vehicle id="112" pos="251.87" speed="6.53"/>
                <vehicle id="158" pos="364.22" speed="4.44"/>
            </lane>
        </edge>
        <edge id="gneE52">
            <lane id="gneE52_0">
                <vehicle id="235" pos="43.72" speed="5.96"/>
                <vehicle id="148" pos="64.60" speed="6.38"/>
                <vehicle id="100" pos="138.08" speed="6.08"/>
                <vehicle id="79" pos="159.00" speed="6.33"/>
                <vehicle id="125" pos="190.41" speed="5.79"/>
                <vehicle id="208" pos="228.59" speed="6.23"/>
            </lane>
        </edge>
        <edge id="gneE53">
            <lane id="gneE53_0">
                <vehicle id="222" pos="135.15" speed="5.72"/>
                <vehicle id="160" pos="261.18" speed="6.73"/>
                <vehicle id="174" pos="307.68" speed="6.20"/>
            </lane>
        </edge>
        <edge id="gneE54">
            <lane id="gneE54_0">
                <vehicle id="237" pos="41.50" speed="5.92"/>
            </lane>
        </edge>
        <edge id="gneE55">
            <lane id="gneE55_0">
                <vehicle id="53" pos="94.55" speed="6.86"/>
            </lane>
        </edge>
        <edge id="gneE56">
            <lane id="gneE56_0">
                <vehicle id="147" pos="122.21" speed="8.04"/>
            </lane>
        </edge>
        <edge id="gneE57">
            <lane id="gneE57_0">
                <vehicle id="230" pos="100.61" speed="7.77"/>
            </lane>
        </edge>
        <edge id="gneE58">
            <lane id="gneE58_0">
                <vehicle id="73" pos="207.90" speed="7.66"/>
                <vehicle id="188" pos="241.24" speed="7.35"/>
                <vehicle id="102" pos="261.25" speed="7.14"/>
                <vehicle id="203" pos="301.31" speed="7.78"/>
            </lane>
        </edge>
        <edge id="gneE60">
            <lane id="gneE60_0">
                <vehicle id="37" pos="49.73" speed="6.28"/>
                <vehicle id="177" pos="135.87" speed="6.15"/>
                <vehicle id="220" pos="151.14" speed="6.08"/>
                <vehicle id="118" pos="215.80" speed="6.08"/>
            </lane>
        </edge>
        <edge id="gneE61">
            <lane id="gneE61_0">
                <vehicle id="89" pos="7.83" speed="7.88"/>
                <vehicle id="71" pos="78.58" speed="7.95"/>
                <vehicle id="226" pos="129.44" speed="7.86"/>
                <vehicle id="207" pos="263.67" speed="6.75"/>
            </lane>
        </edge>
        <edge id="gneE7">
            <lane id="gneE7_0">
                <vehicle id="209" pos="55.70" speed="8.38"/>
                <vehicle id="114" pos="107.06" speed="8.46"/>
                <vehicle id="193" pos="173.85" speed="8.53"/>
                <vehicle id="68" pos="204.14" speed="7.92"/>
            </lane>
        </edge>
        <edge id="gneE8">
            <lane id="gneE8_0">
                <vehicle id="130" pos="13.57" speed="7.25"/>
                <vehicle id="233" pos="78.71" speed="7.78"/>
                <vehicle id="221" pos="165.19" speed="7.67"/>
                <vehicle id="90" pos="217.38" speed="7.50"/>
            </lane>
        </edge>
    </timestep>
