<?xml version="1.0"?>
<timestep time="251.00">
        <edge id=":gneJ11_41">
            <lane id=":gneJ11_41_0">
                <vehicle id="154" pos="14.80" speed="10.81"/>
            </lane>
        </edge>
        <edge id=":gneJ15_19">
            <lane id=":gneJ15_19_0">
                <vehicle id="225" pos="3.37" speed="4.33"/>
            </lane>
        </edge>
        <edge id=":gneJ28_1">
            <lane id=":gneJ28_1_0">
                <vehicle id="202" pos="1.81" speed="6.78"/>
            </lane>
        </edge>
        <edge id=":gneJ28_3">
            <lane id=":gneJ28_3_0">
                <vehicle id="67" pos="9.01" speed="6.40"/>
            </lane>
        </edge>
        <edge id=":gneJ30_4">
            <lane id=":gneJ30_4_0">
                <vehicle id="229" pos="2.51" speed="9.90"/>
            </lane>
        </edge>
        <edge id=":gneJ4_1">
            <lane id=":gneJ4_1_0">
                <vehicle id="128" pos="2.23" speed="4.82"/>
            </lane>
        </edge>
        <edge id="gneE1">
            <lane id="gneE1_0">
                <vehicle id="240" pos="50.55" speed="4.97"/>
            </lane>
        </edge>
        <edge id="gneE10">
            <lane id="gneE10_0">
                <vehicle id="210" pos="36.96" speed="5.23"/>
                <vehicle id="88" pos="51.90" speed="5.25"/>
                <vehicle id="108" pos="76.69" speed="5.97"/>
                <vehicle id="122" pos="91.74" speed="5.50"/>
                <vehicle id="127" pos="107.91" speed="5.81"/>
            </lane>
        </edge>
        <edge id="gneE11">
            <lane id="gneE11_0">
                <vehicle id="B2_1" pos="6.58" speed="1.48"/>
                <vehicle id="180" pos="58.23" speed="8.64"/>
                <vehicle id="173" pos="110.92" speed="8.85"/>
                <vehicle id="197" pos="130.84" speed="7.71"/>
            </lane>
        </edge>
        <edge id="gneE12">
            <lane id="gneE12_0">
                <vehicle id="176" pos="9.82" speed="9.91"/>
                <vehicle id="41" pos="283.21" speed="8.97"/>
            </lane>
        </edge>
        <edge id="gneE13">
            <lane id="gneE13_0">
                <vehicle id="244" pos="6.79" speed="1.69"/>
                <vehicle id="179" pos="26.60" speed="8.82"/>
                <vehicle id="44" pos="47.39" speed="9.28"/>
                <vehicle id="124" pos="156.55" speed="9.41"/>
                <vehicle id="198" pos="269.72" speed="8.90"/>
                <vehicle id="167" pos="288.14" speed="8.66"/>
                <vehicle id="192" pos="301.18" speed="0.00"/>
            </lane>
        </edge>
        <edge id="gneE14">
            <lane id="gneE14_0">
                <vehicle id="156" pos="30.64" speed="10.01"/>
                <vehicle id="159" pos="110.87" speed="10.78"/>
            </lane>
        </edge>
        <edge id="gneE17">
            <lane id="gneE17_0">
                <vehicle id="146" pos="224.66" speed="9.90"/>
                <vehicle id="98" pos="247.76" speed="8.83"/>
            </lane>
        </edge>
        <edge id="gneE18">
            <lane id="gneE18_0">
                <vehicle id="196" pos="74.86" speed="9.06"/>
                <vehicle id="239" pos="100.74" speed="9.81"/>
                <vehicle id="236" pos="130.32" speed="9.05"/>
                <vehicle id="139" pos="251.24" speed="9.64"/>
            </lane>
        </edge>
        <edge id="gneE19">
            <lane id="gneE19_0">
                <vehicle id="135" pos="26.77" speed="11.84"/>
                <vehicle id="81" pos="208.14" speed="1.55"/>
                <vehicle id="104" pos="220.90" speed="4.28"/>
                <vehicle id="186" pos="232.83" speed="4.15"/>
                <vehicle id="91" pos="246.47" speed="4.58"/>
                <vehicle id="141" pos="260.20" speed="5.08"/>
                <vehicle id="121" pos="277.60" speed="8.21"/>
            </lane>
        </edge>
        <edge id="gneE20">
            <lane id="gneE20_0">
                <vehicle id="212" pos="34.28" speed="8.72"/>
                <vehicle id="242" pos="67.56" speed="8.42"/>
                <vehicle id="151" pos="147.94" speed="7.73"/>
                <vehicle id="164" pos="236.31" speed="7.93"/>
                <vehicle id="217" pos="274.34" speed="8.26"/>
            </lane>
        </edge>
        <edge id="gneE23">
            <lane id="gneE23_0">
                <vehicle id="105" pos="44.65" speed="7.55"/>
                <vehicle id="113" pos="61.41" speed="7.94"/>
            </lane>
        </edge>
        <edge id="gneE24">
            <lane id="gneE24_0">
                <vehicle id="169" pos="19.68" speed="11.33"/>
                <vehicle id="62" pos="178.58" speed="11.83"/>
            </lane>
        </edge>
        <edge id="gneE25">
            <lane id="gneE25_0">
                <vehicle id="153" pos="0.02" speed="9.52"/>
                <vehicle id="123" pos="222.79" speed="9.67"/>
                <vehicle id="133" pos="269.33" speed="9.04"/>
            </lane>
        </edge>
        <edge id="gneE26">
            <lane id="gneE26_0">
                <vehicle id="83" pos="27.29" speed="6.67"/>
                <vehicle id="126" pos="71.60" speed="6.32"/>
                <vehicle id="181" pos="88.98" speed="6.23"/>
                <vehicle id="205" pos="154.43" speed="6.44"/>
                <vehicle id="224" pos="169.59" speed="5.85"/>
                <vehicle id="200" pos="198.01" speed="5.80"/>
                <vehicle id="204" pos="260.79" speed="0.02"/>
                <vehicle id="199" pos="268.32" speed="0.02"/>
                <vehicle id="136" pos="275.83" speed="0.00"/>
                <vehicle id="185" pos="283.33" speed="0.00"/>
                <vehicle id="131" pos="290.83" speed="0.00"/>
            </lane>
        </edge>
        <edge id="gneE27">
            <lane id="gneE27_0">
                <vehicle id="61" pos="34.42" speed="4.84"/>
                <vehicle id="214" pos="50.65" speed="5.12"/>
            </lane>
        </edge>
        <edge id="gneE28">
            <lane id="gneE28_0">
                <vehicle id="248" pos="16.84" speed="5.95"/>
            </lane>
        </edge>
        <edge id="gneE3">
            <lane id="gneE3_0">
                <vehicle id="78" pos="108.96" speed="9.86"/>
            </lane>
        </edge>
        <edge id="gneE30">
            <lane id="gneE30_0">
                <vehicle id="182" pos="117.34" speed="8.54"/>
                <vehicle id="99" pos="173.60" speed="8.03"/>
                <vehicle id="82" pos="278.16" speed="9.00"/>
            </lane>
        </edge>
        <edge id="gneE31">
            <lane id="gneE31_0">
                <vehicle id="234" pos="112.57" speed="8.54"/>
                <vehicle id="84" pos="141.00" speed="8.53"/>
                <vehicle id="190" pos="187.12" speed="8.89"/>
            </lane>
        </edge>
        <edge id="gneE32">
            <lane id="gneE32_0">
                <vehicle id="184" pos="18.05" speed="6.98"/>
                <vehicle id="241" pos="68.93" speed="7.26"/>
                <vehicle id="119" pos="110.59" speed="6.94"/>
            </lane>
        </edge>
        <edge id="gneE38">
            <lane id="gneE38_0">
                <vehicle id="B1_1" pos="7.32" speed="2.22"/>
                <vehicle id="227" pos="192.44" speed="8.08"/>
                <vehicle id="34" pos="298.18" speed="7.71"/>
                <vehicle id="175" pos="320.48" speed="0.00"/>
                <vehicle id="187" pos="327.98" speed="0.00"/>
                <vehicle id="161" pos="335.48" speed="0.00"/>
                <vehicle id="117" pos="342.98" speed="0.00"/>
            </lane>
        </edge>
        <edge id="gneE4">
            <lane id="gneE4_0">
                <vehicle id="194" pos="12.53" speed="9.00"/>
            </lane>
        </edge>
        <edge id="gneE41">
            <lane id="gneE41_0">
                <vehicle id="B3_1" pos="7.69" speed="2.59"/>
                <vehicle id="106" pos="109.90" speed="8.66"/>
            </lane>
        </edge>
        <edge id="gneE42">
            <lane id="gneE42_0">
                <vehicle id="191" pos="36.79" speed="7.17"/>
            </lane>
        </edge>
        <edge id="gneE43">
            <lane id="gneE43_0">
                <vehicle id="172" pos="13.77" speed="6.00"/>
                <vehicle id="246" pos="29.06" speed="5.89"/>
                <vehicle id="215" pos="56.83" speed="6.32"/>
                <vehicle id="163" pos="107.61" speed="6.33"/>
                <vehicle id="216" pos="224.79" speed="6.65"/>
                <vehicle id="140" pos="246.62" speed="1.00"/>
                <vehicle id="15" pos="254.22" speed="0.00"/>
                <vehicle id="195" pos="261.72" speed="0.00"/>
                <vehicle id="138" pos="269.73" speed="0.50"/>
                <vehicle id="116" pos="279.78" speed="2.53"/>
                <vehicle id="170" pos="291.76" speed="4.21"/>
                <vehicle id="109" pos="305.78" speed="4.98"/>
            </lane>
        </edge>
        <edge id="gneE45">
            <lane id="gneE45_0">
                <vehicle id="249" pos="9.91" speed="3.40"/>
                <vehicle id="243" pos="59.03" speed="7.87"/>
                <vehicle id="238" pos="94.06" speed="7.94"/>
                <vehicle id="144" pos="209.96" speed="8.92"/>
            </lane>
        </edge>
        <edge id="gneE46">
            <lane id="gneE46_0">
                <vehicle id="142" pos="35.56" speed="9.93"/>
                <vehicle id="66" pos="172.05" speed="9.34"/>
            </lane>
        </edge>
        <edge id="gneE47">
            <lane id="gneE47_0">
                <vehicle id="245" pos="31.51" speed="8.81"/>
                <vehicle id="165" pos="55.97" speed="8.82"/>
            </lane>
        </edge>
        <edge id="gneE48">
            <lane id="gneE48_0">
                <vehicle id="247" pos="23.53" speed="5.98"/>
                <vehicle id="213" pos="95.41" speed="6.90"/>
                <vehicle id="211" pos="244.64" speed="6.45"/>
                <vehicle id="168" pos="262.30" speed="5.74"/>
                <vehicle id="107" pos="319.64" speed="0.00"/>
            </lane>
        </edge>
        <edge id="gneE49">
            <lane id="gneE49_0">
                <vehicle id="166" pos="91.64" speed="7.55"/>
                <vehicle id="55" pos="138.86" speed="7.47"/>
                <vehicle id="76" pos="188.81" speed="7.33"/>
                <vehicle id="155" pos="243.24" speed="7.55"/>
            </lane>
        </edge>
        <edge id="gneE5">
            <lane id="gneE5_0">
                <vehicle id="250" pos="6.91" speed="1.81"/>
                <vehicle id="64" pos="80.48" speed="5.58"/>
                <vehicle id="228" pos="123.43" speed="5.23"/>
            </lane>
        </edge>
        <edge id="gneE50">
            <lane id="gneE50_0">
                <vehicle id="231" pos="102.14" speed="5.83"/>
                <vehicle id="111" pos="120.81" speed="5.34"/>
                <vehicle id="219" pos="173.19" speed="5.10"/>
            </lane>
        </edge>
        <edge id="gneE51">
            <lane id="gneE51_0">
                <vehicle id="189" pos="62.64" speed="5.79"/>
                <vehicle id="171" pos="81.45" speed="6.89"/>
                <vehicle id="232" pos="117.99" speed="6.61"/>
                <vehicle id="206" pos="158.72" speed="6.43"/>
                <vehicle id="112" pos="296.47" speed="5.73"/>
                <vehicle id="158" pos="365.80" speed="0.00"/>
            </lane>
        </edge>
        <edge id="gneE52">
            <lane id="gneE52_0">
                <vehicle id="235" pos="88.42" speed="6.06"/>
                <vehicle id="148" pos="110.07" speed="6.85"/>
                <vehicle id="100" pos="182.13" speed="5.79"/>
                <vehicle id="79" pos="203.13" speed="6.16"/>
                <vehicle id="125" pos="236.25" speed="6.11"/>
                <vehicle id="208" pos="273.25" speed="6.47"/>
            </lane>
        </edge>
        <edge id="gneE53">
            <lane id="gneE53_0">
                <vehicle id="B4_1" pos="5.10" speed="0.00"/>
                <vehicle id="223" pos="45.06" speed="6.88"/>
                <vehicle id="222" pos="179.88" speed="6.82"/>
                <vehicle id="160" pos="304.40" speed="5.73"/>
                <vehicle id="174" pos="343.05" speed="0.48"/>
            </lane>
        </edge>
        <edge id="gneE54">
            <lane id="gneE54_0">
                <vehicle id="237" pos="84.49" speed="6.00"/>
            </lane>
        </edge>
        <edge id="gneE57">
            <lane id="gneE57_0">
                <vehicle id="230" pos="152.74" speed="7.91"/>
            </lane>
        </edge>
        <edge id="gneE58">
            <lane id="gneE58_0">
                <vehicle id="73" pos="259.32" speed="7.07"/>
                <vehicle id="188" pos="290.97" speed="7.09"/>
                <vehicle id="102" pos="312.84" speed="6.96"/>
            </lane>
        </edge>
        <edge id="gneE60">
            <lane id="gneE60_0">
                <vehicle id="203" pos="24.49" speed="5.70"/>
                <vehicle id="37" pos="94.05" speed="6.75"/>
                <vehicle id="177" pos="179.83" speed="6.63"/>
                <vehicle id="220" pos="195.48" speed="5.79"/>
                <vehicle id="118" pos="259.96" speed="6.29"/>
            </lane>
        </edge>
        <edge id="gneE61">
            <lane id="gneE61_0">
                <vehicle id="134" pos="18.83" speed="7.55"/>
                <vehicle id="89" pos="60.49" speed="7.80"/>
                <vehicle id="71" pos="130.07" speed="7.37"/>
                <vehicle id="226" pos="180.84" speed="6.92"/>
                <vehicle id="207" pos="316.14" speed="7.78"/>
            </lane>
        </edge>
        <edge id="gneE7">
            <lane id="gneE7_0">
                <vehicle id="209" pos="114.87" speed="8.98"/>
                <vehicle id="114" pos="164.32" speed="7.96"/>
                <vehicle id="193" pos="231.96" speed="8.11"/>
                <vehicle id="68" pos="262.44" speed="8.57"/>
            </lane>
        </edge>
        <edge id="gneE8">
            <lane id="gneE8_0">
                <vehicle id="251" pos="5.10" speed="0.00"/>
                <vehicle id="130" pos="67.49" speed="7.98"/>
                <vehicle id="233" pos="130.03" speed="7.67"/>
                <vehicle id="221" pos="215.87" speed="7.35"/>
                <vehicle id="90" pos="269.19" speed="7.05"/>
            </lane>
        </edge>
    </timestep>
