<?xml version="1.0"?>
<timestep time="264.00">
        <edge id=":gneJ11_12">
            <lane id=":gneJ11_12_0">
                <vehicle id="211" pos="9.04" speed="5.52"/>
            </lane>
        </edge>
        <edge id=":gneJ15_12">
            <lane id=":gneJ15_12_0">
                <vehicle id="199" pos="1.77" speed="6.14"/>
            </lane>
        </edge>
        <edge id=":gneJ28_7">
            <lane id=":gneJ28_7_0">
                <vehicle id="144" pos="4.93" speed="5.72"/>
            </lane>
        </edge>
        <edge id=":gneJ5_0">
            <lane id=":gneJ5_0_0">
                <vehicle id="221" pos="4.95" speed="5.87"/>
            </lane>
        </edge>
        <edge id=":gneJ5_1">
            <lane id=":gneJ5_1_0">
                <vehicle id="64" pos="1.05" speed="5.07"/>
            </lane>
        </edge>
        <edge id=":gneJ8_1">
            <lane id=":gneJ8_1_0">
                <vehicle id="123" pos="4.92" speed="3.31"/>
            </lane>
        </edge>
        <edge id=":gneJ8_7">
            <lane id=":gneJ8_7_0">
                <vehicle id="198" pos="3.05" speed="7.00"/>
            </lane>
        </edge>
        <edge id="gneE1">
            <lane id="gneE1_0">
                <vehicle id="240" pos="108.52" speed="4.14"/>
            </lane>
        </edge>
        <edge id="gneE10">
            <lane id="gneE10_0">
                <vehicle id="259" pos="6.95" speed="1.85"/>
                <vehicle id="192" pos="20.68" speed="5.70"/>
                <vehicle id="210" pos="104.30" speed="5.77"/>
                <vehicle id="88" pos="118.30" speed="5.02"/>
                <vehicle id="108" pos="136.14" speed="3.47"/>
            </lane>
        </edge>
        <edge id="gneE11">
            <lane id="gneE11_0">
                <vehicle id="68" pos="61.77" speed="8.03"/>
                <vehicle id="B2_1" pos="105.50" speed="8.19"/>
            </lane>
        </edge>
        <edge id="gneE12">
            <lane id="gneE12_0">
                <vehicle id="180" pos="30.25" speed="12.92"/>
                <vehicle id="176" pos="182.48" speed="13.63"/>
            </lane>
        </edge>
        <edge id="gneE13">
            <lane id="gneE13_0">
                <vehicle id="244" pos="113.65" speed="8.93"/>
                <vehicle id="179" pos="148.33" speed="8.83"/>
                <vehicle id="44" pos="170.11" speed="9.88"/>
                <vehicle id="124" pos="277.86" speed="9.34"/>
            </lane>
        </edge>
        <edge id="gneE14">
            <lane id="gneE14_0">
                <vehicle id="197" pos="117.17" speed="10.95"/>
                <vehicle id="156" pos="158.40" speed="5.71"/>
            </lane>
        </edge>
        <edge id="gneE15">
            <lane id="gneE15_0">
                <vehicle id="258" pos="41.92" speed="7.90"/>
            </lane>
        </edge>
        <edge id="gneE17">
            <lane id="gneE17_0">
                <vehicle id="164" pos="59.85" speed="9.05"/>
                <vehicle id="217" pos="102.37" speed="9.36"/>
            </lane>
        </edge>
        <edge id="gneE18">
            <lane id="gneE18_0">
                <vehicle id="196" pos="195.18" speed="9.12"/>
                <vehicle id="239" pos="224.27" speed="9.68"/>
                <vehicle id="236" pos="253.01" speed="9.20"/>
            </lane>
        </edge>
        <edge id="gneE19">
            <lane id="gneE19_0">
                <vehicle id="159" pos="35.50" speed="12.10"/>
                <vehicle id="139" pos="102.47" speed="11.72"/>
                <vehicle id="135" pos="188.91" speed="12.81"/>
                <vehicle id="81" pos="245.32" speed="0.03"/>
                <vehicle id="104" pos="252.83" speed="0.01"/>
                <vehicle id="186" pos="260.34" speed="0.00"/>
                <vehicle id="91" pos="267.84" speed="0.00"/>
                <vehicle id="141" pos="275.34" speed="0.00"/>
                <vehicle id="121" pos="282.84" speed="0.00"/>
            </lane>
        </edge>
        <edge id="gneE20">
            <lane id="gneE20_0">
                <vehicle id="174" pos="7.16" speed="8.72"/>
                <vehicle id="158" pos="26.00" speed="8.01"/>
                <vehicle id="230" pos="72.45" speed="8.32"/>
                <vehicle id="212" pos="140.90" speed="8.37"/>
                <vehicle id="242" pos="175.66" speed="8.82"/>
                <vehicle id="151" pos="254.28" speed="8.49"/>
            </lane>
        </edge>
        <edge id="gneE23">
            <lane id="gneE23_0">
                <vehicle id="160" pos="0.20" speed="7.13"/>
                <vehicle id="154" pos="91.49" speed="7.80"/>
                <vehicle id="105" pos="138.28" speed="7.10"/>
                <vehicle id="113" pos="156.78" speed="6.78"/>
            </lane>
        </edge>
        <edge id="gneE24">
            <lane id="gneE24_0">
                <vehicle id="185" pos="41.54" speed="12.77"/>
                <vehicle id="117" pos="73.85" speed="11.72"/>
                <vehicle id="169" pos="178.70" speed="10.90"/>
            </lane>
        </edge>
        <edge id="gneE25">
            <lane id="gneE25_0">
                <vehicle id="153" pos="119.82" speed="9.84"/>
            </lane>
        </edge>
        <edge id="gneE26">
            <lane id="gneE26_0">
                <vehicle id="167" pos="10.09" speed="6.11"/>
                <vehicle id="173" pos="50.06" speed="6.58"/>
                <vehicle id="83" pos="109.88" speed="6.13"/>
                <vehicle id="126" pos="152.52" speed="6.22"/>
                <vehicle id="181" pos="170.83" speed="6.98"/>
                <vehicle id="205" pos="234.26" speed="5.88"/>
                <vehicle id="224" pos="251.01" speed="4.66"/>
                <vehicle id="200" pos="263.20" speed="2.65"/>
                <vehicle id="204" pos="277.81" speed="5.64"/>
            </lane>
        </edge>
        <edge id="gneE27">
            <lane id="gneE27_0">
                <vehicle id="109" pos="25.55" speed="4.57"/>
                <vehicle id="131" pos="40.40" speed="5.82"/>
                <vehicle id="61" pos="103.91" speed="4.99"/>
                <vehicle id="214" pos="119.04" speed="5.99"/>
            </lane>
        </edge>
        <edge id="gneE28">
            <lane id="gneE28_0">
                <vehicle id="190" pos="2.50" speed="8.79"/>
                <vehicle id="248" pos="123.52" speed="7.95"/>
            </lane>
        </edge>
        <edge id="gneE30">
            <lane id="gneE30_0">
                <vehicle id="264" pos="5.10" speed="0.00"/>
                <vehicle id="182" pos="225.16" speed="8.08"/>
                <vehicle id="99" pos="285.04" speed="8.60"/>
            </lane>
        </edge>
        <edge id="gneE31">
            <lane id="gneE31_0">
                <vehicle id="193" pos="28.46" speed="7.92"/>
                <vehicle id="127" pos="55.56" speed="8.57"/>
                <vehicle id="234" pos="220.13" speed="8.87"/>
                <vehicle id="84" pos="248.30" speed="8.93"/>
            </lane>
        </edge>
        <edge id="gneE32">
            <lane id="gneE32_0">
                <vehicle id="225" pos="76.12" speed="7.51"/>
                <vehicle id="184" pos="114.25" speed="7.26"/>
                <vehicle id="241" pos="166.17" speed="7.16"/>
                <vehicle id="119" pos="204.05" speed="7.39"/>
            </lane>
        </edge>
        <edge id="gneE38">
            <lane id="gneE38_0">
                <vehicle id="B1_1" pos="109.31" speed="8.60"/>
                <vehicle id="227" pos="300.55" speed="8.98"/>
                <vehicle id="34" pos="320.42" speed="0.04"/>
                <vehicle id="175" pos="327.97" speed="0.01"/>
                <vehicle id="187" pos="335.48" speed="0.00"/>
                <vehicle id="161" pos="342.98" speed="0.00"/>
            </lane>
        </edge>
        <edge id="gneE4">
            <lane id="gneE4_0">
                <vehicle id="41" pos="88.14" speed="8.80"/>
                <vehicle id="128" pos="109.70" speed="10.00"/>
                <vehicle id="194" pos="134.33" speed="9.62"/>
            </lane>
        </edge>
        <edge id="gneE41">
            <lane id="gneE41_0">
                <vehicle id="263" pos="6.54" speed="1.44"/>
                <vehicle id="252" pos="85.02" speed="8.80"/>
                <vehicle id="B3_1" pos="109.67" speed="8.90"/>
            </lane>
        </edge>
        <edge id="gneE42">
            <lane id="gneE42_0">
                <vehicle id="191" pos="132.66" speed="6.74"/>
            </lane>
        </edge>
        <edge id="gneE43">
            <lane id="gneE43_0">
                <vehicle id="255" pos="47.04" speed="6.33"/>
                <vehicle id="202" pos="70.86" speed="5.90"/>
                <vehicle id="172" pos="95.91" speed="6.65"/>
                <vehicle id="246" pos="113.67" speed="6.43"/>
                <vehicle id="215" pos="138.69" speed="5.83"/>
                <vehicle id="163" pos="191.25" speed="6.46"/>
                <vehicle id="216" pos="255.14" speed="0.59"/>
                <vehicle id="140" pos="265.11" speed="2.33"/>
                <vehicle id="15" pos="275.20" speed="1.68"/>
                <vehicle id="195" pos="283.82" speed="0.58"/>
                <vehicle id="138" pos="291.70" speed="0.04"/>
                <vehicle id="116" pos="299.23" speed="0.02"/>
                <vehicle id="170" pos="306.73" speed="0.00"/>
            </lane>
        </edge>
        <edge id="gneE45">
            <lane id="gneE45_0">
                <vehicle id="136" pos="2.55" speed="8.94"/>
                <vehicle id="249" pos="116.28" speed="8.49"/>
                <vehicle id="243" pos="166.18" speed="8.04"/>
                <vehicle id="238" pos="201.09" speed="7.97"/>
            </lane>
        </edge>
        <edge id="gneE46">
            <lane id="gneE46_0">
                <vehicle id="67" pos="120.44" speed="8.82"/>
                <vehicle id="142" pos="156.77" speed="9.20"/>
            </lane>
        </edge>
        <edge id="gneE47">
            <lane id="gneE47_0">
                <vehicle id="245" pos="139.60" speed="8.95"/>
                <vehicle id="165" pos="163.95" speed="8.15"/>
            </lane>
        </edge>
        <edge id="gneE48">
            <lane id="gneE48_0">
                <vehicle id="237" pos="12.12" speed="6.11"/>
                <vehicle id="229" pos="80.08" speed="5.72"/>
                <vehicle id="247" pos="105.54" speed="6.23"/>
                <vehicle id="213" pos="177.61" speed="6.61"/>
            </lane>
        </edge>
        <edge id="gneE49">
            <lane id="gneE49_0">
                <vehicle id="166" pos="187.19" speed="7.36"/>
                <vehicle id="55" pos="234.90" speed="7.15"/>
                <vehicle id="76" pos="284.87" speed="7.71"/>
            </lane>
        </edge>
        <edge id="gneE5">
            <lane id="gneE5_0">
                <vehicle id="250" pos="72.79" speed="5.14"/>
            </lane>
        </edge>
        <edge id="gneE50">
            <lane id="gneE50_0">
                <vehicle id="253" pos="61.67" speed="5.78"/>
                <vehicle id="231" pos="171.38" speed="4.72"/>
                <vehicle id="111" pos="189.06" speed="4.95"/>
                <vehicle id="219" pos="242.39" speed="5.88"/>
            </lane>
        </edge>
        <edge id="gneE51">
            <lane id="gneE51_0">
                <vehicle id="189" pos="146.43" speed="6.27"/>
                <vehicle id="171" pos="163.58" speed="6.23"/>
                <vehicle id="232" pos="199.84" speed="6.26"/>
                <vehicle id="206" pos="238.92" speed="6.37"/>
            </lane>
        </edge>
        <edge id="gneE52">
            <lane id="gneE52_0">
                <vehicle id="235" pos="168.44" speed="5.97"/>
                <vehicle id="148" pos="191.93" speed="5.84"/>
                <vehicle id="100" pos="265.19" speed="6.17"/>
                <vehicle id="79" pos="284.93" speed="6.92"/>
                <vehicle id="125" pos="316.87" speed="6.06"/>
            </lane>
        </edge>
        <edge id="gneE53">
            <lane id="gneE53_0">
                <vehicle id="B4_1" pos="78.41" speed="6.47"/>
                <vehicle id="223" pos="125.64" speed="5.89"/>
                <vehicle id="222" pos="259.18" speed="6.26"/>
            </lane>
        </edge>
        <edge id="gneE54">
            <lane id="gneE54_0">
                <vehicle id="208" pos="4.95" speed="6.08"/>
            </lane>
        </edge>
        <edge id="gneE55">
            <lane id="gneE55_0">
                <vehicle id="155" pos="14.26" speed="7.81"/>
            </lane>
        </edge>
        <edge id="gneE58">
            <lane id="gneE58_0">
                <vehicle id="262" pos="10.40" speed="3.55"/>
            </lane>
        </edge>
        <edge id="gneE59">
            <lane id="gneE59_0">
                <vehicle id="207" pos="80.37" speed="8.07"/>
            </lane>
        </edge>
        <edge id="gneE6">
            <lane id="gneE6_0">
                <vehicle id="261" pos="10.62" speed="3.50"/>
                <vehicle id="257" pos="32.48" speed="7.22"/>
                <vehicle id="256" pos="55.26" speed="7.71"/>
            </lane>
        </edge>
        <edge id="gneE60">
            <lane id="gneE60_0">
                <vehicle id="73" pos="28.69" speed="5.74"/>
                <vehicle id="102" pos="74.21" speed="5.76"/>
                <vehicle id="203" pos="106.41" speed="6.18"/>
                <vehicle id="37" pos="176.12" speed="6.46"/>
                <vehicle id="177" pos="262.48" speed="5.89"/>
                <vehicle id="220" pos="278.30" speed="6.35"/>
                <vehicle id="118" pos="337.33" speed="0.69"/>
            </lane>
        </edge>
        <edge id="gneE61">
            <lane id="gneE61_0">
                <vehicle id="107" pos="29.51" speed="7.99"/>
                <vehicle id="254" pos="69.69" speed="7.34"/>
                <vehicle id="134" pos="113.21" speed="7.84"/>
                <vehicle id="89" pos="156.01" speed="7.24"/>
                <vehicle id="71" pos="226.63" speed="7.63"/>
                <vehicle id="226" pos="277.51" speed="7.86"/>
            </lane>
        </edge>
        <edge id="gneE7">
            <lane id="gneE7_0">
                <vehicle id="260" pos="24.50" speed="7.81"/>
                <vehicle id="228" pos="64.79" speed="8.76"/>
                <vehicle id="209" pos="222.66" speed="8.06"/>
                <vehicle id="114" pos="273.98" speed="8.98"/>
            </lane>
        </edge>
        <edge id="gneE8">
            <lane id="gneE8_0">
                <vehicle id="122" pos="0.20" speed="5.03"/>
                <vehicle id="251" pos="92.98" speed="7.80"/>
                <vehicle id="130" pos="162.99" speed="7.04"/>
                <vehicle id="233" pos="227.03" speed="7.99"/>
            </lane>
        </edge>
    </timestep>
