<?xml version="1.0"?>
<timestep time="265.00">
        <edge id=":gneJ11_4">
            <lane id=":gneJ11_4_0">
                <vehicle id="169" pos="0.01" speed="6.66"/>
            </lane>
        </edge>
        <edge id=":gneJ28_7">
            <lane id=":gneJ28_7_0">
                <vehicle id="144" pos="13.03" speed="8.10"/>
            </lane>
        </edge>
        <edge id=":gneJ6_1">
            <lane id=":gneJ6_1_0">
                <vehicle id="99" pos="0.61" speed="8.72"/>
            </lane>
        </edge>
        <edge id=":gneJ8_7">
            <lane id=":gneJ8_7_0">
                <vehicle id="198" pos="9.58" speed="6.54"/>
            </lane>
        </edge>
        <edge id=":gneJ9_1">
            <lane id=":gneJ9_1_0">
                <vehicle id="156" pos="5.49" speed="7.88"/>
            </lane>
        </edge>
        <edge id="gneE1">
            <lane id="gneE1_0">
                <vehicle id="240" pos="113.31" speed="4.78"/>
            </lane>
        </edge>
        <edge id="gneE10">
            <lane id="gneE10_0">
                <vehicle id="259" pos="10.72" speed="3.77"/>
                <vehicle id="192" pos="26.40" speed="5.72"/>
                <vehicle id="210" pos="109.50" speed="5.20"/>
                <vehicle id="88" pos="123.34" speed="5.04"/>
            </lane>
        </edge>
        <edge id="gneE11">
            <lane id="gneE11_0">
                <vehicle id="68" pos="70.52" speed="8.75"/>
                <vehicle id="B2_1" pos="114.11" speed="8.61"/>
            </lane>
        </edge>
        <edge id="gneE12">
            <lane id="gneE12_0">
                <vehicle id="123" pos="0.65" speed="5.62"/>
                <vehicle id="180" pos="43.43" speed="13.18"/>
                <vehicle id="176" pos="195.94" speed="13.46"/>
            </lane>
        </edge>
        <edge id="gneE13">
            <lane id="gneE13_0">
                <vehicle id="244" pos="122.81" speed="9.15"/>
                <vehicle id="179" pos="157.03" speed="8.70"/>
                <vehicle id="44" pos="178.93" speed="8.82"/>
                <vehicle id="124" pos="287.15" speed="9.30"/>
            </lane>
        </edge>
        <edge id="gneE14">
            <lane id="gneE14_0">
                <vehicle id="197" pos="127.54" speed="10.37"/>
            </lane>
        </edge>
        <edge id="gneE15">
            <lane id="gneE15_0">
                <vehicle id="258" pos="50.21" speed="8.29"/>
            </lane>
        </edge>
        <edge id="gneE17">
            <lane id="gneE17_0">
                <vehicle id="164" pos="68.61" speed="8.76"/>
                <vehicle id="217" pos="112.18" speed="9.81"/>
            </lane>
        </edge>
        <edge id="gneE18">
            <lane id="gneE18_0">
                <vehicle id="196" pos="204.60" speed="9.42"/>
                <vehicle id="239" pos="234.13" speed="9.86"/>
                <vehicle id="236" pos="262.67" speed="9.66"/>
            </lane>
        </edge>
        <edge id="gneE19">
            <lane id="gneE19_0">
                <vehicle id="159" pos="47.71" speed="12.21"/>
                <vehicle id="139" pos="114.41" speed="11.94"/>
                <vehicle id="135" pos="201.28" speed="12.37"/>
                <vehicle id="81" pos="245.33" speed="0.01"/>
                <vehicle id="104" pos="252.83" speed="0.00"/>
                <vehicle id="186" pos="260.34" speed="0.00"/>
                <vehicle id="91" pos="267.84" speed="0.00"/>
                <vehicle id="141" pos="275.34" speed="0.00"/>
                <vehicle id="121" pos="282.84" speed="0.00"/>
            </lane>
        </edge>
        <edge id="gneE20">
            <lane id="gneE20_0">
                <vehicle id="174" pos="15.14" speed="7.99"/>
                <vehicle id="158" pos="33.96" speed="7.95"/>
                <vehicle id="230" pos="81.35" speed="8.90"/>
                <vehicle id="212" pos="148.61" speed="7.71"/>
                <vehicle id="242" pos="184.42" speed="8.76"/>
                <vehicle id="151" pos="262.54" speed="8.26"/>
            </lane>
        </edge>
        <edge id="gneE23">
            <lane id="gneE23_0">
                <vehicle id="160" pos="7.53" speed="7.32"/>
                <vehicle id="154" pos="98.28" speed="6.79"/>
                <vehicle id="105" pos="145.55" speed="7.27"/>
                <vehicle id="113" pos="163.71" speed="6.93"/>
            </lane>
        </edge>
        <edge id="gneE24">
            <lane id="gneE24_0">
                <vehicle id="199" pos="4.57" speed="7.90"/>
                <vehicle id="185" pos="53.26" speed="11.72"/>
                <vehicle id="117" pos="85.73" speed="11.89"/>
            </lane>
        </edge>
        <edge id="gneE25">
            <lane id="gneE25_0">
                <vehicle id="153" pos="129.32" speed="9.50"/>
            </lane>
        </edge>
        <edge id="gneE26">
            <lane id="gneE26_0">
                <vehicle id="167" pos="17.08" speed="6.99"/>
                <vehicle id="173" pos="56.27" speed="6.21"/>
                <vehicle id="83" pos="115.71" speed="5.83"/>
                <vehicle id="126" pos="159.51" speed="6.99"/>
                <vehicle id="181" pos="177.34" speed="6.51"/>
                <vehicle id="205" pos="241.08" speed="6.82"/>
                <vehicle id="224" pos="254.82" speed="3.80"/>
                <vehicle id="200" pos="268.15" speed="4.94"/>
                <vehicle id="204" pos="284.55" speed="6.74"/>
            </lane>
        </edge>
        <edge id="gneE27">
            <lane id="gneE27_0">
                <vehicle id="109" pos="30.36" speed="4.81"/>
                <vehicle id="131" pos="45.70" speed="5.31"/>
                <vehicle id="61" pos="109.62" speed="5.71"/>
                <vehicle id="214" pos="123.95" speed="4.91"/>
            </lane>
        </edge>
        <edge id="gneE28">
            <lane id="gneE28_0">
                <vehicle id="190" pos="11.22" speed="8.72"/>
                <vehicle id="248" pos="131.25" speed="7.73"/>
            </lane>
        </edge>
        <edge id="gneE30">
            <lane id="gneE30_0">
                <vehicle id="264" pos="7.66" speed="2.56"/>
                <vehicle id="182" pos="233.21" speed="8.04"/>
            </lane>
        </edge>
        <edge id="gneE31">
            <lane id="gneE31_0">
                <vehicle id="193" pos="37.19" speed="8.73"/>
                <vehicle id="127" pos="63.72" speed="8.16"/>
                <vehicle id="234" pos="229.01" speed="8.88"/>
                <vehicle id="84" pos="256.59" speed="8.29"/>
            </lane>
        </edge>
        <edge id="gneE32">
            <lane id="gneE32_0">
                <vehicle id="225" pos="83.53" speed="7.41"/>
                <vehicle id="184" pos="121.37" speed="7.12"/>
                <vehicle id="241" pos="172.90" speed="6.74"/>
                <vehicle id="119" pos="211.32" speed="7.27"/>
            </lane>
        </edge>
        <edge id="gneE38">
            <lane id="gneE38_0">
                <vehicle id="B1_1" pos="118.15" speed="8.83"/>
                <vehicle id="227" pos="308.04" speed="7.50"/>
                <vehicle id="34" pos="320.47" speed="0.04"/>
                <vehicle id="175" pos="327.98" speed="0.00"/>
                <vehicle id="187" pos="335.48" speed="0.00"/>
                <vehicle id="161" pos="342.98" speed="0.00"/>
            </lane>
        </edge>
        <edge id="gneE4">
            <lane id="gneE4_0">
                <vehicle id="41" pos="97.26" speed="9.11"/>
                <vehicle id="128" pos="118.55" speed="8.85"/>
                <vehicle id="194" pos="143.40" speed="9.07"/>
            </lane>
        </edge>
        <edge id="gneE41">
            <lane id="gneE41_0">
                <vehicle id="263" pos="9.65" speed="3.12"/>
                <vehicle id="252" pos="92.95" speed="7.94"/>
                <vehicle id="B3_1" pos="118.34" speed="8.67"/>
            </lane>
        </edge>
        <edge id="gneE42">
            <lane id="gneE42_0">
                <vehicle id="191" pos="139.79" speed="7.13"/>
            </lane>
        </edge>
        <edge id="gneE43">
            <lane id="gneE43_0">
                <vehicle id="255" pos="52.75" speed="5.71"/>
                <vehicle id="202" pos="77.86" speed="7.00"/>
                <vehicle id="172" pos="102.79" speed="6.89"/>
                <vehicle id="246" pos="119.80" speed="6.13"/>
                <vehicle id="215" pos="145.14" speed="6.45"/>
                <vehicle id="163" pos="197.59" speed="6.35"/>
                <vehicle id="216" pos="256.46" speed="1.32"/>
                <vehicle id="140" pos="266.80" speed="1.69"/>
                <vehicle id="15" pos="276.03" speed="0.83"/>
                <vehicle id="195" pos="284.02" speed="0.20"/>
                <vehicle id="138" pos="291.71" speed="0.01"/>
                <vehicle id="116" pos="299.23" speed="0.00"/>
                <vehicle id="170" pos="306.73" speed="0.00"/>
            </lane>
        </edge>
        <edge id="gneE45">
            <lane id="gneE45_0">
                <vehicle id="136" pos="10.32" speed="7.77"/>
                <vehicle id="249" pos="124.66" speed="8.38"/>
                <vehicle id="243" pos="173.94" speed="7.76"/>
                <vehicle id="238" pos="209.99" speed="8.90"/>
            </lane>
        </edge>
        <edge id="gneE46">
            <lane id="gneE46_0">
                <vehicle id="67" pos="129.60" speed="9.16"/>
                <vehicle id="142" pos="166.09" speed="9.32"/>
            </lane>
        </edge>
        <edge id="gneE47">
            <lane id="gneE47_0">
                <vehicle id="245" pos="147.68" speed="8.08"/>
                <vehicle id="165" pos="172.76" speed="8.81"/>
            </lane>
        </edge>
        <edge id="gneE48">
            <lane id="gneE48_0">
                <vehicle id="237" pos="19.04" speed="6.91"/>
                <vehicle id="229" pos="86.91" speed="6.83"/>
                <vehicle id="247" pos="111.91" speed="6.38"/>
                <vehicle id="213" pos="184.37" speed="6.75"/>
            </lane>
        </edge>
        <edge id="gneE49">
            <lane id="gneE49_0">
                <vehicle id="166" pos="194.52" speed="7.33"/>
                <vehicle id="55" pos="242.23" speed="7.33"/>
                <vehicle id="76" pos="292.64" speed="7.77"/>
            </lane>
        </edge>
        <edge id="gneE5">
            <lane id="gneE5_0">
                <vehicle id="250" pos="78.54" speed="5.75"/>
            </lane>
        </edge>
        <edge id="gneE50">
            <lane id="gneE50_0">
                <vehicle id="211" pos="4.53" speed="5.76"/>
                <vehicle id="253" pos="67.28" speed="5.62"/>
                <vehicle id="231" pos="176.48" speed="5.11"/>
                <vehicle id="111" pos="194.05" speed="4.99"/>
                <vehicle id="219" pos="247.74" speed="5.35"/>
            </lane>
        </edge>
        <edge id="gneE51">
            <lane id="gneE51_0">
                <vehicle id="189" pos="152.46" speed="6.03"/>
                <vehicle id="171" pos="170.50" speed="6.91"/>
                <vehicle id="232" pos="206.00" speed="6.16"/>
                <vehicle id="206" pos="245.11" speed="6.19"/>
            </lane>
        </edge>
        <edge id="gneE52">
            <lane id="gneE52_0">
                <vehicle id="235" pos="175.35" speed="6.91"/>
                <vehicle id="148" pos="198.81" speed="6.87"/>
                <vehicle id="100" pos="270.98" speed="5.79"/>
                <vehicle id="79" pos="290.99" speed="6.06"/>
                <vehicle id="125" pos="322.82" speed="5.95"/>
            </lane>
        </edge>
        <edge id="gneE53">
            <lane id="gneE53_0">
                <vehicle id="B4_1" pos="84.16" speed="5.75"/>
                <vehicle id="223" pos="131.56" speed="5.92"/>
                <vehicle id="222" pos="265.13" speed="5.95"/>
            </lane>
        </edge>
        <edge id="gneE54">
            <lane id="gneE54_0">
                <vehicle id="208" pos="11.22" speed="6.27"/>
            </lane>
        </edge>
        <edge id="gneE55">
            <lane id="gneE55_0">
                <vehicle id="155" pos="21.13" speed="6.87"/>
            </lane>
        </edge>
        <edge id="gneE58">
            <lane id="gneE58_0">
                <vehicle id="262" pos="15.66" speed="5.26"/>
            </lane>
        </edge>
        <edge id="gneE59">
            <lane id="gneE59_0">
                <vehicle id="207" pos="88.29" speed="7.92"/>
            </lane>
        </edge>
        <edge id="gneE6">
            <lane id="gneE6_0">
                <vehicle id="221" pos="1.24" speed="4.13"/>
                <vehicle id="261" pos="16.52" speed="5.90"/>
                <vehicle id="257" pos="39.86" speed="7.37"/>
                <vehicle id="256" pos="62.16" speed="6.90"/>
            </lane>
        </edge>
        <edge id="gneE60">
            <lane id="gneE60_0">
                <vehicle id="73" pos="35.00" speed="6.31"/>
                <vehicle id="102" pos="80.75" speed="6.54"/>
                <vehicle id="203" pos="112.92" speed="6.52"/>
                <vehicle id="37" pos="181.94" speed="5.82"/>
                <vehicle id="177" pos="269.19" speed="6.72"/>
                <vehicle id="220" pos="285.00" speed="6.69"/>
                <vehicle id="118" pos="337.48" speed="0.15"/>
            </lane>
        </edge>
        <edge id="gneE61">
            <lane id="gneE61_0">
                <vehicle id="107" pos="36.37" speed="6.86"/>
                <vehicle id="254" pos="77.64" speed="7.95"/>
                <vehicle id="134" pos="120.42" speed="7.21"/>
                <vehicle id="89" pos="163.07" speed="7.06"/>
                <vehicle id="71" pos="233.95" speed="7.32"/>
                <vehicle id="226" pos="284.36" speed="6.85"/>
            </lane>
        </edge>
        <edge id="gneE7">
            <lane id="gneE7_0">
                <vehicle id="64" pos="6.10" speed="7.60"/>
                <vehicle id="260" pos="32.33" speed="7.82"/>
                <vehicle id="228" pos="73.31" speed="8.51"/>
                <vehicle id="209" pos="231.27" speed="8.60"/>
                <vehicle id="114" pos="282.53" speed="8.55"/>
            </lane>
        </edge>
        <edge id="gneE8">
            <lane id="gneE8_0">
                <vehicle id="122" pos="6.60" speed="6.40"/>
                <vehicle id="251" pos="100.43" speed="7.44"/>
                <vehicle id="130" pos="170.79" speed="7.80"/>
                <vehicle id="233" pos="234.02" speed="6.99"/>
            </lane>
        </edge>
    </timestep>
