<?xml version="1.0"?>
<timestep time="268.00">
        <edge id=":gneJ11_43">
            <lane id=":gneJ11_43_0">
                <vehicle id="169" pos="12.99" speed="7.68"/>
            </lane>
        </edge>
        <edge id=":gneJ15_18">
            <lane id=":gneJ15_18_0">
                <vehicle id="248" pos="4.32" speed="0.88"/>
            </lane>
        </edge>
        <edge id=":gneJ28_1">
            <lane id=":gneJ28_1_0">
                <vehicle id="165" pos="1.75" speed="7.64"/>
            </lane>
        </edge>
        <edge id=":gneJ30_4">
            <lane id=":gneJ30_4_0">
                <vehicle id="142" pos="0.29" speed="9.41"/>
            </lane>
        </edge>
        <edge id=":gneJ6_4">
            <lane id=":gneJ6_4_0">
                <vehicle id="114" pos="2.86" speed="6.93"/>
            </lane>
        </edge>
        <edge id=":gneJ8_10">
            <lane id=":gneJ8_10_0">
                <vehicle id="B2_1" pos="0.09" speed="8.67"/>
            </lane>
        </edge>
        <edge id=":gneJ9_4">
            <lane id=":gneJ9_4_0">
                <vehicle id="236" pos="4.91" speed="9.23"/>
            </lane>
        </edge>
        <edge id="gneE1">
            <lane id="gneE1_0">
                <vehicle id="240" pos="125.28" speed="3.73"/>
            </lane>
        </edge>
        <edge id="gneE10">
            <lane id="gneE10_0">
                <vehicle id="259" pos="26.47" speed="4.82"/>
                <vehicle id="192" pos="41.42" speed="4.88"/>
                <vehicle id="210" pos="124.05" speed="5.00"/>
                <vehicle id="88" pos="138.78" speed="4.95"/>
            </lane>
        </edge>
        <edge id="gneE11">
            <lane id="gneE11_0">
                <vehicle id="99" pos="15.52" speed="9.00"/>
                <vehicle id="68" pos="96.67" speed="8.72"/>
            </lane>
        </edge>
        <edge id="gneE12">
            <lane id="gneE12_0">
                <vehicle id="123" pos="28.10" speed="11.06"/>
                <vehicle id="180" pos="82.71" speed="13.45"/>
                <vehicle id="176" pos="234.44" speed="12.70"/>
            </lane>
        </edge>
        <edge id="gneE13">
            <lane id="gneE13_0">
                <vehicle id="244" pos="151.86" speed="9.21"/>
                <vehicle id="179" pos="184.00" speed="9.10"/>
                <vehicle id="44" pos="206.62" speed="9.04"/>
                <vehicle id="124" pos="301.00" speed="0.27"/>
            </lane>
        </edge>
        <edge id="gneE14">
            <lane id="gneE14_0">
                <vehicle id="197" pos="155.95" speed="7.89"/>
            </lane>
        </edge>
        <edge id="gneE15">
            <lane id="gneE15_0">
                <vehicle id="258" pos="75.09" speed="8.04"/>
            </lane>
        </edge>
        <edge id="gneE17">
            <lane id="gneE17_0">
                <vehicle id="164" pos="97.42" speed="9.67"/>
                <vehicle id="217" pos="140.31" speed="9.35"/>
            </lane>
        </edge>
        <edge id="gneE18">
            <lane id="gneE18_0">
                <vehicle id="196" pos="233.17" speed="9.88"/>
                <vehicle id="239" pos="261.34" speed="8.79"/>
            </lane>
        </edge>
        <edge id="gneE19">
            <lane id="gneE19_0">
                <vehicle id="156" pos="30.02" speed="12.09"/>
                <vehicle id="159" pos="85.35" speed="12.60"/>
                <vehicle id="139" pos="151.11" speed="12.05"/>
                <vehicle id="135" pos="233.84" speed="8.11"/>
                <vehicle id="81" pos="245.33" speed="0.00"/>
                <vehicle id="104" pos="252.83" speed="0.00"/>
                <vehicle id="186" pos="260.34" speed="0.00"/>
                <vehicle id="91" pos="267.84" speed="0.00"/>
                <vehicle id="141" pos="275.34" speed="0.00"/>
                <vehicle id="121" pos="282.84" speed="0.00"/>
            </lane>
        </edge>
        <edge id="gneE2">
            <lane id="gneE2_0">
                <vehicle id="194" pos="6.50" speed="10.28"/>
            </lane>
        </edge>
        <edge id="gneE20">
            <lane id="gneE20_0">
                <vehicle id="174" pos="39.55" speed="8.32"/>
                <vehicle id="158" pos="59.49" speed="8.54"/>
                <vehicle id="230" pos="106.80" speed="8.91"/>
                <vehicle id="212" pos="173.84" speed="8.17"/>
                <vehicle id="242" pos="210.53" speed="8.91"/>
            </lane>
        </edge>
        <edge id="gneE23">
            <lane id="gneE23_0">
                <vehicle id="160" pos="29.47" speed="7.49"/>
                <vehicle id="154" pos="119.81" speed="6.86"/>
                <vehicle id="105" pos="167.72" speed="7.84"/>
                <vehicle id="113" pos="184.87" speed="7.37"/>
            </lane>
        </edge>
        <edge id="gneE24">
            <lane id="gneE24_0">
                <vehicle id="199" pos="39.78" speed="12.58"/>
                <vehicle id="185" pos="90.46" speed="12.72"/>
                <vehicle id="117" pos="122.58" speed="12.14"/>
            </lane>
        </edge>
        <edge id="gneE25">
            <lane id="gneE25_0">
                <vehicle id="153" pos="158.84" speed="9.62"/>
            </lane>
        </edge>
        <edge id="gneE26">
            <lane id="gneE26_0">
                <vehicle id="198" pos="18.97" speed="6.05"/>
                <vehicle id="167" pos="36.17" speed="6.38"/>
                <vehicle id="173" pos="74.70" speed="6.20"/>
                <vehicle id="83" pos="135.78" speed="6.63"/>
                <vehicle id="126" pos="178.50" speed="6.36"/>
                <vehicle id="181" pos="195.51" speed="6.10"/>
                <vehicle id="205" pos="256.92" speed="6.01"/>
                <vehicle id="224" pos="270.77" speed="4.34"/>
                <vehicle id="200" pos="282.71" speed="2.88"/>
                <vehicle id="204" pos="290.71" speed="0.23"/>
            </lane>
        </edge>
        <edge id="gneE27">
            <lane id="gneE27_0">
                <vehicle id="109" pos="46.43" speed="5.97"/>
                <vehicle id="131" pos="60.67" speed="4.83"/>
                <vehicle id="61" pos="125.35" speed="5.50"/>
                <vehicle id="214" pos="140.63" speed="4.97"/>
            </lane>
        </edge>
        <edge id="gneE28">
            <lane id="gneE28_0">
                <vehicle id="190" pos="36.25" speed="8.43"/>
            </lane>
        </edge>
        <edge id="gneE30">
            <lane id="gneE30_0">
                <vehicle id="264" pos="26.33" speed="8.24"/>
                <vehicle id="182" pos="257.71" speed="7.82"/>
            </lane>
        </edge>
        <edge id="gneE31">
            <lane id="gneE31_0">
                <vehicle id="193" pos="62.06" speed="8.33"/>
                <vehicle id="127" pos="88.36" speed="8.28"/>
                <vehicle id="234" pos="253.82" speed="8.97"/>
                <vehicle id="84" pos="280.92" speed="8.37"/>
            </lane>
        </edge>
        <edge id="gneE32">
            <lane id="gneE32_0">
                <vehicle id="268" pos="5.10" speed="0.00"/>
                <vehicle id="225" pos="105.75" speed="7.07"/>
                <vehicle id="184" pos="144.10" speed="7.14"/>
                <vehicle id="241" pos="195.00" speed="7.45"/>
                <vehicle id="119" pos="232.06" speed="6.88"/>
            </lane>
        </edge>
        <edge id="gneE38">
            <lane id="gneE38_0">
                <vehicle id="191" pos="8.05" speed="8.72"/>
                <vehicle id="B1_1" pos="143.16" speed="8.66"/>
                <vehicle id="227" pos="312.91" speed="0.12"/>
                <vehicle id="34" pos="320.48" speed="0.00"/>
                <vehicle id="175" pos="327.98" speed="0.00"/>
                <vehicle id="187" pos="335.48" speed="0.00"/>
                <vehicle id="161" pos="342.98" speed="0.00"/>
            </lane>
        </edge>
        <edge id="gneE4">
            <lane id="gneE4_0">
                <vehicle id="41" pos="125.73" speed="9.80"/>
                <vehicle id="128" pos="146.33" speed="9.58"/>
            </lane>
        </edge>
        <edge id="gneE41">
            <lane id="gneE41_0">
                <vehicle id="263" pos="30.28" speed="8.78"/>
                <vehicle id="252" pos="118.79" speed="8.92"/>
                <vehicle id="B3_1" pos="142.19" speed="7.94"/>
            </lane>
        </edge>
        <edge id="gneE42">
            <lane id="gneE42_0">
                <vehicle id="266" pos="11.47" speed="3.98"/>
            </lane>
        </edge>
        <edge id="gneE43">
            <lane id="gneE43_0">
                <vehicle id="255" pos="72.65" speed="6.60"/>
                <vehicle id="202" pos="96.13" speed="6.16"/>
                <vehicle id="172" pos="123.20" speed="6.80"/>
                <vehicle id="246" pos="138.71" speed="6.92"/>
                <vehicle id="215" pos="163.86" speed="5.74"/>
                <vehicle id="163" pos="216.90" speed="6.65"/>
                <vehicle id="216" pos="260.75" speed="0.70"/>
                <vehicle id="140" pos="269.01" speed="0.13"/>
                <vehicle id="15" pos="276.70" speed="0.09"/>
                <vehicle id="195" pos="284.22" speed="0.01"/>
                <vehicle id="138" pos="291.73" speed="0.00"/>
                <vehicle id="116" pos="299.23" speed="0.00"/>
                <vehicle id="170" pos="306.73" speed="0.00"/>
            </lane>
        </edge>
        <edge id="gneE45">
            <lane id="gneE45_0">
                <vehicle id="136" pos="34.31" speed="7.77"/>
                <vehicle id="249" pos="149.19" speed="8.06"/>
                <vehicle id="243" pos="199.26" speed="8.56"/>
                <vehicle id="238" pos="235.48" speed="8.57"/>
            </lane>
        </edge>
        <edge id="gneE46">
            <lane id="gneE46_0">
                <vehicle id="144" pos="27.50" speed="9.09"/>
                <vehicle id="67" pos="158.33" speed="9.81"/>
            </lane>
        </edge>
        <edge id="gneE47">
            <lane id="gneE47_0">
                <vehicle id="245" pos="171.77" speed="7.77"/>
            </lane>
        </edge>
        <edge id="gneE48">
            <lane id="gneE48_0">
                <vehicle id="237" pos="38.02" speed="6.30"/>
                <vehicle id="229" pos="106.57" speed="6.91"/>
                <vehicle id="247" pos="129.46" speed="5.79"/>
                <vehicle id="213" pos="202.81" speed="5.92"/>
            </lane>
        </edge>
        <edge id="gneE49">
            <lane id="gneE49_0">
                <vehicle id="166" pos="216.98" speed="7.05"/>
                <vehicle id="55" pos="263.93" speed="7.44"/>
                <vehicle id="76" pos="313.09" speed="6.74"/>
            </lane>
        </edge>
        <edge id="gneE5">
            <lane id="gneE5_0">
                <vehicle id="250" pos="95.42" speed="5.41"/>
            </lane>
        </edge>
        <edge id="gneE50">
            <lane id="gneE50_0">
                <vehicle id="265" pos="7.55" speed="2.45"/>
                <vehicle id="211" pos="20.51" speed="5.18"/>
                <vehicle id="253" pos="83.93" speed="4.96"/>
                <vehicle id="231" pos="191.72" speed="5.37"/>
                <vehicle id="111" pos="210.65" speed="5.52"/>
                <vehicle id="219" pos="263.94" speed="5.34"/>
            </lane>
        </edge>
        <edge id="gneE51">
            <lane id="gneE51_0">
                <vehicle id="189" pos="171.78" speed="5.81"/>
                <vehicle id="171" pos="189.20" speed="6.61"/>
                <vehicle id="232" pos="225.81" speed="6.99"/>
                <vehicle id="206" pos="263.00" speed="6.15"/>
            </lane>
        </edge>
        <edge id="gneE52">
            <lane id="gneE52_0">
                <vehicle id="235" pos="193.72" speed="6.16"/>
                <vehicle id="148" pos="218.19" speed="6.16"/>
                <vehicle id="100" pos="290.09" speed="5.75"/>
                <vehicle id="79" pos="309.71" speed="6.91"/>
                <vehicle id="125" pos="341.72" speed="5.76"/>
            </lane>
        </edge>
        <edge id="gneE53">
            <lane id="gneE53_0">
                <vehicle id="B4_1" pos="103.44" speed="6.24"/>
                <vehicle id="223" pos="150.08" speed="5.74"/>
                <vehicle id="222" pos="284.75" speed="6.39"/>
            </lane>
        </edge>
        <edge id="gneE54">
            <lane id="gneE54_0">
                <vehicle id="208" pos="30.33" speed="6.58"/>
            </lane>
        </edge>
        <edge id="gneE55">
            <lane id="gneE55_0">
                <vehicle id="155" pos="43.30" speed="7.80"/>
            </lane>
        </edge>
        <edge id="gneE58">
            <lane id="gneE58_0">
                <vehicle id="262" pos="36.98" speed="6.74"/>
            </lane>
        </edge>
        <edge id="gneE59">
            <lane id="gneE59_0">
                <vehicle id="207" pos="112.83" speed="8.45"/>
            </lane>
        </edge>
        <edge id="gneE6">
            <lane id="gneE6_0">
                <vehicle id="221" pos="21.65" speed="6.79"/>
                <vehicle id="261" pos="38.54" speed="7.56"/>
                <vehicle id="257" pos="63.14" speed="7.79"/>
                <vehicle id="256" pos="83.97" speed="8.00"/>
            </lane>
        </edge>
        <edge id="gneE60">
            <lane id="gneE60_0">
                <vehicle id="73" pos="53.77" speed="5.70"/>
                <vehicle id="102" pos="99.93" speed="6.53"/>
                <vehicle id="203" pos="132.23" speed="6.05"/>
                <vehicle id="37" pos="201.80" speed="6.42"/>
                <vehicle id="177" pos="286.75" speed="5.98"/>
                <vehicle id="220" pos="302.99" speed="6.32"/>
                <vehicle id="118" pos="337.56" speed="0.00"/>
            </lane>
        </edge>
        <edge id="gneE61">
            <lane id="gneE61_0">
                <vehicle id="107" pos="59.03" speed="6.80"/>
                <vehicle id="254" pos="100.39" speed="7.95"/>
                <vehicle id="134" pos="142.43" speed="7.85"/>
                <vehicle id="89" pos="185.03" speed="7.18"/>
                <vehicle id="71" pos="256.78" speed="7.42"/>
                <vehicle id="226" pos="306.96" speed="7.85"/>
            </lane>
        </edge>
        <edge id="gneE7">
            <lane id="gneE7_0">
                <vehicle id="64" pos="31.00" speed="7.79"/>
                <vehicle id="260" pos="58.81" speed="8.73"/>
                <vehicle id="228" pos="98.06" speed="7.71"/>
                <vehicle id="209" pos="255.51" speed="8.51"/>
            </lane>
        </edge>
        <edge id="gneE8">
            <lane id="gneE8_0">
                <vehicle id="122" pos="29.70" speed="7.62"/>
                <vehicle id="251" pos="122.00" speed="7.00"/>
                <vehicle id="130" pos="192.43" speed="7.36"/>
                <vehicle id="233" pos="254.92" speed="6.77"/>
            </lane>
        </edge>
    </timestep>
