<?xml version="1.0"?>
<timestep time="272.00">
        <edge id=":gneJ11_34">
            <lane id=":gneJ11_34_0">
                <vehicle id="118" pos="21.33" speed="7.83"/>
            </lane>
        </edge>
        <edge id=":gneJ15_21">
            <lane id=":gneJ15_21_0">
                <vehicle id="248" pos="1.90" speed="2.00"/>
            </lane>
        </edge>
        <edge id=":gneJ28_1">
            <lane id=":gneJ28_1_0">
                <vehicle id="165" pos="4.99" speed="0.01"/>
            </lane>
        </edge>
        <edge id=":gneJ28_9">
            <lane id=":gneJ28_9_0">
                <vehicle id="252" pos="6.74" speed="8.73"/>
            </lane>
        </edge>
        <edge id="gneE1">
            <lane id="gneE1_0">
                <vehicle id="240" pos="141.29" speed="3.72"/>
            </lane>
        </edge>
        <edge id="gneE10">
            <lane id="gneE10_0">
                <vehicle id="259" pos="47.86" speed="5.12"/>
                <vehicle id="192" pos="61.82" speed="5.14"/>
            </lane>
        </edge>
        <edge id="gneE11">
            <lane id="gneE11_0">
                <vehicle id="267" pos="10.78" speed="3.73"/>
                <vehicle id="114" pos="30.61" speed="8.52"/>
                <vehicle id="99" pos="49.31" speed="8.49"/>
                <vehicle id="68" pos="130.98" speed="8.68"/>
            </lane>
        </edge>
        <edge id="gneE12">
            <lane id="gneE12_0">
                <vehicle id="123" pos="79.88" speed="13.18"/>
                <vehicle id="180" pos="136.56" speed="13.81"/>
                <vehicle id="176" pos="287.09" speed="13.48"/>
            </lane>
        </edge>
        <edge id="gneE13">
            <lane id="gneE13_0">
                <vehicle id="244" pos="189.15" speed="9.30"/>
                <vehicle id="179" pos="222.06" speed="9.26"/>
                <vehicle id="44" pos="244.61" speed="9.71"/>
            </lane>
        </edge>
        <edge id="gneE14">
            <lane id="gneE14_0">
                <vehicle id="124" pos="0.59" speed="3.57"/>
                <vehicle id="B2_1" pos="32.51" speed="10.22"/>
            </lane>
        </edge>
        <edge id="gneE15">
            <lane id="gneE15_0">
                <vehicle id="258" pos="108.54" speed="8.71"/>
            </lane>
        </edge>
        <edge id="gneE17">
            <lane id="gneE17_0">
                <vehicle id="197" pos="16.27" speed="8.82"/>
                <vehicle id="164" pos="134.40" speed="9.31"/>
                <vehicle id="217" pos="177.25" speed="9.31"/>
            </lane>
        </edge>
        <edge id="gneE18">
            <lane id="gneE18_0">
                <vehicle id="196" pos="270.97" speed="9.99"/>
            </lane>
        </edge>
        <edge id="gneE19">
            <lane id="gneE19_0">
                <vehicle id="239" pos="5.31" speed="11.76"/>
                <vehicle id="236" pos="44.03" speed="12.99"/>
                <vehicle id="156" pos="78.14" speed="11.77"/>
                <vehicle id="159" pos="133.58" speed="12.22"/>
                <vehicle id="139" pos="200.57" speed="12.61"/>
                <vehicle id="135" pos="237.83" speed="0.01"/>
                <vehicle id="81" pos="245.33" speed="0.00"/>
                <vehicle id="104" pos="252.83" speed="0.00"/>
                <vehicle id="186" pos="260.34" speed="0.00"/>
                <vehicle id="91" pos="267.84" speed="0.00"/>
                <vehicle id="141" pos="275.34" speed="0.00"/>
                <vehicle id="121" pos="282.84" speed="0.00"/>
            </lane>
        </edge>
        <edge id="gneE2">
            <lane id="gneE2_0">
                <vehicle id="194" pos="48.34" speed="10.64"/>
            </lane>
        </edge>
        <edge id="gneE20">
            <lane id="gneE20_0">
                <vehicle id="174" pos="73.41" speed="7.88"/>
                <vehicle id="158" pos="93.43" speed="8.92"/>
                <vehicle id="230" pos="139.27" speed="8.23"/>
                <vehicle id="212" pos="206.65" speed="7.83"/>
                <vehicle id="242" pos="244.14" speed="8.77"/>
            </lane>
        </edge>
        <edge id="gneE23">
            <lane id="gneE23_0">
                <vehicle id="160" pos="59.35" speed="7.50"/>
                <vehicle id="154" pos="148.14" speed="6.74"/>
            </lane>
        </edge>
        <edge id="gneE24">
            <lane id="gneE24_0">
                <vehicle id="199" pos="89.38" speed="12.25"/>
                <vehicle id="185" pos="138.85" speed="11.86"/>
                <vehicle id="117" pos="170.74" speed="11.91"/>
            </lane>
        </edge>
        <edge id="gneE25">
            <lane id="gneE25_0">
                <vehicle id="269" pos="16.79" speed="5.92"/>
                <vehicle id="153" pos="196.46" speed="9.58"/>
            </lane>
        </edge>
        <edge id="gneE26">
            <lane id="gneE26_0">
                <vehicle id="198" pos="43.34" speed="6.72"/>
                <vehicle id="167" pos="60.64" speed="5.75"/>
                <vehicle id="173" pos="99.41" speed="6.19"/>
                <vehicle id="83" pos="162.77" speed="6.83"/>
                <vehicle id="126" pos="203.12" speed="5.90"/>
                <vehicle id="181" pos="221.35" speed="6.48"/>
                <vehicle id="205" pos="268.00" speed="0.32"/>
                <vehicle id="224" pos="275.77" speed="0.12"/>
                <vehicle id="200" pos="283.33" speed="0.03"/>
                <vehicle id="204" pos="290.83" speed="0.00"/>
            </lane>
        </edge>
        <edge id="gneE27">
            <lane id="gneE27_0">
                <vehicle id="109" pos="68.30" speed="5.40"/>
                <vehicle id="131" pos="82.36" speed="4.97"/>
            </lane>
        </edge>
        <edge id="gneE28">
            <lane id="gneE28_0">
                <vehicle id="84" pos="18.00" speed="7.95"/>
                <vehicle id="190" pos="68.72" speed="7.77"/>
            </lane>
        </edge>
        <edge id="gneE30">
            <lane id="gneE30_0">
                <vehicle id="214" pos="20.10" speed="8.24"/>
                <vehicle id="264" pos="60.26" speed="8.73"/>
                <vehicle id="182" pos="289.85" speed="7.85"/>
            </lane>
        </edge>
        <edge id="gneE31">
            <lane id="gneE31_0">
                <vehicle id="210" pos="4.30" speed="7.92"/>
                <vehicle id="193" pos="94.95" speed="8.47"/>
                <vehicle id="127" pos="121.31" speed="7.95"/>
                <vehicle id="234" pos="287.33" speed="8.66"/>
            </lane>
        </edge>
        <edge id="gneE32">
            <lane id="gneE32_0">
                <vehicle id="268" pos="24.30" speed="6.72"/>
                <vehicle id="225" pos="134.64" speed="7.42"/>
                <vehicle id="184" pos="173.98" speed="7.93"/>
                <vehicle id="241" pos="225.67" speed="7.82"/>
                <vehicle id="119" pos="262.63" speed="7.40"/>
            </lane>
        </edge>
        <edge id="gneE38">
            <lane id="gneE38_0">
                <vehicle id="191" pos="40.73" speed="7.77"/>
                <vehicle id="B1_1" pos="175.25" speed="7.78"/>
                <vehicle id="227" pos="312.97" speed="0.00"/>
                <vehicle id="34" pos="320.48" speed="0.00"/>
                <vehicle id="175" pos="327.98" speed="0.00"/>
                <vehicle id="187" pos="335.48" speed="0.00"/>
                <vehicle id="161" pos="342.98" speed="0.00"/>
            </lane>
        </edge>
        <edge id="gneE41">
            <lane id="gneE41_0">
                <vehicle id="263" pos="63.42" speed="8.51"/>
            </lane>
        </edge>
        <edge id="gneE42">
            <lane id="gneE42_0">
                <vehicle id="266" pos="40.14" speed="7.58"/>
            </lane>
        </edge>
        <edge id="gneE43">
            <lane id="gneE43_0">
                <vehicle id="255" pos="98.43" speed="6.95"/>
                <vehicle id="202" pos="122.80" speed="6.50"/>
                <vehicle id="172" pos="149.08" speed="6.38"/>
                <vehicle id="246" pos="164.91" speed="6.53"/>
                <vehicle id="215" pos="189.48" speed="6.03"/>
                <vehicle id="163" pos="242.06" speed="5.77"/>
                <vehicle id="216" pos="261.71" speed="0.05"/>
                <vehicle id="140" pos="269.22" speed="0.00"/>
                <vehicle id="15" pos="276.72" speed="0.00"/>
                <vehicle id="195" pos="284.23" speed="0.00"/>
                <vehicle id="138" pos="291.73" speed="0.00"/>
                <vehicle id="116" pos="299.23" speed="0.00"/>
                <vehicle id="170" pos="306.73" speed="0.00"/>
            </lane>
        </edge>
        <edge id="gneE45">
            <lane id="gneE45_0">
                <vehicle id="113" pos="16.33" speed="7.93"/>
                <vehicle id="136" pos="67.55" speed="8.56"/>
                <vehicle id="249" pos="182.30" speed="7.96"/>
                <vehicle id="243" pos="233.78" speed="8.99"/>
                <vehicle id="238" pos="268.23" speed="7.71"/>
            </lane>
        </edge>
        <edge id="gneE46">
            <lane id="gneE46_0">
                <vehicle id="144" pos="64.69" speed="8.87"/>
            </lane>
        </edge>
        <edge id="gneE47">
            <lane id="gneE47_0">
                <vehicle id="270" pos="9.18" speed="2.74"/>
                <vehicle id="245" pos="191.13" speed="0.68"/>
            </lane>
        </edge>
        <edge id="gneE48">
            <lane id="gneE48_0">
                <vehicle id="142" pos="20.43" speed="5.81"/>
                <vehicle id="237" pos="64.98" speed="6.66"/>
                <vehicle id="229" pos="132.34" speed="6.70"/>
                <vehicle id="247" pos="154.06" speed="6.93"/>
                <vehicle id="213" pos="228.92" speed="6.24"/>
            </lane>
        </edge>
        <edge id="gneE49">
            <lane id="gneE49_0">
                <vehicle id="169" pos="24.16" speed="6.71"/>
                <vehicle id="166" pos="246.47" speed="7.84"/>
                <vehicle id="55" pos="292.62" speed="7.18"/>
            </lane>
        </edge>
        <edge id="gneE5">
            <lane id="gneE5_0">
                <vehicle id="250" pos="116.68" speed="5.25"/>
            </lane>
        </edge>
        <edge id="gneE50">
            <lane id="gneE50_0">
                <vehicle id="265" pos="28.14" speed="5.78"/>
                <vehicle id="211" pos="41.95" speed="4.88"/>
                <vehicle id="253" pos="106.04" speed="5.97"/>
                <vehicle id="231" pos="212.30" speed="5.32"/>
                <vehicle id="111" pos="231.68" speed="5.12"/>
                <vehicle id="219" pos="284.89" speed="5.99"/>
            </lane>
        </edge>
        <edge id="gneE51">
            <lane id="gneE51_0">
                <vehicle id="B3_1" pos="10.96" speed="6.11"/>
                <vehicle id="189" pos="197.73" speed="6.16"/>
                <vehicle id="171" pos="214.20" speed="6.35"/>
                <vehicle id="232" pos="250.90" speed="6.03"/>
                <vehicle id="206" pos="288.26" speed="6.51"/>
            </lane>
        </edge>
        <edge id="gneE52">
            <lane id="gneE52_0">
                <vehicle id="235" pos="217.73" speed="6.09"/>
                <vehicle id="148" pos="244.41" speed="6.68"/>
                <vehicle id="100" pos="315.52" speed="6.66"/>
                <vehicle id="79" pos="334.93" speed="6.51"/>
            </lane>
        </edge>
        <edge id="gneE53">
            <lane id="gneE53_0">
                <vehicle id="B4_1" pos="129.87" speed="6.78"/>
                <vehicle id="223" pos="175.61" speed="6.72"/>
                <vehicle id="222" pos="310.64" speed="6.94"/>
            </lane>
        </edge>
        <edge id="gneE54">
            <lane id="gneE54_0">
                <vehicle id="208" pos="54.69" speed="6.60"/>
            </lane>
        </edge>
        <edge id="gneE55">
            <lane id="gneE55_0">
                <vehicle id="155" pos="71.83" speed="6.78"/>
            </lane>
        </edge>
        <edge id="gneE58">
            <lane id="gneE58_0">
                <vehicle id="128" pos="6.64" speed="6.91"/>
                <vehicle id="262" pos="65.93" speed="6.88"/>
            </lane>
        </edge>
        <edge id="gneE59">
            <lane id="gneE59_0">
                <vehicle id="207" pos="146.50" speed="8.49"/>
            </lane>
        </edge>
        <edge id="gneE6">
            <lane id="gneE6_0">
                <vehicle id="271" pos="7.17" speed="2.07"/>
                <vehicle id="221" pos="51.19" speed="7.28"/>
                <vehicle id="261" pos="69.26" speed="7.84"/>
                <vehicle id="257" pos="92.23" speed="7.09"/>
                <vehicle id="256" pos="113.55" speed="6.79"/>
            </lane>
        </edge>
        <edge id="gneE60">
            <lane id="gneE60_0">
                <vehicle id="73" pos="79.93" speed="6.40"/>
                <vehicle id="102" pos="126.22" speed="6.79"/>
                <vehicle id="203" pos="157.56" speed="5.92"/>
                <vehicle id="37" pos="228.49" speed="6.98"/>
                <vehicle id="177" pos="311.78" speed="6.46"/>
                <vehicle id="220" pos="328.83" speed="5.85"/>
            </lane>
        </edge>
        <edge id="gneE61">
            <lane id="gneE61_0">
                <vehicle id="107" pos="90.17" speed="7.78"/>
                <vehicle id="254" pos="131.21" speed="7.38"/>
                <vehicle id="134" pos="172.25" speed="7.99"/>
                <vehicle id="89" pos="214.03" speed="6.84"/>
                <vehicle id="71" pos="285.84" speed="6.94"/>
                <vehicle id="226" pos="337.53" speed="7.24"/>
            </lane>
        </edge>
        <edge id="gneE7">
            <lane id="gneE7_0">
                <vehicle id="64" pos="64.78" speed="8.36"/>
                <vehicle id="260" pos="94.34" speed="8.94"/>
                <vehicle id="228" pos="132.62" speed="8.88"/>
                <vehicle id="209" pos="289.98" speed="8.33"/>
            </lane>
        </edge>
        <edge id="gneE8">
            <lane id="gneE8_0">
                <vehicle id="122" pos="58.18" speed="6.94"/>
                <vehicle id="251" pos="152.82" speed="7.90"/>
                <vehicle id="130" pos="223.06" speed="7.87"/>
                <vehicle id="233" pos="283.98" speed="7.53"/>
            </lane>
        </edge>
    </timestep>
