<?xml version="1.0"?>
<timestep time="284.00">
        <edge id=":gneJ11_39">
            <lane id=":gneJ11_39_0">
                <vehicle id="141" pos="18.68" speed="9.17"/>
            </lane>
        </edge>
        <edge id=":gneJ15_2">
            <lane id=":gneJ15_2_0">
                <vehicle id="175" pos="2.41" speed="2.53"/>
            </lane>
        </edge>
        <edge id=":gneJ8_2">
            <lane id=":gneJ8_2_0">
                <vehicle id="153" pos="5.86" speed="5.96"/>
            </lane>
        </edge>
        <edge id="gneE10">
            <lane id="gneE10_0">
                <vehicle id="259" pos="111.70" speed="4.78"/>
                <vehicle id="192" pos="126.25" speed="5.27"/>
            </lane>
        </edge>
        <edge id="gneE11">
            <lane id="gneE11_0">
                <vehicle id="281" pos="17.21" speed="6.19"/>
                <vehicle id="182" pos="61.57" speed="8.96"/>
                <vehicle id="267" pos="108.17" speed="7.82"/>
                <vehicle id="114" pos="130.31" speed="8.24"/>
            </lane>
        </edge>
        <edge id="gneE12">
            <lane id="gneE12_0">
                <vehicle id="123" pos="237.36" speed="13.20"/>
                <vehicle id="180" pos="293.99" speed="10.07"/>
            </lane>
        </edge>
        <edge id="gneE13">
            <lane id="gneE13_0">
                <vehicle id="244" pos="297.87" speed="5.38"/>
            </lane>
        </edge>
        <edge id="gneE14">
            <lane id="gneE14_0">
                <vehicle id="124" pos="116.00" speed="9.82"/>
                <vehicle id="B2_1" pos="154.67" speed="8.44"/>
            </lane>
        </edge>
        <edge id="gneE15">
            <lane id="gneE15_0">
                <vehicle id="212" pos="19.52" speed="8.30"/>
                <vehicle id="242" pos="57.34" speed="8.58"/>
                <vehicle id="196" pos="75.41" speed="8.99"/>
            </lane>
        </edge>
        <edge id="gneE17">
            <lane id="gneE17_0">
                <vehicle id="197" pos="128.15" speed="9.38"/>
                <vehicle id="164" pos="246.70" speed="8.73"/>
                <vehicle id="217" pos="284.32" speed="5.05"/>
            </lane>
        </edge>
        <edge id="gneE18">
            <lane id="gneE18_0">
                <vehicle id="240" pos="80.31" speed="9.99"/>
            </lane>
        </edge>
        <edge id="gneE19">
            <lane id="gneE19_0">
                <vehicle id="273" pos="92.89" speed="11.80"/>
                <vehicle id="239" pos="156.04" speed="12.41"/>
                <vehicle id="236" pos="191.73" speed="12.37"/>
                <vehicle id="156" pos="214.14" speed="4.65"/>
                <vehicle id="159" pos="222.83" speed="0.04"/>
                <vehicle id="139" pos="230.33" speed="0.00"/>
                <vehicle id="135" pos="237.83" speed="0.00"/>
                <vehicle id="81" pos="245.54" speed="0.21"/>
                <vehicle id="104" pos="255.31" speed="2.07"/>
                <vehicle id="186" pos="266.82" speed="3.51"/>
                <vehicle id="91" pos="280.32" speed="5.26"/>
            </lane>
        </edge>
        <edge id="gneE20">
            <lane id="gneE20_0">
                <vehicle id="284" pos="5.10" speed="0.00"/>
                <vehicle id="199" pos="24.58" speed="8.88"/>
                <vehicle id="185" pos="59.19" speed="7.80"/>
                <vehicle id="174" pos="173.29" speed="8.39"/>
                <vehicle id="158" pos="193.71" speed="7.91"/>
                <vehicle id="230" pos="238.33" speed="7.94"/>
            </lane>
        </edge>
        <edge id="gneE23">
            <lane id="gneE23_0">
                <vehicle id="121" pos="2.39" speed="3.46"/>
                <vehicle id="280" pos="17.43" speed="6.01"/>
                <vehicle id="177" pos="36.78" speed="7.46"/>
                <vehicle id="272" pos="69.90" speed="6.77"/>
                <vehicle id="118" pos="88.34" speed="7.46"/>
                <vehicle id="160" pos="144.86" speed="7.44"/>
            </lane>
        </edge>
        <edge id="gneE24">
            <lane id="gneE24_0">
                <vehicle id="190" pos="27.17" speed="12.77"/>
                <vehicle id="161" pos="71.28" speed="12.13"/>
            </lane>
        </edge>
        <edge id="gneE25">
            <lane id="gneE25_0">
                <vehicle id="282" pos="11.04" speed="3.72"/>
                <vehicle id="277" pos="40.33" speed="9.74"/>
                <vehicle id="269" pos="127.33" speed="9.62"/>
            </lane>
        </edge>
        <edge id="gneE26">
            <lane id="gneE26_0">
                <vehicle id="179" pos="6.76" speed="6.71"/>
                <vehicle id="198" pos="118.86" speed="6.67"/>
                <vehicle id="167" pos="135.77" speed="5.84"/>
                <vehicle id="173" pos="175.95" speed="6.88"/>
                <vehicle id="83" pos="241.53" speed="6.38"/>
                <vehicle id="126" pos="253.30" speed="0.04"/>
                <vehicle id="181" pos="260.82" speed="0.00"/>
                <vehicle id="205" pos="268.33" speed="0.00"/>
                <vehicle id="224" pos="275.83" speed="0.00"/>
                <vehicle id="200" pos="283.33" speed="0.00"/>
                <vehicle id="204" pos="290.83" speed="0.00"/>
            </lane>
        </edge>
        <edge id="gneE27">
            <lane id="gneE27_0">
                <vehicle id="154" pos="22.59" speed="5.57"/>
                <vehicle id="109" pos="131.26" speed="5.42"/>
            </lane>
        </edge>
        <edge id="gneE28">
            <lane id="gneE28_0">
                <vehicle id="234" pos="91.83" speed="9.00"/>
                <vehicle id="84" pos="116.36" speed="7.74"/>
            </lane>
        </edge>
        <edge id="gneE30">
            <lane id="gneE30_0">
                <vehicle id="214" pos="120.81" speed="8.75"/>
                <vehicle id="264" pos="160.39" speed="7.90"/>
            </lane>
        </edge>
        <edge id="gneE31">
            <lane id="gneE31_0">
                <vehicle id="209" pos="79.38" speed="8.76"/>
                <vehicle id="210" pos="103.20" speed="8.53"/>
                <vehicle id="193" pos="192.73" speed="8.24"/>
                <vehicle id="127" pos="219.38" speed="8.50"/>
            </lane>
        </edge>
        <edge id="gneE32">
            <lane id="gneE32_0">
                <vehicle id="268" pos="112.08" speed="7.23"/>
                <vehicle id="225" pos="222.25" speed="7.10"/>
                <vehicle id="184" pos="261.19" speed="7.61"/>
                <vehicle id="241" pos="311.04" speed="6.84"/>
            </lane>
        </edge>
        <edge id="gneE38">
            <lane id="gneE38_0">
                <vehicle id="191" pos="141.61" speed="8.83"/>
                <vehicle id="B1_1" pos="274.25" speed="7.80"/>
                <vehicle id="227" pos="326.77" speed="1.83"/>
                <vehicle id="34" pos="335.19" speed="0.28"/>
            </lane>
        </edge>
        <edge id="gneE4">
            <lane id="gneE4_0">
                <vehicle id="261" pos="0.15" speed="9.33"/>
                <vehicle id="257" pos="32.05" speed="9.43"/>
                <vehicle id="256" pos="59.33" speed="9.59"/>
            </lane>
        </edge>
        <edge id="gneE42">
            <lane id="gneE42_0">
                <vehicle id="266" pos="128.31" speed="6.81"/>
            </lane>
        </edge>
        <edge id="gneE43">
            <lane id="gneE43_0">
                <vehicle id="274" pos="35.80" speed="6.17"/>
                <vehicle id="165" pos="54.17" speed="6.42"/>
                <vehicle id="252" pos="70.08" speed="5.95"/>
                <vehicle id="255" pos="175.61" speed="6.43"/>
                <vehicle id="202" pos="198.07" speed="6.63"/>
                <vehicle id="172" pos="224.98" speed="6.61"/>
                <vehicle id="246" pos="238.51" speed="2.97"/>
                <vehicle id="215" pos="246.70" speed="0.05"/>
                <vehicle id="163" pos="254.22" speed="0.00"/>
                <vehicle id="216" pos="261.72" speed="0.00"/>
                <vehicle id="140" pos="269.22" speed="0.00"/>
                <vehicle id="15" pos="276.72" speed="0.00"/>
                <vehicle id="195" pos="284.23" speed="0.00"/>
                <vehicle id="138" pos="291.73" speed="0.00"/>
                <vehicle id="116" pos="299.23" speed="0.00"/>
                <vehicle id="170" pos="306.73" speed="0.00"/>
            </lane>
        </edge>
        <edge id="gneE45">
            <lane id="gneE45_0">
                <vehicle id="187" pos="12.31" speed="8.56"/>
                <vehicle id="276" pos="50.04" speed="8.75"/>
                <vehicle id="248" pos="77.92" speed="8.99"/>
                <vehicle id="113" pos="115.69" speed="8.21"/>
                <vehicle id="136" pos="165.41" speed="8.49"/>
                <vehicle id="249" pos="282.91" speed="8.27"/>
                <vehicle id="243" pos="306.73" speed="0.00"/>
            </lane>
        </edge>
        <edge id="gneE46">
            <lane id="gneE46_0">
                <vehicle id="144" pos="178.08" speed="9.46"/>
            </lane>
        </edge>
        <edge id="gneE47">
            <lane id="gneE47_0">
                <vehicle id="166" pos="2.27" speed="7.78"/>
                <vehicle id="270" pos="106.81" speed="7.74"/>
            </lane>
        </edge>
        <edge id="gneE48">
            <lane id="gneE48_0">
                <vehicle id="142" pos="97.24" speed="5.85"/>
                <vehicle id="237" pos="140.60" speed="5.99"/>
                <vehicle id="229" pos="210.89" speed="6.57"/>
                <vehicle id="247" pos="228.97" speed="6.21"/>
                <vehicle id="213" pos="304.07" speed="5.86"/>
            </lane>
        </edge>
        <edge id="gneE49">
            <lane id="gneE49_0">
                <vehicle id="278" pos="37.02" speed="6.83"/>
                <vehicle id="169" pos="112.97" speed="7.13"/>
            </lane>
        </edge>
        <edge id="gneE5">
            <lane id="gneE5_0">
                <vehicle id="176" pos="47.74" speed="5.31"/>
            </lane>
        </edge>
        <edge id="gneE50">
            <lane id="gneE50_0">
                <vehicle id="275" pos="49.48" speed="5.58"/>
                <vehicle id="265" pos="91.84" speed="4.84"/>
                <vehicle id="211" pos="108.22" speed="5.08"/>
                <vehicle id="253" pos="169.19" speed="5.35"/>
                <vehicle id="231" pos="277.57" speed="5.39"/>
                <vehicle id="111" pos="295.55" speed="5.21"/>
                <vehicle id="219" pos="349.09" speed="5.46"/>
            </lane>
        </edge>
        <edge id="gneE51">
            <lane id="gneE51_0">
                <vehicle id="263" pos="1.54" speed="5.90"/>
                <vehicle id="245" pos="45.79" speed="6.74"/>
                <vehicle id="B3_1" pos="88.22" speed="6.85"/>
                <vehicle id="189" pos="272.62" speed="6.39"/>
                <vehicle id="171" pos="290.90" speed="6.94"/>
                <vehicle id="232" pos="330.33" speed="6.28"/>
                <vehicle id="206" pos="363.15" speed="5.07"/>
            </lane>
        </edge>
        <edge id="gneE52">
            <lane id="gneE52_0">
                <vehicle id="283" pos="7.19" speed="2.09"/>
                <vehicle id="235" pos="292.36" speed="6.01"/>
                <vehicle id="148" pos="321.14" speed="6.38"/>
            </lane>
        </edge>
        <edge id="gneE53">
            <lane id="gneE53_0">
                <vehicle id="155" pos="13.12" speed="6.69"/>
                <vehicle id="B4_1" pos="204.92" speed="5.77"/>
                <vehicle id="223" pos="253.29" speed="6.31"/>
                <vehicle id="222" pos="343.16" speed="0.00"/>
            </lane>
        </edge>
        <edge id="gneE54">
            <lane id="gneE54_0">
                <vehicle id="100" pos="36.21" speed="5.75"/>
                <vehicle id="79" pos="57.42" speed="6.60"/>
                <vehicle id="208" pos="130.48" speed="6.70"/>
            </lane>
        </edge>
        <edge id="gneE58">
            <lane id="gneE58_0">
                <vehicle id="279" pos="33.12" speed="7.39"/>
                <vehicle id="128" pos="93.70" speed="6.75"/>
                <vehicle id="262" pos="153.04" speed="7.65"/>
            </lane>
        </edge>
        <edge id="gneE59">
            <lane id="gneE59_0">
                <vehicle id="71" pos="35.72" speed="8.24"/>
                <vehicle id="226" pos="98.87" speed="8.11"/>
                <vehicle id="207" pos="246.27" speed="8.49"/>
            </lane>
        </edge>
        <edge id="gneE6">
            <lane id="gneE6_0">
                <vehicle id="130" pos="3.20" speed="7.93"/>
                <vehicle id="233" pos="62.69" speed="7.42"/>
                <vehicle id="271" pos="89.35" speed="7.60"/>
                <vehicle id="221" pos="136.31" speed="7.63"/>
            </lane>
        </edge>
        <edge id="gneE60">
            <lane id="gneE60_0">
                <vehicle id="73" pos="157.13" speed="6.53"/>
                <vehicle id="102" pos="201.64" speed="5.72"/>
                <vehicle id="203" pos="232.11" speed="5.84"/>
                <vehicle id="37" pos="303.60" speed="6.44"/>
            </lane>
        </edge>
        <edge id="gneE61">
            <lane id="gneE61_0">
                <vehicle id="107" pos="176.78" speed="6.84"/>
                <vehicle id="254" pos="217.29" speed="6.83"/>
                <vehicle id="134" pos="258.92" speed="7.20"/>
                <vehicle id="89" pos="303.60" speed="7.27"/>
            </lane>
        </edge>
        <edge id="gneE7">
            <lane id="gneE7_0">
                <vehicle id="250" pos="47.13" speed="7.98"/>
                <vehicle id="64" pos="166.89" speed="7.98"/>
                <vehicle id="260" pos="195.49" speed="8.60"/>
                <vehicle id="228" pos="233.68" speed="8.92"/>
            </lane>
        </edge>
        <edge id="gneE8">
            <lane id="gneE8_0">
                <vehicle id="122" pos="146.62" speed="7.51"/>
                <vehicle id="251" pos="241.42" speed="7.54"/>
            </lane>
        </edge>
    </timestep>
