<?xml version="1.0"?>
<timestep time="287.00">
        <edge id=":gneJ11_38">
            <lane id=":gneJ11_38_0">
                <vehicle id="186" pos="4.93" speed="9.06"/>
            </lane>
        </edge>
        <edge id=":gneJ15_2">
            <lane id=":gneJ15_2_0">
                <vehicle id="175" pos="19.01" speed="6.95"/>
            </lane>
        </edge>
        <edge id=":gneJ18_0">
            <lane id=":gneJ18_0_0">
                <vehicle id="266" pos="5.43" speed="7.89"/>
            </lane>
        </edge>
        <edge id=":gneJ30_0">
            <lane id=":gneJ30_0_0">
                <vehicle id="208" pos="8.17" speed="8.04"/>
            </lane>
        </edge>
        <edge id=":gneJ6_3">
            <lane id=":gneJ6_3_0">
                <vehicle id="192" pos="2.80" speed="4.85"/>
            </lane>
        </edge>
        <edge id="gneE10">
            <lane id="gneE10_0">
                <vehicle id="244" pos="5.63" speed="5.73"/>
                <vehicle id="259" pos="127.38" speed="5.33"/>
            </lane>
        </edge>
        <edge id="gneE11">
            <lane id="gneE11_0">
                <vehicle id="281" pos="42.81" speed="8.66"/>
                <vehicle id="182" pos="87.09" speed="8.65"/>
                <vehicle id="267" pos="133.69" speed="8.69"/>
            </lane>
        </edge>
        <edge id="gneE12">
            <lane id="gneE12_0">
                <vehicle id="123" pos="275.73" speed="12.78"/>
                <vehicle id="180" pos="301.17" speed="0.02"/>
            </lane>
        </edge>
        <edge id="gneE14">
            <lane id="gneE14_0">
                <vehicle id="153" pos="23.66" speed="10.63"/>
                <vehicle id="124" pos="146.99" speed="10.04"/>
            </lane>
        </edge>
        <edge id="gneE15">
            <lane id="gneE15_0">
                <vehicle id="212" pos="45.09" speed="8.66"/>
                <vehicle id="242" pos="80.95" speed="7.89"/>
                <vehicle id="196" pos="100.51" speed="8.52"/>
            </lane>
        </edge>
        <edge id="gneE17">
            <lane id="gneE17_0">
                <vehicle id="B2_1" pos="6.74" speed="7.83"/>
                <vehicle id="197" pos="155.58" speed="8.90"/>
                <vehicle id="164" pos="274.36" speed="9.35"/>
            </lane>
        </edge>
        <edge id="gneE18">
            <lane id="gneE18_0">
                <vehicle id="240" pos="109.00" speed="10.00"/>
            </lane>
        </edge>
        <edge id="gneE19">
            <lane id="gneE19_0">
                <vehicle id="273" pos="130.53" speed="11.91"/>
                <vehicle id="239" pos="190.38" speed="9.76"/>
                <vehicle id="236" pos="206.73" speed="1.85"/>
                <vehicle id="156" pos="215.32" speed="0.06"/>
                <vehicle id="159" pos="222.96" speed="0.13"/>
                <vehicle id="139" pos="231.61" speed="1.12"/>
                <vehicle id="135" pos="242.23" speed="2.76"/>
                <vehicle id="81" pos="255.82" speed="5.47"/>
                <vehicle id="104" pos="270.48" speed="6.46"/>
            </lane>
        </edge>
        <edge id="gneE20">
            <lane id="gneE20_0">
                <vehicle id="284" pos="17.00" speed="5.39"/>
                <vehicle id="199" pos="50.08" speed="8.66"/>
                <vehicle id="185" pos="84.49" speed="8.60"/>
                <vehicle id="174" pos="198.61" speed="8.88"/>
                <vehicle id="158" pos="219.49" speed="8.84"/>
                <vehicle id="230" pos="265.22" speed="8.97"/>
            </lane>
        </edge>
        <edge id="gneE23">
            <lane id="gneE23_0">
                <vehicle id="121" pos="22.45" speed="7.77"/>
                <vehicle id="280" pos="39.47" speed="7.25"/>
                <vehicle id="177" pos="59.04" speed="6.79"/>
                <vehicle id="272" pos="91.96" speed="7.04"/>
                <vehicle id="118" pos="110.45" speed="7.55"/>
                <vehicle id="160" pos="167.71" speed="7.69"/>
            </lane>
        </edge>
        <edge id="gneE24">
            <lane id="gneE24_0">
                <vehicle id="190" pos="62.73" speed="11.98"/>
                <vehicle id="161" pos="109.47" speed="12.64"/>
            </lane>
        </edge>
        <edge id="gneE25">
            <lane id="gneE25_0">
                <vehicle id="285" pos="10.45" speed="3.62"/>
                <vehicle id="282" pos="33.88" speed="9.05"/>
                <vehicle id="277" pos="67.54" speed="8.77"/>
                <vehicle id="269" pos="155.01" speed="9.58"/>
            </lane>
        </edge>
        <edge id="gneE26">
            <lane id="gneE26_0">
                <vehicle id="179" pos="25.21" speed="5.93"/>
                <vehicle id="198" pos="136.80" speed="5.94"/>
                <vehicle id="167" pos="153.54" speed="6.27"/>
                <vehicle id="173" pos="194.54" speed="6.37"/>
                <vehicle id="83" pos="245.81" speed="0.07"/>
                <vehicle id="126" pos="253.32" speed="0.00"/>
                <vehicle id="181" pos="260.82" speed="0.00"/>
                <vehicle id="205" pos="268.33" speed="0.00"/>
                <vehicle id="224" pos="275.83" speed="0.00"/>
                <vehicle id="200" pos="283.33" speed="0.00"/>
                <vehicle id="204" pos="290.83" speed="0.00"/>
            </lane>
        </edge>
        <edge id="gneE27">
            <lane id="gneE27_0">
                <vehicle id="154" pos="39.61" speed="5.79"/>
            </lane>
        </edge>
        <edge id="gneE28">
            <lane id="gneE28_0">
                <vehicle id="234" pos="116.06" speed="8.33"/>
                <vehicle id="84" pos="140.76" speed="8.02"/>
            </lane>
        </edge>
        <edge id="gneE3">
            <lane id="gneE3_0">
                <vehicle id="217" pos="10.86" speed="9.91"/>
            </lane>
        </edge>
        <edge id="gneE30">
            <lane id="gneE30_0">
                <vehicle id="109" pos="0.08" speed="7.11"/>
                <vehicle id="214" pos="144.99" speed="7.95"/>
                <vehicle id="264" pos="185.23" speed="8.50"/>
            </lane>
        </edge>
        <edge id="gneE31">
            <lane id="gneE31_0">
                <vehicle id="209" pos="104.93" speed="8.45"/>
                <vehicle id="210" pos="128.71" speed="8.94"/>
                <vehicle id="193" pos="217.77" speed="7.74"/>
                <vehicle id="127" pos="245.13" speed="8.45"/>
            </lane>
        </edge>
        <edge id="gneE32">
            <lane id="gneE32_0">
                <vehicle id="286" pos="6.71" speed="1.61"/>
                <vehicle id="268" pos="135.73" speed="7.87"/>
                <vehicle id="225" pos="243.70" speed="7.38"/>
                <vehicle id="184" pos="282.77" speed="7.65"/>
                <vehicle id="241" pos="333.42" speed="7.55"/>
            </lane>
        </edge>
        <edge id="gneE38">
            <lane id="gneE38_0">
                <vehicle id="191" pos="166.99" speed="8.72"/>
                <vehicle id="B1_1" pos="298.72" speed="8.47"/>
                <vehicle id="227" pos="335.00" speed="5.01"/>
            </lane>
        </edge>
        <edge id="gneE4">
            <lane id="gneE4_0">
                <vehicle id="221" pos="2.22" speed="8.90"/>
                <vehicle id="261" pos="28.69" speed="9.91"/>
                <vehicle id="257" pos="60.44" speed="9.71"/>
                <vehicle id="256" pos="87.85" speed="9.58"/>
            </lane>
        </edge>
        <edge id="gneE43">
            <lane id="gneE43_0">
                <vehicle id="274" pos="54.06" speed="6.44"/>
                <vehicle id="165" pos="73.10" speed="5.50"/>
                <vehicle id="252" pos="88.22" speed="6.20"/>
                <vehicle id="255" pos="194.97" speed="6.50"/>
                <vehicle id="202" pos="216.06" speed="5.90"/>
                <vehicle id="172" pos="231.52" speed="0.32"/>
                <vehicle id="246" pos="239.19" speed="0.03"/>
                <vehicle id="215" pos="246.72" speed="0.00"/>
                <vehicle id="163" pos="254.22" speed="0.00"/>
                <vehicle id="216" pos="261.72" speed="0.00"/>
                <vehicle id="140" pos="269.22" speed="0.00"/>
                <vehicle id="15" pos="276.72" speed="0.00"/>
                <vehicle id="195" pos="284.23" speed="0.00"/>
                <vehicle id="138" pos="291.73" speed="0.00"/>
                <vehicle id="116" pos="299.23" speed="0.00"/>
                <vehicle id="170" pos="306.73" speed="0.00"/>
            </lane>
        </edge>
        <edge id="gneE45">
            <lane id="gneE45_0">
                <vehicle id="187" pos="37.41" speed="8.24"/>
                <vehicle id="276" pos="75.79" speed="8.53"/>
                <vehicle id="248" pos="103.47" speed="8.37"/>
                <vehicle id="113" pos="141.20" speed="8.74"/>
                <vehicle id="136" pos="189.39" speed="8.35"/>
                <vehicle id="249" pos="303.87" speed="5.95"/>
            </lane>
        </edge>
        <edge id="gneE47">
            <lane id="gneE47_0">
                <vehicle id="166" pos="26.30" speed="8.48"/>
                <vehicle id="270" pos="130.39" speed="8.02"/>
            </lane>
        </edge>
        <edge id="gneE48">
            <lane id="gneE48_0">
                <vehicle id="142" pos="117.36" speed="6.98"/>
                <vehicle id="237" pos="159.89" speed="6.14"/>
                <vehicle id="229" pos="229.68" speed="6.02"/>
                <vehicle id="247" pos="248.20" speed="6.11"/>
                <vehicle id="213" pos="318.53" speed="1.94"/>
            </lane>
        </edge>
        <edge id="gneE49">
            <lane id="gneE49_0">
                <vehicle id="141" pos="13.67" speed="7.33"/>
                <vehicle id="278" pos="58.90" speed="7.15"/>
                <vehicle id="169" pos="135.42" speed="7.99"/>
            </lane>
        </edge>
        <edge id="gneE5">
            <lane id="gneE5_0">
                <vehicle id="176" pos="64.32" speed="4.84"/>
            </lane>
        </edge>
        <edge id="gneE50">
            <lane id="gneE50_0">
                <vehicle id="275" pos="65.92" speed="5.08"/>
                <vehicle id="265" pos="106.78" speed="4.88"/>
                <vehicle id="211" pos="125.42" speed="5.93"/>
                <vehicle id="253" pos="184.40" speed="5.73"/>
                <vehicle id="231" pos="293.66" speed="5.39"/>
                <vehicle id="111" pos="311.48" speed="5.59"/>
                <vehicle id="219" pos="364.16" speed="3.97"/>
            </lane>
        </edge>
        <edge id="gneE51">
            <lane id="gneE51_0">
                <vehicle id="243" pos="4.83" speed="6.55"/>
                <vehicle id="263" pos="20.55" speed="6.18"/>
                <vehicle id="245" pos="65.92" speed="6.78"/>
                <vehicle id="B3_1" pos="106.92" speed="5.81"/>
                <vehicle id="189" pos="290.82" speed="6.27"/>
                <vehicle id="171" pos="310.60" speed="6.96"/>
                <vehicle id="232" pos="348.66" speed="6.33"/>
                <vehicle id="206" pos="365.79" speed="0.08"/>
            </lane>
        </edge>
        <edge id="gneE52">
            <lane id="gneE52_0">
                <vehicle id="283" pos="22.64" speed="6.44"/>
                <vehicle id="235" pos="311.10" speed="5.98"/>
                <vehicle id="148" pos="339.83" speed="6.54"/>
            </lane>
        </edge>
        <edge id="gneE53">
            <lane id="gneE53_0">
                <vehicle id="155" pos="31.62" speed="6.71"/>
                <vehicle id="B4_1" pos="224.21" speed="5.94"/>
                <vehicle id="223" pos="272.06" speed="5.84"/>
                <vehicle id="222" pos="343.16" speed="0.00"/>
            </lane>
        </edge>
        <edge id="gneE54">
            <lane id="gneE54_0">
                <vehicle id="100" pos="54.79" speed="5.70"/>
                <vehicle id="79" pos="76.12" speed="6.31"/>
            </lane>
        </edge>
        <edge id="gneE58">
            <lane id="gneE58_0">
                <vehicle id="279" pos="55.37" speed="7.50"/>
                <vehicle id="128" pos="114.87" speed="7.11"/>
                <vehicle id="262" pos="174.82" speed="7.89"/>
            </lane>
        </edge>
        <edge id="gneE59">
            <lane id="gneE59_0">
                <vehicle id="71" pos="61.74" speed="8.81"/>
                <vehicle id="226" pos="124.20" speed="8.30"/>
                <vehicle id="207" pos="270.03" speed="7.78"/>
            </lane>
        </edge>
        <edge id="gneE6">
            <lane id="gneE6_0">
                <vehicle id="130" pos="25.67" speed="7.81"/>
                <vehicle id="233" pos="85.56" speed="7.85"/>
                <vehicle id="271" pos="110.62" speed="7.34"/>
            </lane>
        </edge>
        <edge id="gneE60">
            <lane id="gneE60_0">
                <vehicle id="73" pos="176.49" speed="6.92"/>
                <vehicle id="102" pos="220.01" speed="6.38"/>
                <vehicle id="203" pos="251.23" speed="6.75"/>
                <vehicle id="37" pos="323.31" speed="6.69"/>
            </lane>
        </edge>
        <edge id="gneE61">
            <lane id="gneE61_0">
                <vehicle id="107" pos="200.07" speed="7.86"/>
                <vehicle id="254" pos="238.81" speed="6.86"/>
                <vehicle id="134" pos="281.84" speed="7.48"/>
                <vehicle id="89" pos="324.07" speed="6.77"/>
            </lane>
        </edge>
        <edge id="gneE7">
            <lane id="gneE7_0">
                <vehicle id="250" pos="72.84" speed="8.94"/>
                <vehicle id="64" pos="191.89" speed="8.69"/>
                <vehicle id="260" pos="220.92" speed="8.91"/>
                <vehicle id="228" pos="259.17" speed="8.43"/>
            </lane>
        </edge>
        <edge id="gneE8">
            <lane id="gneE8_0">
                <vehicle id="122" pos="168.26" speed="7.44"/>
                <vehicle id="251" pos="262.82" speed="7.64"/>
            </lane>
        </edge>
    </timestep>
