<?xml version="1.0"?>
<timestep time="289.00">
        <edge id=":gneJ11_9">
            <lane id=":gneJ11_9_0">
                <vehicle id="206" pos="5.13" speed="3.35"/>
            </lane>
        </edge>
        <edge id=":gneJ11_17">
            <lane id=":gneJ11_17_0">
                <vehicle id="213" pos="2.57" speed="2.70"/>
            </lane>
        </edge>
        <edge id=":gneJ11_38">
            <lane id=":gneJ11_38_0">
                <vehicle id="186" pos="27.38" speed="11.23"/>
            </lane>
        </edge>
        <edge id=":gneJ28_5">
            <lane id=":gneJ28_5_0">
                <vehicle id="219" pos="11.88" speed="7.89"/>
            </lane>
        </edge>
        <edge id=":gneJ31_1">
            <lane id=":gneJ31_1_0">
                <vehicle id="148" pos="9.31" speed="6.95"/>
            </lane>
        </edge>
        <edge id=":gneJ33_0">
            <lane id=":gneJ33_0_0">
                <vehicle id="89" pos="1.23" speed="6.95"/>
            </lane>
        </edge>
        <edge id=":gneJ4_1">
            <lane id=":gneJ4_1_0">
                <vehicle id="180" pos="1.68" speed="1.78"/>
            </lane>
        </edge>
        <edge id="gneE10">
            <lane id="gneE10_0">
                <vehicle id="244" pos="16.36" speed="5.69"/>
                <vehicle id="259" pos="137.46" speed="5.44"/>
            </lane>
        </edge>
        <edge id="gneE11">
            <lane id="gneE11_0">
                <vehicle id="281" pos="60.37" speed="8.70"/>
                <vehicle id="182" pos="103.35" speed="7.87"/>
            </lane>
        </edge>
        <edge id="gneE12">
            <lane id="gneE12_0">
                <vehicle id="267" pos="6.31" speed="9.41"/>
                <vehicle id="123" pos="291.33" speed="5.74"/>
            </lane>
        </edge>
        <edge id="gneE14">
            <lane id="gneE14_0">
                <vehicle id="153" pos="43.89" speed="10.04"/>
            </lane>
        </edge>
        <edge id="gneE15">
            <lane id="gneE15_0">
                <vehicle id="212" pos="62.29" speed="8.60"/>
                <vehicle id="242" pos="98.34" speed="8.76"/>
                <vehicle id="196" pos="117.18" speed="8.18"/>
            </lane>
        </edge>
        <edge id="gneE17">
            <lane id="gneE17_0">
                <vehicle id="B2_1" pos="25.62" speed="8.99"/>
                <vehicle id="197" pos="174.18" speed="9.21"/>
            </lane>
        </edge>
        <edge id="gneE18">
            <lane id="gneE18_0">
                <vehicle id="240" pos="127.28" speed="9.58"/>
            </lane>
        </edge>
        <edge id="gneE19">
            <lane id="gneE19_0">
                <vehicle id="273" pos="155.15" speed="11.95"/>
                <vehicle id="239" pos="199.54" speed="2.70"/>
                <vehicle id="236" pos="207.72" speed="0.30"/>
                <vehicle id="156" pos="216.47" speed="1.06"/>
                <vehicle id="159" pos="225.84" speed="1.86"/>
                <vehicle id="139" pos="237.75" speed="4.00"/>
                <vehicle id="135" pos="253.29" speed="5.95"/>
                <vehicle id="81" pos="270.27" speed="8.22"/>
                <vehicle id="104" pos="282.56" speed="3.79"/>
            </lane>
        </edge>
        <edge id="gneE20">
            <lane id="gneE20_0">
                <vehicle id="284" pos="32.51" speed="8.53"/>
                <vehicle id="199" pos="67.55" speed="8.57"/>
                <vehicle id="185" pos="100.81" speed="8.59"/>
                <vehicle id="174" pos="215.18" speed="7.77"/>
                <vehicle id="158" pos="236.57" speed="8.70"/>
                <vehicle id="230" pos="281.33" speed="7.78"/>
            </lane>
        </edge>
        <edge id="gneE23">
            <lane id="gneE23_0">
                <vehicle id="121" pos="36.59" speed="6.93"/>
                <vehicle id="280" pos="53.55" speed="7.15"/>
                <vehicle id="177" pos="73.32" speed="7.15"/>
                <vehicle id="272" pos="106.02" speed="6.97"/>
                <vehicle id="118" pos="124.84" speed="7.04"/>
                <vehicle id="160" pos="181.42" speed="6.82"/>
            </lane>
        </edge>
        <edge id="gneE24">
            <lane id="gneE24_0">
                <vehicle id="175" pos="17.39" speed="11.07"/>
                <vehicle id="190" pos="87.14" speed="11.86"/>
                <vehicle id="161" pos="133.56" speed="12.24"/>
            </lane>
        </edge>
        <edge id="gneE25">
            <lane id="gneE25_0">
                <vehicle id="285" pos="23.76" speed="7.85"/>
                <vehicle id="282" pos="52.53" speed="9.23"/>
                <vehicle id="277" pos="86.83" speed="9.30"/>
                <vehicle id="269" pos="173.39" speed="9.21"/>
            </lane>
        </edge>
        <edge id="gneE26">
            <lane id="gneE26_0">
                <vehicle id="179" pos="37.42" speed="5.96"/>
                <vehicle id="198" pos="149.90" speed="6.40"/>
                <vehicle id="167" pos="166.10" speed="6.79"/>
                <vehicle id="173" pos="207.96" speed="6.88"/>
                <vehicle id="83" pos="245.82" speed="0.00"/>
                <vehicle id="126" pos="253.32" speed="0.00"/>
                <vehicle id="181" pos="260.82" speed="0.00"/>
                <vehicle id="205" pos="268.33" speed="0.00"/>
                <vehicle id="224" pos="275.83" speed="0.00"/>
                <vehicle id="200" pos="283.33" speed="0.00"/>
                <vehicle id="204" pos="290.83" speed="0.00"/>
            </lane>
        </edge>
        <edge id="gneE27">
            <lane id="gneE27_0">
                <vehicle id="154" pos="49.83" speed="4.87"/>
            </lane>
        </edge>
        <edge id="gneE28">
            <lane id="gneE28_0">
                <vehicle id="234" pos="133.89" speed="8.84"/>
            </lane>
        </edge>
        <edge id="gneE3">
            <lane id="gneE3_0">
                <vehicle id="217" pos="29.72" speed="9.04"/>
            </lane>
        </edge>
        <edge id="gneE30">
            <lane id="gneE30_0">
                <vehicle id="109" pos="15.69" speed="7.80"/>
                <vehicle id="214" pos="161.27" speed="8.26"/>
                <vehicle id="264" pos="201.93" speed="8.99"/>
            </lane>
        </edge>
        <edge id="gneE31">
            <lane id="gneE31_0">
                <vehicle id="209" pos="120.63" speed="7.94"/>
                <vehicle id="210" pos="145.93" speed="8.86"/>
                <vehicle id="193" pos="235.27" speed="8.50"/>
                <vehicle id="127" pos="261.15" speed="7.97"/>
            </lane>
        </edge>
        <edge id="gneE32">
            <lane id="gneE32_0">
                <vehicle id="286" pos="15.40" speed="5.32"/>
                <vehicle id="268" pos="150.35" speed="7.26"/>
                <vehicle id="225" pos="258.80" speed="7.64"/>
                <vehicle id="184" pos="298.29" speed="7.73"/>
            </lane>
        </edge>
        <edge id="gneE38">
            <lane id="gneE38_0">
                <vehicle id="266" pos="11.53" speed="7.88"/>
                <vehicle id="191" pos="183.74" speed="8.97"/>
                <vehicle id="B1_1" pos="315.87" speed="8.19"/>
                <vehicle id="227" pos="341.78" speed="1.51"/>
            </lane>
        </edge>
        <edge id="gneE4">
            <lane id="gneE4_0">
                <vehicle id="221" pos="20.52" speed="9.12"/>
                <vehicle id="261" pos="48.34" speed="9.83"/>
                <vehicle id="257" pos="79.56" speed="9.18"/>
                <vehicle id="256" pos="107.24" speed="9.94"/>
            </lane>
        </edge>
        <edge id="gneE41">
            <lane id="gneE41_0">
                <vehicle id="241" pos="1.03" speed="7.18"/>
            </lane>
        </edge>
        <edge id="gneE43">
            <lane id="gneE43_0">
                <vehicle id="274" pos="66.88" speed="6.58"/>
                <vehicle id="165" pos="85.36" speed="6.23"/>
                <vehicle id="252" pos="101.75" speed="6.58"/>
                <vehicle id="255" pos="208.13" speed="6.30"/>
                <vehicle id="202" pos="223.89" speed="2.02"/>
                <vehicle id="172" pos="231.70" speed="0.07"/>
                <vehicle id="246" pos="239.22" speed="0.00"/>
                <vehicle id="215" pos="246.72" speed="0.00"/>
                <vehicle id="163" pos="254.22" speed="0.00"/>
                <vehicle id="216" pos="261.72" speed="0.00"/>
                <vehicle id="140" pos="269.22" speed="0.00"/>
                <vehicle id="15" pos="276.72" speed="0.00"/>
                <vehicle id="195" pos="284.23" speed="0.00"/>
                <vehicle id="138" pos="291.73" speed="0.00"/>
                <vehicle id="116" pos="299.23" speed="0.00"/>
                <vehicle id="170" pos="306.73" speed="0.00"/>
            </lane>
        </edge>
        <edge id="gneE45">
            <lane id="gneE45_0">
                <vehicle id="187" pos="53.82" speed="8.57"/>
                <vehicle id="276" pos="93.02" speed="8.65"/>
                <vehicle id="248" pos="120.06" speed="8.11"/>
                <vehicle id="113" pos="157.49" speed="7.91"/>
                <vehicle id="136" pos="206.04" speed="8.83"/>
            </lane>
        </edge>
        <edge id="gneE47">
            <lane id="gneE47_0">
                <vehicle id="208" pos="14.94" speed="7.92"/>
                <vehicle id="166" pos="42.95" speed="8.54"/>
                <vehicle id="270" pos="146.66" speed="8.02"/>
            </lane>
        </edge>
        <edge id="gneE48">
            <lane id="gneE48_0">
                <vehicle id="142" pos="129.96" speed="6.80"/>
                <vehicle id="237" pos="172.21" speed="6.56"/>
                <vehicle id="229" pos="242.52" speed="6.54"/>
                <vehicle id="247" pos="260.47" speed="5.74"/>
            </lane>
        </edge>
        <edge id="gneE49">
            <lane id="gneE49_0">
                <vehicle id="141" pos="28.42" speed="7.90"/>
                <vehicle id="278" pos="74.13" speed="7.30"/>
                <vehicle id="169" pos="150.08" speed="7.59"/>
            </lane>
        </edge>
        <edge id="gneE5">
            <lane id="gneE5_0">
                <vehicle id="176" pos="74.85" speed="5.28"/>
            </lane>
        </edge>
        <edge id="gneE50">
            <lane id="gneE50_0">
                <vehicle id="289" pos="5.10" speed="0.00"/>
                <vehicle id="275" pos="75.84" speed="4.72"/>
                <vehicle id="265" pos="117.72" speed="5.67"/>
                <vehicle id="211" pos="136.86" speed="5.80"/>
                <vehicle id="253" pos="194.44" speed="4.80"/>
                <vehicle id="231" pos="304.08" speed="5.23"/>
                <vehicle id="111" pos="322.59" speed="5.21"/>
            </lane>
        </edge>
        <edge id="gneE51">
            <lane id="gneE51_0">
                <vehicle id="249" pos="2.29" speed="6.72"/>
                <vehicle id="243" pos="17.17" speed="5.85"/>
                <vehicle id="263" pos="32.85" speed="6.26"/>
                <vehicle id="245" pos="77.65" speed="5.83"/>
                <vehicle id="B3_1" pos="120.16" speed="6.44"/>
                <vehicle id="189" pos="303.44" speed="6.31"/>
                <vehicle id="171" pos="323.83" speed="6.78"/>
                <vehicle id="232" pos="358.75" speed="4.15"/>
            </lane>
        </edge>
        <edge id="gneE52">
            <lane id="gneE52_0">
                <vehicle id="283" pos="35.09" speed="6.56"/>
                <vehicle id="235" pos="323.19" speed="5.98"/>
            </lane>
        </edge>
        <edge id="gneE53">
            <lane id="gneE53_0">
                <vehicle id="155" pos="44.24" speed="6.59"/>
                <vehicle id="B4_1" pos="237.58" speed="6.94"/>
                <vehicle id="223" pos="284.62" speed="5.94"/>
                <vehicle id="222" pos="343.16" speed="0.00"/>
            </lane>
        </edge>
        <edge id="gneE54">
            <lane id="gneE54_0">
                <vehicle id="100" pos="67.21" speed="6.34"/>
                <vehicle id="79" pos="89.03" speed="5.98"/>
            </lane>
        </edge>
        <edge id="gneE58">
            <lane id="gneE58_0">
                <vehicle id="279" pos="70.37" speed="7.94"/>
                <vehicle id="128" pos="129.34" speed="7.12"/>
                <vehicle id="262" pos="190.46" speed="7.92"/>
            </lane>
        </edge>
        <edge id="gneE59">
            <lane id="gneE59_0">
                <vehicle id="71" pos="78.98" speed="8.41"/>
                <vehicle id="226" pos="141.77" speed="8.96"/>
                <vehicle id="207" pos="287.40" speed="8.91"/>
            </lane>
        </edge>
        <edge id="gneE6">
            <lane id="gneE6_0">
                <vehicle id="130" pos="39.68" speed="7.04"/>
                <vehicle id="233" pos="100.61" speed="7.47"/>
                <vehicle id="271" pos="125.30" speed="6.93"/>
            </lane>
        </edge>
        <edge id="gneE60">
            <lane id="gneE60_0">
                <vehicle id="73" pos="190.26" speed="6.88"/>
                <vehicle id="102" pos="233.12" speed="6.99"/>
                <vehicle id="203" pos="264.32" speed="6.55"/>
                <vehicle id="37" pos="335.67" speed="5.83"/>
            </lane>
        </edge>
        <edge id="gneE61">
            <lane id="gneE61_0">
                <vehicle id="107" pos="215.20" speed="7.35"/>
                <vehicle id="254" pos="253.78" speed="7.35"/>
                <vehicle id="134" pos="296.90" speed="7.10"/>
            </lane>
        </edge>
        <edge id="gneE7">
            <lane id="gneE7_0">
                <vehicle id="250" pos="89.73" speed="8.76"/>
                <vehicle id="64" pos="208.39" speed="8.79"/>
                <vehicle id="260" pos="238.25" speed="8.93"/>
                <vehicle id="228" pos="276.18" speed="8.88"/>
            </lane>
        </edge>
        <edge id="gneE8">
            <lane id="gneE8_0">
                <vehicle id="192" pos="6.57" speed="7.64"/>
                <vehicle id="122" pos="183.78" speed="7.99"/>
                <vehicle id="251" pos="277.30" speed="6.72"/>
            </lane>
        </edge>
    </timestep>
