<?xml version="1.0"?>
<timestep time="290.00">
        <edge id=":gneJ11_9">
            <lane id=":gneJ11_9_0">
                <vehicle id="206" pos="10.61" speed="5.47"/>
            </lane>
        </edge>
        <edge id=":gneJ11_17">
            <lane id=":gneJ11_17_0">
                <vehicle id="213" pos="7.80" speed="5.23"/>
            </lane>
        </edge>
        <edge id=":gneJ15_10">
            <lane id=":gneJ15_10_0">
                <vehicle id="160" pos="4.00" speed="7.93"/>
            </lane>
        </edge>
        <edge id=":gneJ15_18">
            <lane id=":gneJ15_18_0">
                <vehicle id="234" pos="0.60" speed="7.72"/>
            </lane>
        </edge>
        <edge id=":gneJ28_5">
            <lane id=":gneJ28_5_0">
                <vehicle id="219" pos="21.61" speed="9.73"/>
            </lane>
        </edge>
        <edge id=":gneJ4_1">
            <lane id=":gneJ4_1_0">
                <vehicle id="180" pos="5.14" speed="3.47"/>
            </lane>
        </edge>
        <edge id=":gneJ6_2">
            <lane id=":gneJ6_2_0">
                <vehicle id="259" pos="4.10" speed="5.68"/>
            </lane>
        </edge>
        <edge id="gneE10">
            <lane id="gneE10_0">
                <vehicle id="244" pos="22.02" speed="5.66"/>
            </lane>
        </edge>
        <edge id="gneE11">
            <lane id="gneE11_0">
                <vehicle id="281" pos="68.39" speed="8.02"/>
                <vehicle id="182" pos="111.86" speed="8.52"/>
            </lane>
        </edge>
        <edge id="gneE12">
            <lane id="gneE12_0">
                <vehicle id="267" pos="17.77" speed="11.46"/>
                <vehicle id="123" pos="294.94" speed="3.61"/>
            </lane>
        </edge>
        <edge id="gneE14">
            <lane id="gneE14_0">
                <vehicle id="290" pos="5.10" speed="0.00"/>
                <vehicle id="153" pos="54.35" speed="10.46"/>
            </lane>
        </edge>
        <edge id="gneE15">
            <lane id="gneE15_0">
                <vehicle id="230" pos="2.33" speed="8.94"/>
                <vehicle id="212" pos="70.20" speed="7.91"/>
                <vehicle id="242" pos="106.50" speed="8.16"/>
                <vehicle id="196" pos="125.31" speed="8.12"/>
            </lane>
        </edge>
        <edge id="gneE17">
            <lane id="gneE17_0">
                <vehicle id="287" pos="5.10" speed="0.00"/>
                <vehicle id="B2_1" pos="35.24" speed="9.61"/>
                <vehicle id="197" pos="183.36" speed="9.18"/>
            </lane>
        </edge>
        <edge id="gneE18">
            <lane id="gneE18_0">
                <vehicle id="240" pos="136.08" speed="8.79"/>
            </lane>
        </edge>
        <edge id="gneE19">
            <lane id="gneE19_0">
                <vehicle id="273" pos="167.83" speed="12.68"/>
                <vehicle id="239" pos="199.98" speed="0.44"/>
                <vehicle id="236" pos="208.96" speed="1.24"/>
                <vehicle id="156" pos="217.97" speed="1.50"/>
                <vehicle id="159" pos="229.20" speed="3.36"/>
                <vehicle id="139" pos="243.73" speed="5.98"/>
                <vehicle id="135" pos="260.75" speed="7.46"/>
                <vehicle id="81" pos="274.35" speed="4.08"/>
                <vehicle id="104" pos="282.71" speed="0.15"/>
            </lane>
        </edge>
        <edge id="gneE20">
            <lane id="gneE20_0">
                <vehicle id="284" pos="40.61" speed="8.11"/>
                <vehicle id="199" pos="75.39" speed="7.85"/>
                <vehicle id="185" pos="109.43" speed="8.62"/>
                <vehicle id="174" pos="223.30" speed="8.12"/>
                <vehicle id="158" pos="244.85" speed="8.28"/>
            </lane>
        </edge>
        <edge id="gneE23">
            <lane id="gneE23_0">
                <vehicle id="121" pos="44.03" speed="7.44"/>
                <vehicle id="280" pos="60.67" speed="7.12"/>
                <vehicle id="177" pos="80.92" speed="7.60"/>
                <vehicle id="272" pos="113.86" speed="7.85"/>
                <vehicle id="118" pos="132.28" speed="7.44"/>
            </lane>
        </edge>
        <edge id="gneE24">
            <lane id="gneE24_0">
                <vehicle id="175" pos="29.99" speed="12.61"/>
                <vehicle id="190" pos="98.94" speed="11.80"/>
                <vehicle id="161" pos="145.95" speed="12.39"/>
            </lane>
        </edge>
        <edge id="gneE25">
            <lane id="gneE25_0">
                <vehicle id="285" pos="33.13" speed="9.37"/>
                <vehicle id="282" pos="62.31" speed="9.78"/>
                <vehicle id="277" pos="96.80" speed="9.97"/>
                <vehicle id="269" pos="182.26" speed="8.87"/>
            </lane>
        </edge>
        <edge id="gneE26">
            <lane id="gneE26_0">
                <vehicle id="179" pos="44.14" speed="6.73"/>
                <vehicle id="198" pos="155.75" speed="5.85"/>
                <vehicle id="167" pos="172.18" speed="6.08"/>
                <vehicle id="173" pos="214.54" speed="6.58"/>
                <vehicle id="83" pos="245.82" speed="0.00"/>
                <vehicle id="126" pos="253.32" speed="0.00"/>
                <vehicle id="181" pos="260.82" speed="0.00"/>
                <vehicle id="205" pos="268.33" speed="0.00"/>
                <vehicle id="224" pos="275.83" speed="0.00"/>
                <vehicle id="200" pos="283.33" speed="0.00"/>
                <vehicle id="204" pos="290.83" speed="0.00"/>
            </lane>
        </edge>
        <edge id="gneE27">
            <lane id="gneE27_0">
                <vehicle id="154" pos="54.61" speed="4.78"/>
            </lane>
        </edge>
        <edge id="gneE3">
            <lane id="gneE3_0">
                <vehicle id="217" pos="38.83" speed="9.11"/>
            </lane>
        </edge>
        <edge id="gneE30">
            <lane id="gneE30_0">
                <vehicle id="109" pos="23.78" speed="8.09"/>
                <vehicle id="214" pos="170.12" speed="8.84"/>
                <vehicle id="264" pos="209.74" speed="7.81"/>
            </lane>
        </edge>
        <edge id="gneE31">
            <lane id="gneE31_0">
                <vehicle id="209" pos="129.47" speed="8.83"/>
                <vehicle id="210" pos="153.68" speed="7.75"/>
                <vehicle id="193" pos="243.74" speed="8.47"/>
                <vehicle id="127" pos="269.14" speed="7.99"/>
            </lane>
        </edge>
        <edge id="gneE32">
            <lane id="gneE32_0">
                <vehicle id="286" pos="22.71" speed="7.31"/>
                <vehicle id="268" pos="157.54" speed="7.19"/>
                <vehicle id="225" pos="265.97" speed="7.18"/>
                <vehicle id="184" pos="305.26" speed="6.97"/>
            </lane>
        </edge>
        <edge id="gneE38">
            <lane id="gneE38_0">
                <vehicle id="266" pos="20.30" speed="8.77"/>
                <vehicle id="191" pos="192.22" speed="8.48"/>
                <vehicle id="B1_1" pos="324.74" speed="8.87"/>
                <vehicle id="227" pos="342.91" speed="1.13"/>
            </lane>
        </edge>
        <edge id="gneE4">
            <lane id="gneE4_0">
                <vehicle id="221" pos="30.52" speed="10.00"/>
                <vehicle id="261" pos="58.33" speed="9.99"/>
                <vehicle id="257" pos="89.46" speed="9.90"/>
                <vehicle id="256" pos="116.32" speed="9.07"/>
            </lane>
        </edge>
        <edge id="gneE41">
            <lane id="gneE41_0">
                <vehicle id="241" pos="9.69" speed="8.66"/>
            </lane>
        </edge>
        <edge id="gneE43">
            <lane id="gneE43_0">
                <vehicle id="274" pos="73.57" speed="6.68"/>
                <vehicle id="165" pos="92.27" speed="6.91"/>
                <vehicle id="252" pos="108.09" speed="6.33"/>
                <vehicle id="255" pos="213.28" speed="5.15"/>
                <vehicle id="202" pos="224.05" speed="0.16"/>
                <vehicle id="172" pos="231.71" speed="0.01"/>
                <vehicle id="246" pos="239.22" speed="0.00"/>
                <vehicle id="215" pos="246.72" speed="0.00"/>
                <vehicle id="163" pos="254.22" speed="0.00"/>
                <vehicle id="216" pos="261.72" speed="0.00"/>
                <vehicle id="140" pos="269.22" speed="0.00"/>
                <vehicle id="15" pos="276.72" speed="0.00"/>
                <vehicle id="195" pos="284.23" speed="0.00"/>
                <vehicle id="138" pos="291.73" speed="0.00"/>
                <vehicle id="116" pos="299.23" speed="0.00"/>
                <vehicle id="170" pos="306.73" speed="0.00"/>
            </lane>
        </edge>
        <edge id="gneE45">
            <lane id="gneE45_0">
                <vehicle id="187" pos="62.19" speed="8.37"/>
                <vehicle id="276" pos="101.83" speed="8.81"/>
                <vehicle id="248" pos="127.92" speed="7.86"/>
                <vehicle id="113" pos="165.93" speed="8.44"/>
                <vehicle id="136" pos="214.69" speed="8.65"/>
            </lane>
        </edge>
        <edge id="gneE47">
            <lane id="gneE47_0">
                <vehicle id="208" pos="22.81" speed="7.87"/>
                <vehicle id="166" pos="51.25" speed="8.30"/>
                <vehicle id="270" pos="155.13" speed="8.46"/>
            </lane>
        </edge>
        <edge id="gneE48">
            <lane id="gneE48_0">
                <vehicle id="142" pos="136.24" speed="6.28"/>
                <vehicle id="237" pos="178.22" speed="6.02"/>
                <vehicle id="229" pos="248.41" speed="5.89"/>
                <vehicle id="247" pos="267.44" speed="6.97"/>
            </lane>
        </edge>
        <edge id="gneE49">
            <lane id="gneE49_0">
                <vehicle id="141" pos="36.13" speed="7.71"/>
                <vehicle id="278" pos="81.66" speed="7.53"/>
                <vehicle id="169" pos="157.42" speed="7.34"/>
            </lane>
        </edge>
        <edge id="gneE5">
            <lane id="gneE5_0">
                <vehicle id="176" pos="80.16" speed="5.31"/>
            </lane>
        </edge>
        <edge id="gneE50">
            <lane id="gneE50_0">
                <vehicle id="289" pos="7.23" speed="2.13"/>
                <vehicle id="275" pos="81.67" speed="5.83"/>
                <vehicle id="265" pos="122.51" speed="4.79"/>
                <vehicle id="211" pos="142.27" speed="5.42"/>
                <vehicle id="253" pos="200.03" speed="5.60"/>
                <vehicle id="231" pos="309.46" speed="5.38"/>
                <vehicle id="111" pos="327.38" speed="4.79"/>
            </lane>
        </edge>
        <edge id="gneE51">
            <lane id="gneE51_0">
                <vehicle id="249" pos="8.37" speed="6.08"/>
                <vehicle id="243" pos="24.05" speed="6.88"/>
                <vehicle id="263" pos="39.54" speed="6.68"/>
                <vehicle id="245" pos="83.81" speed="6.17"/>
                <vehicle id="B3_1" pos="126.55" speed="6.39"/>
                <vehicle id="189" pos="309.67" speed="6.24"/>
                <vehicle id="171" pos="330.42" speed="6.59"/>
                <vehicle id="232" pos="363.70" speed="4.94"/>
            </lane>
        </edge>
        <edge id="gneE52">
            <lane id="gneE52_0">
                <vehicle id="186" pos="4.58" speed="6.73"/>
                <vehicle id="283" pos="42.07" speed="6.97"/>
                <vehicle id="235" pos="329.21" speed="6.02"/>
            </lane>
        </edge>
        <edge id="gneE53">
            <lane id="gneE53_0">
                <vehicle id="155" pos="50.01" speed="5.77"/>
                <vehicle id="B4_1" pos="244.46" speed="6.89"/>
                <vehicle id="223" pos="290.78" speed="6.16"/>
                <vehicle id="222" pos="343.16" speed="0.00"/>
            </lane>
        </edge>
        <edge id="gneE54">
            <lane id="gneE54_0">
                <vehicle id="148" pos="5.30" speed="6.25"/>
                <vehicle id="100" pos="73.75" speed="6.54"/>
                <vehicle id="79" pos="94.92" speed="5.90"/>
            </lane>
        </edge>
        <edge id="gneE58">
            <lane id="gneE58_0">
                <vehicle id="279" pos="77.81" speed="7.44"/>
                <vehicle id="128" pos="136.87" speed="7.53"/>
                <vehicle id="262" pos="198.36" speed="7.90"/>
            </lane>
        </edge>
        <edge id="gneE59">
            <lane id="gneE59_0">
                <vehicle id="89" pos="8.50" speed="8.84"/>
                <vehicle id="71" pos="87.30" speed="8.32"/>
                <vehicle id="226" pos="149.77" speed="8.00"/>
                <vehicle id="207" pos="296.20" speed="8.80"/>
            </lane>
        </edge>
        <edge id="gneE6">
            <lane id="gneE6_0">
                <vehicle id="130" pos="46.64" speed="6.97"/>
                <vehicle id="233" pos="108.35" speed="7.73"/>
                <vehicle id="271" pos="132.08" speed="6.78"/>
            </lane>
        </edge>
        <edge id="gneE60">
            <lane id="gneE60_0">
                <vehicle id="73" pos="196.65" speed="6.39"/>
                <vehicle id="102" pos="239.07" speed="5.95"/>
                <vehicle id="203" pos="270.70" speed="6.38"/>
            </lane>
        </edge>
        <edge id="gneE61">
            <lane id="gneE61_0">
                <vehicle id="107" pos="221.98" speed="6.77"/>
                <vehicle id="254" pos="261.23" speed="7.45"/>
                <vehicle id="134" pos="304.17" speed="7.27"/>
            </lane>
        </edge>
        <edge id="gneE7">
            <lane id="gneE7_0">
                <vehicle id="250" pos="98.13" speed="8.40"/>
                <vehicle id="64" pos="216.22" speed="7.83"/>
                <vehicle id="260" pos="246.72" speed="8.47"/>
                <vehicle id="228" pos="284.63" speed="8.45"/>
            </lane>
        </edge>
        <edge id="gneE8">
            <lane id="gneE8_0">
                <vehicle id="192" pos="14.34" speed="7.76"/>
                <vehicle id="122" pos="191.74" speed="7.96"/>
                <vehicle id="251" pos="284.30" speed="7.00"/>
            </lane>
        </edge>
    </timestep>
