<?xml version="1.0"?>
<timestep time="291.00">
        <edge id=":gneJ11_6">
            <lane id=":gneJ11_6_0">
                <vehicle id="232" pos="3.56" speed="5.76"/>
            </lane>
        </edge>
        <edge id=":gneJ11_9">
            <lane id=":gneJ11_9_0">
                <vehicle id="206" pos="18.15" speed="7.54"/>
            </lane>
        </edge>
        <edge id=":gneJ11_17">
            <lane id=":gneJ11_17_0">
                <vehicle id="213" pos="14.40" speed="6.59"/>
            </lane>
        </edge>
        <edge id=":gneJ15_10">
            <lane id=":gneJ15_10_0">
                <vehicle id="160" pos="11.05" speed="7.05"/>
            </lane>
        </edge>
        <edge id=":gneJ15_18">
            <lane id=":gneJ15_18_0">
                <vehicle id="234" pos="4.28" speed="3.68"/>
            </lane>
        </edge>
        <edge id="gneE10">
            <lane id="gneE10_0">
                <vehicle id="244" pos="27.21" speed="5.19"/>
            </lane>
        </edge>
        <edge id="gneE11">
            <lane id="gneE11_0">
                <vehicle id="281" pos="77.38" speed="8.99"/>
                <vehicle id="182" pos="120.64" speed="8.78"/>
            </lane>
        </edge>
        <edge id="gneE12">
            <lane id="gneE12_0">
                <vehicle id="267" pos="30.54" speed="12.77"/>
                <vehicle id="123" pos="300.29" speed="5.35"/>
            </lane>
        </edge>
        <edge id="gneE14">
            <lane id="gneE14_0">
                <vehicle id="290" pos="6.52" speed="1.42"/>
                <vehicle id="153" pos="64.11" speed="9.76"/>
            </lane>
        </edge>
        <edge id="gneE15">
            <lane id="gneE15_0">
                <vehicle id="230" pos="10.66" speed="8.34"/>
                <vehicle id="212" pos="78.35" speed="8.16"/>
                <vehicle id="242" pos="114.81" speed="8.32"/>
                <vehicle id="196" pos="133.97" speed="8.66"/>
            </lane>
        </edge>
        <edge id="gneE17">
            <lane id="gneE17_0">
                <vehicle id="287" pos="7.59" speed="2.49"/>
                <vehicle id="B2_1" pos="44.87" speed="9.64"/>
                <vehicle id="197" pos="192.17" speed="8.81"/>
            </lane>
        </edge>
        <edge id="gneE18">
            <lane id="gneE18_0">
                <vehicle id="240" pos="145.33" speed="9.25"/>
            </lane>
        </edge>
        <edge id="gneE19">
            <lane id="gneE19_0">
                <vehicle id="273" pos="180.39" speed="12.56"/>
                <vehicle id="239" pos="200.90" speed="0.93"/>
                <vehicle id="236" pos="210.15" speed="1.20"/>
                <vehicle id="156" pos="220.82" speed="2.85"/>
                <vehicle id="159" pos="234.49" speed="5.29"/>
                <vehicle id="139" pos="252.11" speed="8.37"/>
                <vehicle id="135" pos="265.29" speed="4.54"/>
                <vehicle id="81" pos="275.06" speed="0.71"/>
                <vehicle id="104" pos="282.81" speed="0.09"/>
            </lane>
        </edge>
        <edge id="gneE20">
            <lane id="gneE20_0">
                <vehicle id="284" pos="49.42" speed="8.81"/>
                <vehicle id="199" pos="83.34" speed="7.94"/>
                <vehicle id="185" pos="117.86" speed="8.43"/>
                <vehicle id="174" pos="231.68" speed="8.38"/>
                <vehicle id="158" pos="252.86" speed="8.01"/>
            </lane>
        </edge>
        <edge id="gneE23">
            <lane id="gneE23_0">
                <vehicle id="121" pos="51.89" speed="7.86"/>
                <vehicle id="280" pos="67.76" speed="7.09"/>
                <vehicle id="177" pos="87.70" speed="6.78"/>
                <vehicle id="272" pos="121.16" speed="7.30"/>
                <vehicle id="118" pos="139.69" speed="7.41"/>
            </lane>
        </edge>
        <edge id="gneE24">
            <lane id="gneE24_0">
                <vehicle id="175" pos="42.41" speed="12.41"/>
                <vehicle id="190" pos="111.54" speed="12.60"/>
                <vehicle id="161" pos="158.49" speed="12.53"/>
            </lane>
        </edge>
        <edge id="gneE25">
            <lane id="gneE25_0">
                <vehicle id="285" pos="43.08" speed="9.95"/>
                <vehicle id="282" pos="71.70" speed="9.40"/>
                <vehicle id="277" pos="105.90" speed="9.10"/>
                <vehicle id="269" pos="191.67" speed="9.41"/>
            </lane>
        </edge>
        <edge id="gneE26">
            <lane id="gneE26_0">
                <vehicle id="179" pos="50.54" speed="6.40"/>
                <vehicle id="198" pos="162.37" speed="6.63"/>
                <vehicle id="167" pos="178.69" speed="6.51"/>
                <vehicle id="173" pos="220.66" speed="6.12"/>
                <vehicle id="83" pos="245.82" speed="0.00"/>
                <vehicle id="126" pos="253.32" speed="0.00"/>
                <vehicle id="181" pos="260.82" speed="0.00"/>
                <vehicle id="205" pos="268.33" speed="0.00"/>
                <vehicle id="224" pos="275.83" speed="0.00"/>
                <vehicle id="200" pos="283.33" speed="0.00"/>
                <vehicle id="204" pos="290.83" speed="0.00"/>
            </lane>
        </edge>
        <edge id="gneE27">
            <lane id="gneE27_0">
                <vehicle id="154" pos="60.35" speed="5.74"/>
            </lane>
        </edge>
        <edge id="gneE3">
            <lane id="gneE3_0">
                <vehicle id="217" pos="47.91" speed="9.08"/>
            </lane>
        </edge>
        <edge id="gneE30">
            <lane id="gneE30_0">
                <vehicle id="109" pos="32.29" speed="8.51"/>
                <vehicle id="214" pos="178.47" speed="8.35"/>
                <vehicle id="264" pos="218.24" speed="8.49"/>
            </lane>
        </edge>
        <edge id="gneE31">
            <lane id="gneE31_0">
                <vehicle id="259" pos="6.14" speed="7.18"/>
                <vehicle id="209" pos="137.32" speed="7.85"/>
                <vehicle id="210" pos="161.55" speed="7.87"/>
                <vehicle id="193" pos="251.66" speed="7.92"/>
                <vehicle id="127" pos="277.14" speed="8.01"/>
            </lane>
        </edge>
        <edge id="gneE32">
            <lane id="gneE32_0">
                <vehicle id="286" pos="30.28" speed="7.57"/>
                <vehicle id="268" pos="165.37" speed="7.83"/>
                <vehicle id="225" pos="273.38" speed="7.41"/>
                <vehicle id="184" pos="312.50" speed="7.24"/>
            </lane>
        </edge>
        <edge id="gneE38">
            <lane id="gneE38_0">
                <vehicle id="266" pos="29.25" speed="8.95"/>
                <vehicle id="191" pos="200.18" speed="7.96"/>
                <vehicle id="B1_1" pos="331.10" speed="6.36"/>
                <vehicle id="227" pos="342.95" speed="0.04"/>
            </lane>
        </edge>
        <edge id="gneE4">
            <lane id="gneE4_0">
                <vehicle id="180" pos="0.31" speed="5.52"/>
                <vehicle id="221" pos="39.48" speed="8.96"/>
                <vehicle id="261" pos="67.18" speed="8.86"/>
                <vehicle id="257" pos="99.07" speed="9.61"/>
                <vehicle id="256" pos="125.07" speed="8.75"/>
            </lane>
        </edge>
        <edge id="gneE41">
            <lane id="gneE41_0">
                <vehicle id="241" pos="17.92" speed="8.22"/>
            </lane>
        </edge>
        <edge id="gneE42">
            <lane id="gneE42_0">
                <vehicle id="291" pos="5.10" speed="0.00"/>
            </lane>
        </edge>
        <edge id="gneE43">
            <lane id="gneE43_0">
                <vehicle id="219" pos="6.46" speed="6.94"/>
                <vehicle id="274" pos="80.06" speed="6.49"/>
                <vehicle id="165" pos="98.52" speed="6.25"/>
                <vehicle id="252" pos="113.79" speed="5.70"/>
                <vehicle id="255" pos="215.34" speed="2.06"/>
                <vehicle id="202" pos="224.16" speed="0.12"/>
                <vehicle id="172" pos="231.72" speed="0.00"/>
                <vehicle id="246" pos="239.22" speed="0.00"/>
                <vehicle id="215" pos="246.72" speed="0.00"/>
                <vehicle id="163" pos="254.22" speed="0.00"/>
                <vehicle id="216" pos="261.72" speed="0.00"/>
                <vehicle id="140" pos="269.22" speed="0.00"/>
                <vehicle id="15" pos="276.73" speed="0.00"/>
                <vehicle id="195" pos="284.23" speed="0.00"/>
                <vehicle id="138" pos="291.73" speed="0.00"/>
                <vehicle id="116" pos="299.23" speed="0.00"/>
                <vehicle id="170" pos="306.73" speed="0.00"/>
            </lane>
        </edge>
        <edge id="gneE45">
            <lane id="gneE45_0">
                <vehicle id="187" pos="70.45" speed="8.26"/>
                <vehicle id="276" pos="110.40" speed="8.57"/>
                <vehicle id="248" pos="136.40" speed="8.48"/>
                <vehicle id="113" pos="174.60" speed="8.68"/>
                <vehicle id="136" pos="223.25" speed="8.56"/>
            </lane>
        </edge>
        <edge id="gneE47">
            <lane id="gneE47_0">
                <vehicle id="208" pos="31.57" speed="8.76"/>
                <vehicle id="166" pos="60.21" speed="8.96"/>
                <vehicle id="270" pos="163.87" speed="8.74"/>
            </lane>
        </edge>
        <edge id="gneE48">
            <lane id="gneE48_0">
                <vehicle id="142" pos="142.39" speed="6.15"/>
                <vehicle id="237" pos="183.98" speed="5.76"/>
                <vehicle id="229" pos="254.11" speed="5.70"/>
                <vehicle id="247" pos="273.24" speed="5.80"/>
            </lane>
        </edge>
        <edge id="gneE49">
            <lane id="gneE49_0">
                <vehicle id="141" pos="43.03" speed="6.91"/>
                <vehicle id="278" pos="88.80" speed="7.14"/>
                <vehicle id="169" pos="164.85" speed="7.43"/>
            </lane>
        </edge>
        <edge id="gneE5">
            <lane id="gneE5_0">
                <vehicle id="176" pos="85.57" speed="5.41"/>
            </lane>
        </edge>
        <edge id="gneE50">
            <lane id="gneE50_0">
                <vehicle id="289" pos="11.35" speed="4.12"/>
                <vehicle id="275" pos="87.15" speed="5.48"/>
                <vehicle id="265" pos="128.35" speed="5.84"/>
                <vehicle id="211" pos="147.57" speed="5.30"/>
                <vehicle id="253" pos="204.92" speed="4.88"/>
                <vehicle id="231" pos="315.03" speed="5.57"/>
                <vehicle id="111" pos="332.44" speed="5.06"/>
            </lane>
        </edge>
        <edge id="gneE51">
            <lane id="gneE51_0">
                <vehicle id="249" pos="15.25" speed="6.88"/>
                <vehicle id="243" pos="29.83" speed="5.78"/>
                <vehicle id="263" pos="46.31" speed="6.78"/>
                <vehicle id="245" pos="90.18" speed="6.37"/>
                <vehicle id="B3_1" pos="133.49" speed="6.94"/>
                <vehicle id="189" pos="315.61" speed="5.94"/>
                <vehicle id="171" pos="336.48" speed="6.06"/>
            </lane>
        </edge>
        <edge id="gneE52">
            <lane id="gneE52_0">
                <vehicle id="186" pos="10.34" speed="5.76"/>
                <vehicle id="283" pos="48.26" speed="6.20"/>
                <vehicle id="235" pos="335.37" speed="6.16"/>
            </lane>
        </edge>
        <edge id="gneE53">
            <lane id="gneE53_0">
                <vehicle id="155" pos="57.00" speed="6.99"/>
                <vehicle id="B4_1" pos="251.01" speed="6.55"/>
                <vehicle id="223" pos="297.63" speed="6.85"/>
                <vehicle id="222" pos="343.16" speed="0.00"/>
            </lane>
        </edge>
        <edge id="gneE54">
            <lane id="gneE54_0">
                <vehicle id="148" pos="11.68" speed="6.38"/>
                <vehicle id="100" pos="80.00" speed="6.25"/>
                <vehicle id="79" pos="101.31" speed="6.39"/>
            </lane>
        </edge>
        <edge id="gneE58">
            <lane id="gneE58_0">
                <vehicle id="279" pos="85.16" speed="7.35"/>
                <vehicle id="128" pos="144.42" speed="7.54"/>
                <vehicle id="262" pos="205.65" speed="7.29"/>
            </lane>
        </edge>
        <edge id="gneE59">
            <lane id="gneE59_0">
                <vehicle id="288" pos="5.10" speed="0.00"/>
                <vehicle id="89" pos="16.92" speed="8.42"/>
                <vehicle id="71" pos="95.79" speed="8.49"/>
                <vehicle id="226" pos="158.04" speed="8.27"/>
                <vehicle id="207" pos="304.04" speed="7.84"/>
            </lane>
        </edge>
        <edge id="gneE6">
            <lane id="gneE6_0">
                <vehicle id="130" pos="53.96" speed="7.31"/>
                <vehicle id="233" pos="115.32" speed="6.97"/>
                <vehicle id="271" pos="139.12" speed="7.04"/>
            </lane>
        </edge>
        <edge id="gneE60">
            <lane id="gneE60_0">
                <vehicle id="73" pos="203.05" speed="6.39"/>
                <vehicle id="102" pos="245.51" speed="6.44"/>
                <vehicle id="203" pos="277.64" speed="6.94"/>
            </lane>
        </edge>
        <edge id="gneE61">
            <lane id="gneE61_0">
                <vehicle id="107" pos="228.89" speed="6.92"/>
                <vehicle id="254" pos="268.89" speed="7.66"/>
                <vehicle id="134" pos="311.13" speed="6.96"/>
            </lane>
        </edge>
        <edge id="gneE7">
            <lane id="gneE7_0">
                <vehicle id="250" pos="106.47" speed="8.34"/>
                <vehicle id="64" pos="224.48" speed="8.26"/>
                <vehicle id="260" pos="254.56" speed="7.84"/>
                <vehicle id="228" pos="292.94" speed="8.30"/>
            </lane>
        </edge>
        <edge id="gneE8">
            <lane id="gneE8_0">
                <vehicle id="192" pos="21.06" speed="6.72"/>
                <vehicle id="122" pos="198.64" speed="6.90"/>
                <vehicle id="251" pos="291.41" speed="7.11"/>
            </lane>
        </edge>
    </timestep>
