<?xml version="1.0"?>
<timestep time="298.00">
        <edge id=":gneJ11_1">
            <lane id=":gneJ11_1_0">
                <vehicle id="190" pos="11.53" speed="12.06"/>
            </lane>
        </edge>
        <edge id=":gneJ3_11">
            <lane id=":gneJ3_11_0">
                <vehicle id="257" pos="2.53" speed="4.03"/>
            </lane>
        </edge>
        <edge id=":gneJ4_1">
            <lane id=":gneJ4_1_0">
                <vehicle id="123" pos="1.61" speed="1.71"/>
            </lane>
        </edge>
        <edge id=":gneJ8_11">
            <lane id=":gneJ8_11_0">
                <vehicle id="182" pos="5.14" speed="0.05"/>
            </lane>
        </edge>
        <edge id="gneE1">
            <lane id="gneE1_0">
                <vehicle id="293" pos="24.19" speed="3.73"/>
            </lane>
        </edge>
        <edge id="gneE10">
            <lane id="gneE10_0">
                <vehicle id="244" pos="63.78" speed="5.54"/>
            </lane>
        </edge>
        <edge id="gneE11">
            <lane id="gneE11_0">
                <vehicle id="228" pos="44.11" speed="8.42"/>
                <vehicle id="281" pos="135.67" speed="7.72"/>
            </lane>
        </edge>
        <edge id="gneE12">
            <lane id="gneE12_0">
                <vehicle id="292" pos="46.98" speed="12.59"/>
                <vehicle id="267" pos="124.53" speed="13.73"/>
            </lane>
        </edge>
        <edge id="gneE13">
            <lane id="gneE13_0">
                <vehicle id="271" pos="36.38" speed="9.85"/>
            </lane>
        </edge>
        <edge id="gneE14">
            <lane id="gneE14_0">
                <vehicle id="290" pos="60.42" speed="9.74"/>
                <vehicle id="153" pos="138.80" speed="10.98"/>
            </lane>
        </edge>
        <edge id="gneE15">
            <lane id="gneE15_0">
                <vehicle id="158" pos="26.12" speed="8.75"/>
                <vehicle id="230" pos="67.16" speed="7.81"/>
                <vehicle id="212" pos="136.56" speed="8.54"/>
            </lane>
        </edge>
        <edge id="gneE17">
            <lane id="gneE17_0">
                <vehicle id="287" pos="67.25" speed="9.66"/>
                <vehicle id="B2_1" pos="111.13" speed="9.92"/>
                <vehicle id="197" pos="258.57" speed="9.83"/>
            </lane>
        </edge>
        <edge id="gneE18">
            <lane id="gneE18_0">
                <vehicle id="256" pos="7.70" speed="9.40"/>
                <vehicle id="240" pos="211.49" speed="9.67"/>
            </lane>
        </edge>
        <edge id="gneE19">
            <lane id="gneE19_0">
                <vehicle id="273" pos="215.52" speed="4.83"/>
                <vehicle id="239" pos="228.33" speed="4.53"/>
                <vehicle id="236" pos="236.85" speed="0.52"/>
                <vehicle id="156" pos="245.04" speed="0.27"/>
                <vehicle id="159" pos="252.76" speed="0.09"/>
                <vehicle id="139" pos="260.32" speed="0.04"/>
                <vehicle id="135" pos="267.84" speed="0.00"/>
                <vehicle id="81" pos="275.34" speed="0.00"/>
                <vehicle id="104" pos="282.84" speed="0.00"/>
            </lane>
        </edge>
        <edge id="gneE20">
            <lane id="gneE20_0">
                <vehicle id="161" pos="28.71" speed="8.59"/>
                <vehicle id="284" pos="107.20" speed="8.35"/>
                <vehicle id="199" pos="142.82" speed="8.93"/>
                <vehicle id="185" pos="176.66" speed="8.86"/>
            </lane>
        </edge>
        <edge id="gneE23">
            <lane id="gneE23_0">
                <vehicle id="171" pos="6.44" speed="7.26"/>
                <vehicle id="232" pos="43.63" speed="6.96"/>
                <vehicle id="121" pos="102.82" speed="6.88"/>
                <vehicle id="280" pos="121.04" speed="7.93"/>
                <vehicle id="177" pos="139.56" speed="7.37"/>
                <vehicle id="272" pos="173.28" speed="7.94"/>
            </lane>
        </edge>
        <edge id="gneE24">
            <lane id="gneE24_0">
                <vehicle id="170" pos="0.30" speed="8.14"/>
                <vehicle id="175" pos="128.53" speed="12.32"/>
            </lane>
        </edge>
        <edge id="gneE25">
            <lane id="gneE25_0">
                <vehicle id="285" pos="110.37" speed="9.64"/>
                <vehicle id="282" pos="136.46" speed="9.30"/>
                <vehicle id="277" pos="169.37" speed="9.00"/>
                <vehicle id="269" pos="255.87" speed="9.28"/>
            </lane>
        </edge>
        <edge id="gneE26">
            <lane id="gneE26_0">
                <vehicle id="242" pos="2.60" speed="5.87"/>
                <vehicle id="196" pos="20.36" speed="6.74"/>
                <vehicle id="179" pos="96.29" speed="6.85"/>
                <vehicle id="198" pos="206.69" speed="6.26"/>
                <vehicle id="167" pos="223.22" speed="5.93"/>
                <vehicle id="173" pos="238.32" speed="0.00"/>
                <vehicle id="83" pos="245.82" speed="0.00"/>
                <vehicle id="126" pos="253.32" speed="0.00"/>
                <vehicle id="181" pos="260.82" speed="0.00"/>
                <vehicle id="205" pos="268.33" speed="0.00"/>
                <vehicle id="224" pos="275.83" speed="0.00"/>
                <vehicle id="200" pos="283.33" speed="0.00"/>
                <vehicle id="204" pos="290.83" speed="0.00"/>
            </lane>
        </edge>
        <edge id="gneE27">
            <lane id="gneE27_0">
                <vehicle id="160" pos="37.42" speed="5.84"/>
                <vehicle id="154" pos="98.75" speed="5.05"/>
            </lane>
        </edge>
        <edge id="gneE28">
            <lane id="gneE28_0">
                <vehicle id="193" pos="14.01" speed="8.61"/>
                <vehicle id="127" pos="40.30" speed="7.91"/>
            </lane>
        </edge>
        <edge id="gneE3">
            <lane id="gneE3_0">
                <vehicle id="217" pos="114.00" speed="9.41"/>
            </lane>
        </edge>
        <edge id="gneE30">
            <lane id="gneE30_0">
                <vehicle id="109" pos="91.86" speed="7.93"/>
                <vehicle id="214" pos="235.99" speed="8.07"/>
                <vehicle id="264" pos="277.15" speed="8.44"/>
            </lane>
        </edge>
        <edge id="gneE31">
            <lane id="gneE31_0">
                <vehicle id="260" pos="0.79" speed="8.01"/>
                <vehicle id="259" pos="64.54" speed="8.77"/>
                <vehicle id="209" pos="194.40" speed="8.56"/>
                <vehicle id="210" pos="221.15" speed="8.28"/>
            </lane>
        </edge>
        <edge id="gneE32">
            <lane id="gneE32_0">
                <vehicle id="286" pos="80.42" speed="7.12"/>
                <vehicle id="268" pos="215.42" speed="7.22"/>
                <vehicle id="225" pos="326.04" speed="7.36"/>
            </lane>
        </edge>
        <edge id="gneE38">
            <lane id="gneE38_0">
                <vehicle id="295" pos="17.17" speed="6.05"/>
                <vehicle id="266" pos="87.92" speed="8.88"/>
                <vehicle id="191" pos="258.29" speed="8.49"/>
                <vehicle id="B1_1" pos="335.48" speed="0.00"/>
                <vehicle id="227" pos="342.98" speed="0.00"/>
            </lane>
        </edge>
        <edge id="gneE4">
            <lane id="gneE4_0">
                <vehicle id="233" pos="13.12" speed="9.24"/>
                <vehicle id="180" pos="63.42" speed="9.46"/>
                <vehicle id="221" pos="105.01" speed="9.64"/>
                <vehicle id="261" pos="133.26" speed="9.27"/>
            </lane>
        </edge>
        <edge id="gneE41">
            <lane id="gneE41_0">
                <vehicle id="184" pos="20.53" speed="8.86"/>
                <vehicle id="241" pos="75.99" speed="8.75"/>
            </lane>
        </edge>
        <edge id="gneE42">
            <lane id="gneE42_0">
                <vehicle id="291" pos="46.23" speed="7.37"/>
            </lane>
        </edge>
        <edge id="gneE43">
            <lane id="gneE43_0">
                <vehicle id="219" pos="50.64" speed="6.74"/>
                <vehicle id="274" pos="124.91" speed="6.94"/>
                <vehicle id="165" pos="142.26" speed="5.88"/>
                <vehicle id="252" pos="159.39" speed="6.57"/>
                <vehicle id="255" pos="216.72" speed="0.00"/>
                <vehicle id="202" pos="224.22" speed="0.00"/>
                <vehicle id="172" pos="231.72" speed="0.00"/>
                <vehicle id="246" pos="239.22" speed="0.00"/>
                <vehicle id="215" pos="246.72" speed="0.00"/>
                <vehicle id="163" pos="254.22" speed="0.00"/>
                <vehicle id="216" pos="261.72" speed="0.00"/>
                <vehicle id="140" pos="269.22" speed="0.00"/>
                <vehicle id="15" pos="276.73" speed="0.00"/>
                <vehicle id="195" pos="285.18" speed="0.95"/>
                <vehicle id="138" pos="295.24" speed="2.56"/>
                <vehicle id="116" pos="306.69" speed="2.61"/>
            </lane>
        </edge>
        <edge id="gneE45">
            <lane id="gneE45_0">
                <vehicle id="234" pos="32.28" speed="8.13"/>
                <vehicle id="187" pos="129.77" speed="8.40"/>
                <vehicle id="276" pos="168.91" speed="8.79"/>
                <vehicle id="248" pos="194.27" speed="7.82"/>
                <vehicle id="113" pos="232.02" speed="8.76"/>
                <vehicle id="136" pos="281.99" speed="8.29"/>
            </lane>
        </edge>
        <edge id="gneE47">
            <lane id="gneE47_0">
                <vehicle id="208" pos="89.61" speed="8.40"/>
                <vehicle id="166" pos="119.22" speed="8.85"/>
            </lane>
        </edge>
        <edge id="gneE48">
            <lane id="gneE48_0">
                <vehicle id="297" pos="6.74" speed="1.64"/>
                <vehicle id="142" pos="187.58" speed="6.29"/>
                <vehicle id="237" pos="228.58" speed="6.58"/>
                <vehicle id="229" pos="298.96" speed="6.31"/>
                <vehicle id="247" pos="316.72" speed="4.87"/>
            </lane>
        </edge>
        <edge id="gneE49">
            <lane id="gneE49_0">
                <vehicle id="141" pos="92.60" speed="7.41"/>
                <vehicle id="278" pos="140.49" speed="7.32"/>
                <vehicle id="169" pos="215.76" speed="7.07"/>
            </lane>
        </edge>
        <edge id="gneE5">
            <lane id="gneE5_0">
                <vehicle id="176" pos="124.24" speed="5.88"/>
            </lane>
        </edge>
        <edge id="gneE50">
            <lane id="gneE50_0">
                <vehicle id="289" pos="48.56" speed="5.81"/>
                <vehicle id="275" pos="124.24" speed="5.65"/>
                <vehicle id="265" pos="166.64" speed="5.37"/>
                <vehicle id="211" pos="185.93" speed="5.82"/>
                <vehicle id="253" pos="240.03" speed="4.86"/>
                <vehicle id="231" pos="352.46" speed="4.94"/>
            </lane>
        </edge>
        <edge id="gneE51">
            <lane id="gneE51_0">
                <vehicle id="270" pos="5.20" speed="6.28"/>
                <vehicle id="249" pos="57.32" speed="6.15"/>
                <vehicle id="243" pos="71.52" speed="6.00"/>
                <vehicle id="263" pos="90.45" speed="6.10"/>
                <vehicle id="245" pos="134.96" speed="6.29"/>
                <vehicle id="B3_1" pos="178.77" speed="6.88"/>
                <vehicle id="189" pos="358.57" speed="6.43"/>
            </lane>
        </edge>
        <edge id="gneE52">
            <lane id="gneE52_0">
                <vehicle id="296" pos="11.51" speed="4.33"/>
                <vehicle id="213" pos="35.26" speed="6.10"/>
                <vehicle id="186" pos="56.26" speed="6.78"/>
                <vehicle id="283" pos="94.11" speed="6.88"/>
            </lane>
        </edge>
        <edge id="gneE53">
            <lane id="gneE53_0">
                <vehicle id="155" pos="100.98" speed="6.48"/>
                <vehicle id="B4_1" pos="296.58" speed="6.78"/>
                <vehicle id="223" pos="335.43" speed="0.76"/>
                <vehicle id="222" pos="343.16" speed="0.00"/>
            </lane>
        </edge>
        <edge id="gneE54">
            <lane id="gneE54_0">
                <vehicle id="235" pos="26.23" speed="6.41"/>
                <vehicle id="148" pos="55.51" speed="6.47"/>
                <vehicle id="100" pos="124.20" speed="6.30"/>
            </lane>
        </edge>
        <edge id="gneE56">
            <lane id="gneE56_0">
                <vehicle id="206" pos="57.21" speed="8.23"/>
            </lane>
        </edge>
        <edge id="gneE58">
            <lane id="gneE58_0">
                <vehicle id="294" pos="23.58" speed="6.93"/>
                <vehicle id="279" pos="135.67" speed="7.61"/>
                <vehicle id="128" pos="196.68" speed="7.08"/>
                <vehicle id="262" pos="255.19" speed="7.36"/>
            </lane>
        </edge>
        <edge id="gneE59">
            <lane id="gneE59_0">
                <vehicle id="134" pos="26.37" speed="8.40"/>
                <vehicle id="288" pos="53.95" speed="7.72"/>
                <vehicle id="89" pos="76.07" speed="8.59"/>
                <vehicle id="71" pos="155.62" speed="8.69"/>
                <vehicle id="226" pos="217.01" speed="8.46"/>
                <vehicle id="207" pos="317.72" speed="0.01"/>
            </lane>
        </edge>
        <edge id="gneE6">
            <lane id="gneE6_0">
                <vehicle id="251" pos="32.30" speed="7.85"/>
                <vehicle id="130" pos="105.00" speed="6.78"/>
            </lane>
        </edge>
        <edge id="gneE60">
            <lane id="gneE60_0">
                <vehicle id="73" pos="247.26" speed="6.63"/>
                <vehicle id="102" pos="290.19" speed="6.18"/>
                <vehicle id="203" pos="321.83" speed="6.28"/>
            </lane>
        </edge>
        <edge id="gneE61">
            <lane id="gneE61_0">
                <vehicle id="107" pos="280.04" speed="7.80"/>
                <vehicle id="254" pos="320.55" speed="7.11"/>
            </lane>
        </edge>
        <edge id="gneE7">
            <lane id="gneE7_0">
                <vehicle id="250" pos="163.26" speed="8.62"/>
                <vehicle id="64" pos="280.65" speed="7.89"/>
            </lane>
        </edge>
        <edge id="gneE8">
            <lane id="gneE8_0">
                <vehicle id="298" pos="5.10" speed="0.00"/>
                <vehicle id="192" pos="73.17" speed="7.69"/>
                <vehicle id="122" pos="250.41" speed="7.97"/>
            </lane>
        </edge>
    </timestep>
