<?xml version="1.0"?>
<timestep time="300.00">
        <edge id=":gneJ11_11">
            <lane id=":gneJ11_11_0">
                <vehicle id="189" pos="4.00" speed="6.13"/>
            </lane>
        </edge>
        <edge id=":gneJ11_21">
            <lane id=":gneJ11_21_0">
                <vehicle id="222" pos="2.33" speed="2.43"/>
            </lane>
        </edge>
        <edge id=":gneJ15_3">
            <lane id=":gneJ15_3_0">
                <vehicle id="227" pos="7.37" speed="4.88"/>
            </lane>
        </edge>
        <edge id=":gneJ15_11">
            <lane id=":gneJ15_11_0">
                <vehicle id="272" pos="2.04" speed="6.62"/>
            </lane>
        </edge>
        <edge id=":gneJ3_13">
            <lane id=":gneJ3_13_0">
                <vehicle id="257" pos="12.84" speed="8.20"/>
            </lane>
        </edge>
        <edge id=":gneJ6_1">
            <lane id=":gneJ6_1_0">
                <vehicle id="264" pos="0.15" speed="7.99"/>
            </lane>
        </edge>
        <edge id=":gneJ8_11">
            <lane id=":gneJ8_11_0">
                <vehicle id="182" pos="5.14" speed="0.00"/>
            </lane>
        </edge>
        <edge id="gneE1">
            <lane id="gneE1_0">
                <vehicle id="293" pos="33.49" speed="4.83"/>
            </lane>
        </edge>
        <edge id="gneE10">
            <lane id="gneE10_0">
                <vehicle id="244" pos="75.00" speed="5.92"/>
            </lane>
        </edge>
        <edge id="gneE11">
            <lane id="gneE11_0">
                <vehicle id="228" pos="59.94" speed="8.08"/>
            </lane>
        </edge>
        <edge id="gneE12">
            <lane id="gneE12_0">
                <vehicle id="281" pos="9.79" speed="10.07"/>
                <vehicle id="292" pos="73.52" speed="13.23"/>
                <vehicle id="267" pos="151.45" speed="13.72"/>
            </lane>
        </edge>
        <edge id="gneE13">
            <lane id="gneE13_0">
                <vehicle id="271" pos="55.94" speed="9.94"/>
            </lane>
        </edge>
        <edge id="gneE14">
            <lane id="gneE14_0">
                <vehicle id="299" pos="7.05" speed="1.95"/>
                <vehicle id="290" pos="81.90" speed="10.92"/>
                <vehicle id="153" pos="156.29" speed="7.01"/>
            </lane>
        </edge>
        <edge id="gneE15">
            <lane id="gneE15_0">
                <vehicle id="158" pos="42.56" speed="8.67"/>
                <vehicle id="230" pos="84.68" speed="8.97"/>
                <vehicle id="212" pos="153.31" speed="8.70"/>
            </lane>
        </edge>
        <edge id="gneE17">
            <lane id="gneE17_0">
                <vehicle id="287" pos="85.15" speed="8.80"/>
                <vehicle id="B2_1" pos="129.66" speed="8.94"/>
                <vehicle id="197" pos="278.12" speed="9.62"/>
            </lane>
        </edge>
        <edge id="gneE18">
            <lane id="gneE18_0">
                <vehicle id="256" pos="27.06" speed="9.51"/>
                <vehicle id="240" pos="230.77" speed="9.43"/>
            </lane>
        </edge>
        <edge id="gneE19">
            <lane id="gneE19_0">
                <vehicle id="273" pos="220.46" speed="0.96"/>
                <vehicle id="239" pos="229.79" speed="0.87"/>
                <vehicle id="236" pos="237.65" speed="0.30"/>
                <vehicle id="156" pos="245.29" speed="0.11"/>
                <vehicle id="159" pos="252.83" speed="0.02"/>
                <vehicle id="139" pos="260.33" speed="0.00"/>
                <vehicle id="135" pos="267.84" speed="0.00"/>
                <vehicle id="81" pos="275.34" speed="0.00"/>
                <vehicle id="104" pos="282.84" speed="0.00"/>
            </lane>
        </edge>
        <edge id="gneE20">
            <lane id="gneE20_0">
                <vehicle id="161" pos="45.72" speed="8.21"/>
                <vehicle id="284" pos="123.77" speed="8.70"/>
                <vehicle id="199" pos="159.35" speed="8.45"/>
                <vehicle id="185" pos="193.39" speed="8.39"/>
            </lane>
        </edge>
        <edge id="gneE23">
            <lane id="gneE23_0">
                <vehicle id="171" pos="21.17" speed="7.54"/>
                <vehicle id="232" pos="58.10" speed="7.67"/>
                <vehicle id="121" pos="117.43" speed="6.82"/>
                <vehicle id="280" pos="136.81" speed="7.85"/>
                <vehicle id="177" pos="153.66" speed="7.22"/>
            </lane>
        </edge>
        <edge id="gneE24">
            <lane id="gneE24_0">
                <vehicle id="170" pos="23.29" speed="12.32"/>
                <vehicle id="175" pos="153.79" speed="12.75"/>
            </lane>
        </edge>
        <edge id="gneE25">
            <lane id="gneE25_0">
                <vehicle id="285" pos="128.89" speed="9.15"/>
                <vehicle id="282" pos="155.47" speed="9.82"/>
                <vehicle id="277" pos="188.39" speed="9.53"/>
                <vehicle id="269" pos="273.92" speed="9.17"/>
            </lane>
        </edge>
        <edge id="gneE26">
            <lane id="gneE26_0">
                <vehicle id="242" pos="15.37" speed="6.27"/>
                <vehicle id="196" pos="32.87" speed="6.38"/>
                <vehicle id="179" pos="109.28" speed="6.09"/>
                <vehicle id="198" pos="219.09" speed="5.90"/>
                <vehicle id="167" pos="230.34" speed="2.04"/>
                <vehicle id="173" pos="238.32" speed="0.00"/>
                <vehicle id="83" pos="245.82" speed="0.00"/>
                <vehicle id="126" pos="253.32" speed="0.00"/>
                <vehicle id="181" pos="260.82" speed="0.00"/>
                <vehicle id="205" pos="268.33" speed="0.00"/>
                <vehicle id="224" pos="275.83" speed="0.00"/>
                <vehicle id="200" pos="283.33" speed="0.00"/>
                <vehicle id="204" pos="290.83" speed="0.00"/>
            </lane>
        </edge>
        <edge id="gneE27">
            <lane id="gneE27_0">
                <vehicle id="300" pos="5.10" speed="0.00"/>
                <vehicle id="160" pos="47.76" speed="4.91"/>
                <vehicle id="154" pos="109.67" speed="4.93"/>
            </lane>
        </edge>
        <edge id="gneE28">
            <lane id="gneE28_0">
                <vehicle id="193" pos="31.10" speed="8.44"/>
                <vehicle id="127" pos="56.49" speed="7.78"/>
            </lane>
        </edge>
        <edge id="gneE3">
            <lane id="gneE3_0">
                <vehicle id="217" pos="133.12" speed="9.30"/>
            </lane>
        </edge>
        <edge id="gneE30">
            <lane id="gneE30_0">
                <vehicle id="109" pos="108.04" speed="8.00"/>
                <vehicle id="214" pos="253.09" speed="8.74"/>
            </lane>
        </edge>
        <edge id="gneE31">
            <lane id="gneE31_0">
                <vehicle id="260" pos="18.23" speed="8.97"/>
                <vehicle id="259" pos="81.76" speed="8.59"/>
                <vehicle id="209" pos="211.30" speed="8.39"/>
                <vehicle id="210" pos="238.26" speed="8.54"/>
            </lane>
        </edge>
        <edge id="gneE32">
            <lane id="gneE32_0">
                <vehicle id="286" pos="95.96" speed="7.86"/>
                <vehicle id="268" pos="230.37" speed="7.77"/>
                <vehicle id="225" pos="341.45" speed="7.71"/>
            </lane>
        </edge>
        <edge id="gneE38">
            <lane id="gneE38_0">
                <vehicle id="295" pos="33.69" speed="7.89"/>
                <vehicle id="266" pos="104.87" speed="8.36"/>
                <vehicle id="191" pos="274.08" speed="7.93"/>
                <vehicle id="B1_1" pos="337.09" speed="1.62"/>
            </lane>
        </edge>
        <edge id="gneE4">
            <lane id="gneE4_0">
                <vehicle id="123" pos="0.50" speed="5.50"/>
                <vehicle id="233" pos="31.59" speed="8.88"/>
                <vehicle id="180" pos="81.76" speed="9.60"/>
                <vehicle id="221" pos="123.50" speed="9.60"/>
                <vehicle id="261" pos="152.18" speed="9.33"/>
            </lane>
        </edge>
        <edge id="gneE41">
            <lane id="gneE41_0">
                <vehicle id="184" pos="37.94" speed="8.75"/>
                <vehicle id="241" pos="92.42" speed="8.39"/>
            </lane>
        </edge>
        <edge id="gneE42">
            <lane id="gneE42_0">
                <vehicle id="291" pos="61.76" speed="7.68"/>
            </lane>
        </edge>
        <edge id="gneE43">
            <lane id="gneE43_0">
                <vehicle id="219" pos="63.43" speed="6.61"/>
                <vehicle id="274" pos="137.68" speed="6.63"/>
                <vehicle id="165" pos="155.93" speed="6.68"/>
                <vehicle id="252" pos="172.37" speed="6.99"/>
                <vehicle id="255" pos="216.72" speed="0.00"/>
                <vehicle id="202" pos="224.22" speed="0.00"/>
                <vehicle id="172" pos="231.72" speed="0.00"/>
                <vehicle id="246" pos="239.22" speed="0.00"/>
                <vehicle id="215" pos="246.72" speed="0.00"/>
                <vehicle id="163" pos="254.22" speed="0.00"/>
                <vehicle id="216" pos="261.72" speed="0.00"/>
                <vehicle id="140" pos="269.76" speed="0.54"/>
                <vehicle id="15" pos="278.58" speed="1.23"/>
                <vehicle id="195" pos="289.77" speed="2.83"/>
                <vehicle id="138" pos="299.00" speed="1.04"/>
                <vehicle id="116" pos="306.73" speed="0.01"/>
            </lane>
        </edge>
        <edge id="gneE45">
            <lane id="gneE45_0">
                <vehicle id="234" pos="49.63" speed="8.43"/>
                <vehicle id="187" pos="146.83" speed="8.66"/>
                <vehicle id="276" pos="185.63" speed="7.97"/>
                <vehicle id="248" pos="210.89" speed="8.87"/>
                <vehicle id="113" pos="248.74" speed="7.86"/>
                <vehicle id="136" pos="297.97" speed="8.13"/>
            </lane>
        </edge>
        <edge id="gneE47">
            <lane id="gneE47_0">
                <vehicle id="208" pos="105.95" speed="8.13"/>
                <vehicle id="166" pos="135.05" speed="7.79"/>
            </lane>
        </edge>
        <edge id="gneE48">
            <lane id="gneE48_0">
                <vehicle id="297" pos="15.48" speed="5.56"/>
                <vehicle id="142" pos="200.10" speed="6.49"/>
                <vehicle id="237" pos="242.21" speed="6.96"/>
                <vehicle id="229" pos="309.55" speed="3.76"/>
                <vehicle id="247" pos="319.18" speed="0.57"/>
            </lane>
        </edge>
        <edge id="gneE49">
            <lane id="gneE49_0">
                <vehicle id="141" pos="107.33" speed="6.91"/>
                <vehicle id="278" pos="155.44" speed="7.73"/>
                <vehicle id="169" pos="229.70" speed="7.15"/>
            </lane>
        </edge>
        <edge id="gneE5">
            <lane id="gneE5_0">
                <vehicle id="176" pos="134.50" speed="5.24"/>
            </lane>
        </edge>
        <edge id="gneE50">
            <lane id="gneE50_0">
                <vehicle id="289" pos="59.65" speed="5.42"/>
                <vehicle id="275" pos="135.74" speed="5.91"/>
                <vehicle id="265" pos="177.23" speed="5.26"/>
                <vehicle id="211" pos="197.62" speed="6.00"/>
                <vehicle id="253" pos="250.83" speed="5.96"/>
                <vehicle id="231" pos="363.40" speed="5.97"/>
            </lane>
        </edge>
        <edge id="gneE51">
            <lane id="gneE51_0">
                <vehicle id="270" pos="18.19" speed="6.97"/>
                <vehicle id="249" pos="68.73" speed="5.77"/>
                <vehicle id="243" pos="85.11" speed="6.90"/>
                <vehicle id="263" pos="104.14" speed="6.85"/>
                <vehicle id="245" pos="147.61" speed="5.97"/>
                <vehicle id="B3_1" pos="191.98" speed="6.26"/>
            </lane>
        </edge>
        <edge id="gneE52">
            <lane id="gneE52_0">
                <vehicle id="296" pos="24.33" speed="6.96"/>
                <vehicle id="213" pos="48.39" speed="6.72"/>
                <vehicle id="186" pos="69.08" speed="6.96"/>
                <vehicle id="283" pos="105.97" speed="5.77"/>
            </lane>
        </edge>
        <edge id="gneE53">
            <lane id="gneE53_0">
                <vehicle id="155" pos="112.97" speed="5.79"/>
                <vehicle id="B4_1" pos="309.92" speed="6.34"/>
                <vehicle id="223" pos="335.65" speed="0.03"/>
            </lane>
        </edge>
        <edge id="gneE54">
            <lane id="gneE54_0">
                <vehicle id="235" pos="38.02" speed="5.75"/>
                <vehicle id="148" pos="68.13" speed="6.70"/>
                <vehicle id="100" pos="136.38" speed="5.98"/>
            </lane>
        </edge>
        <edge id="gneE56">
            <lane id="gneE56_0">
                <vehicle id="206" pos="73.50" speed="7.77"/>
            </lane>
        </edge>
        <edge id="gneE58">
            <lane id="gneE58_0">
                <vehicle id="294" pos="38.84" speed="7.46"/>
                <vehicle id="279" pos="149.90" speed="7.20"/>
                <vehicle id="128" pos="211.10" speed="7.50"/>
                <vehicle id="262" pos="270.95" speed="7.88"/>
            </lane>
        </edge>
        <edge id="gneE59">
            <lane id="gneE59_0">
                <vehicle id="134" pos="42.48" speed="8.26"/>
                <vehicle id="288" pos="70.75" speed="8.20"/>
                <vehicle id="89" pos="92.54" speed="7.81"/>
                <vehicle id="71" pos="172.28" speed="8.35"/>
                <vehicle id="226" pos="234.17" speed="8.52"/>
                <vehicle id="207" pos="317.73" speed="0.00"/>
            </lane>
        </edge>
        <edge id="gneE6">
            <lane id="gneE6_0">
                <vehicle id="251" pos="46.50" speed="6.93"/>
                <vehicle id="130" pos="118.98" speed="7.12"/>
            </lane>
        </edge>
        <edge id="gneE60">
            <lane id="gneE60_0">
                <vehicle id="73" pos="259.04" speed="6.00"/>
                <vehicle id="102" pos="303.01" speed="5.84"/>
                <vehicle id="203" pos="335.06" speed="6.49"/>
            </lane>
        </edge>
        <edge id="gneE61">
            <lane id="gneE61_0">
                <vehicle id="190" pos="7.80" speed="6.79"/>
                <vehicle id="107" pos="294.12" speed="6.85"/>
                <vehicle id="254" pos="335.53" speed="7.84"/>
            </lane>
        </edge>
        <edge id="gneE7">
            <lane id="gneE7_0">
                <vehicle id="250" pos="179.21" speed="7.92"/>
                <vehicle id="64" pos="296.71" speed="8.21"/>
            </lane>
        </edge>
        <edge id="gneE8">
            <lane id="gneE8_0">
                <vehicle id="298" pos="11.86" speed="4.16"/>
                <vehicle id="192" pos="88.45" speed="7.42"/>
                <vehicle id="122" pos="264.51" speed="7.02"/>
            </lane>
        </edge>
    </timestep>
