<?xml version="1.0"?>
<timestep time="304.00">
        <edge id=":gneJ11_5">
            <lane id=":gneJ11_5_0">
                <vehicle id="175" pos="4.64" speed="4.38"/>
            </lane>
        </edge>
        <edge id=":gneJ11_21">
            <lane id=":gneJ11_21_0">
                <vehicle id="223" pos="9.63" speed="6.68"/>
                <vehicle id="222" pos="30.04" speed="9.72"/>
            </lane>
        </edge>
        <edge id=":gneJ15_1">
            <lane id=":gneJ15_1_0">
                <vehicle id="B1_1" pos="8.97" speed="6.33"/>
            </lane>
        </edge>
        <edge id=":gneJ3_11">
            <lane id=":gneJ3_11_0">
                <vehicle id="221" pos="1.69" speed="4.65"/>
            </lane>
        </edge>
        <edge id=":gneJ8_13">
            <lane id=":gneJ8_13_0">
                <vehicle id="182" pos="1.70" speed="1.80"/>
            </lane>
        </edge>
        <edge id="gneE1">
            <lane id="gneE1_0">
                <vehicle id="293" pos="51.27" speed="4.16"/>
            </lane>
        </edge>
        <edge id="gneE10">
            <lane id="gneE10_0">
                <vehicle id="244" pos="95.42" speed="4.75"/>
            </lane>
        </edge>
        <edge id="gneE11">
            <lane id="gneE11_0">
                <vehicle id="264" pos="16.65" speed="8.47"/>
                <vehicle id="228" pos="92.62" speed="7.86"/>
            </lane>
        </edge>
        <edge id="gneE12">
            <lane id="gneE12_0">
                <vehicle id="281" pos="62.06" speed="13.78"/>
                <vehicle id="292" pos="127.28" speed="13.38"/>
                <vehicle id="267" pos="204.98" speed="13.62"/>
            </lane>
        </edge>
        <edge id="gneE13">
            <lane id="gneE13_0">
                <vehicle id="217" pos="11.50" speed="9.03"/>
                <vehicle id="271" pos="94.46" speed="9.68"/>
            </lane>
        </edge>
        <edge id="gneE14">
            <lane id="gneE14_0">
                <vehicle id="299" pos="33.77" speed="9.63"/>
                <vehicle id="290" pos="123.21" speed="10.55"/>
            </lane>
        </edge>
        <edge id="gneE15">
            <lane id="gneE15_0">
                <vehicle id="158" pos="75.66" speed="7.88"/>
                <vehicle id="230" pos="118.22" speed="7.83"/>
            </lane>
        </edge>
        <edge id="gneE17">
            <lane id="gneE17_0">
                <vehicle id="287" pos="123.10" speed="9.45"/>
                <vehicle id="B2_1" pos="166.94" speed="9.54"/>
            </lane>
        </edge>
        <edge id="gneE18">
            <lane id="gneE18_0">
                <vehicle id="257" pos="35.69" speed="9.87"/>
                <vehicle id="256" pos="64.03" speed="9.89"/>
                <vehicle id="240" pos="269.57" speed="9.96"/>
            </lane>
        </edge>
        <edge id="gneE19">
            <lane id="gneE19_0">
                <vehicle id="153" pos="14.29" speed="10.18"/>
                <vehicle id="273" pos="222.75" speed="0.09"/>
                <vehicle id="239" pos="230.32" speed="0.03"/>
                <vehicle id="236" pos="237.83" speed="0.01"/>
                <vehicle id="156" pos="245.33" speed="0.00"/>
                <vehicle id="159" pos="252.83" speed="0.00"/>
                <vehicle id="139" pos="260.34" speed="0.00"/>
                <vehicle id="135" pos="267.84" speed="0.00"/>
                <vehicle id="81" pos="275.34" speed="0.00"/>
                <vehicle id="104" pos="282.84" speed="0.00"/>
            </lane>
        </edge>
        <edge id="gneE20">
            <lane id="gneE20_0">
                <vehicle id="161" pos="78.97" speed="8.59"/>
                <vehicle id="284" pos="156.54" speed="7.94"/>
                <vehicle id="199" pos="194.08" speed="8.97"/>
                <vehicle id="185" pos="226.51" speed="8.44"/>
            </lane>
        </edge>
        <edge id="gneE23">
            <lane id="gneE23_0">
                <vehicle id="171" pos="49.95" speed="7.64"/>
                <vehicle id="232" pos="86.03" speed="6.90"/>
                <vehicle id="121" pos="147.46" speed="7.94"/>
                <vehicle id="280" pos="165.23" speed="6.72"/>
                <vehicle id="177" pos="182.06" speed="7.07"/>
            </lane>
        </edge>
        <edge id="gneE24">
            <lane id="gneE24_0">
                <vehicle id="170" pos="72.13" speed="12.68"/>
            </lane>
        </edge>
        <edge id="gneE25">
            <lane id="gneE25_0">
                <vehicle id="272" pos="27.64" speed="9.33"/>
                <vehicle id="285" pos="165.72" speed="9.70"/>
                <vehicle id="282" pos="193.40" speed="8.98"/>
                <vehicle id="277" pos="225.26" speed="8.81"/>
                <vehicle id="269" pos="290.79" speed="0.07"/>
            </lane>
        </edge>
        <edge id="gneE26">
            <lane id="gneE26_0">
                <vehicle id="212" pos="14.79" speed="6.46"/>
                <vehicle id="242" pos="40.04" speed="6.01"/>
                <vehicle id="196" pos="59.84" speed="6.43"/>
                <vehicle id="179" pos="134.03" speed="6.22"/>
                <vehicle id="198" pos="223.29" speed="0.22"/>
                <vehicle id="167" pos="230.82" speed="0.00"/>
                <vehicle id="173" pos="238.32" speed="0.00"/>
                <vehicle id="83" pos="245.82" speed="0.00"/>
                <vehicle id="126" pos="253.32" speed="0.00"/>
                <vehicle id="181" pos="260.82" speed="0.00"/>
                <vehicle id="205" pos="268.33" speed="0.00"/>
                <vehicle id="224" pos="275.83" speed="0.00"/>
                <vehicle id="200" pos="283.33" speed="0.00"/>
                <vehicle id="204" pos="290.83" speed="0.00"/>
            </lane>
        </edge>
        <edge id="gneE27">
            <lane id="gneE27_0">
                <vehicle id="300" pos="21.51" speed="4.95"/>
                <vehicle id="160" pos="67.59" speed="4.80"/>
                <vehicle id="154" pos="129.94" speed="5.40"/>
            </lane>
        </edge>
        <edge id="gneE28">
            <lane id="gneE28_0">
                <vehicle id="301" pos="17.02" speed="5.66"/>
                <vehicle id="193" pos="64.13" speed="7.93"/>
                <vehicle id="127" pos="89.94" speed="8.36"/>
            </lane>
        </edge>
        <edge id="gneE3">
            <lane id="gneE3_0">
                <vehicle id="197" pos="10.02" speed="9.07"/>
            </lane>
        </edge>
        <edge id="gneE30">
            <lane id="gneE30_0">
                <vehicle id="109" pos="141.28" speed="7.81"/>
                <vehicle id="214" pos="286.62" speed="8.43"/>
            </lane>
        </edge>
        <edge id="gneE31">
            <lane id="gneE31_0">
                <vehicle id="260" pos="52.85" speed="8.34"/>
                <vehicle id="259" pos="115.07" speed="8.56"/>
                <vehicle id="209" pos="245.49" speed="7.99"/>
                <vehicle id="210" pos="270.05" speed="8.02"/>
            </lane>
        </edge>
        <edge id="gneE32">
            <lane id="gneE32_0">
                <vehicle id="302" pos="10.06" speed="3.39"/>
                <vehicle id="286" pos="125.43" speed="7.80"/>
                <vehicle id="268" pos="259.78" speed="7.38"/>
            </lane>
        </edge>
        <edge id="gneE38">
            <lane id="gneE38_0">
                <vehicle id="295" pos="67.52" speed="8.05"/>
                <vehicle id="266" pos="138.03" speed="8.26"/>
                <vehicle id="191" pos="307.69" speed="8.08"/>
            </lane>
        </edge>
        <edge id="gneE4">
            <lane id="gneE4_0">
                <vehicle id="123" pos="36.78" speed="9.61"/>
                <vehicle id="233" pos="70.21" speed="9.67"/>
                <vehicle id="180" pos="117.62" speed="9.28"/>
            </lane>
        </edge>
        <edge id="gneE41">
            <lane id="gneE41_0">
                <vehicle id="184" pos="72.01" speed="8.73"/>
                <vehicle id="241" pos="125.42" speed="8.33"/>
            </lane>
        </edge>
        <edge id="gneE42">
            <lane id="gneE42_0">
                <vehicle id="291" pos="90.06" speed="7.47"/>
            </lane>
        </edge>
        <edge id="gneE43">
            <lane id="gneE43_0">
                <vehicle id="231" pos="5.09" speed="5.82"/>
                <vehicle id="219" pos="89.00" speed="6.87"/>
                <vehicle id="274" pos="162.41" speed="6.32"/>
                <vehicle id="165" pos="179.87" speed="5.76"/>
                <vehicle id="252" pos="198.07" speed="6.54"/>
                <vehicle id="255" pos="216.72" speed="0.00"/>
                <vehicle id="202" pos="224.22" speed="0.00"/>
                <vehicle id="172" pos="231.72" speed="0.00"/>
                <vehicle id="246" pos="239.54" speed="0.32"/>
                <vehicle id="215" pos="247.88" speed="0.83"/>
                <vehicle id="163" pos="258.06" speed="2.67"/>
                <vehicle id="216" pos="267.12" speed="1.04"/>
                <vehicle id="140" pos="276.51" speed="1.28"/>
                <vehicle id="15" pos="284.16" speed="0.08"/>
                <vehicle id="195" pos="291.72" speed="0.01"/>
                <vehicle id="138" pos="299.23" speed="0.00"/>
                <vehicle id="116" pos="306.73" speed="0.00"/>
            </lane>
        </edge>
        <edge id="gneE45">
            <lane id="gneE45_0">
                <vehicle id="227" pos="13.46" speed="8.66"/>
                <vehicle id="234" pos="84.28" speed="8.88"/>
                <vehicle id="187" pos="181.67" speed="8.98"/>
                <vehicle id="276" pos="219.57" speed="8.29"/>
                <vehicle id="248" pos="243.69" speed="8.02"/>
                <vehicle id="113" pos="283.03" speed="8.85"/>
                <vehicle id="136" pos="306.73" speed="0.11"/>
            </lane>
        </edge>
        <edge id="gneE47">
            <lane id="gneE47_0">
                <vehicle id="208" pos="139.04" speed="8.26"/>
                <vehicle id="166" pos="170.05" speed="8.54"/>
            </lane>
        </edge>
        <edge id="gneE48">
            <lane id="gneE48_0">
                <vehicle id="100" pos="7.27" speed="6.84"/>
                <vehicle id="297" pos="40.29" speed="6.77"/>
                <vehicle id="142" pos="225.19" speed="6.02"/>
                <vehicle id="237" pos="267.68" speed="6.08"/>
                <vehicle id="229" pos="312.12" speed="0.07"/>
                <vehicle id="247" pos="319.64" speed="0.00"/>
            </lane>
        </edge>
        <edge id="gneE49">
            <lane id="gneE49_0">
                <vehicle id="189" pos="12.42" speed="7.17"/>
                <vehicle id="141" pos="137.14" speed="7.58"/>
                <vehicle id="278" pos="185.09" speed="7.59"/>
                <vehicle id="169" pos="259.88" speed="7.77"/>
            </lane>
        </edge>
        <edge id="gneE50">
            <lane id="gneE50_0">
                <vehicle id="289" pos="81.25" speed="4.79"/>
                <vehicle id="275" pos="157.38" speed="5.76"/>
                <vehicle id="265" pos="197.90" speed="5.68"/>
                <vehicle id="211" pos="218.61" speed="5.15"/>
                <vehicle id="253" pos="271.15" speed="4.73"/>
            </lane>
        </edge>
        <edge id="gneE51">
            <lane id="gneE51_0">
                <vehicle id="270" pos="44.49" speed="6.54"/>
                <vehicle id="249" pos="94.13" speed="5.63"/>
                <vehicle id="243" pos="109.98" speed="6.22"/>
                <vehicle id="263" pos="130.20" speed="6.82"/>
                <vehicle id="245" pos="173.13" speed="6.14"/>
                <vehicle id="B3_1" pos="219.06" speed="6.94"/>
            </lane>
        </edge>
        <edge id="gneE52">
            <lane id="gneE52_0">
                <vehicle id="296" pos="48.05" speed="5.89"/>
                <vehicle id="213" pos="73.86" speed="6.87"/>
                <vehicle id="186" pos="93.80" speed="6.99"/>
                <vehicle id="283" pos="132.03" speed="5.96"/>
            </lane>
        </edge>
        <edge id="gneE53">
            <lane id="gneE53_0">
                <vehicle id="155" pos="138.72" speed="6.60"/>
                <vehicle id="B4_1" pos="334.60" speed="5.98"/>
            </lane>
        </edge>
        <edge id="gneE54">
            <lane id="gneE54_0">
                <vehicle id="235" pos="63.52" speed="6.26"/>
                <vehicle id="148" pos="94.56" speed="6.80"/>
            </lane>
        </edge>
        <edge id="gneE56">
            <lane id="gneE56_0">
                <vehicle id="206" pos="105.98" speed="8.07"/>
            </lane>
        </edge>
        <edge id="gneE58">
            <lane id="gneE58_0">
                <vehicle id="261" pos="6.86" speed="7.53"/>
                <vehicle id="294" pos="68.52" speed="7.56"/>
                <vehicle id="279" pos="179.31" speed="7.70"/>
                <vehicle id="128" pos="240.55" speed="6.84"/>
                <vehicle id="262" pos="301.36" speed="7.29"/>
            </lane>
        </edge>
        <edge id="gneE59">
            <lane id="gneE59_0">
                <vehicle id="254" pos="30.26" speed="8.99"/>
                <vehicle id="134" pos="76.38" speed="7.76"/>
                <vehicle id="288" pos="104.66" speed="7.79"/>
                <vehicle id="89" pos="124.99" speed="7.83"/>
                <vehicle id="71" pos="205.91" speed="8.08"/>
                <vehicle id="226" pos="268.28" speed="8.55"/>
                <vehicle id="207" pos="317.73" speed="0.00"/>
            </lane>
        </edge>
        <edge id="gneE6">
            <lane id="gneE6_0">
                <vehicle id="251" pos="74.86" speed="7.23"/>
            </lane>
        </edge>
        <edge id="gneE60">
            <lane id="gneE60_0">
                <vehicle id="73" pos="284.61" speed="6.96"/>
                <vehicle id="102" pos="328.04" speed="6.14"/>
                <vehicle id="203" pos="337.54" speed="0.06"/>
            </lane>
        </edge>
        <edge id="gneE61">
            <lane id="gneE61_0">
                <vehicle id="190" pos="37.86" speed="7.46"/>
                <vehicle id="107" pos="322.84" speed="7.08"/>
            </lane>
        </edge>
        <edge id="gneE7">
            <lane id="gneE7_0">
                <vehicle id="250" pos="212.25" speed="8.33"/>
            </lane>
        </edge>
        <edge id="gneE8">
            <lane id="gneE8_0">
                <vehicle id="298" pos="40.54" speed="7.50"/>
                <vehicle id="192" pos="117.85" speed="7.33"/>
                <vehicle id="122" pos="293.93" speed="7.14"/>
            </lane>
        </edge>
    </timestep>
