<?xml version="1.0"?>
<timestep time="315.00">
        <edge id=":gneJ11_2">
            <lane id=":gneJ11_2_0">
                <vehicle id="170" pos="13.32" speed="10.09"/>
            </lane>
        </edge>
        <edge id=":gneJ11_35">
            <lane id=":gneJ11_35_0">
                <vehicle id="203" pos="15.96" speed="5.25"/>
            </lane>
        </edge>
        <edge id=":gneJ28_8">
            <lane id=":gneJ28_8_0">
                <vehicle id="136" pos="10.56" speed="5.64"/>
            </lane>
        </edge>
        <edge id=":gneJ3_13">
            <lane id=":gneJ3_13_0">
                <vehicle id="233" pos="4.61" speed="5.03"/>
            </lane>
        </edge>
        <edge id=":gneJ4_4">
            <lane id=":gneJ4_4_0">
                <vehicle id="251" pos="9.52" speed="8.95"/>
            </lane>
        </edge>
        <edge id=":gneJ8_5">
            <lane id=":gneJ8_5_0">
                <vehicle id="158" pos="3.26" speed="4.21"/>
            </lane>
        </edge>
        <edge id=":gneJ9_3">
            <lane id=":gneJ9_3_0">
                <vehicle id="199" pos="2.56" speed="8.89"/>
            </lane>
        </edge>
        <edge id="gneE1">
            <lane id="gneE1_0">
                <vehicle id="293" pos="99.24" speed="4.22"/>
            </lane>
        </edge>
        <edge id="gneE11">
            <lane id="gneE11_0">
                <vehicle id="314" pos="7.25" speed="2.15"/>
                <vehicle id="214" pos="74.72" speed="8.67"/>
                <vehicle id="264" pos="108.16" speed="8.22"/>
            </lane>
        </edge>
        <edge id="gneE12">
            <lane id="gneE12_0">
                <vehicle id="230" pos="25.95" speed="9.84"/>
                <vehicle id="281" pos="206.83" speed="12.76"/>
                <vehicle id="292" pos="271.43" speed="13.21"/>
            </lane>
        </edge>
        <edge id="gneE13">
            <lane id="gneE13_0">
                <vehicle id="306" pos="71.19" speed="9.55"/>
                <vehicle id="217" pos="114.38" speed="9.88"/>
                <vehicle id="271" pos="199.16" speed="9.45"/>
            </lane>
        </edge>
        <edge id="gneE14">
            <lane id="gneE14_0">
                <vehicle id="313" pos="10.92" speed="3.84"/>
                <vehicle id="228" pos="48.62" speed="10.96"/>
                <vehicle id="299" pos="147.99" speed="10.87"/>
            </lane>
        </edge>
        <edge id="gneE15">
            <lane id="gneE15_0">
                <vehicle id="185" pos="28.49" speed="7.73"/>
                <vehicle id="240" pos="66.83" speed="8.19"/>
            </lane>
        </edge>
        <edge id="gneE17">
            <lane id="gneE17_0">
                <vehicle id="287" pos="227.67" speed="9.29"/>
                <vehicle id="B2_1" pos="270.25" speed="9.23"/>
            </lane>
        </edge>
        <edge id="gneE18">
            <lane id="gneE18_0">
                <vehicle id="311" pos="9.43" speed="2.89"/>
                <vehicle id="180" pos="35.00" speed="9.40"/>
                <vehicle id="307" pos="54.58" speed="9.99"/>
                <vehicle id="221" pos="79.12" speed="8.77"/>
                <vehicle id="257" pos="141.01" speed="9.63"/>
                <vehicle id="256" pos="168.91" speed="9.78"/>
            </lane>
        </edge>
        <edge id="gneE19">
            <lane id="gneE19_0">
                <vehicle id="290" pos="66.98" speed="12.16"/>
                <vehicle id="153" pos="151.03" speed="12.78"/>
                <vehicle id="273" pos="222.83" speed="0.00"/>
                <vehicle id="239" pos="230.33" speed="0.00"/>
                <vehicle id="236" pos="237.83" speed="0.00"/>
                <vehicle id="156" pos="245.99" speed="0.66"/>
                <vehicle id="159" pos="255.14" speed="1.60"/>
                <vehicle id="139" pos="266.85" speed="3.29"/>
            </lane>
        </edge>
        <edge id="gneE20">
            <lane id="gneE20_0">
                <vehicle id="B4_1" pos="48.62" speed="8.46"/>
                <vehicle id="223" pos="70.93" speed="8.22"/>
                <vehicle id="222" pos="89.74" speed="8.20"/>
                <vehicle id="161" pos="172.16" speed="8.96"/>
                <vehicle id="284" pos="247.76" speed="8.42"/>
            </lane>
        </edge>
        <edge id="gneE23">
            <lane id="gneE23_0">
                <vehicle id="315" pos="5.10" speed="0.00"/>
                <vehicle id="104" pos="13.13" speed="7.21"/>
                <vehicle id="171" pos="130.98" speed="7.47"/>
                <vehicle id="232" pos="165.93" speed="7.28"/>
            </lane>
        </edge>
        <edge id="gneE24">
            <lane id="gneE24_0">
                <vehicle id="193" pos="4.11" speed="10.07"/>
            </lane>
        </edge>
        <edge id="gneE25">
            <lane id="gneE25_0">
                <vehicle id="127" pos="39.21" speed="9.19"/>
                <vehicle id="B1_1" pos="91.59" speed="9.79"/>
                <vehicle id="272" pos="130.69" speed="9.55"/>
                <vehicle id="285" pos="265.00" speed="5.51"/>
                <vehicle id="282" pos="275.66" speed="1.11"/>
                <vehicle id="277" pos="283.32" speed="0.00"/>
                <vehicle id="269" pos="290.83" speed="0.00"/>
            </lane>
        </edge>
        <edge id="gneE26">
            <lane id="gneE26_0">
                <vehicle id="182" pos="64.29" speed="5.97"/>
                <vehicle id="212" pos="85.40" speed="5.85"/>
                <vehicle id="242" pos="108.47" speed="6.38"/>
                <vehicle id="196" pos="129.59" speed="6.56"/>
                <vehicle id="179" pos="202.69" speed="5.97"/>
                <vehicle id="198" pos="223.32" speed="0.00"/>
                <vehicle id="167" pos="230.82" speed="0.00"/>
                <vehicle id="173" pos="238.32" speed="0.00"/>
                <vehicle id="83" pos="245.82" speed="0.00"/>
                <vehicle id="126" pos="253.32" speed="0.00"/>
                <vehicle id="181" pos="261.26" speed="0.44"/>
                <vehicle id="205" pos="271.96" speed="2.83"/>
                <vehicle id="224" pos="282.13" speed="1.67"/>
                <vehicle id="200" pos="290.82" speed="0.66"/>
            </lane>
        </edge>
        <edge id="gneE27">
            <lane id="gneE27_0">
                <vehicle id="191" pos="26.07" speed="5.97"/>
                <vehicle id="300" pos="79.57" speed="5.55"/>
                <vehicle id="160" pos="125.99" speed="5.93"/>
            </lane>
        </edge>
        <edge id="gneE28">
            <lane id="gneE28_0">
                <vehicle id="209" pos="41.54" speed="8.65"/>
                <vehicle id="210" pos="64.80" speed="8.16"/>
                <vehicle id="301" pos="108.23" speed="8.06"/>
            </lane>
        </edge>
        <edge id="gneE3">
            <lane id="gneE3_0">
                <vehicle id="197" pos="114.78" speed="9.75"/>
            </lane>
        </edge>
        <edge id="gneE30">
            <lane id="gneE30_0">
                <vehicle id="154" pos="66.93" speed="8.03"/>
                <vehicle id="109" pos="232.90" speed="8.78"/>
            </lane>
        </edge>
        <edge id="gneE31">
            <lane id="gneE31_0">
                <vehicle id="260" pos="146.33" speed="8.48"/>
                <vehicle id="259" pos="207.41" speed="7.74"/>
            </lane>
        </edge>
        <edge id="gneE32">
            <lane id="gneE32_0">
                <vehicle id="302" pos="90.49" speed="7.58"/>
                <vehicle id="286" pos="204.03" speed="7.51"/>
                <vehicle id="268" pos="340.44" speed="7.59"/>
            </lane>
        </edge>
        <edge id="gneE38">
            <lane id="gneE38_0">
                <vehicle id="291" pos="19.00" speed="8.78"/>
                <vehicle id="295" pos="158.97" speed="7.91"/>
                <vehicle id="266" pos="229.29" speed="8.27"/>
            </lane>
        </edge>
        <edge id="gneE4">
            <lane id="gneE4_0">
                <vehicle id="123" pos="140.23" speed="9.69"/>
            </lane>
        </edge>
        <edge id="gneE42">
            <lane id="gneE42_0">
                <vehicle id="208" pos="21.26" speed="6.83"/>
            </lane>
        </edge>
        <edge id="gneE43">
            <lane id="gneE43_0">
                <vehicle id="184" pos="3.42" speed="5.81"/>
                <vehicle id="305" pos="55.36" speed="6.88"/>
                <vehicle id="231" pos="76.57" speed="6.54"/>
                <vehicle id="219" pos="159.60" speed="6.72"/>
                <vehicle id="274" pos="198.68" speed="1.36"/>
                <vehicle id="165" pos="207.15" speed="0.74"/>
                <vehicle id="252" pos="215.90" speed="0.71"/>
                <vehicle id="255" pos="223.77" speed="0.35"/>
                <vehicle id="202" pos="231.60" speed="0.20"/>
                <vehicle id="172" pos="239.16" speed="0.04"/>
                <vehicle id="246" pos="246.72" speed="0.01"/>
                <vehicle id="215" pos="254.22" speed="0.00"/>
                <vehicle id="163" pos="261.72" speed="0.00"/>
                <vehicle id="216" pos="269.22" speed="0.00"/>
                <vehicle id="140" pos="276.72" speed="0.00"/>
                <vehicle id="15" pos="284.23" speed="0.00"/>
                <vehicle id="195" pos="291.73" speed="0.00"/>
                <vehicle id="138" pos="299.23" speed="0.00"/>
                <vehicle id="116" pos="306.73" speed="0.00"/>
            </lane>
        </edge>
        <edge id="gneE45">
            <lane id="gneE45_0">
                <vehicle id="204" pos="5.82" speed="7.98"/>
                <vehicle id="280" pos="52.75" speed="7.78"/>
                <vehicle id="177" pos="72.71" speed="8.88"/>
                <vehicle id="227" pos="105.95" speed="8.26"/>
                <vehicle id="234" pos="174.77" speed="8.37"/>
                <vehicle id="187" pos="272.40" speed="6.73"/>
                <vehicle id="276" pos="284.19" speed="0.10"/>
                <vehicle id="248" pos="292.69" speed="0.97"/>
                <vehicle id="113" pos="304.02" speed="3.17"/>
            </lane>
        </edge>
        <edge id="gneE46">
            <lane id="gneE46_0">
                <vehicle id="309" pos="43.68" speed="9.49"/>
            </lane>
        </edge>
        <edge id="gneE47">
            <lane id="gneE47_0">
                <vehicle id="169" pos="10.23" speed="8.08"/>
            </lane>
        </edge>
        <edge id="gneE48">
            <lane id="gneE48_0">
                <vehicle id="308" pos="38.07" speed="6.33"/>
                <vehicle id="303" pos="60.18" speed="6.15"/>
                <vehicle id="100" pos="74.88" speed="6.61"/>
                <vehicle id="297" pos="109.89" speed="6.15"/>
                <vehicle id="142" pos="293.94" speed="6.48"/>
                <vehicle id="237" pos="312.08" speed="0.47"/>
                <vehicle id="229" pos="319.64" speed="0.00"/>
            </lane>
        </edge>
        <edge id="gneE49">
            <lane id="gneE49_0">
                <vehicle id="312" pos="17.77" speed="6.39"/>
                <vehicle id="304" pos="71.84" speed="6.88"/>
                <vehicle id="189" pos="92.92" speed="7.38"/>
                <vehicle id="141" pos="218.42" speed="7.30"/>
                <vehicle id="278" pos="266.28" speed="7.65"/>
            </lane>
        </edge>
        <edge id="gneE5">
            <lane id="gneE5_0">
                <vehicle id="267" pos="10.38" speed="5.34"/>
            </lane>
        </edge>
        <edge id="gneE50">
            <lane id="gneE50_0">
                <vehicle id="175" pos="47.56" speed="5.72"/>
                <vehicle id="289" pos="139.84" speed="5.80"/>
                <vehicle id="275" pos="218.20" speed="5.71"/>
                <vehicle id="265" pos="256.62" speed="5.41"/>
                <vehicle id="211" pos="280.06" speed="5.00"/>
                <vehicle id="253" pos="329.67" speed="4.91"/>
            </lane>
        </edge>
        <edge id="gneE51">
            <lane id="gneE51_0">
                <vehicle id="241" pos="43.92" speed="6.61"/>
                <vehicle id="270" pos="114.66" speed="6.65"/>
                <vehicle id="249" pos="162.50" speed="5.98"/>
                <vehicle id="243" pos="181.18" speed="6.70"/>
                <vehicle id="263" pos="200.54" speed="6.37"/>
                <vehicle id="245" pos="238.61" speed="6.19"/>
                <vehicle id="B3_1" pos="288.91" speed="6.08"/>
            </lane>
        </edge>
        <edge id="gneE52">
            <lane id="gneE52_0">
                <vehicle id="296" pos="119.21" speed="6.63"/>
                <vehicle id="213" pos="144.32" speed="6.81"/>
                <vehicle id="186" pos="163.99" speed="5.81"/>
                <vehicle id="283" pos="201.71" speed="6.80"/>
            </lane>
        </edge>
        <edge id="gneE53">
            <lane id="gneE53_0">
                <vehicle id="155" pos="209.24" speed="5.80"/>
            </lane>
        </edge>
        <edge id="gneE54">
            <lane id="gneE54_0">
                <vehicle id="235" pos="131.47" speed="6.77"/>
            </lane>
        </edge>
        <edge id="gneE58">
            <lane id="gneE58_0">
                <vehicle id="310" pos="31.28" speed="7.97"/>
                <vehicle id="261" pos="88.36" speed="7.53"/>
                <vehicle id="294" pos="149.63" speed="7.55"/>
                <vehicle id="279" pos="260.35" speed="7.40"/>
            </lane>
        </edge>
        <edge id="gneE59">
            <lane id="gneE59_0">
                <vehicle id="254" pos="126.01" speed="8.97"/>
                <vehicle id="134" pos="168.28" speed="7.72"/>
                <vehicle id="288" pos="197.47" speed="8.18"/>
                <vehicle id="89" pos="214.89" speed="7.89"/>
                <vehicle id="71" pos="298.76" speed="7.70"/>
                <vehicle id="226" pos="310.23" speed="0.00"/>
                <vehicle id="207" pos="317.73" speed="0.00"/>
            </lane>
        </edge>
        <edge id="gneE60">
            <lane id="gneE60_0">
                <vehicle id="262" pos="51.08" speed="6.26"/>
                <vehicle id="73" pos="331.03" speed="4.71"/>
            </lane>
        </edge>
        <edge id="gneE61">
            <lane id="gneE61_0">
                <vehicle id="247" pos="9.36" speed="7.86"/>
                <vehicle id="190" pos="118.22" speed="6.87"/>
            </lane>
        </edge>
        <edge id="gneE7">
            <lane id="gneE7_0">
                <vehicle id="250" pos="298.89" speed="4.96"/>
            </lane>
        </edge>
        <edge id="gneE8">
            <lane id="gneE8_0">
                <vehicle id="298" pos="122.76" speed="7.24"/>
                <vehicle id="192" pos="199.91" speed="6.91"/>
            </lane>
        </edge>
    </timestep>
