<?xml version="1.0"?>
<timestep time="319.00">
        <edge id=":gneJ11_14">
            <lane id=":gneJ11_14_0">
                <vehicle id="229" pos="5.05" speed="3.78"/>
            </lane>
        </edge>
        <edge id=":gneJ11_39">
            <lane id=":gneJ11_39_0">
                <vehicle id="139" pos="15.84" speed="11.08"/>
            </lane>
        </edge>
        <edge id=":gneJ15_6">
            <lane id=":gneJ15_6_0">
                <vehicle id="116" pos="20.36" speed="7.90"/>
            </lane>
        </edge>
        <edge id=":gneJ15_8">
            <lane id=":gneJ15_8_0">
                <vehicle id="232" pos="11.50" speed="9.39"/>
            </lane>
        </edge>
        <edge id=":gneJ3_1">
            <lane id=":gneJ3_1_0">
                <vehicle id="B2_1" pos="15.48" speed="9.44"/>
            </lane>
        </edge>
        <edge id=":gneJ4_1">
            <lane id=":gneJ4_1_0">
                <vehicle id="292" pos="5.02" speed="7.20"/>
            </lane>
        </edge>
        <edge id=":gneJ8_2">
            <lane id=":gneJ8_2_0">
                <vehicle id="269" pos="6.82" speed="4.37"/>
            </lane>
        </edge>
        <edge id=":gneJ8_9">
            <lane id=":gneJ8_9_0">
                <vehicle id="264" pos="1.88" speed="8.16"/>
            </lane>
        </edge>
        <edge id="gneE1">
            <lane id="gneE1_0">
                <vehicle id="293" pos="116.37" speed="4.55"/>
            </lane>
        </edge>
        <edge id="gneE10">
            <lane id="gneE10_0">
                <vehicle id="319" pos="5.10" speed="0.00"/>
            </lane>
        </edge>
        <edge id="gneE11">
            <lane id="gneE11_0">
                <vehicle id="250" pos="16.80" speed="7.74"/>
                <vehicle id="314" pos="32.97" speed="8.30"/>
                <vehicle id="214" pos="108.23" speed="8.30"/>
            </lane>
        </edge>
        <edge id="gneE12">
            <lane id="gneE12_0">
                <vehicle id="158" pos="26.09" speed="10.99"/>
                <vehicle id="230" pos="76.93" speed="12.77"/>
                <vehicle id="281" pos="261.01" speed="13.66"/>
            </lane>
        </edge>
        <edge id="gneE13">
            <lane id="gneE13_0">
                <vehicle id="306" pos="108.03" speed="8.99"/>
                <vehicle id="217" pos="152.92" speed="9.26"/>
                <vehicle id="271" pos="235.63" speed="9.08"/>
            </lane>
        </edge>
        <edge id="gneE14">
            <lane id="gneE14_0">
                <vehicle id="313" pos="46.14" speed="9.71"/>
                <vehicle id="228" pos="88.58" speed="9.77"/>
            </lane>
        </edge>
        <edge id="gneE15">
            <lane id="gneE15_0">
                <vehicle id="185" pos="62.60" speed="8.82"/>
                <vehicle id="240" pos="99.91" speed="8.47"/>
            </lane>
        </edge>
        <edge id="gneE17">
            <lane id="gneE17_0">
                <vehicle id="299" pos="6.44" speed="7.00"/>
                <vehicle id="199" pos="30.87" speed="9.90"/>
                <vehicle id="287" pos="263.03" speed="8.79"/>
            </lane>
        </edge>
        <edge id="gneE18">
            <lane id="gneE18_0">
                <vehicle id="233" pos="21.82" speed="9.54"/>
                <vehicle id="311" pos="40.68" speed="9.10"/>
                <vehicle id="180" pos="71.49" speed="9.56"/>
                <vehicle id="307" pos="92.03" speed="9.89"/>
                <vehicle id="221" pos="116.73" speed="8.90"/>
                <vehicle id="257" pos="179.02" speed="9.65"/>
                <vehicle id="256" pos="206.85" speed="9.91"/>
            </lane>
        </edge>
        <edge id="gneE19">
            <lane id="gneE19_0">
                <vehicle id="290" pos="116.43" speed="12.44"/>
                <vehicle id="153" pos="199.88" speed="11.71"/>
                <vehicle id="273" pos="223.77" speed="0.73"/>
                <vehicle id="239" pos="234.55" speed="2.99"/>
                <vehicle id="236" pos="245.60" speed="3.52"/>
                <vehicle id="156" pos="260.42" speed="6.19"/>
                <vehicle id="159" pos="277.44" speed="7.45"/>
            </lane>
        </edge>
        <edge id="gneE2">
            <lane id="gneE2_0">
                <vehicle id="123" pos="14.57" speed="10.89"/>
            </lane>
        </edge>
        <edge id="gneE20">
            <lane id="gneE20_0">
                <vehicle id="203" pos="25.28" speed="8.45"/>
                <vehicle id="B4_1" pos="81.88" speed="7.80"/>
                <vehicle id="223" pos="104.43" speed="8.95"/>
                <vehicle id="222" pos="123.60" speed="8.63"/>
                <vehicle id="161" pos="205.63" speed="8.58"/>
                <vehicle id="284" pos="281.49" speed="8.54"/>
            </lane>
        </edge>
        <edge id="gneE23">
            <lane id="gneE23_0">
                <vehicle id="315" pos="24.98" speed="6.15"/>
                <vehicle id="104" pos="41.85" speed="7.73"/>
                <vehicle id="171" pos="160.63" speed="7.89"/>
            </lane>
        </edge>
        <edge id="gneE24">
            <lane id="gneE24_0">
                <vehicle id="193" pos="53.08" speed="12.76"/>
            </lane>
        </edge>
        <edge id="gneE25">
            <lane id="gneE25_0">
                <vehicle id="127" pos="77.20" speed="9.20"/>
                <vehicle id="B1_1" pos="128.74" speed="9.29"/>
                <vehicle id="272" pos="167.09" speed="8.98"/>
                <vehicle id="285" pos="268.30" speed="0.15"/>
                <vehicle id="282" pos="275.83" speed="0.00"/>
                <vehicle id="277" pos="285.70" speed="2.37"/>
            </lane>
        </edge>
        <edge id="gneE26">
            <lane id="gneE26_0">
                <vehicle id="182" pos="90.38" speed="6.08"/>
                <vehicle id="212" pos="110.32" speed="5.77"/>
                <vehicle id="242" pos="133.91" speed="6.97"/>
                <vehicle id="196" pos="155.11" speed="6.76"/>
                <vehicle id="179" pos="215.66" speed="0.36"/>
                <vehicle id="198" pos="223.32" speed="0.00"/>
                <vehicle id="167" pos="230.98" speed="0.16"/>
                <vehicle id="173" pos="239.14" speed="0.65"/>
                <vehicle id="83" pos="248.65" speed="1.42"/>
                <vehicle id="126" pos="258.93" speed="2.36"/>
                <vehicle id="181" pos="267.59" speed="0.93"/>
                <vehicle id="205" pos="275.80" speed="0.36"/>
                <vehicle id="224" pos="283.33" speed="0.00"/>
                <vehicle id="200" pos="290.83" speed="0.00"/>
            </lane>
        </edge>
        <edge id="gneE27">
            <lane id="gneE27_0">
                <vehicle id="191" pos="46.61" speed="5.31"/>
                <vehicle id="300" pos="101.09" speed="4.90"/>
            </lane>
        </edge>
        <edge id="gneE28">
            <lane id="gneE28_0">
                <vehicle id="209" pos="75.47" speed="8.65"/>
                <vehicle id="210" pos="98.63" speed="7.96"/>
                <vehicle id="301" pos="140.73" speed="6.75"/>
            </lane>
        </edge>
        <edge id="gneE3">
            <lane id="gneE3_0">
                <vehicle id="197" pos="152.14" speed="9.35"/>
            </lane>
        </edge>
        <edge id="gneE30">
            <lane id="gneE30_0">
                <vehicle id="160" pos="0.55" speed="7.08"/>
                <vehicle id="154" pos="100.31" speed="7.71"/>
                <vehicle id="109" pos="267.23" speed="8.67"/>
            </lane>
        </edge>
        <edge id="gneE31">
            <lane id="gneE31_0">
                <vehicle id="260" pos="178.22" speed="8.28"/>
                <vehicle id="259" pos="242.17" speed="8.72"/>
            </lane>
        </edge>
        <edge id="gneE32">
            <lane id="gneE32_0">
                <vehicle id="302" pos="118.39" speed="6.76"/>
                <vehicle id="286" pos="233.19" speed="7.15"/>
            </lane>
        </edge>
        <edge id="gneE38">
            <lane id="gneE38_0">
                <vehicle id="291" pos="51.85" speed="8.46"/>
                <vehicle id="295" pos="193.51" speed="8.78"/>
                <vehicle id="266" pos="262.32" speed="7.81"/>
            </lane>
        </edge>
        <edge id="gneE4">
            <lane id="gneE4_0">
                <vehicle id="251" pos="37.59" speed="9.55"/>
            </lane>
        </edge>
        <edge id="gneE41">
            <lane id="gneE41_0">
                <vehicle id="318" pos="7.33" speed="2.23"/>
                <vehicle id="268" pos="26.90" speed="8.98"/>
            </lane>
        </edge>
        <edge id="gneE42">
            <lane id="gneE42_0">
                <vehicle id="113" pos="5.67" speed="7.94"/>
                <vehicle id="136" pos="21.11" speed="7.03"/>
                <vehicle id="208" pos="50.81" speed="6.83"/>
            </lane>
        </edge>
        <edge id="gneE43">
            <lane id="gneE43_0">
                <vehicle id="184" pos="30.38" speed="6.64"/>
                <vehicle id="305" pos="81.19" speed="6.41"/>
                <vehicle id="231" pos="101.99" speed="6.74"/>
                <vehicle id="219" pos="184.09" speed="5.84"/>
                <vehicle id="274" pos="201.15" speed="0.14"/>
                <vehicle id="165" pos="209.02" speed="0.32"/>
                <vehicle id="252" pos="216.63" speed="0.10"/>
                <vehicle id="255" pos="224.20" speed="0.05"/>
                <vehicle id="202" pos="231.71" speed="0.01"/>
                <vehicle id="172" pos="239.22" speed="0.00"/>
                <vehicle id="246" pos="246.72" speed="0.00"/>
                <vehicle id="215" pos="254.22" speed="0.00"/>
                <vehicle id="163" pos="261.72" speed="0.00"/>
                <vehicle id="216" pos="269.22" speed="0.00"/>
                <vehicle id="140" pos="276.72" speed="0.00"/>
                <vehicle id="15" pos="284.75" speed="0.52"/>
                <vehicle id="195" pos="295.10" speed="2.43"/>
                <vehicle id="138" pos="306.49" speed="2.69"/>
            </lane>
        </edge>
        <edge id="gneE45">
            <lane id="gneE45_0">
                <vehicle id="204" pos="39.18" speed="8.88"/>
                <vehicle id="280" pos="86.58" speed="8.59"/>
                <vehicle id="177" pos="106.70" speed="8.41"/>
                <vehicle id="227" pos="139.30" speed="8.65"/>
                <vehicle id="234" pos="208.26" speed="8.84"/>
                <vehicle id="187" pos="283.64" speed="4.39"/>
                <vehicle id="276" pos="297.36" speed="5.83"/>
            </lane>
        </edge>
        <edge id="gneE46">
            <lane id="gneE46_0">
                <vehicle id="309" pos="81.74" speed="9.55"/>
            </lane>
        </edge>
        <edge id="gneE47">
            <lane id="gneE47_0">
                <vehicle id="169" pos="44.57" speed="8.79"/>
            </lane>
        </edge>
        <edge id="gneE48">
            <lane id="gneE48_0">
                <vehicle id="235" pos="4.84" speed="6.03"/>
                <vehicle id="308" pos="65.44" speed="6.89"/>
                <vehicle id="303" pos="85.13" speed="5.98"/>
                <vehicle id="100" pos="101.06" speed="6.97"/>
                <vehicle id="297" pos="134.50" speed="6.30"/>
                <vehicle id="142" pos="304.63" speed="0.09"/>
                <vehicle id="237" pos="313.10" speed="0.96"/>
            </lane>
        </edge>
        <edge id="gneE49">
            <lane id="gneE49_0">
                <vehicle id="312" pos="46.64" speed="7.11"/>
                <vehicle id="304" pos="100.98" speed="7.08"/>
                <vehicle id="189" pos="123.09" speed="7.68"/>
                <vehicle id="141" pos="248.78" speed="7.62"/>
                <vehicle id="278" pos="295.43" speed="7.51"/>
            </lane>
        </edge>
        <edge id="gneE5">
            <lane id="gneE5_0">
                <vehicle id="267" pos="30.97" speed="5.99"/>
            </lane>
        </edge>
        <edge id="gneE50">
            <lane id="gneE50_0">
                <vehicle id="175" pos="69.48" speed="5.88"/>
                <vehicle id="289" pos="160.89" speed="4.90"/>
                <vehicle id="275" pos="240.37" speed="5.68"/>
                <vehicle id="265" pos="278.03" speed="5.64"/>
                <vehicle id="211" pos="302.40" speed="5.59"/>
                <vehicle id="253" pos="350.58" speed="4.76"/>
            </lane>
        </edge>
        <edge id="gneE51">
            <lane id="gneE51_0">
                <vehicle id="241" pos="69.72" speed="6.10"/>
                <vehicle id="270" pos="140.41" speed="6.30"/>
                <vehicle id="249" pos="187.25" speed="6.63"/>
                <vehicle id="243" pos="206.16" speed="5.86"/>
                <vehicle id="263" pos="224.11" speed="5.71"/>
                <vehicle id="245" pos="264.12" speed="6.55"/>
                <vehicle id="B3_1" pos="314.97" speed="6.40"/>
            </lane>
        </edge>
        <edge id="gneE52">
            <lane id="gneE52_0">
                <vehicle id="296" pos="143.48" speed="6.73"/>
                <vehicle id="213" pos="169.25" speed="5.96"/>
                <vehicle id="186" pos="188.58" speed="6.08"/>
                <vehicle id="283" pos="227.16" speed="6.95"/>
            </lane>
        </edge>
        <edge id="gneE53">
            <lane id="gneE53_0">
                <vehicle id="155" pos="236.34" speed="6.93"/>
            </lane>
        </edge>
        <edge id="gneE56">
            <lane id="gneE56_0">
                <vehicle id="170" pos="32.01" speed="7.80"/>
            </lane>
        </edge>
        <edge id="gneE58">
            <lane id="gneE58_0">
                <vehicle id="310" pos="59.83" speed="6.97"/>
                <vehicle id="261" pos="118.61" speed="7.03"/>
                <vehicle id="294" pos="178.63" speed="6.92"/>
                <vehicle id="279" pos="288.38" speed="6.73"/>
            </lane>
        </edge>
        <edge id="gneE59">
            <lane id="gneE59_0">
                <vehicle id="316" pos="16.39" speed="5.31"/>
                <vehicle id="254" pos="160.54" speed="8.46"/>
                <vehicle id="134" pos="201.19" speed="8.33"/>
                <vehicle id="288" pos="231.27" speed="8.89"/>
                <vehicle id="89" pos="248.62" speed="8.01"/>
                <vehicle id="71" pos="302.70" speed="0.04"/>
                <vehicle id="226" pos="310.23" speed="0.00"/>
                <vehicle id="207" pos="317.73" speed="0.00"/>
            </lane>
        </edge>
        <edge id="gneE60">
            <lane id="gneE60_0">
                <vehicle id="262" pos="75.33" speed="6.30"/>
            </lane>
        </edge>
        <edge id="gneE61">
            <lane id="gneE61_0">
                <vehicle id="247" pos="38.28" speed="6.91"/>
                <vehicle id="190" pos="148.73" speed="7.73"/>
            </lane>
        </edge>
        <edge id="gneE8">
            <lane id="gneE8_0">
                <vehicle id="298" pos="151.83" speed="7.55"/>
                <vehicle id="192" pos="229.06" speed="7.04"/>
            </lane>
        </edge>
    </timestep>
