<?xml version="1.0"?>
<timestep time="327.00">
        <edge id=":gneJ11_39">
            <lane id=":gneJ11_39_0">
                <vehicle id="236" pos="14.83" speed="8.72"/>
            </lane>
        </edge>
        <edge id=":gneJ15_17">
            <lane id=":gneJ15_17_0">
                <vehicle id="209" pos="0.02" speed="8.39"/>
            </lane>
        </edge>
        <edge id=":gneJ15_21">
            <lane id=":gneJ15_21_0">
                <vehicle id="210" pos="14.43" speed="8.99"/>
            </lane>
        </edge>
        <edge id=":gneJ16_0">
            <lane id=":gneJ16_0_0">
                <vehicle id="300" pos="3.10" speed="5.50"/>
            </lane>
        </edge>
        <edge id=":gneJ3_6">
            <lane id=":gneJ3_6_0">
                <vehicle id="293" pos="3.58" speed="4.29"/>
            </lane>
        </edge>
        <edge id=":gneJ8_5">
            <lane id=":gneJ8_5_0">
                <vehicle id="240" pos="3.94" speed="5.78"/>
            </lane>
        </edge>
        <edge id="gneE10">
            <lane id="gneE10_0">
                <vehicle id="319" pos="43.46" speed="4.87"/>
            </lane>
        </edge>
        <edge id="gneE11">
            <lane id="gneE11_0">
                <vehicle id="250" pos="81.37" speed="7.69"/>
                <vehicle id="314" pos="98.38" speed="8.48"/>
            </lane>
        </edge>
        <edge id="gneE12">
            <lane id="gneE12_0">
                <vehicle id="277" pos="70.81" speed="13.82"/>
                <vehicle id="264" pos="100.70" speed="13.75"/>
                <vehicle id="158" pos="130.54" speed="13.42"/>
                <vehicle id="230" pos="185.06" speed="13.82"/>
            </lane>
        </edge>
        <edge id="gneE13">
            <lane id="gneE13_0">
                <vehicle id="306" pos="182.90" speed="9.81"/>
                <vehicle id="217" pos="227.64" speed="9.79"/>
                <vehicle id="271" pos="301.16" speed="3.20"/>
            </lane>
        </edge>
        <edge id="gneE14">
            <lane id="gneE14_0">
                <vehicle id="282" pos="31.44" speed="10.16"/>
                <vehicle id="269" pos="72.32" speed="10.14"/>
                <vehicle id="313" pos="129.84" speed="10.48"/>
                <vehicle id="228" pos="159.91" speed="2.77"/>
            </lane>
        </edge>
        <edge id="gneE15">
            <lane id="gneE15_0">
                <vehicle id="284" pos="59.48" speed="8.66"/>
                <vehicle id="185" pos="128.03" speed="8.52"/>
            </lane>
        </edge>
        <edge id="gneE17">
            <lane id="gneE17_0">
                <vehicle id="320" pos="52.19" speed="9.32"/>
                <vehicle id="299" pos="80.77" speed="9.59"/>
                <vehicle id="199" pos="106.49" speed="9.86"/>
                <vehicle id="287" pos="286.24" speed="0.00"/>
            </lane>
        </edge>
        <edge id="gneE18">
            <lane id="gneE18_0">
                <vehicle id="226" pos="31.79" speed="9.86"/>
                <vehicle id="233" pos="95.49" speed="9.47"/>
                <vehicle id="311" pos="115.53" speed="9.27"/>
                <vehicle id="180" pos="145.40" speed="8.83"/>
                <vehicle id="307" pos="166.43" speed="9.96"/>
                <vehicle id="221" pos="190.23" speed="9.35"/>
                <vehicle id="257" pos="253.63" speed="9.09"/>
                <vehicle id="256" pos="283.30" speed="9.68"/>
            </lane>
        </edge>
        <edge id="gneE19">
            <lane id="gneE19_0">
                <vehicle id="290" pos="214.33" speed="12.62"/>
                <vehicle id="153" pos="248.51" speed="6.82"/>
                <vehicle id="273" pos="263.80" speed="6.36"/>
                <vehicle id="239" pos="279.44" speed="7.01"/>
            </lane>
        </edge>
        <edge id="gneE2">
            <lane id="gneE2_0">
                <vehicle id="B2_1" pos="77.58" speed="9.78"/>
                <vehicle id="123" pos="98.62" speed="10.11"/>
            </lane>
        </edge>
        <edge id="gneE20">
            <lane id="gneE20_0">
                <vehicle id="237" pos="22.10" speed="8.84"/>
                <vehicle id="229" pos="41.92" speed="8.41"/>
                <vehicle id="203" pos="91.17" speed="7.89"/>
                <vehicle id="B4_1" pos="148.48" speed="8.47"/>
                <vehicle id="223" pos="170.94" speed="8.87"/>
                <vehicle id="222" pos="191.51" speed="7.81"/>
                <vehicle id="161" pos="273.09" speed="7.95"/>
            </lane>
        </edge>
        <edge id="gneE23">
            <lane id="gneE23_0">
                <vehicle id="326" pos="7.33" speed="2.23"/>
                <vehicle id="315" pos="82.12" speed="7.14"/>
                <vehicle id="104" pos="100.01" speed="7.65"/>
            </lane>
        </edge>
        <edge id="gneE24">
            <lane id="gneE24_0">
                <vehicle id="200" pos="20.99" speed="9.28"/>
                <vehicle id="301" pos="68.44" speed="12.35"/>
                <vehicle id="193" pos="153.28" speed="12.57"/>
            </lane>
        </edge>
        <edge id="gneE25">
            <lane id="gneE25_0">
                <vehicle id="116" pos="73.61" speed="8.77"/>
                <vehicle id="127" pos="152.46" speed="9.61"/>
                <vehicle id="B1_1" pos="203.06" speed="9.50"/>
                <vehicle id="272" pos="243.40" speed="9.66"/>
                <vehicle id="285" pos="290.68" speed="0.33"/>
            </lane>
        </edge>
        <edge id="gneE26">
            <lane id="gneE26_0">
                <vehicle id="182" pos="140.80" speed="6.46"/>
                <vehicle id="212" pos="161.07" speed="6.11"/>
                <vehicle id="242" pos="182.59" speed="5.72"/>
                <vehicle id="196" pos="206.00" speed="6.16"/>
                <vehicle id="179" pos="222.73" speed="1.86"/>
                <vehicle id="198" pos="230.63" speed="0.36"/>
                <vehicle id="167" pos="238.27" speed="0.02"/>
                <vehicle id="173" pos="245.80" speed="0.02"/>
                <vehicle id="83" pos="253.32" speed="0.02"/>
                <vehicle id="126" pos="261.40" speed="0.57"/>
                <vehicle id="181" pos="271.81" speed="2.68"/>
                <vehicle id="205" pos="281.64" speed="2.05"/>
                <vehicle id="224" pos="290.40" speed="0.47"/>
            </lane>
        </edge>
        <edge id="gneE27">
            <lane id="gneE27_0">
                <vehicle id="191" pos="90.82" speed="5.20"/>
            </lane>
        </edge>
        <edge id="gneE28">
            <lane id="gneE28_0">
                <vehicle id="259" pos="13.47" speed="8.99"/>
            </lane>
        </edge>
        <edge id="gneE3">
            <lane id="gneE3_0">
                <vehicle id="207" pos="44.35" speed="9.57"/>
            </lane>
        </edge>
        <edge id="gneE30">
            <lane id="gneE30_0">
                <vehicle id="160" pos="67.15" speed="8.05"/>
                <vehicle id="154" pos="167.23" speed="8.61"/>
            </lane>
        </edge>
        <edge id="gneE31">
            <lane id="gneE31_0">
                <vehicle id="260" pos="244.53" speed="8.13"/>
            </lane>
        </edge>
        <edge id="gneE32">
            <lane id="gneE32_0">
                <vehicle id="302" pos="177.43" speed="6.79"/>
                <vehicle id="286" pos="293.13" speed="7.72"/>
            </lane>
        </edge>
        <edge id="gneE38">
            <lane id="gneE38_0">
                <vehicle id="323" pos="23.71" speed="7.70"/>
                <vehicle id="291" pos="119.39" speed="7.77"/>
                <vehicle id="295" pos="259.30" speed="8.00"/>
                <vehicle id="266" pos="329.50" speed="8.89"/>
            </lane>
        </edge>
        <edge id="gneE4">
            <lane id="gneE4_0">
                <vehicle id="281" pos="19.55" speed="9.01"/>
                <vehicle id="292" pos="70.50" speed="9.76"/>
                <vehicle id="251" pos="112.54" speed="8.71"/>
            </lane>
        </edge>
        <edge id="gneE41">
            <lane id="gneE41_0">
                <vehicle id="318" pos="66.02" speed="8.91"/>
                <vehicle id="268" pos="92.89" speed="8.02"/>
            </lane>
        </edge>
        <edge id="gneE42">
            <lane id="gneE42_0">
                <vehicle id="113" pos="65.07" speed="7.66"/>
                <vehicle id="136" pos="82.08" speed="7.69"/>
                <vehicle id="208" pos="110.30" speed="7.95"/>
            </lane>
        </edge>
        <edge id="gneE43">
            <lane id="gneE43_0">
                <vehicle id="184" pos="80.88" speed="6.45"/>
                <vehicle id="305" pos="131.70" speed="6.42"/>
                <vehicle id="231" pos="151.93" speed="5.80"/>
                <vehicle id="219" pos="194.20" speed="0.01"/>
                <vehicle id="274" pos="201.71" speed="0.00"/>
                <vehicle id="165" pos="209.22" speed="0.00"/>
                <vehicle id="252" pos="216.72" speed="0.00"/>
                <vehicle id="255" pos="224.24" speed="0.02"/>
                <vehicle id="202" pos="232.16" speed="0.41"/>
                <vehicle id="172" pos="240.53" speed="0.80"/>
                <vehicle id="246" pos="250.98" speed="2.29"/>
                <vehicle id="215" pos="260.13" speed="0.71"/>
                <vehicle id="163" pos="268.22" speed="0.50"/>
                <vehicle id="216" pos="276.55" speed="0.36"/>
                <vehicle id="140" pos="284.18" speed="0.05"/>
                <vehicle id="15" pos="291.72" speed="0.01"/>
                <vehicle id="195" pos="299.23" speed="0.00"/>
                <vehicle id="138" pos="306.73" speed="0.00"/>
            </lane>
        </edge>
        <edge id="gneE45">
            <lane id="gneE45_0">
                <vehicle id="171" pos="22.39" speed="8.95"/>
                <vehicle id="232" pos="61.58" speed="8.60"/>
                <vehicle id="204" pos="105.44" speed="8.53"/>
                <vehicle id="280" pos="153.30" speed="8.24"/>
                <vehicle id="177" pos="172.65" speed="8.04"/>
                <vehicle id="227" pos="206.47" speed="8.45"/>
                <vehicle id="234" pos="275.45" speed="7.82"/>
            </lane>
        </edge>
        <edge id="gneE46">
            <lane id="gneE46_0">
                <vehicle id="253" pos="29.11" speed="9.94"/>
                <vehicle id="309" pos="155.52" speed="9.89"/>
            </lane>
        </edge>
        <edge id="gneE47">
            <lane id="gneE47_0">
                <vehicle id="278" pos="13.53" speed="7.76"/>
                <vehicle id="322" pos="31.00" speed="7.87"/>
                <vehicle id="169" pos="109.29" speed="8.35"/>
            </lane>
        </edge>
        <edge id="gneE48">
            <lane id="gneE48_0">
                <vehicle id="325" pos="9.78" speed="3.09"/>
                <vehicle id="235" pos="56.65" speed="5.74"/>
                <vehicle id="308" pos="115.92" speed="6.72"/>
                <vehicle id="303" pos="135.28" speed="5.90"/>
                <vehicle id="100" pos="153.11" speed="6.62"/>
                <vehicle id="297" pos="186.35" speed="6.90"/>
            </lane>
        </edge>
        <edge id="gneE49">
            <lane id="gneE49_0">
                <vehicle id="159" pos="21.78" speed="7.06"/>
                <vehicle id="139" pos="48.35" speed="7.33"/>
                <vehicle id="312" pos="108.56" speed="7.88"/>
                <vehicle id="304" pos="160.90" speed="7.87"/>
                <vehicle id="189" pos="181.29" speed="7.22"/>
                <vehicle id="141" pos="307.65" speed="7.59"/>
            </lane>
        </edge>
        <edge id="gneE5">
            <lane id="gneE5_0">
                <vehicle id="317" pos="40.30" speed="5.95"/>
                <vehicle id="267" pos="74.41" speed="5.78"/>
            </lane>
        </edge>
        <edge id="gneE50">
            <lane id="gneE50_0">
                <vehicle id="175" pos="113.66" speed="4.86"/>
                <vehicle id="289" pos="204.21" speed="5.05"/>
                <vehicle id="275" pos="282.09" speed="5.25"/>
                <vehicle id="265" pos="321.96" speed="5.08"/>
                <vehicle id="211" pos="344.12" speed="4.89"/>
            </lane>
        </edge>
        <edge id="gneE51">
            <lane id="gneE51_0">
                <vehicle id="187" pos="20.99" speed="6.21"/>
                <vehicle id="241" pos="120.76" speed="6.46"/>
                <vehicle id="270" pos="193.01" speed="5.84"/>
                <vehicle id="249" pos="238.32" speed="5.76"/>
                <vehicle id="243" pos="257.69" speed="5.82"/>
                <vehicle id="263" pos="275.69" speed="6.68"/>
                <vehicle id="245" pos="315.55" speed="6.48"/>
                <vehicle id="B3_1" pos="364.44" speed="5.68"/>
            </lane>
        </edge>
        <edge id="gneE52">
            <lane id="gneE52_0">
                <vehicle id="296" pos="195.07" speed="6.73"/>
                <vehicle id="213" pos="218.05" speed="5.89"/>
                <vehicle id="186" pos="238.86" speed="5.89"/>
                <vehicle id="283" pos="279.31" speed="6.10"/>
            </lane>
        </edge>
        <edge id="gneE53">
            <lane id="gneE53_0">
                <vehicle id="155" pos="287.64" speed="6.66"/>
            </lane>
        </edge>
        <edge id="gneE54">
            <lane id="gneE54_0">
                <vehicle id="324" pos="17.24" speed="6.25"/>
            </lane>
        </edge>
        <edge id="gneE56">
            <lane id="gneE56_0">
                <vehicle id="170" pos="96.99" speed="7.89"/>
            </lane>
        </edge>
        <edge id="gneE58">
            <lane id="gneE58_0">
                <vehicle id="310" pos="119.36" speed="7.36"/>
                <vehicle id="261" pos="176.86" speed="6.87"/>
                <vehicle id="294" pos="239.07" speed="7.16"/>
            </lane>
        </edge>
        <edge id="gneE59">
            <lane id="gneE59_0">
                <vehicle id="321" pos="43.89" speed="8.23"/>
                <vehicle id="316" pos="81.99" speed="8.24"/>
                <vehicle id="254" pos="228.58" speed="8.82"/>
                <vehicle id="134" pos="267.79" speed="8.25"/>
                <vehicle id="288" pos="297.89" speed="8.32"/>
                <vehicle id="89" pos="315.20" speed="8.83"/>
            </lane>
        </edge>
        <edge id="gneE60">
            <lane id="gneE60_0">
                <vehicle id="279" pos="20.47" speed="6.60"/>
                <vehicle id="262" pos="127.25" speed="6.27"/>
            </lane>
        </edge>
        <edge id="gneE61">
            <lane id="gneE61_0">
                <vehicle id="247" pos="96.07" speed="7.24"/>
                <vehicle id="190" pos="206.73" speed="7.65"/>
            </lane>
        </edge>
        <edge id="gneE8">
            <lane id="gneE8_0">
                <vehicle id="298" pos="209.96" speed="7.21"/>
                <vehicle id="192" pos="289.74" speed="7.26"/>
            </lane>
        </edge>
    </timestep>
