<?xml version="1.0"?>
<timestep time="351.00">
        <edge id=":gneJ11_11">
            <lane id=":gneJ11_11_0">
                <vehicle id="245" pos="8.72" speed="6.72"/>
            </lane>
        </edge>
        <edge id=":gneJ15_7">
            <lane id=":gneJ15_7_0">
                <vehicle id="140" pos="11.71" speed="5.72"/>
            </lane>
        </edge>
        <edge id=":gneJ28_0">
            <lane id=":gneJ28_0_0">
                <vehicle id="278" pos="11.44" speed="6.82"/>
            </lane>
        </edge>
        <edge id=":gneJ3_0">
            <lane id=":gneJ3_0_0">
                <vehicle id="299" pos="3.76" speed="6.45"/>
            </lane>
        </edge>
        <edge id=":gneJ31_1">
            <lane id=":gneJ31_1_0">
                <vehicle id="296" pos="3.99" speed="6.78"/>
            </lane>
        </edge>
        <edge id="gneE1">
            <lane id="gneE1_0">
                <vehicle id="350" pos="6.57" speed="1.47"/>
            </lane>
        </edge>
        <edge id="gneE10">
            <lane id="gneE10_0">
                <vehicle id="306" pos="42.24" speed="5.32"/>
            </lane>
        </edge>
        <edge id="gneE12">
            <lane id="gneE12_0">
                <vehicle id="272" pos="22.74" speed="10.37"/>
                <vehicle id="285" pos="51.05" speed="12.97"/>
                <vehicle id="339" pos="77.07" speed="12.92"/>
                <vehicle id="284" pos="118.22" speed="13.49"/>
                <vehicle id="337" pos="143.76" speed="13.48"/>
                <vehicle id="240" pos="295.63" speed="9.32"/>
            </lane>
        </edge>
        <edge id="gneE13">
            <lane id="gneE13_0">
                <vehicle id="207" pos="108.72" speed="8.98"/>
            </lane>
        </edge>
        <edge id="gneE14">
            <lane id="gneE14_0">
                <vehicle id="217" pos="112.06" speed="6.94"/>
                <vehicle id="250" pos="122.68" speed="0.54"/>
                <vehicle id="314" pos="130.64" speed="0.13"/>
                <vehicle id="331" pos="138.19" speed="0.02"/>
                <vehicle id="282" pos="145.69" speed="0.00"/>
                <vehicle id="269" pos="153.19" speed="0.00"/>
                <vehicle id="313" pos="160.69" speed="0.00"/>
            </lane>
        </edge>
        <edge id="gneE15">
            <lane id="gneE15_0">
                <vehicle id="307" pos="0.21" speed="3.42"/>
                <vehicle id="342" pos="15.74" speed="5.95"/>
                <vehicle id="223" pos="45.65" speed="8.10"/>
                <vehicle id="221" pos="71.88" speed="8.59"/>
                <vehicle id="338" pos="88.89" speed="8.08"/>
                <vehicle id="257" pos="157.18" speed="8.11"/>
            </lane>
        </edge>
        <edge id="gneE17">
            <lane id="gneE17_0">
                <vehicle id="349" pos="5.10" speed="0.00"/>
                <vehicle id="B4_1" pos="22.50" speed="9.00"/>
                <vehicle id="222" pos="112.71" speed="9.79"/>
                <vehicle id="320" pos="271.36" speed="7.79"/>
            </lane>
        </edge>
        <edge id="gneE18">
            <lane id="gneE18_0">
                <vehicle id="346" pos="17.79" speed="6.36"/>
                <vehicle id="254" pos="44.27" speed="9.01"/>
                <vehicle id="292" pos="111.04" speed="9.38"/>
                <vehicle id="251" pos="159.21" speed="9.44"/>
                <vehicle id="226" pos="253.57" speed="9.67"/>
                <vehicle id="233" pos="268.79" speed="0.03"/>
                <vehicle id="311" pos="276.35" speed="0.04"/>
                <vehicle id="180" pos="285.17" speed="1.29"/>
            </lane>
        </edge>
        <edge id="gneE19">
            <lane id="gneE19_0">
                <vehicle id="228" pos="175.88" speed="11.94"/>
                <vehicle id="327" pos="221.67" speed="12.86"/>
                <vehicle id="256" pos="275.90" speed="8.73"/>
            </lane>
        </edge>
        <edge id="gneE2">
            <lane id="gneE2_0">
                <vehicle id="199" pos="12.43" speed="9.79"/>
            </lane>
        </edge>
        <edge id="gneE20">
            <lane id="gneE20_0">
                <vehicle id="224" pos="17.45" speed="8.49"/>
                <vehicle id="301" pos="109.03" speed="7.94"/>
                <vehicle id="237" pos="223.44" speed="8.55"/>
                <vehicle id="229" pos="242.12" speed="8.44"/>
            </lane>
        </edge>
        <edge id="gneE23">
            <lane id="gneE23_0">
                <vehicle id="290" pos="4.76" speed="7.21"/>
                <vehicle id="326" pos="176.38" speed="6.88"/>
            </lane>
        </edge>
        <edge id="gneE24">
            <lane id="gneE24_0">
                <vehicle id="347" pos="23.28" speed="7.74"/>
                <vehicle id="336" pos="149.91" speed="12.67"/>
            </lane>
        </edge>
        <edge id="gneE25">
            <lane id="gneE25_0">
                <vehicle id="260" pos="0.27" speed="7.45"/>
                <vehicle id="343" pos="17.61" speed="5.88"/>
                <vehicle id="315" pos="41.56" speed="8.93"/>
                <vehicle id="259" pos="75.82" speed="9.70"/>
                <vehicle id="138" pos="138.48" speed="8.71"/>
                <vehicle id="328" pos="205.39" speed="9.86"/>
                <vehicle id="116" pos="268.60" speed="3.21"/>
                <vehicle id="127" pos="281.95" speed="4.79"/>
                <vehicle id="B1_1" pos="290.62" speed="0.29"/>
            </lane>
        </edge>
        <edge id="gneE26">
            <lane id="gneE26_0">
                <vehicle id="332" pos="104.38" speed="6.26"/>
                <vehicle id="271" pos="127.42" speed="6.69"/>
                <vehicle id="182" pos="215.40" speed="0.32"/>
                <vehicle id="212" pos="223.05" speed="0.14"/>
                <vehicle id="242" pos="230.73" speed="0.14"/>
                <vehicle id="196" pos="238.31" speed="0.06"/>
                <vehicle id="179" pos="245.82" speed="0.00"/>
                <vehicle id="198" pos="253.32" speed="0.00"/>
                <vehicle id="167" pos="261.48" speed="0.66"/>
                <vehicle id="173" pos="272.07" speed="2.47"/>
                <vehicle id="83" pos="285.20" speed="4.87"/>
            </lane>
        </edge>
        <edge id="gneE3">
            <lane id="gneE3_0">
                <vehicle id="288" pos="81.98" speed="9.93"/>
            </lane>
        </edge>
        <edge id="gneE30">
            <lane id="gneE30_0">
                <vehicle id="191" pos="116.69" speed="7.77"/>
                <vehicle id="300" pos="193.59" speed="8.34"/>
                <vehicle id="160" pos="267.92" speed="8.67"/>
            </lane>
        </edge>
        <edge id="gneE31">
            <lane id="gneE31_0">
                <vehicle id="345" pos="16.79" speed="6.37"/>
                <vehicle id="319" pos="40.70" speed="8.27"/>
            </lane>
        </edge>
        <edge id="gneE32">
            <lane id="gneE32_0">
                <vehicle id="181" pos="6.16" speed="7.10"/>
                <vehicle id="195" pos="102.99" speed="7.06"/>
            </lane>
        </edge>
        <edge id="gneE38">
            <lane id="gneE38_0">
                <vehicle id="136" pos="121.37" speed="8.82"/>
                <vehicle id="323" pos="226.00" speed="8.32"/>
                <vehicle id="291" pos="318.67" speed="8.35"/>
                <vehicle id="295" pos="342.98" speed="0.00"/>
            </lane>
        </edge>
        <edge id="gneE4">
            <lane id="gneE4_0">
                <vehicle id="158" pos="77.54" speed="8.99"/>
                <vehicle id="230" pos="128.52" speed="9.48"/>
            </lane>
        </edge>
        <edge id="gneE41">
            <lane id="gneE41_0">
                <vehicle id="302" pos="8.23" speed="8.52"/>
                <vehicle id="286" pos="139.68" speed="8.96"/>
            </lane>
        </edge>
        <edge id="gneE42">
            <lane id="gneE42_0">
                <vehicle id="348" pos="14.46" speed="4.89"/>
                <vehicle id="234" pos="36.19" speed="7.20"/>
            </lane>
        </edge>
        <edge id="gneE43">
            <lane id="gneE43_0">
                <vehicle id="265" pos="59.38" speed="6.61"/>
                <vehicle id="211" pos="74.87" speed="6.77"/>
                <vehicle id="184" pos="179.25" speed="0.06"/>
                <vehicle id="305" pos="187.27" speed="0.52"/>
                <vehicle id="231" pos="197.04" speed="2.06"/>
                <vehicle id="219" pos="207.16" speed="2.39"/>
                <vehicle id="274" pos="218.96" speed="4.09"/>
                <vehicle id="165" pos="231.17" speed="4.13"/>
                <vehicle id="252" pos="242.43" speed="2.40"/>
                <vehicle id="255" pos="252.03" speed="1.68"/>
                <vehicle id="202" pos="260.90" speed="1.01"/>
                <vehicle id="172" pos="268.84" speed="0.28"/>
                <vehicle id="246" pos="276.61" speed="0.22"/>
                <vehicle id="215" pos="284.22" speed="0.01"/>
                <vehicle id="163" pos="292.81" speed="1.09"/>
                <vehicle id="216" pos="303.74" speed="3.10"/>
            </lane>
        </edge>
        <edge id="gneE45">
            <lane id="gneE45_0">
                <vehicle id="205" pos="128.11" speed="8.90"/>
                <vehicle id="266" pos="146.86" speed="8.70"/>
                <vehicle id="330" pos="163.37" speed="7.73"/>
                <vehicle id="210" pos="198.91" speed="8.39"/>
                <vehicle id="171" pos="222.78" speed="8.98"/>
                <vehicle id="232" pos="260.63" speed="8.54"/>
                <vehicle id="204" pos="284.07" speed="0.92"/>
                <vehicle id="280" pos="291.71" speed="0.05"/>
                <vehicle id="177" pos="299.22" speed="0.01"/>
                <vehicle id="227" pos="306.73" speed="0.00"/>
            </lane>
        </edge>
        <edge id="gneE46">
            <lane id="gneE46_0">
                <vehicle id="351" pos="5.10" speed="0.00"/>
                <vehicle id="275" pos="61.37" speed="9.70"/>
                <vehicle id="318" pos="121.42" speed="9.42"/>
            </lane>
        </edge>
        <edge id="gneE48">
            <lane id="gneE48_0">
                <vehicle id="324" pos="16.79" speed="6.33"/>
                <vehicle id="253" pos="38.68" speed="6.12"/>
                <vehicle id="325" pos="160.78" speed="6.69"/>
                <vehicle id="235" pos="204.91" speed="5.97"/>
                <vehicle id="308" pos="268.60" speed="6.71"/>
                <vehicle id="303" pos="285.89" speed="6.05"/>
                <vehicle id="100" pos="304.51" speed="6.36"/>
                <vehicle id="297" pos="319.63" speed="0.01"/>
            </lane>
        </edge>
        <edge id="gneE49">
            <lane id="gneE49_0">
                <vehicle id="209" pos="36.44" speed="7.84"/>
                <vehicle id="200" pos="58.10" speed="7.89"/>
                <vehicle id="273" pos="87.42" speed="7.40"/>
                <vehicle id="193" pos="137.07" speed="6.90"/>
                <vehicle id="236" pos="167.66" speed="7.53"/>
                <vehicle id="159" pos="198.73" speed="7.40"/>
                <vehicle id="139" pos="225.56" speed="7.73"/>
                <vehicle id="312" pos="286.15" speed="7.83"/>
            </lane>
        </edge>
        <edge id="gneE5">
            <lane id="gneE5_0">
                <vehicle id="277" pos="21.76" speed="5.90"/>
                <vehicle id="264" pos="36.38" speed="5.20"/>
                <vehicle id="333" pos="95.43" speed="5.15"/>
            </lane>
        </edge>
        <edge id="gneE50">
            <lane id="gneE50_0">
                <vehicle id="239" pos="72.45" speed="5.43"/>
                <vehicle id="175" pos="245.21" speed="5.93"/>
                <vehicle id="289" pos="331.49" speed="5.11"/>
            </lane>
        </edge>
        <edge id="gneE51">
            <lane id="gneE51_0">
                <vehicle id="322" pos="12.28" speed="6.72"/>
                <vehicle id="268" pos="101.32" speed="5.91"/>
                <vehicle id="187" pos="171.22" speed="5.90"/>
                <vehicle id="241" pos="270.28" speed="6.63"/>
                <vehicle id="270" pos="328.29" speed="0.12"/>
                <vehicle id="249" pos="336.83" speed="1.03"/>
                <vehicle id="243" pos="346.45" speed="2.12"/>
                <vehicle id="263" pos="358.70" speed="4.33"/>
            </lane>
        </edge>
        <edge id="gneE53">
            <lane id="gneE53_0">
                <vehicle id="329" pos="1.52" speed="6.60"/>
            </lane>
        </edge>
        <edge id="gneE55">
            <lane id="gneE55_0">
                <vehicle id="304" pos="12.57" speed="6.75"/>
                <vehicle id="141" pos="107.36" speed="7.20"/>
                <vehicle id="309" pos="129.74" speed="7.63"/>
            </lane>
        </edge>
        <edge id="gneE56">
            <lane id="gneE56_0">
                <vehicle id="B3_1" pos="5.27" speed="8.65"/>
            </lane>
        </edge>
        <edge id="gneE57">
            <lane id="gneE57_0">
                <vehicle id="335" pos="109.54" speed="6.82"/>
            </lane>
        </edge>
        <edge id="gneE58">
            <lane id="gneE58_0">
                <vehicle id="287" pos="17.96" speed="7.49"/>
                <vehicle id="281" pos="50.85" speed="7.34"/>
                <vehicle id="340" pos="74.33" speed="6.92"/>
                <vehicle id="293" pos="165.92" speed="7.04"/>
                <vehicle id="310" pos="293.75" speed="7.68"/>
            </lane>
        </edge>
        <edge id="gneE59">
            <lane id="gneE59_0">
                <vehicle id="321" pos="245.56" speed="8.30"/>
                <vehicle id="316" pos="281.79" speed="8.73"/>
            </lane>
        </edge>
        <edge id="gneE6">
            <lane id="gneE6_0">
                <vehicle id="341" pos="51.43" speed="6.83"/>
                <vehicle id="298" pos="75.11" speed="7.00"/>
            </lane>
        </edge>
        <edge id="gneE60">
            <lane id="gneE60_0">
                <vehicle id="261" pos="26.60" speed="6.83"/>
                <vehicle id="344" pos="41.02" speed="5.83"/>
                <vehicle id="294" pos="80.77" speed="5.99"/>
                <vehicle id="334" pos="105.78" speed="6.33"/>
                <vehicle id="279" pos="171.53" speed="6.54"/>
                <vehicle id="262" pos="280.16" speed="6.25"/>
            </lane>
        </edge>
        <edge id="gneE61">
            <lane id="gneE61_0">
                <vehicle id="155" pos="88.31" speed="7.91"/>
                <vehicle id="247" pos="275.73" speed="6.91"/>
            </lane>
        </edge>
        <edge id="gneE7">
            <lane id="gneE7_0">
                <vehicle id="317" pos="22.95" speed="7.78"/>
                <vehicle id="267" pos="74.29" speed="8.95"/>
            </lane>
        </edge>
    </timestep>
