<?xml version="1.0"?>
<timestep time="369.00">
        <edge id=":gneJ15_3">
            <lane id=":gneJ15_3_0">
                <vehicle id="323" pos="16.43" speed="4.71"/>
            </lane>
        </edge>
        <edge id=":gneJ15_5">
            <lane id=":gneJ15_5_0">
                <vehicle id="172" pos="4.23" speed="5.99"/>
            </lane>
        </edge>
        <edge id=":gneJ18_0">
            <lane id=":gneJ18_0_0">
                <vehicle id="348" pos="0.15" speed="6.81"/>
            </lane>
        </edge>
        <edge id=":gneJ28_10">
            <lane id=":gneJ28_10_0">
                <vehicle id="302" pos="14.37" speed="9.43"/>
            </lane>
        </edge>
        <edge id=":gneJ4_3">
            <lane id=":gneJ4_3_0">
                <vehicle id="299" pos="4.83" speed="8.72"/>
            </lane>
        </edge>
        <edge id=":gneJ6_2">
            <lane id=":gneJ6_2_0">
                <vehicle id="306" pos="1.19" speed="5.34"/>
            </lane>
        </edge>
        <edge id=":gneJ8_4">
            <lane id=":gneJ8_4_0">
                <vehicle id="342" pos="3.41" speed="7.98"/>
            </lane>
        </edge>
        <edge id="gneE1">
            <lane id="gneE1_0">
                <vehicle id="350" pos="83.06" speed="4.18"/>
            </lane>
        </edge>
        <edge id="gneE10">
            <lane id="gneE10_0">
                <vehicle id="338" pos="42.35" speed="5.95"/>
            </lane>
        </edge>
        <edge id="gneE11">
            <lane id="gneE11_0">
                <vehicle id="300" pos="42.99" speed="8.58"/>
                <vehicle id="360" pos="66.69" speed="8.60"/>
                <vehicle id="355" pos="105.33" speed="8.11"/>
            </lane>
        </edge>
        <edge id="gneE12">
            <lane id="gneE12_0">
                <vehicle id="116" pos="10.92" speed="8.55"/>
                <vehicle id="221" pos="54.92" speed="13.28"/>
                <vehicle id="B1_1" pos="120.79" speed="13.59"/>
                <vehicle id="352" pos="149.21" speed="12.97"/>
                <vehicle id="257" pos="210.96" speed="13.61"/>
                <vehicle id="272" pos="259.53" speed="10.44"/>
                <vehicle id="285" pos="280.03" speed="8.65"/>
                <vehicle id="339" pos="293.47" speed="3.19"/>
                <vehicle id="284" pos="301.15" speed="0.03"/>
            </lane>
        </edge>
        <edge id="gneE13">
            <lane id="gneE13_0">
                <vehicle id="341" pos="27.01" speed="9.83"/>
                <vehicle id="298" pos="63.86" speed="9.03"/>
                <vehicle id="207" pos="276.03" speed="9.65"/>
            </lane>
        </edge>
        <edge id="gneE14">
            <lane id="gneE14_0">
                <vehicle id="362" pos="58.36" speed="9.97"/>
                <vehicle id="217" pos="115.68" speed="0.00"/>
                <vehicle id="250" pos="123.18" speed="0.00"/>
                <vehicle id="314" pos="130.68" speed="0.00"/>
                <vehicle id="331" pos="138.19" speed="0.00"/>
                <vehicle id="282" pos="145.69" speed="0.00"/>
                <vehicle id="269" pos="153.19" speed="0.00"/>
                <vehicle id="313" pos="160.69" speed="0.00"/>
            </lane>
        </edge>
        <edge id="gneE15">
            <lane id="gneE15_0">
                <vehicle id="311" pos="64.92" speed="8.59"/>
                <vehicle id="237" pos="84.92" speed="8.09"/>
                <vehicle id="229" pos="104.60" speed="8.67"/>
                <vehicle id="180" pos="128.54" speed="7.93"/>
                <vehicle id="307" pos="147.08" speed="8.70"/>
            </lane>
        </edge>
        <edge id="gneE17">
            <lane id="gneE17_0">
                <vehicle id="349" pos="157.49" speed="8.86"/>
                <vehicle id="B4_1" pos="187.41" speed="8.90"/>
                <vehicle id="222" pos="278.84" speed="8.75"/>
            </lane>
        </edge>
        <edge id="gneE18">
            <lane id="gneE18_0">
                <vehicle id="230" pos="122.12" speed="8.95"/>
                <vehicle id="346" pos="185.12" speed="9.04"/>
                <vehicle id="254" pos="213.29" speed="8.87"/>
                <vehicle id="292" pos="279.38" speed="9.33"/>
            </lane>
        </edge>
        <edge id="gneE19">
            <lane id="gneE19_0">
                <vehicle id="251" pos="23.20" speed="12.25"/>
                <vehicle id="226" pos="43.82" speed="12.06"/>
                <vehicle id="233" pos="67.41" speed="12.36"/>
            </lane>
        </edge>
        <edge id="gneE20">
            <lane id="gneE20_0">
                <vehicle id="140" pos="1.00" speed="7.92"/>
                <vehicle id="347" pos="26.40" speed="8.38"/>
                <vehicle id="335" pos="65.38" speed="7.83"/>
                <vehicle id="224" pos="165.38" speed="8.49"/>
                <vehicle id="301" pos="261.64" speed="8.72"/>
            </lane>
        </edge>
        <edge id="gneE23">
            <lane id="gneE23_0">
                <vehicle id="228" pos="4.22" speed="6.44"/>
                <vehicle id="327" pos="22.90" speed="8.00"/>
                <vehicle id="363" pos="38.33" speed="7.10"/>
                <vehicle id="263" pos="107.92" speed="6.91"/>
                <vehicle id="290" pos="135.81" speed="7.43"/>
            </lane>
        </edge>
        <edge id="gneE24">
            <lane id="gneE24_0">
                <vehicle id="179" pos="8.62" speed="9.01"/>
                <vehicle id="198" pos="33.72" speed="11.84"/>
                <vehicle id="295" pos="109.39" speed="12.73"/>
                <vehicle id="173" pos="166.02" speed="11.84"/>
            </lane>
        </edge>
        <edge id="gneE25">
            <lane id="gneE25_0">
                <vehicle id="215" pos="11.75" speed="8.89"/>
                <vehicle id="291" pos="64.94" speed="9.13"/>
                <vehicle id="357" pos="100.05" speed="9.07"/>
                <vehicle id="326" pos="142.10" speed="9.58"/>
                <vehicle id="260" pos="164.61" speed="9.32"/>
                <vehicle id="343" pos="184.36" speed="9.41"/>
                <vehicle id="315" pos="212.57" speed="9.46"/>
                <vehicle id="259" pos="246.18" speed="9.69"/>
                <vehicle id="138" pos="280.18" speed="2.93"/>
                <vehicle id="328" pos="290.62" speed="1.87"/>
            </lane>
        </edge>
        <edge id="gneE26">
            <lane id="gneE26_0">
                <vehicle id="223" pos="20.37" speed="6.87"/>
                <vehicle id="332" pos="219.56" speed="6.42"/>
                <vehicle id="271" pos="237.91" speed="3.68"/>
                <vehicle id="182" pos="247.38" speed="1.75"/>
                <vehicle id="212" pos="258.87" speed="3.75"/>
                <vehicle id="242" pos="272.19" speed="5.08"/>
                <vehicle id="196" pos="287.07" speed="6.41"/>
            </lane>
        </edge>
        <edge id="gneE27">
            <lane id="gneE27_0">
                <vehicle id="216" pos="82.01" speed="5.73"/>
            </lane>
        </edge>
        <edge id="gneE3">
            <lane id="gneE3_0">
                <vehicle id="366" pos="18.53" speed="6.84"/>
                <vehicle id="321" pos="62.49" speed="8.85"/>
                <vehicle id="316" pos="98.00" speed="8.81"/>
            </lane>
        </edge>
        <edge id="gneE30">
            <lane id="gneE30_0">
                <vehicle id="191" pos="266.68" speed="8.55"/>
            </lane>
        </edge>
        <edge id="gneE31">
            <lane id="gneE31_0">
                <vehicle id="345" pos="168.41" speed="8.81"/>
                <vehicle id="319" pos="192.03" speed="7.99"/>
            </lane>
        </edge>
        <edge id="gneE32">
            <lane id="gneE32_0">
                <vehicle id="167" pos="28.78" speed="7.48"/>
                <vehicle id="163" pos="96.77" speed="6.88"/>
                <vehicle id="181" pos="139.54" speed="7.65"/>
                <vehicle id="195" pos="234.99" speed="7.68"/>
            </lane>
        </edge>
        <edge id="gneE38">
            <lane id="gneE38_0">
                <vehicle id="234" pos="14.73" speed="8.19"/>
                <vehicle id="136" pos="272.56" speed="8.85"/>
            </lane>
        </edge>
        <edge id="gneE4">
            <lane id="gneE4_0">
                <vehicle id="240" pos="147.20" speed="9.36"/>
            </lane>
        </edge>
        <edge id="gneE41">
            <lane id="gneE41_0">
                <vehicle id="368" pos="6.80" speed="1.70"/>
            </lane>
        </edge>
        <edge id="gneE42">
            <lane id="gneE42_0">
                <vehicle id="369" pos="5.10" speed="0.00"/>
                <vehicle id="177" pos="28.90" speed="7.09"/>
                <vehicle id="354" pos="106.92" speed="7.37"/>
                <vehicle id="278" pos="127.73" speed="7.80"/>
            </lane>
        </edge>
        <edge id="gneE43">
            <lane id="gneE43_0">
                <vehicle id="265" pos="173.65" speed="5.99"/>
                <vehicle id="211" pos="189.78" speed="6.33"/>
                <vehicle id="184" pos="213.46" speed="3.87"/>
                <vehicle id="305" pos="226.15" speed="4.08"/>
                <vehicle id="231" pos="237.19" speed="1.81"/>
                <vehicle id="219" pos="245.64" speed="0.57"/>
                <vehicle id="274" pos="254.07" speed="0.40"/>
                <vehicle id="165" pos="261.97" speed="0.37"/>
                <vehicle id="252" pos="271.25" speed="1.71"/>
                <vehicle id="255" pos="282.72" speed="3.81"/>
                <vehicle id="202" pos="297.04" speed="5.52"/>
            </lane>
        </edge>
        <edge id="gneE45">
            <lane id="gneE45_0">
                <vehicle id="205" pos="239.44" speed="0.37"/>
                <vehicle id="266" pos="248.46" speed="1.49"/>
                <vehicle id="330" pos="258.38" speed="2.29"/>
                <vehicle id="210" pos="270.41" speed="4.07"/>
                <vehicle id="171" pos="282.79" speed="4.34"/>
                <vehicle id="232" pos="291.45" speed="0.56"/>
                <vehicle id="204" pos="299.20" speed="0.10"/>
                <vehicle id="280" pos="306.73" speed="0.01"/>
            </lane>
        </edge>
        <edge id="gneE46">
            <lane id="gneE46_0">
                <vehicle id="227" pos="60.90" speed="8.99"/>
                <vehicle id="289" pos="91.13" speed="9.58"/>
                <vehicle id="286" pos="135.46" speed="8.70"/>
                <vehicle id="351" pos="155.63" speed="8.95"/>
            </lane>
        </edge>
        <edge id="gneE47">
            <lane id="gneE47_0">
                <vehicle id="312" pos="96.65" speed="8.15"/>
            </lane>
        </edge>
        <edge id="gneE48">
            <lane id="gneE48_0">
                <vehicle id="275" pos="20.05" speed="6.93"/>
                <vehicle id="324" pos="132.93" speed="6.84"/>
                <vehicle id="253" pos="151.49" speed="6.48"/>
                <vehicle id="325" pos="275.81" speed="6.92"/>
                <vehicle id="235" pos="289.63" speed="0.01"/>
                <vehicle id="308" pos="297.14" speed="0.00"/>
                <vehicle id="303" pos="304.64" speed="0.00"/>
                <vehicle id="100" pos="312.14" speed="0.00"/>
                <vehicle id="297" pos="319.64" speed="0.00"/>
            </lane>
        </edge>
        <edge id="gneE49">
            <lane id="gneE49_0">
                <vehicle id="364" pos="32.95" speed="7.64"/>
                <vehicle id="336" pos="82.50" speed="7.04"/>
                <vehicle id="245" pos="117.26" speed="7.52"/>
                <vehicle id="209" pos="166.47" speed="6.97"/>
                <vehicle id="200" pos="190.40" speed="7.30"/>
                <vehicle id="273" pos="221.59" speed="6.72"/>
                <vehicle id="193" pos="270.14" speed="7.94"/>
                <vehicle id="236" pos="299.77" speed="7.05"/>
            </lane>
        </edge>
        <edge id="gneE5">
            <lane id="gneE5_0">
                <vehicle id="337" pos="20.98" speed="5.34"/>
                <vehicle id="288" pos="48.41" speed="5.85"/>
                <vehicle id="277" pos="115.70" speed="5.47"/>
                <vehicle id="264" pos="130.48" speed="4.98"/>
            </lane>
        </edge>
        <edge id="gneE50">
            <lane id="gneE50_0">
                <vehicle id="239" pos="167.78" speed="5.47"/>
                <vehicle id="175" pos="342.71" speed="5.98"/>
            </lane>
        </edge>
        <edge id="gneE51">
            <lane id="gneE51_0">
                <vehicle id="359" pos="61.43" speed="6.33"/>
                <vehicle id="322" pos="126.56" speed="5.87"/>
                <vehicle id="268" pos="215.31" speed="6.17"/>
                <vehicle id="187" pos="285.71" speed="5.79"/>
                <vehicle id="241" pos="343.30" speed="0.00"/>
                <vehicle id="270" pos="350.80" speed="0.00"/>
                <vehicle id="249" pos="358.30" speed="0.00"/>
                <vehicle id="243" pos="365.80" speed="0.00"/>
            </lane>
        </edge>
        <edge id="gneE53">
            <lane id="gneE53_0">
                <vehicle id="141" pos="80.83" speed="6.02"/>
                <vehicle id="309" pos="96.09" speed="5.94"/>
                <vehicle id="329" pos="113.21" speed="6.86"/>
            </lane>
        </edge>
        <edge id="gneE54">
            <lane id="gneE54_0">
                <vehicle id="361" pos="48.52" speed="6.14"/>
                <vehicle id="296" pos="107.76" speed="6.33"/>
            </lane>
        </edge>
        <edge id="gneE55">
            <lane id="gneE55_0">
                <vehicle id="139" pos="30.55" speed="7.77"/>
                <vehicle id="318" pos="68.53" speed="7.73"/>
                <vehicle id="304" pos="142.15" speed="7.25"/>
            </lane>
        </edge>
        <edge id="gneE56">
            <lane id="gneE56_0">
                <vehicle id="262" pos="58.55" speed="8.18"/>
                <vehicle id="256" pos="122.26" speed="8.58"/>
                <vehicle id="B3_1" pos="152.63" speed="8.24"/>
            </lane>
        </edge>
        <edge id="gneE57">
            <lane id="gneE57_0">
                <vehicle id="365" pos="24.37" speed="7.87"/>
            </lane>
        </edge>
        <edge id="gneE58">
            <lane id="gneE58_0">
                <vehicle id="320" pos="55.28" speed="7.04"/>
                <vehicle id="356" pos="89.49" speed="7.53"/>
                <vehicle id="287" pos="151.66" speed="6.95"/>
                <vehicle id="281" pos="182.12" speed="6.75"/>
                <vehicle id="340" pos="205.33" speed="7.97"/>
                <vehicle id="293" pos="299.16" speed="7.07"/>
            </lane>
        </edge>
        <edge id="gneE60">
            <lane id="gneE60_0">
                <vehicle id="358" pos="68.04" speed="6.37"/>
                <vehicle id="310" pos="89.09" speed="6.28"/>
                <vehicle id="261" pos="136.77" speed="6.64"/>
                <vehicle id="344" pos="154.91" speed="5.76"/>
                <vehicle id="294" pos="197.00" speed="6.40"/>
                <vehicle id="334" pos="220.89" speed="6.88"/>
                <vehicle id="279" pos="287.24" speed="6.30"/>
            </lane>
        </edge>
        <edge id="gneE61">
            <lane id="gneE61_0">
                <vehicle id="155" pos="219.11" speed="7.91"/>
            </lane>
        </edge>
        <edge id="gneE7">
            <lane id="gneE7_0">
                <vehicle id="333" pos="66.01" speed="8.60"/>
                <vehicle id="353" pos="121.74" speed="7.78"/>
                <vehicle id="317" pos="174.01" speed="8.08"/>
                <vehicle id="267" pos="223.38" speed="7.84"/>
            </lane>
        </edge>
    </timestep>
