<?xml version="1.0"?>
<timestep time="37.00">
        <edge id="gneE1">
            <lane id="gneE1_0">
                <vehicle id="28" pos="41.52" speed="4.66"/>
            </lane>
        </edge>
        <edge id="gneE10">
            <lane id="gneE10_0">
                <vehicle id="26" pos="62.33" speed="5.34"/>
                <vehicle id="16" pos="114.20" speed="5.42"/>
            </lane>
        </edge>
        <edge id="gneE11">
            <lane id="gneE11_0">
                <vehicle id="20" pos="133.08" speed="8.28"/>
            </lane>
        </edge>
        <edge id="gneE12">
            <lane id="gneE12_0">
                <vehicle id="15" pos="252.13" speed="13.42"/>
            </lane>
        </edge>
        <edge id="gneE13">
            <lane id="gneE13_0">
                <vehicle id="9" pos="252.33" speed="9.82"/>
            </lane>
        </edge>
        <edge id="gneE14">
            <lane id="gneE14_0">
                <vehicle id="2" pos="11.43" speed="10.70"/>
                <vehicle id="27" pos="82.67" speed="10.32"/>
            </lane>
        </edge>
        <edge id="gneE15">
            <lane id="gneE15_0">
                <vehicle id="1" pos="8.62" speed="8.79"/>
            </lane>
        </edge>
        <edge id="gneE18">
            <lane id="gneE18_0">
                <vehicle id="7" pos="269.27" speed="9.38"/>
            </lane>
        </edge>
        <edge id="gneE20">
            <lane id="gneE20_0">
                <vehicle id="35" pos="10.45" speed="3.53"/>
            </lane>
        </edge>
        <edge id="gneE26">
            <lane id="gneE26_0">
                <vehicle id="12" pos="155.84" speed="6.68"/>
            </lane>
        </edge>
        <edge id="gneE30">
            <lane id="gneE30_0">
                <vehicle id="31" pos="40.54" speed="8.24"/>
                <vehicle id="6" pos="250.19" speed="8.77"/>
            </lane>
        </edge>
        <edge id="gneE31">
            <lane id="gneE31_0">
                <vehicle id="25" pos="88.16" speed="7.98"/>
                <vehicle id="17" pos="156.44" speed="8.84"/>
            </lane>
        </edge>
        <edge id="gneE32">
            <lane id="gneE32_0">
                <vehicle id="30" pos="48.74" speed="7.72"/>
                <vehicle id="14" pos="160.02" speed="7.04"/>
            </lane>
        </edge>
        <edge id="gneE41">
            <lane id="gneE41_0">
                <vehicle id="34" pos="17.19" speed="5.86"/>
            </lane>
        </edge>
        <edge id="gneE42">
            <lane id="gneE42_0">
                <vehicle id="37" pos="5.10" speed="0.00"/>
            </lane>
        </edge>
        <edge id="gneE45">
            <lane id="gneE45_0">
                <vehicle id="0" pos="298.13" speed="7.89"/>
            </lane>
        </edge>
        <edge id="gneE46">
            <lane id="gneE46_0">
                <vehicle id="22" pos="130.66" speed="9.34"/>
            </lane>
        </edge>
        <edge id="gneE48">
            <lane id="gneE48_0">
                <vehicle id="36" pos="6.89" speed="1.79"/>
                <vehicle id="21" pos="102.65" speed="6.90"/>
                <vehicle id="18" pos="121.25" speed="6.55"/>
                <vehicle id="5" pos="201.77" speed="5.96"/>
            </lane>
        </edge>
        <edge id="gneE49">
            <lane id="gneE49_0">
                <vehicle id="8" pos="25.86" speed="7.49"/>
                <vehicle id="3" pos="62.84" speed="7.27"/>
            </lane>
        </edge>
        <edge id="gneE51">
            <lane id="gneE51_0">
                <vehicle id="32" pos="27.79" speed="6.18"/>
            </lane>
        </edge>
        <edge id="gneE52">
            <lane id="gneE52_0">
                <vehicle id="10" pos="1.89" speed="5.72"/>
            </lane>
        </edge>
        <edge id="gneE53">
            <lane id="gneE53_0">
                <vehicle id="11" pos="36.43" speed="6.02"/>
            </lane>
        </edge>
        <edge id="gneE54">
            <lane id="gneE54_0">
                <vehicle id="29" pos="48.19" speed="6.36"/>
            </lane>
        </edge>
        <edge id="gneE57">
            <lane id="gneE57_0">
                <vehicle id="23" pos="94.99" speed="6.99"/>
            </lane>
        </edge>
        <edge id="gneE58">
            <lane id="gneE58_0">
                <vehicle id="13" pos="174.67" speed="7.91"/>
            </lane>
        </edge>
        <edge id="gneE59">
            <lane id="gneE59_0">
                <vehicle id="33" pos="26.45" speed="8.04"/>
            </lane>
        </edge>
        <edge id="gneE6">
            <lane id="gneE6_0">
                <vehicle id="24" pos="88.35" speed="6.77"/>
                <vehicle id="19" pos="126.44" speed="6.73"/>
            </lane>
        </edge>
        <edge id="gneE60">
            <lane id="gneE60_0">
                <vehicle id="4" pos="204.55" speed="6.47"/>
            </lane>
        </edge>
    </timestep>
