<?xml version="1.0"?>
<timestep time="377.00">
        <edge id=":gneJ11_0">
            <lane id=":gneJ11_0_0">
                <vehicle id="295" pos="15.12" speed="7.74"/>
            </lane>
        </edge>
        <edge id=":gneJ11_8">
            <lane id=":gneJ11_8_0">
                <vehicle id="270" pos="4.24" speed="6.44"/>
            </lane>
        </edge>
        <edge id=":gneJ15_5">
            <lane id=":gneJ15_5_0">
                <vehicle id="252" pos="6.72" speed="7.00"/>
            </lane>
        </edge>
        <edge id=":gneJ15_8">
            <lane id=":gneJ15_8_0">
                <vehicle id="290" pos="6.40" speed="6.84"/>
            </lane>
        </edge>
        <edge id=":gneJ30_6">
            <lane id=":gneJ30_6_0">
                <vehicle id="296" pos="0.11" speed="1.41"/>
            </lane>
        </edge>
        <edge id=":gneJ4_1">
            <lane id=":gneJ4_1_0">
                <vehicle id="285" pos="4.43" speed="6.85"/>
            </lane>
        </edge>
        <edge id=":gneJ9_4">
            <lane id=":gneJ9_4_0">
                <vehicle id="254" pos="3.02" speed="9.05"/>
            </lane>
        </edge>
        <edge id="gneE1">
            <lane id="gneE1_0">
                <vehicle id="350" pos="118.61" speed="4.52"/>
            </lane>
        </edge>
        <edge id="gneE10">
            <lane id="gneE10_0">
                <vehicle id="138" pos="7.27" speed="4.65"/>
                <vehicle id="328" pos="21.20" speed="4.73"/>
                <vehicle id="342" pos="37.25" speed="5.50"/>
                <vehicle id="338" pos="84.97" speed="4.84"/>
            </lane>
        </edge>
        <edge id="gneE11">
            <lane id="gneE11_0">
                <vehicle id="300" pos="109.54" speed="7.81"/>
                <vehicle id="360" pos="132.24" speed="8.65"/>
            </lane>
        </edge>
        <edge id="gneE12">
            <lane id="gneE12_0">
                <vehicle id="229" pos="0.31" speed="9.62"/>
                <vehicle id="355" pos="39.59" speed="12.68"/>
                <vehicle id="116" pos="113.92" speed="13.17"/>
                <vehicle id="221" pos="161.66" speed="13.30"/>
                <vehicle id="B1_1" pos="227.23" speed="13.46"/>
                <vehicle id="352" pos="255.11" speed="11.68"/>
                <vehicle id="257" pos="278.31" speed="4.95"/>
                <vehicle id="272" pos="290.91" speed="4.55"/>
            </lane>
        </edge>
        <edge id="gneE13">
            <lane id="gneE13_0">
                <vehicle id="375" pos="5.10" speed="0.00"/>
                <vehicle id="316" pos="13.45" speed="8.99"/>
                <vehicle id="341" pos="101.90" speed="9.56"/>
                <vehicle id="298" pos="138.62" speed="9.23"/>
            </lane>
        </edge>
        <edge id="gneE14">
            <lane id="gneE14_0">
                <vehicle id="362" pos="108.07" speed="0.13"/>
                <vehicle id="217" pos="115.68" speed="0.00"/>
                <vehicle id="250" pos="124.14" speed="0.95"/>
                <vehicle id="314" pos="134.16" speed="1.72"/>
                <vehicle id="331" pos="146.85" speed="4.27"/>
                <vehicle id="282" pos="159.50" speed="4.19"/>
            </lane>
        </edge>
        <edge id="gneE15">
            <lane id="gneE15_0">
                <vehicle id="301" pos="41.37" speed="8.40"/>
                <vehicle id="311" pos="129.88" speed="8.35"/>
                <vehicle id="237" pos="151.27" speed="7.96"/>
            </lane>
        </edge>
        <edge id="gneE17">
            <lane id="gneE17_0">
                <vehicle id="269" pos="17.97" speed="9.82"/>
                <vehicle id="349" pos="233.09" speed="9.79"/>
                <vehicle id="B4_1" pos="263.79" speed="9.12"/>
            </lane>
        </edge>
        <edge id="gneE18">
            <lane id="gneE18_0">
                <vehicle id="230" pos="197.47" speed="9.02"/>
                <vehicle id="346" pos="261.35" speed="9.93"/>
            </lane>
        </edge>
        <edge id="gneE19">
            <lane id="gneE19_0">
                <vehicle id="313" pos="33.87" speed="12.48"/>
                <vehicle id="292" pos="78.25" speed="12.23"/>
                <vehicle id="251" pos="119.71" speed="12.60"/>
                <vehicle id="226" pos="142.44" speed="11.75"/>
                <vehicle id="233" pos="165.57" speed="12.31"/>
            </lane>
        </edge>
        <edge id="gneE20">
            <lane id="gneE20_0">
                <vehicle id="243" pos="20.27" speed="8.95"/>
                <vehicle id="367" pos="40.18" speed="8.86"/>
                <vehicle id="140" pos="69.26" speed="8.31"/>
                <vehicle id="347" pos="92.81" speed="8.33"/>
                <vehicle id="335" pos="131.90" speed="8.59"/>
                <vehicle id="224" pos="231.76" speed="8.90"/>
            </lane>
        </edge>
        <edge id="gneE23">
            <lane id="gneE23_0">
                <vehicle id="249" pos="12.31" speed="7.29"/>
                <vehicle id="228" pos="64.21" speed="6.76"/>
                <vehicle id="327" pos="81.81" speed="7.34"/>
                <vehicle id="363" pos="97.95" speed="6.82"/>
                <vehicle id="263" pos="167.91" speed="7.21"/>
            </lane>
        </edge>
        <edge id="gneE24">
            <lane id="gneE24_0">
                <vehicle id="242" pos="42.69" speed="12.32"/>
                <vehicle id="196" pos="74.96" speed="11.70"/>
                <vehicle id="179" pos="107.03" speed="12.50"/>
                <vehicle id="198" pos="132.91" speed="12.30"/>
            </lane>
        </edge>
        <edge id="gneE25">
            <lane id="gneE25_0">
                <vehicle id="215" pos="87.80" speed="9.86"/>
                <vehicle id="291" pos="140.87" speed="9.43"/>
                <vehicle id="357" pos="176.37" speed="9.69"/>
                <vehicle id="326" pos="217.59" speed="9.01"/>
                <vehicle id="260" pos="239.58" speed="9.32"/>
                <vehicle id="343" pos="257.49" speed="7.86"/>
                <vehicle id="315" pos="275.03" speed="4.99"/>
                <vehicle id="259" pos="289.18" speed="4.52"/>
            </lane>
        </edge>
        <edge id="gneE26">
            <lane id="gneE26_0">
                <vehicle id="371" pos="7.37" speed="2.27"/>
                <vehicle id="207" pos="20.04" speed="6.99"/>
                <vehicle id="307" pos="35.43" speed="6.47"/>
                <vehicle id="223" pos="71.47" speed="6.35"/>
                <vehicle id="332" pos="259.61" speed="6.46"/>
                <vehicle id="271" pos="273.45" speed="5.65"/>
                <vehicle id="182" pos="289.10" speed="6.13"/>
            </lane>
        </edge>
        <edge id="gneE27">
            <lane id="gneE27_0">
                <vehicle id="172" pos="31.25" speed="5.20"/>
                <vehicle id="216" pos="125.54" speed="5.47"/>
            </lane>
        </edge>
        <edge id="gneE3">
            <lane id="gneE3_0">
                <vehicle id="222" pos="48.43" speed="9.33"/>
                <vehicle id="366" pos="92.73" speed="9.74"/>
                <vehicle id="321" pos="136.71" speed="9.01"/>
            </lane>
        </edge>
        <edge id="gneE31">
            <lane id="gneE31_0">
                <vehicle id="372" pos="35.03" speed="7.95"/>
                <vehicle id="306" pos="62.20" speed="8.05"/>
                <vehicle id="345" pos="234.57" speed="8.26"/>
                <vehicle id="319" pos="258.91" speed="7.86"/>
            </lane>
        </edge>
        <edge id="gneE32">
            <lane id="gneE32_0">
                <vehicle id="255" pos="17.60" speed="7.41"/>
                <vehicle id="167" pos="88.89" speed="7.75"/>
                <vehicle id="163" pos="154.93" speed="7.67"/>
                <vehicle id="181" pos="195.92" speed="6.97"/>
                <vehicle id="195" pos="292.67" speed="6.90"/>
            </lane>
        </edge>
        <edge id="gneE38">
            <lane id="gneE38_0">
                <vehicle id="354" pos="11.58" speed="8.84"/>
                <vehicle id="278" pos="34.40" speed="8.27"/>
                <vehicle id="348" pos="58.91" speed="8.51"/>
                <vehicle id="234" pos="82.86" speed="8.64"/>
                <vehicle id="136" pos="339.69" speed="8.35"/>
            </lane>
        </edge>
        <edge id="gneE4">
            <lane id="gneE4_0">
                <vehicle id="339" pos="18.34" speed="9.64"/>
                <vehicle id="284" pos="38.98" speed="9.83"/>
            </lane>
        </edge>
        <edge id="gneE41">
            <lane id="gneE41_0">
                <vehicle id="368" pos="66.31" speed="8.94"/>
            </lane>
        </edge>
        <edge id="gneE42">
            <lane id="gneE42_0">
                <vehicle id="369" pos="53.71" speed="7.07"/>
                <vehicle id="177" pos="90.17" speed="7.52"/>
            </lane>
        </edge>
        <edge id="gneE43">
            <lane id="gneE43_0">
                <vehicle id="374" pos="14.57" speed="5.32"/>
                <vehicle id="265" pos="209.40" speed="1.14"/>
                <vehicle id="211" pos="217.75" speed="0.82"/>
                <vehicle id="184" pos="227.32" speed="1.98"/>
                <vehicle id="305" pos="240.53" speed="4.06"/>
                <vehicle id="231" pos="254.93" speed="5.46"/>
                <vehicle id="219" pos="268.28" speed="3.78"/>
                <vehicle id="274" pos="282.66" speed="5.59"/>
                <vehicle id="165" pos="298.14" speed="4.97"/>
            </lane>
        </edge>
        <edge id="gneE45">
            <lane id="gneE45_0">
                <vehicle id="323" pos="56.46" speed="8.32"/>
                <vehicle id="205" pos="254.07" speed="0.95"/>
                <vehicle id="266" pos="262.72" speed="0.93"/>
                <vehicle id="330" pos="274.27" speed="3.52"/>
                <vehicle id="210" pos="288.18" speed="5.21"/>
                <vehicle id="171" pos="304.74" speed="7.82"/>
            </lane>
        </edge>
        <edge id="gneE46">
            <lane id="gneE46_0">
                <vehicle id="227" pos="134.84" speed="9.15"/>
                <vehicle id="289" pos="166.42" speed="9.84"/>
            </lane>
        </edge>
        <edge id="gneE47">
            <lane id="gneE47_0">
                <vehicle id="373" pos="26.44" speed="7.93"/>
                <vehicle id="312" pos="163.58" speed="8.50"/>
            </lane>
        </edge>
        <edge id="gneE48">
            <lane id="gneE48_0">
                <vehicle id="286" pos="7.50" speed="6.49"/>
                <vehicle id="275" pos="69.83" speed="6.28"/>
                <vehicle id="324" pos="182.94" speed="5.71"/>
                <vehicle id="253" pos="203.15" speed="6.65"/>
                <vehicle id="325" pos="282.13" speed="0.00"/>
                <vehicle id="235" pos="289.63" speed="0.00"/>
                <vehicle id="308" pos="297.14" speed="0.00"/>
                <vehicle id="303" pos="304.64" speed="0.00"/>
                <vehicle id="100" pos="312.14" speed="0.00"/>
                <vehicle id="297" pos="319.64" speed="0.00"/>
            </lane>
        </edge>
        <edge id="gneE49">
            <lane id="gneE49_0">
                <vehicle id="364" pos="91.01" speed="6.83"/>
                <vehicle id="336" pos="141.57" speed="7.04"/>
                <vehicle id="245" pos="174.42" speed="6.74"/>
                <vehicle id="209" pos="226.39" speed="7.64"/>
                <vehicle id="200" pos="250.28" speed="7.97"/>
                <vehicle id="273" pos="281.05" speed="7.71"/>
                <vehicle id="193" pos="312.10" speed="0.05"/>
                <vehicle id="236" pos="319.64" speed="0.00"/>
            </lane>
        </edge>
        <edge id="gneE5">
            <lane id="gneE5_0">
                <vehicle id="376" pos="5.10" speed="0.00"/>
                <vehicle id="299" pos="40.15" speed="5.69"/>
                <vehicle id="337" pos="62.27" speed="5.49"/>
                <vehicle id="288" pos="92.42" speed="5.88"/>
            </lane>
        </edge>
        <edge id="gneE50">
            <lane id="gneE50_0">
                <vehicle id="239" pos="210.47" speed="5.42"/>
            </lane>
        </edge>
        <edge id="gneE51">
            <lane id="gneE51_0">
                <vehicle id="204" pos="17.90" speed="5.60"/>
                <vehicle id="280" pos="34.04" speed="6.52"/>
                <vehicle id="302" pos="50.62" speed="6.96"/>
                <vehicle id="359" pos="111.48" speed="6.20"/>
                <vehicle id="322" pos="176.12" speed="6.75"/>
                <vehicle id="268" pos="267.12" speed="5.79"/>
                <vehicle id="187" pos="335.96" speed="6.95"/>
                <vehicle id="241" pos="355.23" speed="5.10"/>
            </lane>
        </edge>
        <edge id="gneE53">
            <lane id="gneE53_0">
                <vehicle id="377" pos="5.10" speed="0.00"/>
                <vehicle id="370" pos="28.57" speed="6.72"/>
                <vehicle id="304" pos="47.01" speed="6.89"/>
                <vehicle id="141" pos="131.51" speed="6.90"/>
                <vehicle id="309" pos="146.74" speed="5.84"/>
                <vehicle id="329" pos="164.50" speed="6.53"/>
            </lane>
        </edge>
        <edge id="gneE54">
            <lane id="gneE54_0">
                <vehicle id="361" pos="99.52" speed="5.97"/>
            </lane>
        </edge>
        <edge id="gneE55">
            <lane id="gneE55_0">
                <vehicle id="351" pos="19.90" speed="6.76"/>
                <vehicle id="139" pos="89.78" speed="7.41"/>
                <vehicle id="318" pos="126.69" speed="6.96"/>
            </lane>
        </edge>
        <edge id="gneE56">
            <lane id="gneE56_0">
                <vehicle id="262" pos="123.48" speed="7.71"/>
            </lane>
        </edge>
        <edge id="gneE57">
            <lane id="gneE57_0">
                <vehicle id="365" pos="83.03" speed="7.10"/>
            </lane>
        </edge>
        <edge id="gneE58">
            <lane id="gneE58_0">
                <vehicle id="320" pos="113.93" speed="7.19"/>
                <vehicle id="356" pos="148.51" speed="7.36"/>
                <vehicle id="287" pos="210.14" speed="7.04"/>
                <vehicle id="281" pos="242.78" speed="7.36"/>
                <vehicle id="340" pos="264.66" speed="7.25"/>
            </lane>
        </edge>
        <edge id="gneE60">
            <lane id="gneE60_0">
                <vehicle id="293" pos="29.51" speed="6.66"/>
                <vehicle id="358" pos="119.10" speed="5.93"/>
                <vehicle id="310" pos="138.55" speed="5.93"/>
                <vehicle id="261" pos="187.68" speed="6.54"/>
                <vehicle id="344" pos="206.28" speed="6.11"/>
                <vehicle id="294" pos="247.69" speed="6.43"/>
                <vehicle id="334" pos="271.27" speed="6.02"/>
                <vehicle id="279" pos="334.77" speed="4.89"/>
            </lane>
        </edge>
        <edge id="gneE61">
            <lane id="gneE61_0">
                <vehicle id="155" pos="279.69" speed="7.16"/>
            </lane>
        </edge>
        <edge id="gneE7">
            <lane id="gneE7_0">
                <vehicle id="333" pos="132.20" speed="8.99"/>
                <vehicle id="353" pos="191.22" speed="8.80"/>
                <vehicle id="317" pos="240.86" speed="8.44"/>
                <vehicle id="267" pos="290.76" speed="7.96"/>
            </lane>
        </edge>
        <edge id="gneE8">
            <lane id="gneE8_0">
                <vehicle id="191" pos="27.72" speed="7.07"/>
            </lane>
        </edge>
    </timestep>
