<?xml version="1.0"?>
<timestep time="406.00">
        <edge id=":gneJ11_7">
            <lane id=":gneJ11_7_0">
                <vehicle id="268" pos="24.19" speed="10.96"/>
            </lane>
        </edge>
        <edge id=":gneJ11_38">
            <lane id=":gneJ11_38_0">
                <vehicle id="313" pos="5.39" speed="8.46"/>
            </lane>
        </edge>
        <edge id=":gneJ15_6">
            <lane id=":gneJ15_6_0">
                <vehicle id="231" pos="12.02" speed="6.40"/>
            </lane>
        </edge>
        <edge id=":gneJ28_0">
            <lane id=":gneJ28_0_0">
                <vehicle id="236" pos="3.68" speed="8.83"/>
            </lane>
        </edge>
        <edge id=":gneJ33_1">
            <lane id=":gneJ33_1_0">
                <vehicle id="320" pos="3.70" speed="5.76"/>
            </lane>
        </edge>
        <edge id=":gneJ8_8">
            <lane id=":gneJ8_8_0">
                <vehicle id="341" pos="2.04" speed="2.15"/>
            </lane>
        </edge>
        <edge id=":gneJ9_2">
            <lane id=":gneJ9_2_0">
                <vehicle id="367" pos="0.79" speed="8.14"/>
            </lane>
        </edge>
        <edge id="gneE1">
            <lane id="gneE1_0">
                <vehicle id="392" pos="62.92" speed="4.24"/>
            </lane>
        </edge>
        <edge id="gneE10">
            <lane id="gneE10_0">
                <vehicle id="224" pos="6.22" speed="4.94"/>
                <vehicle id="298" pos="21.54" speed="4.74"/>
                <vehicle id="357" pos="42.86" speed="4.89"/>
                <vehicle id="260" pos="69.24" speed="5.72"/>
                <vehicle id="384" pos="100.85" speed="0.55"/>
                <vehicle id="311" pos="110.78" speed="2.01"/>
                <vehicle id="237" pos="122.49" speed="3.80"/>
                <vehicle id="138" pos="136.06" speed="4.79"/>
            </lane>
        </edge>
        <edge id="gneE13">
            <lane id="gneE13_0">
                <vehicle id="222" pos="158.41" speed="9.58"/>
                <vehicle id="366" pos="205.92" speed="9.71"/>
                <vehicle id="375" pos="258.14" speed="8.90"/>
                <vehicle id="316" pos="284.81" speed="9.42"/>
            </lane>
        </edge>
        <edge id="gneE14">
            <lane id="gneE14_0">
                <vehicle id="291" pos="55.42" speed="9.79"/>
                <vehicle id="326" pos="107.40" speed="10.07"/>
            </lane>
        </edge>
        <edge id="gneE15">
            <lane id="gneE15_0">
                <vehicle id="140" pos="22.71" speed="8.75"/>
                <vehicle id="347" pos="44.42" speed="8.54"/>
                <vehicle id="335" pos="85.59" speed="8.78"/>
            </lane>
        </edge>
        <edge id="gneE17">
            <lane id="gneE17_0">
                <vehicle id="362" pos="132.07" speed="9.12"/>
                <vehicle id="282" pos="259.89" speed="8.95"/>
                <vehicle id="269" pos="285.35" speed="5.35"/>
            </lane>
        </edge>
        <edge id="gneE18">
            <lane id="gneE18_0">
                <vehicle id="339" pos="110.68" speed="9.25"/>
                <vehicle id="284" pos="130.58" speed="9.94"/>
                <vehicle id="350" pos="191.96" speed="8.82"/>
            </lane>
        </edge>
        <edge id="gneE19">
            <lane id="gneE19_0">
                <vehicle id="378" pos="117.34" speed="12.79"/>
                <vehicle id="314" pos="229.02" speed="4.30"/>
                <vehicle id="331" pos="241.40" speed="3.29"/>
                <vehicle id="346" pos="255.21" speed="4.96"/>
                <vehicle id="254" pos="271.72" speed="7.34"/>
            </lane>
        </edge>
        <edge id="gneE20">
            <lane id="gneE20_0">
                <vehicle id="241" pos="36.16" speed="8.70"/>
                <vehicle id="303" pos="77.60" speed="8.41"/>
                <vehicle id="390" pos="129.36" speed="8.28"/>
                <vehicle id="297" pos="182.33" speed="8.11"/>
                <vehicle id="295" pos="243.57" speed="8.99"/>
                <vehicle id="243" pos="261.36" speed="8.59"/>
            </lane>
        </edge>
        <edge id="gneE23">
            <lane id="gneE23_0">
                <vehicle id="279" pos="57.04" speed="6.94"/>
            </lane>
        </edge>
        <edge id="gneE24">
            <lane id="gneE24_0">
                <vehicle id="332" pos="27.24" speed="10.71"/>
                <vehicle id="319" pos="67.45" speed="12.58"/>
                <vehicle id="219" pos="110.48" speed="12.81"/>
            </lane>
        </edge>
        <edge id="gneE25">
            <lane id="gneE25_0">
                <vehicle id="345" pos="39.41" speed="9.37"/>
                <vehicle id="274" pos="102.23" speed="9.57"/>
                <vehicle id="363" pos="148.87" speed="8.99"/>
                <vehicle id="165" pos="184.20" speed="8.99"/>
                <vehicle id="263" pos="229.79" speed="8.73"/>
                <vehicle id="215" pos="290.83" speed="0.02"/>
            </lane>
        </edge>
        <edge id="gneE26">
            <lane id="gneE26_0">
                <vehicle id="394" pos="67.35" speed="6.83"/>
                <vehicle id="301" pos="88.79" speed="6.81"/>
                <vehicle id="360" pos="139.40" speed="6.67"/>
                <vehicle id="371" pos="189.25" speed="5.71"/>
                <vehicle id="207" pos="204.79" speed="6.41"/>
                <vehicle id="307" pos="222.64" speed="5.82"/>
                <vehicle id="223" pos="258.40" speed="6.47"/>
            </lane>
        </edge>
        <edge id="gneE27">
            <lane id="gneE27_0">
                <vehicle id="400" pos="6.46" speed="1.36"/>
                <vehicle id="249" pos="19.11" speed="4.89"/>
                <vehicle id="271" pos="36.33" speed="4.77"/>
                <vehicle id="385" pos="114.27" speed="5.66"/>
            </lane>
        </edge>
        <edge id="gneE28">
            <lane id="gneE28_0">
                <vehicle id="306" pos="8.10" speed="8.09"/>
            </lane>
        </edge>
        <edge id="gneE3">
            <lane id="gneE3_0">
                <vehicle id="389" pos="149.25" speed="9.75"/>
            </lane>
        </edge>
        <edge id="gneE30">
            <lane id="gneE30_0">
                <vehicle id="252" pos="1.79" speed="8.02"/>
                <vehicle id="216" pos="208.97" speed="8.25"/>
            </lane>
        </edge>
        <edge id="gneE31">
            <lane id="gneE31_0">
                <vehicle id="328" pos="12.28" speed="7.79"/>
                <vehicle id="342" pos="32.59" speed="8.77"/>
                <vehicle id="333" pos="60.59" speed="7.86"/>
                <vehicle id="353" pos="118.09" speed="8.88"/>
                <vehicle id="338" pos="149.90" speed="8.97"/>
                <vehicle id="317" pos="171.35" speed="8.36"/>
                <vehicle id="267" pos="219.62" speed="7.84"/>
                <vehicle id="372" pos="277.15" speed="8.19"/>
            </lane>
        </edge>
        <edge id="gneE32">
            <lane id="gneE32_0">
                <vehicle id="255" pos="232.67" speed="7.93"/>
                <vehicle id="167" pos="302.64" speed="6.98"/>
            </lane>
        </edge>
        <edge id="gneE38">
            <lane id="gneE38_0">
                <vehicle id="369" pos="129.67" speed="8.83"/>
                <vehicle id="354" pos="252.83" speed="8.23"/>
                <vehicle id="278" pos="275.96" speed="8.77"/>
                <vehicle id="348" pos="303.08" speed="8.65"/>
                <vehicle id="234" pos="325.26" speed="8.89"/>
            </lane>
        </edge>
        <edge id="gneE4">
            <lane id="gneE4_0">
                <vehicle id="355" pos="59.61" speed="9.94"/>
            </lane>
        </edge>
        <edge id="gneE41">
            <lane id="gneE41_0">
                <vehicle id="181" pos="70.80" speed="8.18"/>
            </lane>
        </edge>
        <edge id="gneE42">
            <lane id="gneE42_0">
                <vehicle id="373" pos="59.87" speed="7.34"/>
                <vehicle id="330" pos="94.24" speed="7.07"/>
            </lane>
        </edge>
        <edge id="gneE43">
            <lane id="gneE43_0">
                <vehicle id="386" pos="127.67" speed="6.31"/>
                <vehicle id="374" pos="198.97" speed="6.94"/>
                <vehicle id="265" pos="276.62" speed="0.09"/>
                <vehicle id="211" pos="284.21" speed="0.01"/>
                <vehicle id="184" pos="292.93" speed="1.21"/>
                <vehicle id="305" pos="304.42" speed="3.81"/>
            </lane>
        </edge>
        <edge id="gneE45">
            <lane id="gneE45_0">
                <vehicle id="396" pos="77.46" speed="7.91"/>
                <vehicle id="327" pos="107.61" speed="8.44"/>
                <vehicle id="290" pos="236.29" speed="8.91"/>
                <vehicle id="323" pos="298.01" speed="8.22"/>
            </lane>
        </edge>
        <edge id="gneE46">
            <lane id="gneE46_0">
                <vehicle id="401" pos="33.64" speed="9.53"/>
                <vehicle id="210" pos="146.51" speed="9.34"/>
                <vehicle id="368" pos="170.36" speed="8.90"/>
            </lane>
        </edge>
        <edge id="gneE47">
            <lane id="gneE47_0">
                <vehicle id="336" pos="25.18" speed="7.84"/>
                <vehicle id="399" pos="46.56" speed="8.43"/>
                <vehicle id="395" pos="85.68" speed="8.61"/>
                <vehicle id="361" pos="174.81" speed="8.33"/>
            </lane>
        </edge>
        <edge id="gneE48">
            <lane id="gneE48_0">
                <vehicle id="227" pos="139.29" speed="6.11"/>
                <vehicle id="296" pos="174.53" speed="6.01"/>
                <vehicle id="286" pos="191.38" speed="6.48"/>
                <vehicle id="275" pos="255.21" speed="6.97"/>
                <vehicle id="324" pos="289.63" speed="0.01"/>
                <vehicle id="253" pos="297.14" speed="0.00"/>
                <vehicle id="325" pos="304.64" speed="0.00"/>
                <vehicle id="235" pos="312.14" speed="0.00"/>
                <vehicle id="308" pos="319.64" speed="0.00"/>
            </lane>
        </edge>
        <edge id="gneE49">
            <lane id="gneE49_0">
                <vehicle id="233" pos="79.73" speed="6.74"/>
                <vehicle id="364" pos="303.97" speed="7.37"/>
            </lane>
        </edge>
        <edge id="gneE5">
            <lane id="gneE5_0">
                <vehicle id="391" pos="18.71" speed="5.88"/>
                <vehicle id="388" pos="35.69" speed="5.74"/>
                <vehicle id="116" pos="64.36" speed="5.19"/>
                <vehicle id="221" pos="78.33" speed="5.46"/>
                <vehicle id="B1_1" pos="92.18" speed="4.84"/>
                <vehicle id="352" pos="106.75" speed="5.87"/>
                <vehicle id="257" pos="124.69" speed="4.05"/>
                <vehicle id="272" pos="139.09" speed="5.37"/>
            </lane>
        </edge>
        <edge id="gneE50">
            <lane id="gneE50_0">
                <vehicle id="402" pos="6.67" speed="1.57"/>
                <vehicle id="226" pos="21.14" speed="5.77"/>
                <vehicle id="393" pos="52.32" speed="4.72"/>
                <vehicle id="179" pos="68.74" speed="5.28"/>
                <vehicle id="365" pos="86.58" speed="5.36"/>
                <vehicle id="198" pos="118.81" speed="5.87"/>
            </lane>
        </edge>
        <edge id="gneE51">
            <lane id="gneE51_0">
                <vehicle id="404" pos="10.25" speed="3.36"/>
                <vehicle id="379" pos="42.70" speed="6.72"/>
                <vehicle id="266" pos="74.05" speed="6.72"/>
                <vehicle id="312" pos="145.34" speed="6.17"/>
                <vehicle id="204" pos="200.31" speed="6.76"/>
                <vehicle id="280" pos="217.83" speed="6.68"/>
                <vehicle id="302" pos="239.02" speed="6.94"/>
                <vehicle id="359" pos="295.00" speed="5.96"/>
                <vehicle id="322" pos="359.57" speed="5.80"/>
            </lane>
        </edge>
        <edge id="gneE52">
            <lane id="gneE52_0">
                <vehicle id="381" pos="159.87" speed="6.31"/>
            </lane>
        </edge>
        <edge id="gneE53">
            <lane id="gneE53_0">
                <vehicle id="403" pos="5.10" speed="0.00"/>
                <vehicle id="382" pos="20.24" speed="6.20"/>
                <vehicle id="380" pos="133.45" speed="6.95"/>
                <vehicle id="318" pos="163.78" speed="6.60"/>
                <vehicle id="377" pos="179.22" speed="5.86"/>
                <vehicle id="370" pos="213.82" speed="5.76"/>
                <vehicle id="304" pos="230.34" speed="6.16"/>
                <vehicle id="141" pos="313.99" speed="5.95"/>
                <vehicle id="309" pos="332.90" speed="6.79"/>
                <vehicle id="329" pos="342.99" speed="0.22"/>
            </lane>
        </edge>
        <edge id="gneE55">
            <lane id="gneE55_0">
                <vehicle id="245" pos="58.74" speed="6.81"/>
                <vehicle id="209" pos="110.73" speed="7.76"/>
            </lane>
        </edge>
        <edge id="gneE58">
            <lane id="gneE58_0">
                <vehicle id="349" pos="27.87" speed="7.03"/>
                <vehicle id="398" pos="42.48" speed="6.75"/>
                <vehicle id="285" pos="65.71" speed="7.78"/>
                <vehicle id="387" pos="134.60" speed="7.20"/>
            </lane>
        </edge>
        <edge id="gneE59">
            <lane id="gneE59_0">
                <vehicle id="397" pos="67.97" speed="8.96"/>
            </lane>
        </edge>
        <edge id="gneE60">
            <lane id="gneE60_0">
                <vehicle id="356" pos="30.92" speed="6.03"/>
                <vehicle id="287" pos="86.15" speed="6.30"/>
                <vehicle id="340" pos="126.98" speed="5.74"/>
                <vehicle id="383" pos="144.90" speed="6.57"/>
                <vehicle id="293" pos="216.19" speed="6.87"/>
                <vehicle id="358" pos="302.11" speed="6.62"/>
                <vehicle id="310" pos="314.05" speed="0.69"/>
                <vehicle id="261" pos="322.39" speed="0.32"/>
                <vehicle id="344" pos="330.02" speed="0.06"/>
                <vehicle id="294" pos="337.56" speed="0.00"/>
            </lane>
        </edge>
        <edge id="gneE61">
            <lane id="gneE61_0">
                <vehicle id="292" pos="10.86" speed="6.90"/>
                <vehicle id="251" pos="29.05" speed="7.74"/>
                <vehicle id="242" pos="57.28" speed="7.25"/>
                <vehicle id="270" pos="189.55" speed="7.73"/>
            </lane>
        </edge>
        <edge id="gneE7">
            <lane id="gneE7_0">
                <vehicle id="376" pos="5.37" speed="7.52"/>
                <vehicle id="299" pos="68.64" speed="8.44"/>
                <vehicle id="337" pos="107.32" speed="8.79"/>
                <vehicle id="288" pos="148.78" speed="8.66"/>
            </lane>
        </edge>
        <edge id="gneE8">
            <lane id="gneE8_0">
                <vehicle id="191" pos="242.14" speed="7.40"/>
            </lane>
        </edge>
    </timestep>
