<?xml version="1.0"?>
<timestep time="410.00">
        <edge id=":gneJ11_7">
            <lane id=":gneJ11_7_0">
                <vehicle id="322" pos="22.27" speed="9.79"/>
            </lane>
        </edge>
        <edge id=":gneJ11_38">
            <lane id=":gneJ11_38_0">
                <vehicle id="254" pos="22.96" speed="6.36"/>
            </lane>
        </edge>
        <edge id=":gneJ11_41">
            <lane id=":gneJ11_41_0">
                <vehicle id="346" pos="6.03" speed="10.32"/>
            </lane>
        </edge>
        <edge id=":gneJ3_0">
            <lane id=":gneJ3_0_0">
                <vehicle id="282" pos="4.06" speed="6.36"/>
            </lane>
        </edge>
        <edge id=":gneJ6_2">
            <lane id=":gneJ6_2_0">
                <vehicle id="237" pos="4.36" speed="5.59"/>
            </lane>
        </edge>
        <edge id=":gneJ8_8">
            <lane id=":gneJ8_8_0">
                <vehicle id="316" pos="7.08" speed="5.32"/>
            </lane>
        </edge>
        <edge id="gneE1">
            <lane id="gneE1_0">
                <vehicle id="392" pos="81.51" speed="4.38"/>
            </lane>
        </edge>
        <edge id="gneE10">
            <lane id="gneE10_0">
                <vehicle id="341" pos="10.54" speed="5.78"/>
                <vehicle id="224" pos="28.41" speed="5.73"/>
                <vehicle id="298" pos="43.94" speed="5.20"/>
                <vehicle id="357" pos="64.48" speed="5.76"/>
                <vehicle id="260" pos="90.84" speed="5.88"/>
                <vehicle id="384" pos="115.83" speed="5.15"/>
                <vehicle id="311" pos="129.38" speed="5.15"/>
            </lane>
        </edge>
        <edge id="gneE11">
            <lane id="gneE11_0">
                <vehicle id="407" pos="13.80" speed="4.39"/>
            </lane>
        </edge>
        <edge id="gneE13">
            <lane id="gneE13_0">
                <vehicle id="389" pos="26.26" speed="9.11"/>
                <vehicle id="222" pos="195.37" speed="8.88"/>
                <vehicle id="366" pos="243.78" speed="9.49"/>
                <vehicle id="375" pos="292.44" speed="7.29"/>
            </lane>
        </edge>
        <edge id="gneE14">
            <lane id="gneE14_0">
                <vehicle id="215" pos="10.60" speed="8.53"/>
                <vehicle id="291" pos="96.91" speed="10.06"/>
                <vehicle id="326" pos="149.14" speed="10.71"/>
            </lane>
        </edge>
        <edge id="gneE15">
            <lane id="gneE15_0">
                <vehicle id="243" pos="5.36" speed="7.88"/>
                <vehicle id="367" pos="28.88" speed="8.62"/>
                <vehicle id="140" pos="55.71" speed="7.95"/>
                <vehicle id="347" pos="78.08" speed="8.86"/>
                <vehicle id="335" pos="119.55" speed="8.85"/>
            </lane>
        </edge>
        <edge id="gneE17">
            <lane id="gneE17_0">
                <vehicle id="362" pos="168.76" speed="8.92"/>
            </lane>
        </edge>
        <edge id="gneE18">
            <lane id="gneE18_0">
                <vehicle id="339" pos="148.95" speed="9.99"/>
                <vehicle id="284" pos="168.75" speed="8.94"/>
                <vehicle id="350" pos="230.46" speed="9.47"/>
            </lane>
        </edge>
        <edge id="gneE19">
            <lane id="gneE19_0">
                <vehicle id="378" pos="167.66" speed="12.68"/>
                <vehicle id="314" pos="251.25" speed="7.73"/>
                <vehicle id="331" pos="270.00" speed="8.25"/>
            </lane>
        </edge>
        <edge id="gneE20">
            <lane id="gneE20_0">
                <vehicle id="268" pos="33.00" speed="8.46"/>
                <vehicle id="241" pos="67.94" speed="8.01"/>
                <vehicle id="303" pos="110.09" speed="7.71"/>
                <vehicle id="390" pos="163.41" speed="8.67"/>
                <vehicle id="297" pos="215.48" speed="8.61"/>
                <vehicle id="295" pos="276.42" speed="7.80"/>
            </lane>
        </edge>
        <edge id="gneE23">
            <lane id="gneE23_0">
                <vehicle id="279" pos="86.91" speed="7.49"/>
            </lane>
        </edge>
        <edge id="gneE24">
            <lane id="gneE24_0">
                <vehicle id="305" pos="13.50" speed="11.65"/>
                <vehicle id="332" pos="76.98" speed="12.67"/>
                <vehicle id="319" pos="115.41" speed="11.93"/>
                <vehicle id="219" pos="161.64" speed="12.78"/>
            </lane>
        </edge>
        <edge id="gneE25">
            <lane id="gneE25_0">
                <vehicle id="231" pos="26.77" speed="9.14"/>
                <vehicle id="345" pos="76.50" speed="9.19"/>
                <vehicle id="274" pos="139.20" speed="8.71"/>
                <vehicle id="363" pos="185.51" speed="9.68"/>
                <vehicle id="165" pos="222.06" speed="9.88"/>
                <vehicle id="263" pos="267.02" speed="9.58"/>
            </lane>
        </edge>
        <edge id="gneE26">
            <lane id="gneE26_0">
                <vehicle id="394" pos="91.23" speed="5.73"/>
                <vehicle id="301" pos="114.38" speed="6.35"/>
                <vehicle id="360" pos="164.98" speed="6.23"/>
                <vehicle id="371" pos="214.65" speed="6.00"/>
                <vehicle id="207" pos="231.06" speed="6.94"/>
                <vehicle id="307" pos="248.50" speed="5.94"/>
                <vehicle id="223" pos="284.01" speed="5.99"/>
            </lane>
        </edge>
        <edge id="gneE27">
            <lane id="gneE27_0">
                <vehicle id="406" pos="10.27" speed="3.85"/>
                <vehicle id="400" pos="26.04" speed="5.27"/>
                <vehicle id="249" pos="40.54" speed="5.34"/>
                <vehicle id="271" pos="58.45" speed="5.90"/>
                <vehicle id="385" pos="134.66" speed="5.15"/>
            </lane>
        </edge>
        <edge id="gneE28">
            <lane id="gneE28_0">
                <vehicle id="372" pos="15.53" speed="7.91"/>
                <vehicle id="306" pos="41.52" speed="7.84"/>
            </lane>
        </edge>
        <edge id="gneE3">
            <lane id="gneE3_0">
                <vehicle id="269" pos="21.23" speed="8.87"/>
            </lane>
        </edge>
        <edge id="gneE30">
            <lane id="gneE30_0">
                <vehicle id="252" pos="34.10" speed="8.24"/>
                <vehicle id="216" pos="242.48" speed="8.83"/>
            </lane>
        </edge>
        <edge id="gneE31">
            <lane id="gneE31_0">
                <vehicle id="328" pos="46.31" speed="8.43"/>
                <vehicle id="342" pos="66.23" speed="8.28"/>
                <vehicle id="333" pos="95.61" speed="8.98"/>
                <vehicle id="353" pos="150.79" speed="8.99"/>
                <vehicle id="338" pos="184.51" speed="8.89"/>
                <vehicle id="317" pos="204.34" speed="8.46"/>
                <vehicle id="267" pos="253.25" speed="8.29"/>
            </lane>
        </edge>
        <edge id="gneE32">
            <lane id="gneE32_0">
                <vehicle id="255" pos="261.64" speed="7.52"/>
                <vehicle id="167" pos="331.28" speed="6.84"/>
            </lane>
        </edge>
        <edge id="gneE38">
            <lane id="gneE38_0">
                <vehicle id="369" pos="163.93" speed="8.12"/>
                <vehicle id="354" pos="285.04" speed="7.73"/>
                <vehicle id="278" pos="309.86" speed="8.83"/>
                <vehicle id="348" pos="336.22" speed="7.72"/>
            </lane>
        </edge>
        <edge id="gneE4">
            <lane id="gneE4_0">
                <vehicle id="355" pos="96.99" speed="9.87"/>
            </lane>
        </edge>
        <edge id="gneE41">
            <lane id="gneE41_0">
                <vehicle id="181" pos="104.28" speed="8.72"/>
            </lane>
        </edge>
        <edge id="gneE42">
            <lane id="gneE42_0">
                <vehicle id="361" pos="1.45" speed="7.88"/>
                <vehicle id="236" pos="20.72" speed="6.77"/>
                <vehicle id="373" pos="88.34" speed="6.92"/>
                <vehicle id="330" pos="124.42" speed="7.88"/>
            </lane>
        </edge>
        <edge id="gneE43">
            <lane id="gneE43_0">
                <vehicle id="386" pos="152.79" speed="6.30"/>
                <vehicle id="374" pos="224.19" speed="6.97"/>
                <vehicle id="265" pos="281.77" speed="2.96"/>
                <vehicle id="211" pos="298.09" speed="6.70"/>
            </lane>
        </edge>
        <edge id="gneE45">
            <lane id="gneE45_0">
                <vehicle id="396" pos="110.93" speed="8.60"/>
                <vehicle id="327" pos="141.25" speed="8.76"/>
                <vehicle id="290" pos="269.20" speed="8.51"/>
                <vehicle id="323" pos="306.67" speed="0.08"/>
            </lane>
        </edge>
        <edge id="gneE46">
            <lane id="gneE46_0">
                <vehicle id="401" pos="70.88" speed="9.89"/>
                <vehicle id="210" pos="185.02" speed="9.96"/>
            </lane>
        </edge>
        <edge id="gneE47">
            <lane id="gneE47_0">
                <vehicle id="336" pos="58.73" speed="8.33"/>
                <vehicle id="399" pos="80.72" speed="8.19"/>
                <vehicle id="395" pos="118.97" speed="8.71"/>
            </lane>
        </edge>
        <edge id="gneE48">
            <lane id="gneE48_0">
                <vehicle id="227" pos="164.75" speed="6.73"/>
                <vehicle id="296" pos="200.00" speed="6.12"/>
                <vehicle id="286" pos="216.60" speed="6.85"/>
                <vehicle id="275" pos="280.49" speed="5.84"/>
                <vehicle id="324" pos="289.63" speed="0.00"/>
                <vehicle id="253" pos="297.14" speed="0.00"/>
                <vehicle id="325" pos="304.64" speed="0.00"/>
                <vehicle id="235" pos="312.14" speed="0.00"/>
                <vehicle id="308" pos="319.64" speed="0.00"/>
            </lane>
        </edge>
        <edge id="gneE49">
            <lane id="gneE49_0">
                <vehicle id="233" pos="108.20" speed="6.82"/>
                <vehicle id="364" pos="319.39" speed="0.29"/>
            </lane>
        </edge>
        <edge id="gneE5">
            <lane id="gneE5_0">
                <vehicle id="391" pos="40.03" speed="4.72"/>
                <vehicle id="388" pos="58.03" speed="5.94"/>
                <vehicle id="116" pos="84.97" speed="5.42"/>
                <vehicle id="221" pos="98.64" speed="4.73"/>
                <vehicle id="B1_1" pos="111.80" speed="4.93"/>
                <vehicle id="352" pos="128.08" speed="4.84"/>
                <vehicle id="257" pos="145.60" speed="5.12"/>
            </lane>
        </edge>
        <edge id="gneE50">
            <lane id="gneE50_0">
                <vehicle id="402" pos="26.42" speed="5.75"/>
                <vehicle id="226" pos="42.54" speed="5.03"/>
                <vehicle id="393" pos="74.62" speed="5.71"/>
                <vehicle id="179" pos="91.21" speed="5.59"/>
                <vehicle id="365" pos="108.85" speed="5.23"/>
                <vehicle id="198" pos="140.62" speed="4.99"/>
            </lane>
        </edge>
        <edge id="gneE51">
            <lane id="gneE51_0">
                <vehicle id="404" pos="35.61" speed="6.97"/>
                <vehicle id="379" pos="67.96" speed="6.25"/>
                <vehicle id="266" pos="98.73" speed="5.97"/>
                <vehicle id="312" pos="170.52" speed="5.82"/>
                <vehicle id="204" pos="224.55" speed="5.86"/>
                <vehicle id="280" pos="243.76" speed="6.18"/>
                <vehicle id="302" pos="265.18" speed="6.48"/>
                <vehicle id="359" pos="321.81" speed="6.31"/>
            </lane>
        </edge>
        <edge id="gneE52">
            <lane id="gneE52_0">
                <vehicle id="313" pos="9.35" speed="6.65"/>
                <vehicle id="381" pos="187.10" speed="6.90"/>
            </lane>
        </edge>
        <edge id="gneE53">
            <lane id="gneE53_0">
                <vehicle id="405" pos="5.74" speed="0.64"/>
                <vehicle id="403" pos="19.28" speed="5.83"/>
                <vehicle id="382" pos="45.55" speed="6.56"/>
                <vehicle id="380" pos="158.72" speed="6.70"/>
                <vehicle id="318" pos="189.27" speed="6.61"/>
                <vehicle id="377" pos="205.88" speed="6.75"/>
                <vehicle id="370" pos="237.84" speed="5.85"/>
                <vehicle id="304" pos="255.85" speed="6.00"/>
                <vehicle id="141" pos="328.13" speed="0.24"/>
                <vehicle id="309" pos="335.65" speed="0.01"/>
                <vehicle id="329" pos="343.16" speed="0.00"/>
            </lane>
        </edge>
        <edge id="gneE55">
            <lane id="gneE55_0">
                <vehicle id="368" pos="2.50" speed="7.95"/>
                <vehicle id="245" pos="88.58" speed="6.76"/>
                <vehicle id="209" pos="140.10" speed="7.91"/>
            </lane>
        </edge>
        <edge id="gneE58">
            <lane id="gneE58_0">
                <vehicle id="349" pos="55.19" speed="7.92"/>
                <vehicle id="398" pos="70.81" speed="6.76"/>
                <vehicle id="285" pos="95.69" speed="7.68"/>
                <vehicle id="387" pos="164.06" speed="7.02"/>
            </lane>
        </edge>
        <edge id="gneE59">
            <lane id="gneE59_0">
                <vehicle id="397" pos="100.37" speed="7.88"/>
            </lane>
        </edge>
        <edge id="gneE6">
            <lane id="gneE6_0">
                <vehicle id="409" pos="7.52" speed="2.42"/>
            </lane>
        </edge>
        <edge id="gneE60">
            <lane id="gneE60_0">
                <vehicle id="320" pos="23.76" speed="6.03"/>
                <vehicle id="356" pos="56.19" speed="6.84"/>
                <vehicle id="287" pos="111.99" speed="6.61"/>
                <vehicle id="340" pos="153.33" speed="6.98"/>
                <vehicle id="383" pos="169.99" speed="6.00"/>
                <vehicle id="293" pos="241.15" speed="5.73"/>
                <vehicle id="358" pos="307.34" speed="0.19"/>
                <vehicle id="310" pos="315.04" speed="0.01"/>
                <vehicle id="261" pos="322.55" speed="0.01"/>
                <vehicle id="344" pos="330.06" speed="0.00"/>
                <vehicle id="294" pos="337.56" speed="0.00"/>
            </lane>
        </edge>
        <edge id="gneE61">
            <lane id="gneE61_0">
                <vehicle id="410" pos="5.10" speed="0.00"/>
                <vehicle id="292" pos="40.55" speed="6.99"/>
                <vehicle id="251" pos="58.70" speed="7.89"/>
                <vehicle id="242" pos="87.58" speed="7.32"/>
                <vehicle id="270" pos="219.30" speed="7.75"/>
            </lane>
        </edge>
        <edge id="gneE7">
            <lane id="gneE7_0">
                <vehicle id="272" pos="13.90" speed="8.57"/>
                <vehicle id="376" pos="36.77" speed="8.04"/>
                <vehicle id="299" pos="102.86" speed="8.92"/>
                <vehicle id="337" pos="141.19" speed="7.94"/>
                <vehicle id="288" pos="182.53" speed="8.49"/>
            </lane>
        </edge>
        <edge id="gneE8">
            <lane id="gneE8_0">
                <vehicle id="191" pos="270.31" speed="7.74"/>
            </lane>
        </edge>
    </timestep>
