<?xml version="1.0"?>
<timestep time="416.00">
        <edge id=":gneJ11_2">
            <lane id=":gneJ11_2_0">
                <vehicle id="319" pos="1.27" speed="8.22"/>
            </lane>
        </edge>
        <edge id=":gneJ11_21">
            <lane id=":gneJ11_21_0">
                <vehicle id="329" pos="26.65" speed="8.48"/>
            </lane>
        </edge>
        <edge id=":gneJ15_7">
            <lane id=":gneJ15_7_0">
                <vehicle id="265" pos="11.62" speed="7.99"/>
            </lane>
        </edge>
        <edge id=":gneJ28_9">
            <lane id=":gneJ28_9_0">
                <vehicle id="181" pos="8.04" speed="8.55"/>
            </lane>
        </edge>
        <edge id="gneE1">
            <lane id="gneE1_0">
                <vehicle id="392" pos="108.60" speed="4.67"/>
            </lane>
        </edge>
        <edge id="gneE10">
            <lane id="gneE10_0">
                <vehicle id="316" pos="28.58" speed="5.37"/>
                <vehicle id="341" pos="44.09" speed="5.68"/>
                <vehicle id="224" pos="61.29" speed="5.37"/>
                <vehicle id="298" pos="77.79" speed="5.90"/>
                <vehicle id="357" pos="94.65" speed="5.12"/>
                <vehicle id="260" pos="123.69" speed="5.78"/>
                <vehicle id="384" pos="138.92" speed="0.48"/>
            </lane>
        </edge>
        <edge id="gneE11">
            <lane id="gneE11_0">
                <vehicle id="407" pos="62.94" speed="8.94"/>
            </lane>
        </edge>
        <edge id="gneE12">
            <lane id="gneE12_0">
                <vehicle id="335" pos="0.57" speed="10.00"/>
            </lane>
        </edge>
        <edge id="gneE13">
            <lane id="gneE13_0">
                <vehicle id="389" pos="82.66" speed="9.71"/>
                <vehicle id="222" pos="249.48" speed="8.90"/>
                <vehicle id="366" pos="297.45" speed="8.03"/>
            </lane>
        </edge>
        <edge id="gneE14">
            <lane id="gneE14_0">
                <vehicle id="215" pos="73.07" speed="10.94"/>
                <vehicle id="291" pos="155.98" speed="7.82"/>
            </lane>
        </edge>
        <edge id="gneE15">
            <lane id="gneE15_0">
                <vehicle id="243" pos="55.14" speed="7.95"/>
                <vehicle id="367" pos="77.22" speed="8.21"/>
                <vehicle id="140" pos="105.84" speed="8.81"/>
                <vehicle id="347" pos="129.58" speed="8.38"/>
            </lane>
        </edge>
        <edge id="gneE17">
            <lane id="gneE17_0">
                <vehicle id="362" pos="225.23" speed="9.55"/>
            </lane>
        </edge>
        <edge id="gneE18">
            <lane id="gneE18_0">
                <vehicle id="339" pos="205.70" speed="9.91"/>
                <vehicle id="284" pos="224.12" speed="8.70"/>
                <vehicle id="350" pos="285.86" speed="9.13"/>
            </lane>
        </edge>
        <edge id="gneE19">
            <lane id="gneE19_0">
                <vehicle id="326" pos="12.65" speed="7.38"/>
                <vehicle id="411" pos="32.13" speed="9.50"/>
                <vehicle id="378" pos="241.86" speed="12.92"/>
                <vehicle id="314" pos="275.29" speed="0.23"/>
                <vehicle id="331" pos="282.84" speed="0.01"/>
            </lane>
        </edge>
        <edge id="gneE20">
            <lane id="gneE20_0">
                <vehicle id="322" pos="45.52" speed="8.47"/>
                <vehicle id="268" pos="83.05" speed="8.91"/>
                <vehicle id="241" pos="117.63" speed="8.56"/>
                <vehicle id="303" pos="159.86" speed="7.92"/>
                <vehicle id="390" pos="214.04" speed="8.18"/>
                <vehicle id="297" pos="265.88" speed="8.68"/>
            </lane>
        </edge>
        <edge id="gneE23">
            <lane id="gneE23_0">
                <vehicle id="346" pos="32.12" speed="6.89"/>
                <vehicle id="279" pos="129.36" speed="7.22"/>
            </lane>
        </edge>
        <edge id="gneE24">
            <lane id="gneE24_0">
                <vehicle id="305" pos="87.21" speed="12.82"/>
                <vehicle id="332" pos="150.81" speed="12.15"/>
            </lane>
        </edge>
        <edge id="gneE25">
            <lane id="gneE25_0">
                <vehicle id="231" pos="82.73" speed="9.29"/>
                <vehicle id="345" pos="133.97" speed="9.64"/>
                <vehicle id="274" pos="196.60" speed="9.19"/>
                <vehicle id="363" pos="243.13" speed="9.93"/>
                <vehicle id="165" pos="277.47" speed="9.00"/>
                <vehicle id="263" pos="290.82" speed="0.05"/>
            </lane>
        </edge>
        <edge id="gneE26">
            <lane id="gneE26_0">
                <vehicle id="375" pos="20.91" speed="5.82"/>
                <vehicle id="394" pos="129.75" speed="6.37"/>
                <vehicle id="301" pos="152.94" speed="6.05"/>
                <vehicle id="360" pos="203.54" speed="5.85"/>
                <vehicle id="371" pos="253.49" speed="6.86"/>
                <vehicle id="207" pos="269.52" speed="6.76"/>
                <vehicle id="307" pos="285.90" speed="6.03"/>
            </lane>
        </edge>
        <edge id="gneE27">
            <lane id="gneE27_0">
                <vehicle id="414" pos="7.24" speed="2.14"/>
                <vehicle id="406" pos="40.85" speed="4.94"/>
                <vehicle id="400" pos="56.79" speed="4.89"/>
                <vehicle id="249" pos="73.12" speed="5.36"/>
                <vehicle id="271" pos="90.61" speed="5.39"/>
            </lane>
        </edge>
        <edge id="gneE28">
            <lane id="gneE28_0">
                <vehicle id="372" pos="67.13" speed="8.58"/>
                <vehicle id="306" pos="90.49" speed="8.21"/>
            </lane>
        </edge>
        <edge id="gneE3">
            <lane id="gneE3_0">
                <vehicle id="282" pos="45.09" speed="9.66"/>
                <vehicle id="269" pos="77.61" speed="9.70"/>
            </lane>
        </edge>
        <edge id="gneE30">
            <lane id="gneE30_0">
                <vehicle id="385" pos="28.08" speed="8.67"/>
                <vehicle id="252" pos="85.14" speed="8.12"/>
                <vehicle id="216" pos="292.25" speed="7.77"/>
            </lane>
        </edge>
        <edge id="gneE31">
            <lane id="gneE31_0">
                <vehicle id="311" pos="28.01" speed="8.16"/>
                <vehicle id="237" pos="48.18" speed="8.64"/>
                <vehicle id="328" pos="96.62" speed="8.62"/>
                <vehicle id="342" pos="115.49" speed="8.87"/>
                <vehicle id="333" pos="145.04" speed="8.04"/>
                <vehicle id="353" pos="201.99" speed="8.91"/>
                <vehicle id="338" pos="235.22" speed="8.59"/>
                <vehicle id="317" pos="253.58" speed="8.14"/>
            </lane>
        </edge>
        <edge id="gneE32">
            <lane id="gneE32_0">
                <vehicle id="255" pos="305.38" speed="6.90"/>
            </lane>
        </edge>
        <edge id="gneE38">
            <lane id="gneE38_0">
                <vehicle id="330" pos="16.59" speed="8.50"/>
                <vehicle id="369" pos="214.77" speed="9.00"/>
                <vehicle id="354" pos="334.53" speed="8.09"/>
            </lane>
        </edge>
        <edge id="gneE4">
            <lane id="gneE4_0">
                <vehicle id="355" pos="154.02" speed="9.90"/>
            </lane>
        </edge>
        <edge id="gneE41">
            <lane id="gneE41_0">
                <vehicle id="167" pos="33.48" speed="7.78"/>
            </lane>
        </edge>
        <edge id="gneE42">
            <lane id="gneE42_0">
                <vehicle id="323" pos="10.19" speed="6.25"/>
                <vehicle id="408" pos="25.95" speed="6.79"/>
                <vehicle id="361" pos="46.22" speed="7.15"/>
                <vehicle id="236" pos="64.37" speed="6.86"/>
                <vehicle id="373" pos="132.95" speed="6.87"/>
            </lane>
        </edge>
        <edge id="gneE43">
            <lane id="gneE43_0">
                <vehicle id="386" pos="190.16" speed="5.77"/>
                <vehicle id="374" pos="262.94" speed="6.75"/>
            </lane>
        </edge>
        <edge id="gneE45">
            <lane id="gneE45_0">
                <vehicle id="413" pos="5.10" speed="0.00"/>
                <vehicle id="348" pos="16.37" speed="8.57"/>
                <vehicle id="396" pos="161.00" speed="7.96"/>
                <vehicle id="327" pos="193.20" speed="8.75"/>
            </lane>
        </edge>
        <edge id="gneE46">
            <lane id="gneE46_0">
                <vehicle id="401" pos="127.47" speed="9.78"/>
            </lane>
        </edge>
        <edge id="gneE47">
            <lane id="gneE47_0">
                <vehicle id="336" pos="108.41" speed="8.01"/>
                <vehicle id="399" pos="132.08" speed="8.75"/>
                <vehicle id="395" pos="168.45" speed="8.44"/>
            </lane>
        </edge>
        <edge id="gneE48">
            <lane id="gneE48_0">
                <vehicle id="415" pos="7.19" speed="2.09"/>
                <vehicle id="227" pos="204.11" speed="6.26"/>
                <vehicle id="296" pos="236.65" speed="6.14"/>
                <vehicle id="286" pos="252.41" speed="5.79"/>
                <vehicle id="275" pos="282.13" speed="0.00"/>
                <vehicle id="324" pos="289.63" speed="0.00"/>
                <vehicle id="253" pos="297.14" speed="0.00"/>
                <vehicle id="325" pos="304.64" speed="0.00"/>
                <vehicle id="235" pos="312.14" speed="0.00"/>
                <vehicle id="308" pos="319.64" speed="0.00"/>
            </lane>
        </edge>
        <edge id="gneE49">
            <lane id="gneE49_0">
                <vehicle id="233" pos="152.37" speed="7.53"/>
            </lane>
        </edge>
        <edge id="gneE5">
            <lane id="gneE5_0">
                <vehicle id="391" pos="71.70" speed="5.88"/>
                <vehicle id="388" pos="90.94" speed="4.78"/>
                <vehicle id="116" pos="115.69" speed="5.62"/>
                <vehicle id="221" pos="129.98" speed="5.97"/>
                <vehicle id="B1_1" pos="144.42" speed="5.01"/>
            </lane>
        </edge>
        <edge id="gneE50">
            <lane id="gneE50_0">
                <vehicle id="402" pos="59.61" speed="5.14"/>
                <vehicle id="226" pos="75.05" speed="5.24"/>
                <vehicle id="393" pos="104.86" speed="4.84"/>
                <vehicle id="179" pos="122.17" speed="5.74"/>
                <vehicle id="365" pos="141.51" speed="5.10"/>
                <vehicle id="198" pos="173.97" speed="5.90"/>
            </lane>
        </edge>
        <edge id="gneE51">
            <lane id="gneE51_0">
                <vehicle id="404" pos="73.86" speed="6.90"/>
                <vehicle id="379" pos="105.08" speed="5.82"/>
                <vehicle id="266" pos="136.49" speed="6.43"/>
                <vehicle id="312" pos="207.97" speed="5.74"/>
                <vehicle id="204" pos="263.57" speed="6.91"/>
                <vehicle id="280" pos="282.13" speed="6.03"/>
                <vehicle id="302" pos="304.28" speed="6.18"/>
                <vehicle id="359" pos="359.65" speed="5.85"/>
            </lane>
        </edge>
        <edge id="gneE52">
            <lane id="gneE52_0">
                <vehicle id="254" pos="30.41" speed="6.03"/>
                <vehicle id="313" pos="47.96" speed="6.42"/>
                <vehicle id="381" pos="225.75" speed="6.82"/>
            </lane>
        </edge>
        <edge id="gneE53">
            <lane id="gneE53_0">
                <vehicle id="209" pos="24.25" speed="6.46"/>
                <vehicle id="405" pos="40.36" speed="5.95"/>
                <vehicle id="403" pos="56.52" speed="5.80"/>
                <vehicle id="382" pos="85.15" speed="6.21"/>
                <vehicle id="380" pos="197.11" speed="6.03"/>
                <vehicle id="318" pos="226.15" speed="6.13"/>
                <vehicle id="377" pos="244.31" speed="5.77"/>
                <vehicle id="370" pos="275.78" speed="6.89"/>
                <vehicle id="304" pos="293.07" speed="5.90"/>
                <vehicle id="141" pos="334.07" speed="1.49"/>
                <vehicle id="309" pos="342.86" speed="0.40"/>
            </lane>
        </edge>
        <edge id="gneE55">
            <lane id="gneE55_0">
                <vehicle id="364" pos="26.43" speed="7.03"/>
                <vehicle id="368" pos="47.54" speed="7.48"/>
                <vehicle id="245" pos="132.33" speed="7.22"/>
            </lane>
        </edge>
        <edge id="gneE58">
            <lane id="gneE58_0">
                <vehicle id="349" pos="99.05" speed="7.34"/>
                <vehicle id="398" pos="115.83" speed="7.98"/>
                <vehicle id="285" pos="140.46" speed="7.69"/>
                <vehicle id="387" pos="206.63" speed="7.16"/>
            </lane>
        </edge>
        <edge id="gneE59">
            <lane id="gneE59_0">
                <vehicle id="397" pos="147.97" speed="8.27"/>
            </lane>
        </edge>
        <edge id="gneE6">
            <lane id="gneE6_0">
                <vehicle id="191" pos="2.62" speed="7.30"/>
                <vehicle id="409" pos="47.43" speed="7.94"/>
            </lane>
        </edge>
        <edge id="gneE60">
            <lane id="gneE60_0">
                <vehicle id="416" pos="5.10" speed="0.00"/>
                <vehicle id="320" pos="61.10" speed="6.09"/>
                <vehicle id="356" pos="93.92" speed="6.30"/>
                <vehicle id="287" pos="151.28" speed="6.06"/>
                <vehicle id="340" pos="191.21" speed="6.12"/>
                <vehicle id="383" pos="209.59" speed="6.89"/>
                <vehicle id="293" pos="279.46" speed="5.82"/>
                <vehicle id="358" pos="307.55" speed="0.00"/>
                <vehicle id="310" pos="315.06" speed="0.00"/>
                <vehicle id="261" pos="322.56" speed="0.00"/>
                <vehicle id="344" pos="330.06" speed="0.00"/>
                <vehicle id="294" pos="337.56" speed="0.00"/>
            </lane>
        </edge>
        <edge id="gneE61">
            <lane id="gneE61_0">
                <vehicle id="410" pos="40.86" speed="7.25"/>
                <vehicle id="292" pos="84.35" speed="7.64"/>
                <vehicle id="251" pos="103.11" speed="7.26"/>
                <vehicle id="242" pos="131.04" speed="7.23"/>
                <vehicle id="270" pos="263.68" speed="7.44"/>
            </lane>
        </edge>
        <edge id="gneE7">
            <lane id="gneE7_0">
                <vehicle id="257" pos="40.56" speed="8.19"/>
                <vehicle id="272" pos="64.20" speed="8.53"/>
                <vehicle id="376" pos="85.60" speed="8.42"/>
                <vehicle id="299" pos="152.94" speed="8.00"/>
                <vehicle id="337" pos="191.57" speed="8.96"/>
                <vehicle id="288" pos="233.60" speed="8.13"/>
            </lane>
        </edge>
        <edge id="gneE8">
            <lane id="gneE8_0">
                <vehicle id="412" pos="23.53" speed="7.04"/>
            </lane>
        </edge>
    </timestep>
