<?xml version="1.0"?>
<timestep time="418.00">
        <edge id=":gneJ18_0">
            <lane id=":gneJ18_0_0">
                <vehicle id="373" pos="2.35" speed="7.78"/>
            </lane>
        </edge>
        <edge id="gneE1">
            <lane id="gneE1_0">
                <vehicle id="418" pos="5.10" speed="0.00"/>
                <vehicle id="392" pos="117.56" speed="4.91"/>
            </lane>
        </edge>
        <edge id="gneE10">
            <lane id="gneE10_0">
                <vehicle id="366" pos="1.07" speed="5.83"/>
                <vehicle id="316" pos="39.32" speed="5.73"/>
                <vehicle id="341" pos="55.87" speed="5.96"/>
                <vehicle id="224" pos="71.47" speed="4.82"/>
                <vehicle id="298" pos="88.66" speed="5.65"/>
                <vehicle id="357" pos="106.16" speed="5.58"/>
                <vehicle id="260" pos="131.11" speed="1.66"/>
                <vehicle id="384" pos="138.94" speed="0.00"/>
            </lane>
        </edge>
        <edge id="gneE11">
            <lane id="gneE11_0">
                <vehicle id="407" pos="78.96" speed="7.96"/>
            </lane>
        </edge>
        <edge id="gneE12">
            <lane id="gneE12_0">
                <vehicle id="335" pos="25.64" speed="13.61"/>
            </lane>
        </edge>
        <edge id="gneE13">
            <lane id="gneE13_0">
                <vehicle id="389" pos="101.40" speed="9.57"/>
                <vehicle id="222" pos="268.58" speed="9.11"/>
            </lane>
        </edge>
        <edge id="gneE14">
            <lane id="gneE14_0">
                <vehicle id="215" pos="93.59" speed="10.41"/>
                <vehicle id="291" pos="160.64" speed="0.48"/>
            </lane>
        </edge>
        <edge id="gneE15">
            <lane id="gneE15_0">
                <vehicle id="243" pos="71.77" speed="8.13"/>
                <vehicle id="367" pos="93.42" speed="7.89"/>
                <vehicle id="140" pos="122.07" speed="8.30"/>
                <vehicle id="347" pos="146.80" speed="8.79"/>
            </lane>
        </edge>
        <edge id="gneE17">
            <lane id="gneE17_0">
                <vehicle id="362" pos="244.26" speed="9.87"/>
            </lane>
        </edge>
        <edge id="gneE18">
            <lane id="gneE18_0">
                <vehicle id="339" pos="224.14" speed="9.55"/>
                <vehicle id="284" pos="243.50" speed="9.57"/>
            </lane>
        </edge>
        <edge id="gneE19">
            <lane id="gneE19_0">
                <vehicle id="350" pos="10.90" speed="11.44"/>
                <vehicle id="326" pos="33.78" speed="11.29"/>
                <vehicle id="411" pos="56.15" speed="12.70"/>
                <vehicle id="378" pos="263.01" speed="8.33"/>
                <vehicle id="314" pos="275.34" speed="0.01"/>
                <vehicle id="331" pos="282.84" speed="0.00"/>
            </lane>
        </edge>
        <edge id="gneE2">
            <lane id="gneE2_0">
                <vehicle id="355" pos="7.72" speed="9.92"/>
            </lane>
        </edge>
        <edge id="gneE20">
            <lane id="gneE20_0">
                <vehicle id="329" pos="12.15" speed="8.56"/>
                <vehicle id="322" pos="62.68" speed="8.47"/>
                <vehicle id="268" pos="100.38" speed="8.46"/>
                <vehicle id="241" pos="135.57" speed="8.99"/>
                <vehicle id="303" pos="176.34" speed="8.56"/>
                <vehicle id="390" pos="231.47" speed="8.80"/>
                <vehicle id="297" pos="282.64" speed="8.54"/>
            </lane>
        </edge>
        <edge id="gneE23">
            <lane id="gneE23_0">
                <vehicle id="346" pos="47.53" speed="7.72"/>
                <vehicle id="279" pos="143.33" speed="6.73"/>
            </lane>
        </edge>
        <edge id="gneE24">
            <lane id="gneE24_0">
                <vehicle id="265" pos="12.95" speed="11.73"/>
                <vehicle id="305" pos="112.21" speed="12.40"/>
                <vehicle id="332" pos="174.56" speed="11.94"/>
            </lane>
        </edge>
        <edge id="gneE25">
            <lane id="gneE25_0">
                <vehicle id="231" pos="101.78" speed="9.39"/>
                <vehicle id="345" pos="152.72" speed="9.21"/>
                <vehicle id="274" pos="215.37" speed="9.41"/>
                <vehicle id="363" pos="262.26" speed="9.51"/>
                <vehicle id="165" pos="283.31" speed="1.34"/>
                <vehicle id="263" pos="290.83" speed="0.00"/>
            </lane>
        </edge>
        <edge id="gneE26">
            <lane id="gneE26_0">
                <vehicle id="375" pos="34.17" speed="6.79"/>
                <vehicle id="394" pos="141.73" speed="5.75"/>
                <vehicle id="301" pos="165.76" speed="6.55"/>
                <vehicle id="360" pos="217.11" speed="6.69"/>
                <vehicle id="371" pos="266.30" speed="6.70"/>
                <vehicle id="207" pos="282.85" speed="6.73"/>
            </lane>
        </edge>
        <edge id="gneE27">
            <lane id="gneE27_0">
                <vehicle id="414" pos="16.66" speed="5.05"/>
                <vehicle id="406" pos="50.93" speed="5.19"/>
                <vehicle id="400" pos="68.27" speed="5.92"/>
                <vehicle id="249" pos="83.00" speed="5.12"/>
                <vehicle id="271" pos="100.99" speed="5.66"/>
            </lane>
        </edge>
        <edge id="gneE28">
            <lane id="gneE28_0">
                <vehicle id="417" pos="6.79" speed="1.69"/>
                <vehicle id="372" pos="83.96" speed="8.50"/>
                <vehicle id="306" pos="106.58" speed="7.89"/>
            </lane>
        </edge>
        <edge id="gneE3">
            <lane id="gneE3_0">
                <vehicle id="282" pos="64.83" speed="9.98"/>
                <vehicle id="269" pos="95.79" speed="9.00"/>
            </lane>
        </edge>
        <edge id="gneE30">
            <lane id="gneE30_0">
                <vehicle id="385" pos="44.47" speed="8.48"/>
                <vehicle id="252" pos="102.02" speed="7.96"/>
            </lane>
        </edge>
        <edge id="gneE31">
            <lane id="gneE31_0">
                <vehicle id="311" pos="44.50" speed="8.40"/>
                <vehicle id="237" pos="63.94" speed="7.91"/>
                <vehicle id="328" pos="112.31" speed="7.84"/>
                <vehicle id="342" pos="132.17" speed="7.70"/>
                <vehicle id="333" pos="160.95" speed="7.79"/>
                <vehicle id="353" pos="217.53" speed="7.75"/>
                <vehicle id="338" pos="252.84" speed="8.67"/>
                <vehicle id="317" pos="270.08" speed="7.74"/>
            </lane>
        </edge>
        <edge id="gneE32">
            <lane id="gneE32_0">
                <vehicle id="255" pos="320.35" speed="7.59"/>
            </lane>
        </edge>
        <edge id="gneE38">
            <lane id="gneE38_0">
                <vehicle id="330" pos="34.20" speed="8.75"/>
                <vehicle id="369" pos="231.94" speed="8.50"/>
            </lane>
        </edge>
        <edge id="gneE41">
            <lane id="gneE41_0">
                <vehicle id="167" pos="50.37" speed="7.99"/>
            </lane>
        </edge>
        <edge id="gneE42">
            <lane id="gneE42_0">
                <vehicle id="323" pos="23.97" speed="6.67"/>
                <vehicle id="408" pos="40.76" speed="7.77"/>
                <vehicle id="361" pos="60.87" speed="7.34"/>
                <vehicle id="236" pos="79.06" speed="7.45"/>
            </lane>
        </edge>
        <edge id="gneE43">
            <lane id="gneE43_0">
                <vehicle id="181" pos="7.27" speed="6.09"/>
                <vehicle id="386" pos="203.48" speed="6.61"/>
                <vehicle id="374" pos="274.80" speed="5.89"/>
            </lane>
        </edge>
        <edge id="gneE45">
            <lane id="gneE45_0">
                <vehicle id="413" pos="11.04" speed="4.00"/>
                <vehicle id="348" pos="33.79" speed="8.43"/>
                <vehicle id="396" pos="178.19" speed="8.55"/>
                <vehicle id="327" pos="210.42" speed="8.37"/>
            </lane>
        </edge>
        <edge id="gneE46">
            <lane id="gneE46_0">
                <vehicle id="401" pos="145.99" speed="9.75"/>
            </lane>
        </edge>
        <edge id="gneE47">
            <lane id="gneE47_0">
                <vehicle id="336" pos="125.35" speed="8.09"/>
                <vehicle id="399" pos="149.33" speed="8.35"/>
                <vehicle id="395" pos="183.93" speed="7.77"/>
            </lane>
        </edge>
        <edge id="gneE48">
            <lane id="gneE48_0">
                <vehicle id="415" pos="17.35" speed="6.22"/>
                <vehicle id="227" pos="217.05" speed="6.45"/>
                <vehicle id="296" pos="250.02" speed="6.50"/>
                <vehicle id="286" pos="265.53" speed="6.66"/>
                <vehicle id="275" pos="282.13" speed="0.00"/>
                <vehicle id="324" pos="289.63" speed="0.00"/>
                <vehicle id="253" pos="297.14" speed="0.00"/>
                <vehicle id="325" pos="304.64" speed="0.00"/>
                <vehicle id="235" pos="312.14" speed="0.00"/>
                <vehicle id="308" pos="319.64" speed="0.00"/>
            </lane>
        </edge>
        <edge id="gneE49">
            <lane id="gneE49_0">
                <vehicle id="233" pos="166.49" speed="6.74"/>
            </lane>
        </edge>
        <edge id="gneE5">
            <lane id="gneE5_0">
                <vehicle id="391" pos="81.33" speed="4.83"/>
                <vehicle id="388" pos="100.89" speed="4.78"/>
                <vehicle id="116" pos="126.45" speed="5.32"/>
                <vehicle id="221" pos="139.88" speed="5.06"/>
            </lane>
        </edge>
        <edge id="gneE50">
            <lane id="gneE50_0">
                <vehicle id="402" pos="70.90" speed="5.94"/>
                <vehicle id="226" pos="85.92" speed="5.54"/>
                <vehicle id="393" pos="115.94" speed="5.90"/>
                <vehicle id="179" pos="133.12" speed="5.08"/>
                <vehicle id="365" pos="151.61" speed="5.12"/>
                <vehicle id="198" pos="184.55" speed="5.07"/>
            </lane>
        </edge>
        <edge id="gneE51">
            <lane id="gneE51_0">
                <vehicle id="404" pos="86.21" speed="6.41"/>
                <vehicle id="379" pos="117.30" speed="6.26"/>
                <vehicle id="266" pos="148.74" speed="6.34"/>
                <vehicle id="312" pos="220.47" speed="6.10"/>
                <vehicle id="204" pos="276.69" speed="6.80"/>
                <vehicle id="280" pos="295.29" speed="6.60"/>
                <vehicle id="302" pos="316.90" speed="6.63"/>
                <vehicle id="359" pos="365.57" speed="1.10"/>
            </lane>
        </edge>
        <edge id="gneE52">
            <lane id="gneE52_0">
                <vehicle id="254" pos="42.48" speed="6.24"/>
                <vehicle id="313" pos="60.38" speed="5.97"/>
                <vehicle id="381" pos="237.85" speed="5.80"/>
            </lane>
        </edge>
        <edge id="gneE53">
            <lane id="gneE53_0">
                <vehicle id="209" pos="37.32" speed="6.20"/>
                <vehicle id="405" pos="52.02" speed="5.72"/>
                <vehicle id="403" pos="69.53" speed="6.71"/>
                <vehicle id="382" pos="98.09" speed="6.87"/>
                <vehicle id="380" pos="209.78" speed="6.20"/>
                <vehicle id="318" pos="238.69" speed="6.50"/>
                <vehicle id="377" pos="256.71" speed="6.09"/>
                <vehicle id="370" pos="288.48" speed="6.81"/>
                <vehicle id="304" pos="305.98" speed="6.75"/>
                <vehicle id="141" pos="335.46" speed="0.22"/>
                <vehicle id="309" pos="343.13" speed="0.05"/>
            </lane>
        </edge>
        <edge id="gneE55">
            <lane id="gneE55_0">
                <vehicle id="364" pos="41.40" speed="7.78"/>
                <vehicle id="368" pos="61.75" speed="6.98"/>
            </lane>
        </edge>
        <edge id="gneE56">
            <lane id="gneE56_0">
                <vehicle id="319" pos="6.41" speed="8.49"/>
            </lane>
        </edge>
        <edge id="gneE58">
            <lane id="gneE58_0">
                <vehicle id="349" pos="114.28" speed="7.64"/>
                <vehicle id="398" pos="129.93" speed="6.96"/>
                <vehicle id="285" pos="155.50" speed="7.77"/>
                <vehicle id="387" pos="221.43" speed="7.37"/>
            </lane>
        </edge>
        <edge id="gneE59">
            <lane id="gneE59_0">
                <vehicle id="397" pos="164.77" speed="8.68"/>
            </lane>
        </edge>
        <edge id="gneE6">
            <lane id="gneE6_0">
                <vehicle id="191" pos="17.42" speed="7.42"/>
                <vehicle id="409" pos="61.30" speed="6.79"/>
            </lane>
        </edge>
        <edge id="gneE60">
            <lane id="gneE60_0">
                <vehicle id="416" pos="10.36" speed="3.64"/>
                <vehicle id="320" pos="73.41" speed="5.84"/>
                <vehicle id="356" pos="106.01" speed="6.28"/>
                <vehicle id="287" pos="164.31" speed="6.26"/>
                <vehicle id="340" pos="203.03" speed="5.76"/>
                <vehicle id="383" pos="221.59" speed="5.78"/>
                <vehicle id="293" pos="291.88" speed="5.81"/>
                <vehicle id="358" pos="307.55" speed="0.00"/>
                <vehicle id="310" pos="315.06" speed="0.00"/>
                <vehicle id="261" pos="322.56" speed="0.00"/>
                <vehicle id="344" pos="330.06" speed="0.00"/>
                <vehicle id="294" pos="337.56" speed="0.00"/>
            </lane>
        </edge>
        <edge id="gneE61">
            <lane id="gneE61_0">
                <vehicle id="410" pos="55.41" speed="7.75"/>
                <vehicle id="292" pos="98.24" speed="6.92"/>
                <vehicle id="251" pos="116.89" speed="6.89"/>
                <vehicle id="242" pos="145.47" speed="7.08"/>
                <vehicle id="270" pos="277.75" speed="7.23"/>
            </lane>
        </edge>
        <edge id="gneE7">
            <lane id="gneE7_0">
                <vehicle id="257" pos="57.57" speed="8.80"/>
                <vehicle id="272" pos="81.28" speed="8.30"/>
                <vehicle id="376" pos="102.96" speed="8.85"/>
                <vehicle id="299" pos="169.40" speed="7.92"/>
                <vehicle id="337" pos="208.91" speed="8.61"/>
                <vehicle id="288" pos="249.38" speed="7.96"/>
            </lane>
        </edge>
        <edge id="gneE8">
            <lane id="gneE8_0">
                <vehicle id="216" pos="4.98" speed="6.71"/>
                <vehicle id="412" pos="38.62" speed="7.68"/>
            </lane>
        </edge>
    </timestep>
