<?xml version="1.0"?>
<timestep time="443.00">
        <edge id=":gneJ11_44">
            <lane id=":gneJ11_44_0">
                <vehicle id="372" pos="4.26" speed="7.44"/>
            </lane>
        </edge>
        <edge id=":gneJ11_14">
            <lane id=":gneJ11_14_0">
                <vehicle id="308" pos="12.08" speed="5.68"/>
            </lane>
        </edge>
        <edge id=":gneJ11_22">
            <lane id=":gneJ11_22_0">
                <vehicle id="370" pos="2.36" speed="2.46"/>
            </lane>
        </edge>
        <edge id=":gneJ15_21">
            <lane id=":gneJ15_21_0">
                <vehicle id="338" pos="13.19" speed="8.09"/>
            </lane>
        </edge>
        <edge id=":gneJ28_9">
            <lane id=":gneJ28_9_0">
                <vehicle id="422" pos="2.47" speed="8.55"/>
            </lane>
        </edge>
        <edge id=":gneJ3_11">
            <lane id=":gneJ3_11_0">
                <vehicle id="425" pos="2.24" speed="5.40"/>
            </lane>
        </edge>
        <edge id=":gneJ8_2">
            <lane id=":gneJ8_2_0">
                <vehicle id="274" pos="5.11" speed="3.31"/>
            </lane>
        </edge>
        <edge id="gneE1">
            <lane id="gneE1_0">
                <vehicle id="418" pos="106.19" speed="4.11"/>
            </lane>
        </edge>
        <edge id="gneE10">
            <lane id="gneE10_0">
                <vehicle id="363" pos="31.80" speed="5.12"/>
                <vehicle id="347" pos="117.40" speed="5.32"/>
                <vehicle id="366" pos="131.16" speed="0.95"/>
                <vehicle id="316" pos="138.94" speed="0.01"/>
            </lane>
        </edge>
        <edge id="gneE11">
            <lane id="gneE11_0">
                <vehicle id="439" pos="27.34" speed="8.47"/>
                <vehicle id="299" pos="71.14" speed="8.25"/>
            </lane>
        </edge>
        <edge id="gneE12">
            <lane id="gneE12_0">
                <vehicle id="297" pos="34.25" speed="12.82"/>
                <vehicle id="243" pos="132.11" speed="13.58"/>
                <vehicle id="367" pos="156.31" speed="12.97"/>
                <vehicle id="427" pos="180.97" speed="13.62"/>
                <vehicle id="407" pos="233.75" speed="13.75"/>
            </lane>
        </edge>
        <edge id="gneE13">
            <lane id="gneE13_0">
                <vehicle id="362" pos="8.95" speed="9.97"/>
                <vehicle id="419" pos="50.11" speed="9.94"/>
                <vehicle id="269" pos="168.21" speed="9.36"/>
            </lane>
        </edge>
        <edge id="gneE14">
            <lane id="gneE14_0">
                <vehicle id="389" pos="29.17" speed="9.77"/>
                <vehicle id="165" pos="80.09" speed="10.38"/>
            </lane>
        </edge>
        <edge id="gneE15">
            <lane id="gneE15_0">
                <vehicle id="442" pos="6.74" speed="1.64"/>
                <vehicle id="268" pos="23.67" speed="8.52"/>
                <vehicle id="390" pos="149.63" speed="8.66"/>
            </lane>
        </edge>
        <edge id="gneE17">
            <lane id="gneE17_0">
                <vehicle id="241" pos="58.11" speed="9.30"/>
            </lane>
        </edge>
        <edge id="gneE18">
            <lane id="gneE18_0">
                <vehicle id="397" pos="50.52" speed="8.90"/>
                <vehicle id="392" pos="154.44" speed="9.78"/>
            </lane>
        </edge>
        <edge id="gneE19">
            <lane id="gneE19_0">
                <vehicle id="215" pos="174.28" speed="11.71"/>
                <vehicle id="339" pos="215.38" speed="12.80"/>
                <vehicle id="284" pos="239.28" speed="11.99"/>
                <vehicle id="291" pos="268.77" speed="9.33"/>
                <vehicle id="350" pos="282.50" speed="0.54"/>
            </lane>
        </edge>
        <edge id="gneE20">
            <lane id="gneE20_0">
                <vehicle id="359" pos="40.89" speed="7.88"/>
                <vehicle id="309" pos="90.70" speed="8.24"/>
                <vehicle id="294" pos="135.39" speed="8.57"/>
                <vehicle id="332" pos="189.27" speed="7.93"/>
                <vehicle id="329" pos="223.21" speed="8.71"/>
                <vehicle id="322" pos="271.07" speed="8.43"/>
            </lane>
        </edge>
        <edge id="gneE23">
            <lane id="gneE23_0">
                <vehicle id="331" pos="151.73" speed="7.20"/>
            </lane>
        </edge>
        <edge id="gneE24">
            <lane id="gneE24_0">
                <vehicle id="437" pos="7.21" speed="2.11"/>
                <vehicle id="317" pos="43.48" speed="12.35"/>
                <vehicle id="417" pos="85.52" speed="12.04"/>
                <vehicle id="360" pos="140.97" speed="12.12"/>
            </lane>
        </edge>
        <edge id="gneE25">
            <lane id="gneE25_0">
                <vehicle id="346" pos="7.20" speed="5.93"/>
                <vehicle id="369" pos="90.98" speed="9.59"/>
                <vehicle id="306" pos="188.98" speed="9.15"/>
                <vehicle id="231" pos="275.66" speed="0.26"/>
                <vehicle id="345" pos="285.13" speed="1.85"/>
            </lane>
        </edge>
        <edge id="gneE26">
            <lane id="gneE26_0">
                <vehicle id="375" pos="192.92" speed="5.73"/>
                <vehicle id="394" pos="290.53" speed="0.45"/>
            </lane>
        </edge>
        <edge id="gneE28">
            <lane id="gneE28_0">
                <vehicle id="328" pos="23.40" speed="7.78"/>
                <vehicle id="342" pos="48.03" speed="8.32"/>
                <vehicle id="333" pos="74.42" speed="7.79"/>
                <vehicle id="353" pos="130.48" speed="8.32"/>
            </lane>
        </edge>
        <edge id="gneE3">
            <lane id="gneE3_0">
                <vehicle id="443" pos="5.10" speed="0.00"/>
            </lane>
        </edge>
        <edge id="gneE30">
            <lane id="gneE30_0">
                <vehicle id="414" pos="3.72" speed="8.14"/>
                <vehicle id="406" pos="59.42" speed="8.81"/>
                <vehicle id="400" pos="78.16" speed="8.18"/>
                <vehicle id="249" pos="109.25" speed="8.13"/>
                <vehicle id="271" pos="136.99" speed="8.09"/>
                <vehicle id="385" pos="256.93" speed="8.56"/>
            </lane>
        </edge>
        <edge id="gneE31">
            <lane id="gneE31_0">
                <vehicle id="376" pos="1.35" speed="8.43"/>
                <vehicle id="341" pos="40.16" speed="8.00"/>
                <vehicle id="224" pos="64.00" speed="8.67"/>
                <vehicle id="298" pos="82.48" speed="7.87"/>
                <vehicle id="337" pos="103.16" speed="8.62"/>
                <vehicle id="357" pos="138.92" speed="8.08"/>
                <vehicle id="421" pos="156.50" speed="7.82"/>
                <vehicle id="420" pos="182.15" speed="7.82"/>
                <vehicle id="311" pos="253.28" speed="8.22"/>
                <vehicle id="237" pos="274.23" speed="8.24"/>
            </lane>
        </edge>
        <edge id="gneE32">
            <lane id="gneE32_0">
                <vehicle id="371" pos="84.30" speed="7.14"/>
                <vehicle id="428" pos="107.28" speed="7.91"/>
                <vehicle id="374" pos="132.02" speed="7.40"/>
            </lane>
        </edge>
        <edge id="gneE38">
            <lane id="gneE38_0">
                <vehicle id="408" pos="79.95" speed="8.02"/>
                <vehicle id="361" pos="98.52" speed="8.71"/>
                <vehicle id="373" pos="197.05" speed="8.01"/>
                <vehicle id="330" pos="245.19" speed="8.62"/>
            </lane>
        </edge>
        <edge id="gneE4">
            <lane id="gneE4_0">
                <vehicle id="335" pos="24.44" speed="8.98"/>
                <vehicle id="409" pos="115.14" speed="9.24"/>
            </lane>
        </edge>
        <edge id="gneE42">
            <lane id="gneE42_0">
                <vehicle id="396" pos="46.51" speed="7.12"/>
                <vehicle id="336" pos="110.64" speed="7.58"/>
                <vehicle id="399" pos="135.35" speed="7.96"/>
            </lane>
        </edge>
        <edge id="gneE43">
            <lane id="gneE43_0">
                <vehicle id="435" pos="50.11" speed="5.93"/>
                <vehicle id="167" pos="76.15" speed="6.36"/>
                <vehicle id="181" pos="164.12" speed="6.88"/>
                <vehicle id="386" pos="306.73" speed="0.00"/>
            </lane>
        </edge>
        <edge id="gneE45">
            <lane id="gneE45_0">
                <vehicle id="430" pos="97.34" speed="8.24"/>
                <vehicle id="279" pos="146.13" speed="7.81"/>
                <vehicle id="413" pos="214.63" speed="8.44"/>
                <vehicle id="348" pos="243.37" speed="8.78"/>
            </lane>
        </edge>
        <edge id="gneE46">
            <lane id="gneE46_0">
                <vehicle id="255" pos="24.45" speed="9.39"/>
            </lane>
        </edge>
        <edge id="gneE47">
            <lane id="gneE47_0">
                <vehicle id="436" pos="48.41" speed="7.77"/>
            </lane>
        </edge>
        <edge id="gneE48">
            <lane id="gneE48_0">
                <vehicle id="424" pos="100.85" speed="5.99"/>
                <vehicle id="423" pos="115.95" speed="6.02"/>
                <vehicle id="415" pos="177.96" speed="5.88"/>
                <vehicle id="227" pos="259.63" speed="0.00"/>
                <vehicle id="296" pos="267.13" speed="0.00"/>
                <vehicle id="286" pos="274.63" speed="0.00"/>
                <vehicle id="275" pos="282.13" speed="0.00"/>
                <vehicle id="324" pos="289.64" speed="0.00"/>
                <vehicle id="253" pos="297.14" speed="0.00"/>
                <vehicle id="325" pos="305.54" speed="0.90"/>
                <vehicle id="235" pos="317.24" speed="3.45"/>
            </lane>
        </edge>
        <edge id="gneE49">
            <lane id="gneE49_0">
                <vehicle id="207" pos="12.82" speed="7.39"/>
                <vehicle id="438" pos="28.09" speed="6.93"/>
            </lane>
        </edge>
        <edge id="gneE5">
            <lane id="gneE5_0">
                <vehicle id="432" pos="60.17" speed="5.08"/>
            </lane>
        </edge>
        <edge id="gneE50">
            <lane id="gneE50_0">
                <vehicle id="434" pos="49.01" speed="4.89"/>
                <vehicle id="402" pos="203.05" speed="4.87"/>
                <vehicle id="226" pos="219.29" speed="4.97"/>
                <vehicle id="393" pos="250.99" speed="5.54"/>
                <vehicle id="179" pos="267.00" speed="5.11"/>
                <vehicle id="365" pos="287.09" speed="5.78"/>
                <vehicle id="198" pos="320.94" speed="5.48"/>
            </lane>
        </edge>
        <edge id="gneE51">
            <lane id="gneE51_0">
                <vehicle id="429" pos="54.12" speed="6.13"/>
                <vehicle id="327" pos="78.71" speed="5.98"/>
                <vehicle id="395" pos="135.65" speed="5.73"/>
                <vehicle id="404" pos="242.50" speed="6.02"/>
                <vehicle id="379" pos="277.55" speed="6.45"/>
                <vehicle id="266" pos="306.86" speed="5.96"/>
                <vehicle id="312" pos="343.11" speed="0.31"/>
                <vehicle id="204" pos="350.77" speed="0.08"/>
                <vehicle id="280" pos="358.30" speed="0.00"/>
                <vehicle id="302" pos="365.80" speed="0.00"/>
            </lane>
        </edge>
        <edge id="gneE52">
            <lane id="gneE52_0">
                <vehicle id="326" pos="0.15" speed="6.32"/>
                <vehicle id="378" pos="46.29" speed="5.87"/>
                <vehicle id="314" pos="64.28" speed="6.89"/>
                <vehicle id="305" pos="100.42" speed="6.78"/>
                <vehicle id="254" pos="202.10" speed="6.38"/>
                <vehicle id="313" pos="220.03" speed="6.76"/>
            </lane>
        </edge>
        <edge id="gneE53">
            <lane id="gneE53_0">
                <vehicle id="441" pos="11.54" speed="3.88"/>
                <vehicle id="364" pos="66.80" speed="6.77"/>
                <vehicle id="368" pos="82.41" speed="6.24"/>
                <vehicle id="209" pos="196.08" speed="6.21"/>
                <vehicle id="405" pos="211.38" speed="5.94"/>
                <vehicle id="403" pos="229.30" speed="5.85"/>
                <vehicle id="382" pos="254.38" speed="6.56"/>
                <vehicle id="380" pos="320.53" speed="0.21"/>
                <vehicle id="318" pos="328.14" speed="0.03"/>
                <vehicle id="377" pos="335.65" speed="0.01"/>
            </lane>
        </edge>
        <edge id="gneE54">
            <lane id="gneE54_0">
                <vehicle id="381" pos="45.69" speed="6.94"/>
            </lane>
        </edge>
        <edge id="gneE55">
            <lane id="gneE55_0">
                <vehicle id="233" pos="20.73" speed="7.58"/>
                <vehicle id="431" pos="82.97" speed="6.76"/>
                <vehicle id="401" pos="139.57" speed="6.80"/>
            </lane>
        </edge>
        <edge id="gneE57">
            <lane id="gneE57_0">
                <vehicle id="426" pos="118.11" speed="6.88"/>
            </lane>
        </edge>
        <edge id="gneE58">
            <lane id="gneE58_0">
                <vehicle id="349" pos="296.76" speed="6.92"/>
                <vehicle id="398" pos="317.34" speed="7.53"/>
            </lane>
        </edge>
        <edge id="gneE59">
            <lane id="gneE59_0">
                <vehicle id="440" pos="15.96" speed="5.35"/>
            </lane>
        </edge>
        <edge id="gneE60">
            <lane id="gneE60_0">
                <vehicle id="387" pos="72.97" speed="6.09"/>
                <vehicle id="416" pos="169.88" speed="5.81"/>
                <vehicle id="320" pos="233.77" speed="6.10"/>
                <vehicle id="356" pos="266.99" speed="6.48"/>
                <vehicle id="287" pos="285.05" speed="0.00"/>
                <vehicle id="340" pos="292.55" speed="0.00"/>
                <vehicle id="383" pos="300.05" speed="0.00"/>
                <vehicle id="293" pos="307.55" speed="0.00"/>
                <vehicle id="358" pos="315.06" speed="0.00"/>
                <vehicle id="310" pos="322.56" speed="0.00"/>
                <vehicle id="261" pos="330.06" speed="0.00"/>
                <vehicle id="344" pos="337.56" speed="0.00"/>
            </lane>
        </edge>
        <edge id="gneE61">
            <lane id="gneE61_0">
                <vehicle id="411" pos="32.28" speed="7.68"/>
                <vehicle id="433" pos="69.27" speed="7.50"/>
                <vehicle id="410" pos="233.98" speed="6.79"/>
                <vehicle id="292" pos="282.22" speed="6.73"/>
                <vehicle id="251" pos="301.34" speed="7.10"/>
                <vehicle id="242" pos="326.45" speed="7.51"/>
            </lane>
        </edge>
        <edge id="gneE7">
            <lane id="gneE7_0">
                <vehicle id="391" pos="98.10" speed="7.78"/>
                <vehicle id="388" pos="122.57" speed="8.14"/>
                <vehicle id="257" pos="265.15" speed="7.75"/>
                <vehicle id="272" pos="288.49" speed="8.88"/>
            </lane>
        </edge>
        <edge id="gneE8">
            <lane id="gneE8_0">
                <vehicle id="384" pos="158.64" speed="7.97"/>
                <vehicle id="216" pos="190.31" speed="7.84"/>
                <vehicle id="412" pos="223.02" speed="6.85"/>
            </lane>
        </edge>
    </timestep>
