<?xml version="1.0"?>
<timestep time="45.00">
        <edge id=":gneJ30_5">
            <lane id=":gneJ30_5_0">
                <vehicle id="22" pos="9.49" speed="6.71"/>
            </lane>
        </edge>
        <edge id="gneE1">
            <lane id="gneE1_0">
                <vehicle id="28" pos="75.00" speed="4.23"/>
            </lane>
        </edge>
        <edge id="gneE10">
            <lane id="gneE10_0">
                <vehicle id="26" pos="105.51" speed="5.00"/>
            </lane>
        </edge>
        <edge id="gneE11">
            <lane id="gneE11_0">
                <vehicle id="6" pos="7.63" speed="8.92"/>
            </lane>
        </edge>
        <edge id="gneE12">
            <lane id="gneE12_0">
                <vehicle id="15" pos="301.15" speed="0.17"/>
            </lane>
        </edge>
        <edge id="gneE13">
            <lane id="gneE13_0">
                <vehicle id="19" pos="37.00" speed="9.72"/>
            </lane>
        </edge>
        <edge id="gneE14">
            <lane id="gneE14_0">
                <vehicle id="9" pos="20.30" speed="9.99"/>
                <vehicle id="20" pos="64.81" speed="10.21"/>
                <vehicle id="2" pos="93.29" speed="10.64"/>
                <vehicle id="27" pos="159.85" speed="5.10"/>
            </lane>
        </edge>
        <edge id="gneE15">
            <lane id="gneE15_0">
                <vehicle id="1" pos="74.95" speed="8.85"/>
            </lane>
        </edge>
        <edge id="gneE19">
            <lane id="gneE19_0">
                <vehicle id="7" pos="67.00" speed="12.10"/>
            </lane>
        </edge>
        <edge id="gneE20">
            <lane id="gneE20_0">
                <vehicle id="38" pos="48.80" speed="8.56"/>
                <vehicle id="35" pos="72.06" speed="8.15"/>
            </lane>
        </edge>
        <edge id="gneE26">
            <lane id="gneE26_0">
                <vehicle id="12" pos="207.79" speed="6.57"/>
            </lane>
        </edge>
        <edge id="gneE30">
            <lane id="gneE30_0">
                <vehicle id="42" pos="16.84" speed="5.43"/>
                <vehicle id="31" pos="108.86" speed="8.77"/>
            </lane>
        </edge>
        <edge id="gneE31">
            <lane id="gneE31_0">
                <vehicle id="16" pos="22.12" speed="8.72"/>
                <vehicle id="25" pos="155.67" speed="8.36"/>
                <vehicle id="17" pos="224.15" speed="8.70"/>
            </lane>
        </edge>
        <edge id="gneE32">
            <lane id="gneE32_0">
                <vehicle id="30" pos="107.39" speed="7.32"/>
                <vehicle id="14" pos="216.12" speed="6.80"/>
            </lane>
        </edge>
        <edge id="gneE41">
            <lane id="gneE41_0">
                <vehicle id="34" pos="84.70" speed="8.68"/>
            </lane>
        </edge>
        <edge id="gneE42">
            <lane id="gneE42_0">
                <vehicle id="0" pos="34.74" speed="7.61"/>
                <vehicle id="37" pos="52.40" speed="7.58"/>
            </lane>
        </edge>
        <edge id="gneE48">
            <lane id="gneE48_0">
                <vehicle id="36" pos="53.95" speed="6.02"/>
                <vehicle id="21" pos="153.38" speed="6.77"/>
                <vehicle id="18" pos="172.89" speed="6.12"/>
                <vehicle id="5" pos="251.71" speed="6.48"/>
            </lane>
        </edge>
        <edge id="gneE49">
            <lane id="gneE49_0">
                <vehicle id="39" pos="37.30" speed="6.91"/>
                <vehicle id="8" pos="85.62" speed="6.75"/>
                <vehicle id="3" pos="122.31" speed="6.79"/>
            </lane>
        </edge>
        <edge id="gneE51">
            <lane id="gneE51_0">
                <vehicle id="32" pos="78.18" speed="6.50"/>
            </lane>
        </edge>
        <edge id="gneE52">
            <lane id="gneE52_0">
                <vehicle id="10" pos="53.29" speed="6.38"/>
            </lane>
        </edge>
        <edge id="gneE53">
            <lane id="gneE53_0">
                <vehicle id="11" pos="87.75" speed="6.27"/>
            </lane>
        </edge>
        <edge id="gneE54">
            <lane id="gneE54_0">
                <vehicle id="29" pos="99.91" speed="6.86"/>
            </lane>
        </edge>
        <edge id="gneE55">
            <lane id="gneE55_0">
                <vehicle id="40" pos="31.65" speed="7.38"/>
            </lane>
        </edge>
        <edge id="gneE57">
            <lane id="gneE57_0">
                <vehicle id="23" pos="155.58" speed="7.28"/>
            </lane>
        </edge>
        <edge id="gneE58">
            <lane id="gneE58_0">
                <vehicle id="44" pos="7.34" speed="2.24"/>
                <vehicle id="41" pos="26.80" speed="7.04"/>
                <vehicle id="13" pos="232.85" speed="7.43"/>
            </lane>
        </edge>
        <edge id="gneE59">
            <lane id="gneE59_0">
                <vehicle id="33" pos="92.67" speed="8.22"/>
            </lane>
        </edge>
        <edge id="gneE6">
            <lane id="gneE6_0">
                <vehicle id="43" pos="12.42" speed="4.83"/>
                <vehicle id="24" pos="147.00" speed="7.37"/>
            </lane>
        </edge>
        <edge id="gneE60">
            <lane id="gneE60_0">
                <vehicle id="4" pos="256.96" speed="6.85"/>
            </lane>
        </edge>
        <edge id="gneE61">
            <lane id="gneE61_0">
                <vehicle id="45" pos="5.10" speed="0.00"/>
            </lane>
        </edge>
    </timestep>
