<?xml version="1.0"?>
<timestep time="484.00">
        <edge id=":gneJ11_10">
            <lane id=":gneJ11_10_0">
                <vehicle id="312" pos="13.05" speed="2.15"/>
            </lane>
        </edge>
        <edge id=":gneJ11_14">
            <lane id=":gneJ11_14_0">
                <vehicle id="253" pos="4.60" speed="3.89"/>
            </lane>
        </edge>
        <edge id=":gneJ11_21">
            <lane id=":gneJ11_21_0">
                <vehicle id="377" pos="21.48" speed="7.10"/>
            </lane>
        </edge>
        <edge id=":gneJ15_8">
            <lane id=":gneJ15_8_0">
                <vehicle id="457" pos="11.36" speed="8.79"/>
            </lane>
        </edge>
        <edge id=":gneJ15_18">
            <lane id=":gneJ15_18_0">
                <vehicle id="357" pos="4.41" speed="0.07"/>
            </lane>
        </edge>
        <edge id=":gneJ16_1">
            <lane id=":gneJ16_1_0">
                <vehicle id="366" pos="2.44" speed="8.54"/>
            </lane>
        </edge>
        <edge id=":gneJ28_12">
            <lane id=":gneJ28_12_0">
                <vehicle id="381" pos="6.07" speed="8.94"/>
            </lane>
        </edge>
        <edge id=":gneJ4_0">
            <lane id=":gneJ4_0_0">
                <vehicle id="455" pos="4.50" speed="7.54"/>
            </lane>
        </edge>
        <edge id=":gneJ4_4">
            <lane id=":gneJ4_4_0">
                <vehicle id="384" pos="4.74" speed="7.27"/>
            </lane>
        </edge>
        <edge id=":gneJ9_1">
            <lane id=":gneJ9_1_0">
                <vehicle id="439" pos="1.87" speed="1.97"/>
            </lane>
        </edge>
        <edge id="gneE10">
            <lane id="gneE10_0">
                <vehicle id="444" pos="16.62" speed="5.50"/>
                <vehicle id="329" pos="70.88" speed="5.73"/>
                <vehicle id="369" pos="98.35" speed="5.86"/>
            </lane>
        </edge>
        <edge id="gneE11">
            <lane id="gneE11_0">
                <vehicle id="414" pos="34.12" speed="8.12"/>
                <vehicle id="406" pos="83.80" speed="8.62"/>
                <vehicle id="400" pos="104.16" speed="8.11"/>
                <vehicle id="466" pos="120.98" speed="7.77"/>
            </lane>
        </edge>
        <edge id="gneE12">
            <lane id="gneE12_0">
                <vehicle id="388" pos="5.64" speed="6.29"/>
                <vehicle id="480" pos="22.86" speed="7.58"/>
                <vehicle id="385" pos="208.78" speed="13.11"/>
                <vehicle id="268" pos="288.11" speed="8.61"/>
            </lane>
        </edge>
        <edge id="gneE13">
            <lane id="gneE13_0">
                <vehicle id="477" pos="53.61" speed="9.79"/>
                <vehicle id="418" pos="118.99" speed="8.79"/>
                <vehicle id="443" pos="209.37" speed="9.99"/>
            </lane>
        </edge>
        <edge id="gneE14">
            <lane id="gneE14_0">
                <vehicle id="346" pos="37.11" speed="9.79"/>
                <vehicle id="419" pos="131.24" speed="10.23"/>
            </lane>
        </edge>
        <edge id="gneE15">
            <lane id="gneE15_0">
                <vehicle id="308" pos="36.54" speed="8.60"/>
                <vehicle id="425" pos="60.11" speed="8.76"/>
                <vehicle id="359" pos="93.06" speed="8.52"/>
                <vehicle id="309" pos="144.26" speed="8.83"/>
            </lane>
        </edge>
        <edge id="gneE17">
            <lane id="gneE17_0">
                <vehicle id="474" pos="70.77" speed="8.97"/>
                <vehicle id="274" pos="155.48" speed="9.51"/>
                <vehicle id="294" pos="210.49" speed="9.08"/>
                <vehicle id="332" pos="268.78" speed="8.84"/>
            </lane>
        </edge>
        <edge id="gneE18">
            <lane id="gneE18_0">
                <vehicle id="440" pos="16.16" speed="8.27"/>
                <vehicle id="476" pos="34.25" speed="8.85"/>
                <vehicle id="367" pos="61.84" speed="9.60"/>
                <vehicle id="335" pos="232.21" speed="9.27"/>
            </lane>
        </edge>
        <edge id="gneE19">
            <lane id="gneE19_0">
                <vehicle id="409" pos="27.92" speed="12.81"/>
                <vehicle id="231" pos="134.57" speed="12.11"/>
                <vehicle id="397" pos="181.49" speed="12.08"/>
                <vehicle id="389" pos="214.91" speed="12.28"/>
                <vehicle id="392" pos="260.22" speed="0.10"/>
                <vehicle id="456" pos="267.82" speed="0.03"/>
                <vehicle id="215" pos="275.34" speed="0.00"/>
                <vehicle id="339" pos="282.84" speed="0.00"/>
            </lane>
        </edge>
        <edge id="gneE20">
            <lane id="gneE20_0">
                <vehicle id="235" pos="27.64" speed="8.76"/>
                <vehicle id="280" pos="48.16" speed="7.84"/>
                <vehicle id="460" pos="145.93" speed="7.90"/>
                <vehicle id="353" pos="174.75" speed="8.54"/>
                <vehicle id="437" pos="195.01" speed="8.62"/>
                <vehicle id="426" pos="217.56" speed="8.20"/>
                <vehicle id="417" pos="265.90" speed="7.87"/>
            </lane>
        </edge>
        <edge id="gneE23">
            <lane id="gneE23_0">
                <vehicle id="484" pos="5.10" speed="0.00"/>
                <vehicle id="325" pos="20.88" speed="7.51"/>
                <vehicle id="204" pos="39.27" speed="7.99"/>
            </lane>
        </edge>
        <edge id="gneE24">
            <lane id="gneE24_0">
                <vehicle id="420" pos="114.16" speed="12.66"/>
            </lane>
        </edge>
        <edge id="gneE25">
            <lane id="gneE25_0">
                <vehicle id="447" pos="63.65" speed="9.33"/>
                <vehicle id="373" pos="121.89" speed="8.98"/>
                <vehicle id="330" pos="183.23" speed="8.97"/>
                <vehicle id="450" pos="281.31" speed="5.04"/>
                <vehicle id="445" pos="290.49" speed="0.56"/>
            </lane>
        </edge>
        <edge id="gneE26">
            <lane id="gneE26_0">
                <vehicle id="362" pos="48.98" speed="6.82"/>
                <vehicle id="442" pos="134.08" speed="6.94"/>
                <vehicle id="390" pos="243.71" speed="6.65"/>
            </lane>
        </edge>
        <edge id="gneE28">
            <lane id="gneE28_0">
                <vehicle id="316" pos="18.78" speed="8.89"/>
                <vehicle id="376" pos="43.40" speed="7.89"/>
                <vehicle id="341" pos="89.29" speed="8.74"/>
                <vehicle id="298" pos="125.55" speed="8.46"/>
                <vehicle id="337" pos="137.70" speed="0.25"/>
            </lane>
        </edge>
        <edge id="gneE3">
            <lane id="gneE3_0">
                <vehicle id="479" pos="17.72" speed="6.03"/>
                <vehicle id="322" pos="46.92" speed="9.45"/>
                <vehicle id="241" pos="130.09" speed="9.02"/>
            </lane>
        </edge>
        <edge id="gneE30">
            <lane id="gneE30_0">
                <vehicle id="394" pos="58.53" speed="8.61"/>
                <vehicle id="452" pos="253.82" speed="8.22"/>
            </lane>
        </edge>
        <edge id="gneE31">
            <lane id="gneE31_0">
                <vehicle id="446" pos="90.17" speed="7.70"/>
                <vehicle id="391" pos="129.15" speed="8.04"/>
                <vehicle id="363" pos="165.15" speed="7.96"/>
            </lane>
        </edge>
        <edge id="gneE32">
            <lane id="gneE32_0">
                <vehicle id="375" pos="95.51" speed="7.29"/>
                <vehicle id="328" pos="174.87" speed="7.46"/>
            </lane>
        </edge>
        <edge id="gneE38">
            <lane id="gneE38_0">
                <vehicle id="436" pos="4.14" speed="8.52"/>
                <vehicle id="396" pos="216.44" speed="8.70"/>
                <vehicle id="451" pos="241.32" speed="8.55"/>
                <vehicle id="449" pos="269.93" speed="7.71"/>
                <vehicle id="336" pos="292.08" speed="7.97"/>
                <vehicle id="399" pos="320.62" speed="7.85"/>
                <vehicle id="408" pos="335.48" speed="0.00"/>
                <vehicle id="361" pos="342.98" speed="0.00"/>
            </lane>
        </edge>
        <edge id="gneE4">
            <lane id="gneE4_0">
                <vehicle id="475" pos="66.99" speed="9.47"/>
            </lane>
        </edge>
        <edge id="gneE41">
            <lane id="gneE41_0">
                <vehicle id="371" pos="44.58" speed="8.96"/>
                <vehicle id="428" pos="73.03" speed="8.61"/>
                <vehicle id="374" pos="97.24" speed="7.97"/>
            </lane>
        </edge>
        <edge id="gneE42">
            <lane id="gneE42_0">
                <vehicle id="402" pos="57.15" speed="6.87"/>
                <vehicle id="430" pos="98.22" speed="7.01"/>
                <vehicle id="393" pos="114.98" speed="7.64"/>
                <vehicle id="464" pos="141.15" speed="6.90"/>
            </lane>
        </edge>
        <edge id="gneE43">
            <lane id="gneE43_0">
                <vehicle id="454" pos="65.12" speed="6.14"/>
                <vehicle id="465" pos="119.45" speed="6.54"/>
                <vehicle id="365" pos="142.91" speed="5.93"/>
                <vehicle id="458" pos="161.15" speed="5.72"/>
                <vehicle id="422" pos="253.71" speed="5.78"/>
                <vehicle id="435" pos="305.77" speed="1.79"/>
            </lane>
        </edge>
        <edge id="gneE45">
            <lane id="gneE45_0">
                <vehicle id="421" pos="40.42" speed="8.62"/>
                <vehicle id="311" pos="140.85" speed="8.15"/>
                <vehicle id="333" pos="252.24" speed="8.97"/>
                <vehicle id="331" pos="285.31" speed="8.59"/>
            </lane>
        </edge>
        <edge id="gneE46">
            <lane id="gneE46_0">
                <vehicle id="338" pos="17.72" speed="9.35"/>
            </lane>
        </edge>
        <edge id="gneE47">
            <lane id="gneE47_0">
                <vehicle id="459" pos="177.10" speed="8.48"/>
            </lane>
        </edge>
        <edge id="gneE48">
            <lane id="gneE48_0">
                <vehicle id="468" pos="100.93" speed="6.36"/>
                <vehicle id="463" pos="130.29" speed="6.26"/>
                <vehicle id="424" pos="244.63" speed="0.00"/>
                <vehicle id="423" pos="252.13" speed="0.00"/>
                <vehicle id="415" pos="259.81" speed="0.18"/>
                <vehicle id="227" pos="268.36" speed="0.91"/>
                <vehicle id="296" pos="278.43" speed="2.50"/>
                <vehicle id="286" pos="291.12" speed="4.41"/>
                <vehicle id="275" pos="301.47" speed="1.50"/>
                <vehicle id="324" pos="311.85" speed="1.63"/>
            </lane>
        </edge>
        <edge id="gneE49">
            <lane id="gneE49_0">
                <vehicle id="482" pos="5.10" speed="0.00"/>
                <vehicle id="310" pos="16.29" speed="6.83"/>
                <vehicle id="261" pos="35.81" speed="7.50"/>
                <vehicle id="386" pos="109.59" speed="7.61"/>
                <vehicle id="344" pos="159.49" speed="6.98"/>
                <vehicle id="360" pos="257.43" speed="7.03"/>
                <vehicle id="207" pos="314.88" speed="7.81"/>
            </lane>
        </edge>
        <edge id="gneE50">
            <lane id="gneE50_0">
                <vehicle id="350" pos="110.01" speed="5.31"/>
                <vehicle id="372" pos="215.60" speed="5.91"/>
                <vehicle id="434" pos="267.87" speed="4.90"/>
            </lane>
        </edge>
        <edge id="gneE51">
            <lane id="gneE51_0">
                <vehicle id="483" pos="6.88" speed="1.78"/>
                <vehicle id="279" pos="129.82" speed="6.49"/>
                <vehicle id="413" pos="176.76" speed="5.87"/>
                <vehicle id="453" pos="197.80" speed="6.80"/>
                <vehicle id="429" pos="308.96" speed="4.50"/>
                <vehicle id="327" pos="321.02" speed="4.28"/>
                <vehicle id="395" pos="335.37" speed="5.21"/>
                <vehicle id="404" pos="346.34" speed="3.24"/>
                <vehicle id="379" pos="357.08" speed="3.07"/>
            </lane>
        </edge>
        <edge id="gneE52">
            <lane id="gneE52_0">
                <vehicle id="342" pos="64.55" speed="6.72"/>
                <vehicle id="461" pos="141.39" speed="6.27"/>
                <vehicle id="326" pos="262.81" speed="7.00"/>
                <vehicle id="378" pos="306.30" speed="6.73"/>
                <vehicle id="314" pos="320.81" speed="5.91"/>
            </lane>
        </edge>
        <edge id="gneE53">
            <lane id="gneE53_0">
                <vehicle id="448" pos="101.04" speed="5.77"/>
                <vehicle id="233" pos="153.52" speed="6.12"/>
                <vehicle id="431" pos="201.72" speed="5.94"/>
                <vehicle id="401" pos="252.17" speed="6.28"/>
                <vehicle id="441" pos="271.36" speed="5.90"/>
                <vehicle id="364" pos="283.15" speed="0.00"/>
                <vehicle id="368" pos="290.65" speed="0.00"/>
                <vehicle id="209" pos="298.15" speed="0.00"/>
                <vehicle id="405" pos="306.14" speed="0.49"/>
                <vehicle id="403" pos="316.24" speed="2.42"/>
                <vehicle id="382" pos="329.14" speed="4.22"/>
                <vehicle id="380" pos="342.49" speed="4.75"/>
            </lane>
        </edge>
        <edge id="gneE54">
            <lane id="gneE54_0">
                <vehicle id="254" pos="109.73" speed="6.84"/>
                <vehicle id="313" pos="132.21" speed="6.32"/>
            </lane>
        </edge>
        <edge id="gneE55">
            <lane id="gneE55_0">
                <vehicle id="438" pos="6.39" speed="7.51"/>
                <vehicle id="473" pos="73.26" speed="7.95"/>
                <vehicle id="469" pos="104.10" speed="6.99"/>
            </lane>
        </edge>
        <edge id="gneE57">
            <lane id="gneE57_0">
                <vehicle id="472" pos="82.63" speed="7.07"/>
            </lane>
        </edge>
        <edge id="gneE59">
            <lane id="gneE59_0">
                <vehicle id="433" pos="40.62" speed="8.57"/>
                <vehicle id="471" pos="97.97" speed="7.78"/>
                <vehicle id="410" pos="219.86" speed="8.35"/>
            </lane>
        </edge>
        <edge id="gneE6">
            <lane id="gneE6_0">
                <vehicle id="462" pos="125.16" speed="7.06"/>
            </lane>
        </edge>
        <edge id="gneE60">
            <lane id="gneE60_0">
                <vehicle id="467" pos="107.81" speed="6.19"/>
                <vehicle id="349" pos="240.74" speed="6.95"/>
                <vehicle id="398" pos="254.72" speed="3.96"/>
                <vehicle id="387" pos="262.54" speed="0.01"/>
                <vehicle id="416" pos="270.18" speed="0.13"/>
                <vehicle id="320" pos="278.51" speed="0.79"/>
                <vehicle id="356" pos="288.36" speed="2.20"/>
                <vehicle id="287" pos="300.05" speed="3.69"/>
                <vehicle id="340" pos="311.88" speed="4.14"/>
                <vehicle id="383" pos="321.97" speed="1.07"/>
                <vehicle id="293" pos="329.93" speed="0.23"/>
                <vehicle id="358" pos="337.55" speed="0.05"/>
            </lane>
        </edge>
        <edge id="gneE61">
            <lane id="gneE61_0">
                <vehicle id="478" pos="39.28" speed="6.83"/>
                <vehicle id="470" pos="95.13" speed="7.44"/>
                <vehicle id="302" pos="121.91" speed="7.03"/>
                <vehicle id="370" pos="268.10" speed="7.58"/>
                <vehicle id="411" pos="330.97" speed="7.49"/>
            </lane>
        </edge>
        <edge id="gneE7">
            <lane id="gneE7_0">
                <vehicle id="427" pos="2.72" speed="3.23"/>
                <vehicle id="481" pos="16.83" speed="5.76"/>
                <vehicle id="432" pos="198.34" speed="8.26"/>
            </lane>
        </edge>
        <edge id="gneE8">
            <lane id="gneE8_0">
                <vehicle id="347" pos="226.27" speed="7.63"/>
            </lane>
        </edge>
    </timestep>
