<?xml version="1.0"?>
<timestep time="5.00">
        <edge id="gneE13">
            <lane id="gneE13_0">
                <vehicle id="2" pos="18.51" speed="6.43"/>
            </lane>
        </edge>
        <edge id="gneE20">
            <lane id="gneE20_0">
                <vehicle id="1" pos="26.79" speed="8.13"/>
            </lane>
        </edge>
        <edge id="gneE45">
            <lane id="gneE45_0">
                <vehicle id="0" pos="30.44" speed="8.99"/>
            </lane>
        </edge>
        <edge id="gneE48">
            <lane id="gneE48_0">
                <vehicle id="5" pos="5.10" speed="0.00"/>
            </lane>
        </edge>
        <edge id="gneE57">
            <lane id="gneE57_0">
                <vehicle id="3" pos="10.37" speed="3.64"/>
            </lane>
        </edge>
        <edge id="gneE60">
            <lane id="gneE60_0">
                <vehicle id="4" pos="6.96" speed="1.86"/>
            </lane>
        </edge>
    </timestep>
