<?xml version="1.0"?>
<timestep time="50.00">
        <edge id="gneE1">
            <lane id="gneE1_0">
                <vehicle id="50" pos="5.10" speed="0.00"/>
                <vehicle id="28" pos="96.47" speed="4.21"/>
            </lane>
        </edge>
        <edge id="gneE10">
            <lane id="gneE10_0">
                <vehicle id="49" pos="7.24" speed="2.14"/>
                <vehicle id="26" pos="130.81" speed="5.76"/>
            </lane>
        </edge>
        <edge id="gneE11">
            <lane id="gneE11_0">
                <vehicle id="46" pos="27.92" speed="8.77"/>
                <vehicle id="6" pos="49.30" speed="8.19"/>
            </lane>
        </edge>
        <edge id="gneE13">
            <lane id="gneE13_0">
                <vehicle id="19" pos="82.63" speed="9.28"/>
            </lane>
        </edge>
        <edge id="gneE14">
            <lane id="gneE14_0">
                <vehicle id="9" pos="70.45" speed="9.86"/>
                <vehicle id="20" pos="116.19" speed="10.11"/>
                <vehicle id="2" pos="145.35" speed="10.51"/>
            </lane>
        </edge>
        <edge id="gneE15">
            <lane id="gneE15_0">
                <vehicle id="1" pos="117.94" speed="8.96"/>
            </lane>
        </edge>
        <edge id="gneE19">
            <lane id="gneE19_0">
                <vehicle id="27" pos="38.18" speed="12.55"/>
                <vehicle id="7" pos="129.49" speed="12.90"/>
            </lane>
        </edge>
        <edge id="gneE20">
            <lane id="gneE20_0">
                <vehicle id="38" pos="90.06" speed="8.21"/>
                <vehicle id="35" pos="112.62" speed="7.71"/>
            </lane>
        </edge>
        <edge id="gneE26">
            <lane id="gneE26_0">
                <vehicle id="12" pos="239.10" speed="6.79"/>
            </lane>
        </edge>
        <edge id="gneE30">
            <lane id="gneE30_0">
                <vehicle id="42" pos="57.24" speed="8.40"/>
                <vehicle id="31" pos="150.69" speed="8.76"/>
            </lane>
        </edge>
        <edge id="gneE31">
            <lane id="gneE31_0">
                <vehicle id="16" pos="64.03" speed="8.79"/>
                <vehicle id="25" pos="198.35" speed="8.18"/>
                <vehicle id="17" pos="264.84" speed="8.15"/>
            </lane>
        </edge>
        <edge id="gneE32">
            <lane id="gneE32_0">
                <vehicle id="30" pos="142.39" speed="7.10"/>
                <vehicle id="14" pos="250.76" speed="6.71"/>
            </lane>
        </edge>
        <edge id="gneE4">
            <lane id="gneE4_0">
                <vehicle id="15" pos="2.60" speed="6.28"/>
                <vehicle id="24" pos="33.95" speed="9.69"/>
            </lane>
        </edge>
        <edge id="gneE41">
            <lane id="gneE41_0">
                <vehicle id="34" pos="126.37" speed="8.70"/>
            </lane>
        </edge>
        <edge id="gneE42">
            <lane id="gneE42_0">
                <vehicle id="0" pos="72.36" speed="7.47"/>
                <vehicle id="37" pos="89.59" speed="7.78"/>
            </lane>
        </edge>
        <edge id="gneE48">
            <lane id="gneE48_0">
                <vehicle id="36" pos="85.00" speed="6.00"/>
                <vehicle id="21" pos="184.77" speed="6.28"/>
                <vehicle id="18" pos="204.65" speed="6.22"/>
                <vehicle id="5" pos="283.87" speed="6.48"/>
            </lane>
        </edge>
        <edge id="gneE49">
            <lane id="gneE49_0">
                <vehicle id="39" pos="74.43" speed="6.95"/>
                <vehicle id="8" pos="122.40" speed="7.22"/>
                <vehicle id="3" pos="157.90" speed="6.85"/>
            </lane>
        </edge>
        <edge id="gneE5">
            <lane id="gneE5_0">
                <vehicle id="47" pos="16.35" speed="5.99"/>
            </lane>
        </edge>
        <edge id="gneE51">
            <lane id="gneE51_0">
                <vehicle id="32" pos="110.19" speed="6.87"/>
            </lane>
        </edge>
        <edge id="gneE52">
            <lane id="gneE52_0">
                <vehicle id="23" pos="12.20" speed="6.49"/>
                <vehicle id="10" pos="84.30" speed="5.82"/>
            </lane>
        </edge>
        <edge id="gneE53">
            <lane id="gneE53_0">
                <vehicle id="11" pos="118.69" speed="5.73"/>
            </lane>
        </edge>
        <edge id="gneE54">
            <lane id="gneE54_0">
                <vehicle id="29" pos="130.63" speed="5.79"/>
            </lane>
        </edge>
        <edge id="gneE55">
            <lane id="gneE55_0">
                <vehicle id="22" pos="37.45" speed="6.93"/>
                <vehicle id="40" pos="68.70" speed="7.25"/>
            </lane>
        </edge>
        <edge id="gneE58">
            <lane id="gneE58_0">
                <vehicle id="44" pos="40.43" speed="7.45"/>
                <vehicle id="41" pos="64.58" speed="7.98"/>
                <vehicle id="13" pos="269.63" speed="6.76"/>
            </lane>
        </edge>
        <edge id="gneE59">
            <lane id="gneE59_0">
                <vehicle id="33" pos="135.88" speed="8.04"/>
            </lane>
        </edge>
        <edge id="gneE6">
            <lane id="gneE6_0">
                <vehicle id="43" pos="48.41" speed="7.39"/>
            </lane>
        </edge>
        <edge id="gneE60">
            <lane id="gneE60_0">
                <vehicle id="48" pos="9.74" speed="3.16"/>
                <vehicle id="4" pos="289.25" speed="6.96"/>
            </lane>
        </edge>
        <edge id="gneE61">
            <lane id="gneE61_0">
                <vehicle id="45" pos="32.03" speed="7.04"/>
            </lane>
        </edge>
    </timestep>
