<?xml version="1.0"?>
<timestep time="500.00">
        <edge id=":gneJ11_7">
            <lane id=":gneJ11_7_0">
                <vehicle id="379" pos="12.18" speed="6.02"/>
            </lane>
        </edge>
        <edge id=":gneJ15_21">
            <lane id=":gneJ15_21_0">
                <vehicle id="316" pos="5.86" speed="9.18"/>
            </lane>
        </edge>
        <edge id=":gneJ16_1">
            <lane id=":gneJ16_1_0">
                <vehicle id="363" pos="2.10" speed="8.44"/>
            </lane>
        </edge>
        <edge id=":gneJ8_2">
            <lane id=":gneJ8_2_0">
                <vehicle id="445" pos="5.31" speed="3.69"/>
            </lane>
        </edge>
        <edge id="gneE10">
            <lane id="gneE10_0">
                <vehicle id="425" pos="14.17" speed="5.83"/>
                <vehicle id="359" pos="34.85" speed="5.17"/>
                <vehicle id="444" pos="102.85" speed="4.72"/>
            </lane>
        </edge>
        <edge id="gneE11">
            <lane id="gneE11_0">
                <vehicle id="B2_2" pos="5.10" speed="0.00"/>
                <vehicle id="432" pos="25.17" speed="8.03"/>
                <vehicle id="452" pos="81.91" speed="7.94"/>
            </lane>
        </edge>
        <edge id="gneE12">
            <lane id="gneE12_0">
                <vehicle id="414" pos="34.83" speed="13.56"/>
                <vehicle id="488" pos="82.83" speed="13.83"/>
                <vehicle id="309" pos="139.36" speed="13.69"/>
                <vehicle id="388" pos="204.07" speed="12.75"/>
                <vehicle id="480" pos="227.32" speed="12.89"/>
            </lane>
        </edge>
        <edge id="gneE13">
            <lane id="gneE13_0">
                <vehicle id="479" pos="8.85" speed="9.75"/>
                <vehicle id="322" pos="38.25" speed="9.63"/>
                <vehicle id="462" pos="99.44" speed="8.85"/>
                <vehicle id="241" pos="119.87" speed="9.43"/>
                <vehicle id="477" pos="203.34" speed="9.28"/>
                <vehicle id="418" pos="269.20" speed="9.06"/>
            </lane>
        </edge>
        <edge id="gneE14">
            <lane id="gneE14_0">
                <vehicle id="443" pos="50.09" speed="10.72"/>
                <vehicle id="466" pos="133.19" speed="10.28"/>
            </lane>
        </edge>
        <edge id="gneE15">
            <lane id="gneE15_0">
                <vehicle id="497" pos="19.03" speed="6.40"/>
                <vehicle id="437" pos="44.33" speed="8.25"/>
                <vehicle id="426" pos="62.21" speed="8.81"/>
            </lane>
        </edge>
        <edge id="gneE17">
            <lane id="gneE17_0">
                <vehicle id="346" pos="28.09" speed="9.04"/>
                <vehicle id="419" pos="97.20" speed="9.76"/>
                <vehicle id="417" pos="120.45" speed="9.62"/>
                <vehicle id="474" pos="220.17" speed="9.74"/>
            </lane>
        </edge>
        <edge id="gneE18">
            <lane id="gneE18_0">
                <vehicle id="410" pos="23.29" speed="9.90"/>
                <vehicle id="440" pos="163.61" speed="9.73"/>
                <vehicle id="476" pos="184.19" speed="9.68"/>
                <vehicle id="367" pos="211.21" speed="9.31"/>
            </lane>
        </edge>
        <edge id="gneE19">
            <lane id="gneE19_0">
                <vehicle id="439" pos="173.68" speed="12.55"/>
                <vehicle id="409" pos="221.89" speed="9.05"/>
                <vehicle id="231" pos="237.83" speed="0.00"/>
                <vehicle id="397" pos="245.33" speed="0.00"/>
                <vehicle id="389" pos="252.83" speed="0.00"/>
                <vehicle id="392" pos="260.34" speed="0.00"/>
                <vehicle id="456" pos="267.84" speed="0.00"/>
                <vehicle id="215" pos="275.34" speed="0.00"/>
                <vehicle id="339" pos="282.84" speed="0.00"/>
            </lane>
        </edge>
        <edge id="gneE20">
            <lane id="gneE20_0">
                <vehicle id="491" pos="40.42" speed="8.98"/>
                <vehicle id="275" pos="64.18" speed="8.63"/>
                <vehicle id="324" pos="83.36" speed="8.77"/>
                <vehicle id="253" pos="103.90" speed="8.57"/>
                <vehicle id="377" pos="125.57" speed="8.57"/>
                <vehicle id="235" pos="159.56" speed="8.40"/>
                <vehicle id="280" pos="182.21" speed="8.37"/>
                <vehicle id="460" pos="278.11" speed="8.62"/>
            </lane>
        </edge>
        <edge id="gneE23">
            <lane id="gneE23_0">
                <vehicle id="496" pos="6.46" speed="1.36"/>
                <vehicle id="472" pos="22.45" speed="7.44"/>
                <vehicle id="484" pos="113.87" speed="7.29"/>
                <vehicle id="325" pos="137.46" speed="7.11"/>
                <vehicle id="204" pos="157.21" speed="6.74"/>
            </lane>
        </edge>
        <edge id="gneE24">
            <lane id="gneE24_0">
                <vehicle id="376" pos="40.05" speed="12.24"/>
                <vehicle id="341" pos="79.17" speed="12.06"/>
            </lane>
        </edge>
        <edge id="gneE25">
            <lane id="gneE25_0">
                <vehicle id="447" pos="216.03" speed="9.23"/>
                <vehicle id="373" pos="267.49" speed="4.66"/>
                <vehicle id="330" pos="275.83" speed="0.00"/>
                <vehicle id="450" pos="284.96" speed="1.63"/>
            </lane>
        </edge>
        <edge id="gneE26">
            <lane id="gneE26_0">
                <vehicle id="406" pos="34.66" speed="6.43"/>
                <vehicle id="400" pos="64.28" speed="6.79"/>
                <vehicle id="362" pos="150.70" speed="6.39"/>
                <vehicle id="442" pos="234.99" speed="6.01"/>
                <vehicle id="390" pos="290.83" speed="0.00"/>
            </lane>
        </edge>
        <edge id="gneE27">
            <lane id="gneE27_0">
                <vehicle id="499" pos="7.22" speed="2.12"/>
            </lane>
        </edge>
        <edge id="gneE28">
            <lane id="gneE28_0">
                <vehicle id="487" pos="101.27" speed="7.98"/>
                <vehicle id="366" pos="132.34" speed="8.99"/>
            </lane>
        </edge>
        <edge id="gneE3">
            <lane id="gneE3_0">
                <vehicle id="274" pos="1.15" speed="9.59"/>
            </lane>
        </edge>
        <edge id="gneE30">
            <lane id="gneE30_0">
                <vehicle id="394" pos="189.15" speed="8.37"/>
            </lane>
        </edge>
        <edge id="gneE31">
            <lane id="gneE31_0">
                <vehicle id="490" pos="71.38" speed="8.43"/>
                <vehicle id="446" pos="224.79" speed="8.26"/>
                <vehicle id="391" pos="262.39" speed="8.55"/>
            </lane>
        </edge>
        <edge id="gneE32">
            <lane id="gneE32_0">
                <vehicle id="375" pos="215.99" speed="7.93"/>
                <vehicle id="328" pos="294.72" speed="7.81"/>
            </lane>
        </edge>
        <edge id="gneE38">
            <lane id="gneE38_0">
                <vehicle id="B1_2" pos="5.10" speed="0.00"/>
                <vehicle id="402" pos="21.98" speed="8.88"/>
                <vehicle id="430" pos="67.27" speed="8.47"/>
                <vehicle id="393" pos="87.07" speed="8.34"/>
                <vehicle id="464" pos="116.10" speed="7.81"/>
                <vehicle id="436" pos="137.73" speed="8.11"/>
                <vehicle id="396" pos="297.96" speed="0.01"/>
                <vehicle id="451" pos="305.47" speed="0.00"/>
                <vehicle id="449" pos="312.97" speed="0.00"/>
                <vehicle id="336" pos="320.48" speed="0.00"/>
                <vehicle id="399" pos="327.98" speed="0.00"/>
                <vehicle id="408" pos="335.48" speed="0.00"/>
                <vehicle id="361" pos="342.98" speed="0.00"/>
            </lane>
        </edge>
        <edge id="gneE4">
            <lane id="gneE4_0">
                <vehicle id="384" pos="144.17" speed="8.78"/>
            </lane>
        </edge>
        <edge id="gneE41">
            <lane id="gneE41_0">
                <vehicle id="B3_2" pos="5.10" speed="0.00"/>
            </lane>
        </edge>
        <edge id="gneE42">
            <lane id="gneE42_0">
                <vehicle id="333" pos="49.34" speed="7.56"/>
            </lane>
        </edge>
        <edge id="gneE43">
            <lane id="gneE43_0">
                <vehicle id="428" pos="38.61" speed="6.81"/>
                <vehicle id="459" pos="69.18" speed="6.44"/>
                <vehicle id="381" pos="94.63" speed="5.84"/>
                <vehicle id="454" pos="167.33" speed="6.16"/>
                <vehicle id="465" pos="223.92" speed="6.59"/>
                <vehicle id="365" pos="244.63" speed="6.08"/>
                <vehicle id="458" pos="262.91" speed="6.11"/>
                <vehicle id="422" pos="299.23" speed="0.00"/>
                <vehicle id="435" pos="306.73" speed="0.00"/>
            </lane>
        </edge>
        <edge id="gneE45">
            <lane id="gneE45_0">
                <vehicle id="298" pos="59.65" speed="7.71"/>
                <vehicle id="337" pos="86.31" speed="8.38"/>
                <vehicle id="357" pos="103.00" speed="8.38"/>
                <vehicle id="457" pos="129.80" speed="7.89"/>
                <vehicle id="421" pos="173.52" speed="8.14"/>
                <vehicle id="311" pos="272.90" speed="8.79"/>
            </lane>
        </edge>
        <edge id="gneE46">
            <lane id="gneE46_0">
                <vehicle id="331" pos="102.56" speed="9.52"/>
                <vehicle id="338" pos="166.75" speed="8.82"/>
            </lane>
        </edge>
        <edge id="gneE48">
            <lane id="gneE48_0">
                <vehicle id="254" pos="56.91" speed="6.08"/>
                <vehicle id="468" pos="203.62" speed="5.97"/>
                <vehicle id="463" pos="229.90" speed="5.96"/>
                <vehicle id="424" pos="288.71" speed="0.56"/>
                <vehicle id="423" pos="296.89" speed="0.28"/>
                <vehicle id="415" pos="304.63" speed="0.05"/>
                <vehicle id="227" pos="312.14" speed="0.01"/>
                <vehicle id="296" pos="319.64" speed="0.00"/>
            </lane>
        </edge>
        <edge id="gneE49">
            <lane id="gneE49_0">
                <vehicle id="494" pos="40.42" speed="7.37"/>
                <vehicle id="482" pos="113.91" speed="7.58"/>
                <vehicle id="310" pos="133.50" speed="7.67"/>
                <vehicle id="261" pos="155.09" speed="7.24"/>
                <vehicle id="386" pos="227.80" speed="7.76"/>
                <vehicle id="344" pos="275.75" speed="7.18"/>
            </lane>
        </edge>
        <edge id="gneE5">
            <lane id="gneE5_0">
                <vehicle id="385" pos="36.99" speed="5.73"/>
                <vehicle id="268" pos="70.09" speed="5.46"/>
                <vehicle id="455" pos="87.19" speed="5.91"/>
            </lane>
        </edge>
        <edge id="gneE50">
            <lane id="gneE50_0">
                <vehicle id="420" pos="35.61" speed="5.22"/>
                <vehicle id="350" pos="195.84" speed="5.36"/>
                <vehicle id="372" pos="301.03" speed="5.34"/>
                <vehicle id="434" pos="352.83" speed="5.05"/>
            </lane>
        </edge>
        <edge id="gneE51">
            <lane id="gneE51_0">
                <vehicle id="498" pos="9.32" speed="2.78"/>
                <vehicle id="374" pos="53.62" speed="6.63"/>
                <vehicle id="483" pos="104.31" speed="6.32"/>
                <vehicle id="279" pos="228.94" speed="6.67"/>
                <vehicle id="413" pos="274.95" speed="5.76"/>
                <vehicle id="453" pos="299.05" speed="5.78"/>
                <vehicle id="429" pos="335.79" speed="0.00"/>
                <vehicle id="327" pos="343.30" speed="0.00"/>
                <vehicle id="395" pos="352.47" speed="1.67"/>
                <vehicle id="404" pos="364.72" speed="4.35"/>
            </lane>
        </edge>
        <edge id="gneE52">
            <lane id="gneE52_0">
                <vehicle id="312" pos="89.84" speed="6.66"/>
                <vehicle id="342" pos="167.30" speed="6.57"/>
                <vehicle id="461" pos="243.62" speed="6.77"/>
            </lane>
        </edge>
        <edge id="gneE53">
            <lane id="gneE53_0">
                <vehicle id="B4_2" pos="5.10" speed="0.00"/>
                <vehicle id="473" pos="39.70" speed="6.09"/>
                <vehicle id="469" pos="65.63" speed="6.69"/>
                <vehicle id="486" pos="84.23" speed="6.50"/>
                <vehicle id="448" pos="200.98" speed="6.01"/>
                <vehicle id="233" pos="256.49" speed="6.04"/>
                <vehicle id="431" pos="275.60" speed="0.23"/>
                <vehicle id="401" pos="283.12" speed="0.02"/>
                <vehicle id="441" pos="290.65" speed="0.01"/>
                <vehicle id="364" pos="298.15" speed="0.00"/>
                <vehicle id="368" pos="305.65" speed="0.00"/>
                <vehicle id="209" pos="313.15" speed="0.00"/>
                <vehicle id="405" pos="320.66" speed="0.00"/>
                <vehicle id="403" pos="328.16" speed="0.00"/>
                <vehicle id="382" pos="335.66" speed="0.00"/>
                <vehicle id="380" pos="343.16" speed="0.00"/>
            </lane>
        </edge>
        <edge id="gneE54">
            <lane id="gneE54_0">
                <vehicle id="326" pos="14.88" speed="6.84"/>
                <vehicle id="493" pos="34.55" speed="5.89"/>
                <vehicle id="378" pos="54.68" speed="5.83"/>
            </lane>
        </edge>
        <edge id="gneE55">
            <lane id="gneE55_0">
                <vehicle id="207" pos="103.51" speed="7.75"/>
                <vehicle id="438" pos="124.36" speed="7.12"/>
            </lane>
        </edge>
        <edge id="gneE57">
            <lane id="gneE57_0">
                <vehicle id="495" pos="31.51" speed="7.46"/>
                <vehicle id="489" pos="75.26" speed="7.63"/>
            </lane>
        </edge>
        <edge id="gneE58">
            <lane id="gneE58_0">
                <vehicle id="475" pos="27.80" speed="7.58"/>
                <vehicle id="332" pos="83.40" speed="7.61"/>
            </lane>
        </edge>
        <edge id="gneE59">
            <lane id="gneE59_0">
                <vehicle id="370" pos="52.78" speed="8.88"/>
                <vehicle id="411" pos="122.98" speed="8.67"/>
                <vehicle id="433" pos="173.75" speed="8.45"/>
                <vehicle id="471" pos="234.83" speed="8.44"/>
            </lane>
        </edge>
        <edge id="gneE6">
            <lane id="gneE6_0">
                <vehicle id="347" pos="32.15" speed="7.21"/>
                <vehicle id="485" pos="105.66" speed="7.85"/>
            </lane>
        </edge>
        <edge id="gneE60">
            <lane id="gneE60_0">
                <vehicle id="467" pos="212.28" speed="6.97"/>
                <vehicle id="349" pos="262.52" speed="0.03"/>
                <vehicle id="398" pos="270.04" speed="0.02"/>
                <vehicle id="387" pos="277.55" speed="0.00"/>
                <vehicle id="416" pos="285.05" speed="0.00"/>
                <vehicle id="320" pos="292.55" speed="0.00"/>
                <vehicle id="356" pos="300.05" speed="0.00"/>
                <vehicle id="287" pos="307.55" speed="0.00"/>
                <vehicle id="340" pos="315.06" speed="0.00"/>
                <vehicle id="383" pos="322.56" speed="0.00"/>
                <vehicle id="293" pos="330.06" speed="0.00"/>
                <vehicle id="358" pos="337.56" speed="0.00"/>
            </lane>
        </edge>
        <edge id="gneE61">
            <lane id="gneE61_0">
                <vehicle id="478" pos="156.07" speed="7.33"/>
                <vehicle id="470" pos="211.41" speed="6.76"/>
                <vehicle id="302" pos="239.34" speed="6.93"/>
            </lane>
        </edge>
        <edge id="gneE7">
            <lane id="gneE7_0">
                <vehicle id="492" pos="55.76" speed="8.08"/>
                <vehicle id="427" pos="130.20" speed="7.97"/>
                <vehicle id="481" pos="147.27" speed="8.54"/>
            </lane>
        </edge>
        <edge id="gneE8">
            <lane id="gneE8_0">
                <vehicle id="329" pos="9.38" speed="7.71"/>
            </lane>
        </edge>
    </timestep>
