<?xml version="1.0"?>
<timestep time="531.00">
        <edge id=":gneJ11_43">
            <lane id=":gneJ11_43_0">
                <vehicle id="361" pos="4.24" speed="5.67"/>
            </lane>
        </edge>
        <edge id=":gneJ18_0">
            <lane id=":gneJ18_0_0">
                <vehicle id="508" pos="9.58" speed="7.71"/>
            </lane>
        </edge>
        <edge id=":gneJ28_2">
            <lane id=":gneJ28_2_0">
                <vehicle id="344" pos="1.14" speed="7.04"/>
            </lane>
        </edge>
        <edge id=":gneJ4_1">
            <lane id=":gneJ4_1_0">
                <vehicle id="450" pos="1.35" speed="1.46"/>
            </lane>
        </edge>
        <edge id=":gneJ8_3">
            <lane id=":gneJ8_3_0">
                <vehicle id="510" pos="3.28" speed="8.26"/>
            </lane>
        </edge>
        <edge id=":gneJ8_10">
            <lane id=":gneJ8_10_0">
                <vehicle id="394" pos="1.03" speed="8.59"/>
            </lane>
        </edge>
        <edge id=":gneJ9_6">
            <lane id=":gneJ9_6_0">
                <vehicle id="410" pos="1.82" speed="2.34"/>
            </lane>
        </edge>
        <edge id="gneE1">
            <lane id="gneE1_0">
                <vehicle id="518" pos="59.58" speed="4.97"/>
                <vehicle id="501" pos="132.58" speed="4.22"/>
            </lane>
        </edge>
        <edge id="gneE10">
            <lane id="gneE10_0">
                <vehicle id="462" pos="5.16" speed="5.29"/>
                <vehicle id="477" pos="32.08" speed="4.79"/>
                <vehicle id="460" pos="49.18" speed="5.86"/>
                <vehicle id="426" pos="93.96" speed="4.72"/>
                <vehicle id="373" pos="121.63" speed="5.56"/>
                <vehicle id="330" pos="136.06" speed="4.96"/>
            </lane>
        </edge>
        <edge id="gneE11">
            <lane id="gneE11_0">
                <vehicle id="492" pos="10.74" speed="8.51"/>
                <vehicle id="521" pos="57.04" speed="7.78"/>
                <vehicle id="427" pos="80.67" speed="8.29"/>
            </lane>
        </edge>
        <edge id="gneE12">
            <lane id="gneE12_0">
                <vehicle id="437" pos="186.62" speed="13.44"/>
                <vehicle id="432" pos="215.16" speed="12.99"/>
            </lane>
        </edge>
        <edge id="gneE13">
            <lane id="gneE13_0">
                <vehicle id="531" pos="5.10" speed="0.00"/>
                <vehicle id="507" pos="18.40" speed="9.76"/>
                <vehicle id="474" pos="49.52" speed="9.97"/>
                <vehicle id="502" pos="98.98" speed="9.17"/>
                <vehicle id="479" pos="288.32" speed="6.11"/>
            </lane>
        </edge>
        <edge id="gneE14">
            <lane id="gneE14_0">
                <vehicle id="B2_2" pos="128.89" speed="10.53"/>
            </lane>
        </edge>
        <edge id="gneE15">
            <lane id="gneE15_0">
                <vehicle id="275" pos="32.29" speed="8.67"/>
                <vehicle id="253" pos="69.60" speed="7.93"/>
                <vehicle id="377" pos="96.61" speed="8.59"/>
                <vehicle id="235" pos="128.53" speed="7.78"/>
                <vehicle id="476" pos="147.15" speed="8.91"/>
            </lane>
        </edge>
        <edge id="gneE17">
            <lane id="gneE17_0">
                <vehicle id="491" pos="10.43" speed="9.55"/>
                <vehicle id="324" pos="55.42" speed="9.86"/>
                <vehicle id="516" pos="111.33" speed="9.86"/>
                <vehicle id="512" pos="147.73" speed="9.34"/>
                <vehicle id="443" pos="177.36" speed="8.77"/>
            </lane>
        </edge>
        <edge id="gneE18">
            <lane id="gneE18_0">
                <vehicle id="485" pos="48.07" speed="9.37"/>
                <vehicle id="433" pos="117.76" speed="9.71"/>
                <vehicle id="471" pos="184.93" speed="9.33"/>
            </lane>
        </edge>
        <edge id="gneE19">
            <lane id="gneE19_0">
                <vehicle id="445" pos="151.08" speed="12.15"/>
                <vehicle id="440" pos="194.40" speed="11.51"/>
                <vehicle id="367" pos="215.32" speed="0.05"/>
                <vehicle id="439" pos="222.83" speed="0.00"/>
                <vehicle id="409" pos="230.33" speed="0.00"/>
                <vehicle id="231" pos="237.83" speed="0.00"/>
                <vehicle id="397" pos="245.33" speed="0.00"/>
                <vehicle id="389" pos="252.84" speed="0.00"/>
                <vehicle id="392" pos="260.34" speed="0.00"/>
                <vehicle id="456" pos="267.84" speed="0.00"/>
                <vehicle id="215" pos="275.34" speed="0.00"/>
                <vehicle id="339" pos="282.84" speed="0.00"/>
            </lane>
        </edge>
        <edge id="gneE20">
            <lane id="gneE20_0">
                <vehicle id="495" pos="81.56" speed="7.99"/>
                <vehicle id="380" pos="180.09" speed="8.69"/>
                <vehicle id="379" pos="244.64" speed="8.12"/>
            </lane>
        </edge>
        <edge id="gneE23">
            <lane id="gneE23_0">
                <vehicle id="382" pos="44.61" speed="7.34"/>
                <vehicle id="517" pos="100.55" speed="7.57"/>
                <vehicle id="429" pos="156.60" speed="7.15"/>
                <vehicle id="358" pos="173.70" speed="7.12"/>
            </lane>
        </edge>
        <edge id="gneE24">
            <lane id="gneE24_0">
                <vehicle id="442" pos="15.40" speed="8.19"/>
                <vehicle id="446" pos="55.77" speed="12.12"/>
                <vehicle id="435" pos="78.25" speed="12.72"/>
                <vehicle id="363" pos="147.24" speed="12.68"/>
                <vehicle id="511" pos="168.81" speed="11.05"/>
            </lane>
        </edge>
        <edge id="gneE25">
            <lane id="gneE25_0">
                <vehicle id="496" pos="28.33" speed="9.11"/>
                <vehicle id="519" pos="101.55" speed="9.18"/>
                <vehicle id="325" pos="218.18" speed="9.67"/>
            </lane>
        </edge>
        <edge id="gneE26">
            <lane id="gneE26_0">
                <vehicle id="497" pos="86.05" speed="5.77"/>
                <vehicle id="452" pos="146.10" speed="6.50"/>
                <vehicle id="418" pos="163.09" speed="6.92"/>
                <vehicle id="406" pos="232.20" speed="6.99"/>
                <vehicle id="400" pos="262.11" speed="5.92"/>
            </lane>
        </edge>
        <edge id="gneE27">
            <lane id="gneE27_0">
                <vehicle id="404" pos="3.68" speed="4.71"/>
                <vehicle id="484" pos="82.56" speed="5.26"/>
            </lane>
        </edge>
        <edge id="gneE28">
            <lane id="gneE28_0">
                <vehicle id="490" pos="20.57" speed="8.12"/>
                <vehicle id="525" pos="37.85" speed="8.31"/>
            </lane>
        </edge>
        <edge id="gneE30">
            <lane id="gneE30_0">
                <vehicle id="499" pos="35.75" speed="7.91"/>
                <vehicle id="506" pos="201.19" speed="8.86"/>
            </lane>
        </edge>
        <edge id="gneE31">
            <lane id="gneE31_0">
                <vehicle id="425" pos="54.27" speed="8.90"/>
                <vehicle id="359" pos="73.18" speed="7.84"/>
                <vehicle id="481" pos="92.59" speed="7.77"/>
                <vehicle id="444" pos="190.58" speed="7.98"/>
            </lane>
        </edge>
        <edge id="gneE32">
            <lane id="gneE32_0">
                <vehicle id="527" pos="15.60" speed="5.29"/>
                <vehicle id="472" pos="34.84" speed="6.92"/>
                <vehicle id="390" pos="55.32" speed="7.63"/>
            </lane>
        </edge>
        <edge id="gneE38">
            <lane id="gneE38_0">
                <vehicle id="528" pos="16.77" speed="6.45"/>
                <vehicle id="333" pos="137.65" speed="8.00"/>
                <vehicle id="B1_2" pos="254.50" speed="8.84"/>
                <vehicle id="402" pos="267.83" speed="0.36"/>
                <vehicle id="430" pos="275.45" speed="0.01"/>
                <vehicle id="393" pos="282.96" speed="0.01"/>
                <vehicle id="464" pos="290.47" speed="0.00"/>
                <vehicle id="436" pos="297.97" speed="0.00"/>
                <vehicle id="396" pos="305.47" speed="0.00"/>
                <vehicle id="451" pos="312.97" speed="0.00"/>
                <vehicle id="449" pos="320.48" speed="0.00"/>
                <vehicle id="336" pos="327.98" speed="0.00"/>
                <vehicle id="399" pos="335.48" speed="0.00"/>
                <vehicle id="408" pos="342.98" speed="0.00"/>
            </lane>
        </edge>
        <edge id="gneE4">
            <lane id="gneE4_0">
                <vehicle id="488" pos="114.56" speed="9.27"/>
            </lane>
        </edge>
        <edge id="gneE41">
            <lane id="gneE41_0">
                <vehicle id="375" pos="109.31" speed="8.94"/>
            </lane>
        </edge>
        <edge id="gneE42">
            <lane id="gneE42_0">
                <vehicle id="457" pos="32.35" speed="6.69"/>
                <vehicle id="421" pos="48.59" speed="6.86"/>
            </lane>
        </edge>
        <edge id="gneE43">
            <lane id="gneE43_0">
                <vehicle id="522" pos="48.29" speed="5.84"/>
                <vehicle id="520" pos="68.55" speed="6.64"/>
                <vehicle id="434" pos="161.34" speed="6.00"/>
                <vehicle id="428" pos="234.64" speed="6.24"/>
                <vehicle id="459" pos="259.01" speed="1.46"/>
                <vehicle id="381" pos="268.40" speed="1.16"/>
                <vehicle id="454" pos="276.43" speed="0.47"/>
                <vehicle id="465" pos="284.19" speed="0.08"/>
                <vehicle id="365" pos="291.72" speed="0.01"/>
                <vehicle id="458" pos="299.23" speed="0.00"/>
                <vehicle id="422" pos="306.73" speed="0.00"/>
            </lane>
        </edge>
        <edge id="gneE45">
            <lane id="gneE45_0">
                <vehicle id="487" pos="198.70" speed="8.85"/>
                <vehicle id="316" pos="253.08" speed="8.70"/>
                <vehicle id="298" pos="306.65" speed="4.00"/>
            </lane>
        </edge>
        <edge id="gneE46">
            <lane id="gneE46_0">
                <vehicle id="337" pos="8.69" speed="8.86"/>
            </lane>
        </edge>
        <edge id="gneE47">
            <lane id="gneE47_0">
                <vehicle id="482" pos="10.19" speed="8.42"/>
                <vehicle id="526" pos="34.28" speed="8.63"/>
                <vehicle id="493" pos="101.05" speed="8.48"/>
                <vehicle id="386" pos="143.85" speed="8.53"/>
            </lane>
        </edge>
        <edge id="gneE48">
            <lane id="gneE48_0">
                <vehicle id="503" pos="30.77" speed="6.04"/>
                <vehicle id="504" pos="157.87" speed="6.55"/>
                <vehicle id="338" pos="172.43" speed="6.55"/>
                <vehicle id="254" pos="254.42" speed="6.41"/>
                <vehicle id="468" pos="274.63" speed="0.00"/>
                <vehicle id="463" pos="282.13" speed="0.00"/>
                <vehicle id="424" pos="289.64" speed="0.00"/>
                <vehicle id="423" pos="297.14" speed="0.00"/>
                <vehicle id="415" pos="304.64" speed="0.00"/>
                <vehicle id="227" pos="312.14" speed="0.00"/>
                <vehicle id="296" pos="319.64" speed="0.00"/>
            </lane>
        </edge>
        <edge id="gneE49">
            <lane id="gneE49_0">
                <vehicle id="509" pos="12.33" speed="7.24"/>
                <vehicle id="366" pos="78.01" speed="6.98"/>
                <vehicle id="376" pos="111.08" speed="7.64"/>
                <vehicle id="494" pos="263.50" speed="6.93"/>
            </lane>
        </edge>
        <edge id="gneE5">
            <lane id="gneE5_0">
                <vehicle id="309" pos="89.90" speed="4.89"/>
                <vehicle id="480" pos="129.41" speed="4.79"/>
            </lane>
        </edge>
        <edge id="gneE50">
            <lane id="gneE50_0">
                <vehicle id="523" pos="42.57" speed="5.84"/>
                <vehicle id="505" pos="141.24" speed="5.86"/>
                <vehicle id="420" pos="200.94" speed="5.61"/>
                <vehicle id="350" pos="361.77" speed="4.93"/>
            </lane>
        </edge>
        <edge id="gneE51">
            <lane id="gneE51_0">
                <vehicle id="B3_2" pos="67.68" speed="5.81"/>
                <vehicle id="498" pos="206.51" speed="6.23"/>
                <vehicle id="374" pos="248.36" speed="5.90"/>
                <vehicle id="483" pos="300.41" speed="5.78"/>
                <vehicle id="279" pos="350.80" speed="0.00"/>
                <vehicle id="413" pos="358.30" speed="0.00"/>
                <vehicle id="453" pos="365.80" speed="0.00"/>
            </lane>
        </edge>
        <edge id="gneE52">
            <lane id="gneE52_0">
                <vehicle id="395" pos="160.41" speed="6.23"/>
                <vehicle id="312" pos="286.63" speed="6.61"/>
            </lane>
        </edge>
        <edge id="gneE53">
            <lane id="gneE53_0">
                <vehicle id="207" pos="158.41" speed="6.14"/>
                <vehicle id="B4_2" pos="197.62" speed="6.62"/>
                <vehicle id="473" pos="239.09" speed="6.75"/>
                <vehicle id="469" pos="252.56" speed="1.03"/>
                <vehicle id="486" pos="260.64" speed="0.16"/>
                <vehicle id="448" pos="268.15" speed="0.00"/>
                <vehicle id="233" pos="275.92" speed="0.27"/>
                <vehicle id="431" pos="283.99" speed="0.54"/>
                <vehicle id="401" pos="293.68" speed="2.09"/>
                <vehicle id="441" pos="302.87" speed="1.18"/>
                <vehicle id="364" pos="312.21" speed="0.83"/>
                <vehicle id="368" pos="320.56" speed="0.40"/>
                <vehicle id="209" pos="328.11" speed="0.03"/>
                <vehicle id="405" pos="335.66" speed="0.02"/>
                <vehicle id="403" pos="343.16" speed="0.00"/>
            </lane>
        </edge>
        <edge id="gneE54">
            <lane id="gneE54_0">
                <vehicle id="342" pos="13.05" speed="6.79"/>
                <vehicle id="461" pos="89.83" speed="6.37"/>
            </lane>
        </edge>
        <edge id="gneE55">
            <lane id="gneE55_0">
                <vehicle id="310" pos="33.75" speed="6.78"/>
                <vehicle id="261" pos="50.25" speed="6.73"/>
            </lane>
        </edge>
        <edge id="gneE57">
            <lane id="gneE57_0">
                <vehicle id="513" pos="129.55" speed="7.80"/>
            </lane>
        </edge>
        <edge id="gneE58">
            <lane id="gneE58_0">
                <vehicle id="419" pos="6.80" speed="6.99"/>
                <vehicle id="524" pos="49.12" speed="7.79"/>
                <vehicle id="475" pos="259.07" speed="7.37"/>
                <vehicle id="332" pos="315.45" speed="7.78"/>
            </lane>
        </edge>
        <edge id="gneE59">
            <lane id="gneE59_0">
                <vehicle id="478" pos="49.69" speed="8.06"/>
                <vehicle id="514" pos="79.85" speed="8.26"/>
                <vehicle id="470" pos="114.08" speed="8.39"/>
                <vehicle id="302" pos="144.18" speed="8.16"/>
                <vehicle id="370" pos="307.88" speed="7.85"/>
            </lane>
        </edge>
        <edge id="gneE60">
            <lane id="gneE60_0">
                <vehicle id="467" pos="262.55" speed="0.00"/>
                <vehicle id="349" pos="270.05" speed="0.00"/>
                <vehicle id="398" pos="277.55" speed="0.00"/>
                <vehicle id="387" pos="285.05" speed="0.00"/>
                <vehicle id="416" pos="292.55" speed="0.00"/>
                <vehicle id="320" pos="300.05" speed="0.00"/>
                <vehicle id="356" pos="307.55" speed="0.00"/>
                <vehicle id="287" pos="315.06" speed="0.00"/>
                <vehicle id="340" pos="322.56" speed="0.00"/>
                <vehicle id="383" pos="330.06" speed="0.00"/>
                <vehicle id="293" pos="337.56" speed="0.00"/>
            </lane>
        </edge>
        <edge id="gneE61">
            <lane id="gneE61_0">
                <vehicle id="515" pos="100.18" speed="7.93"/>
                <vehicle id="489" pos="116.95" speed="6.81"/>
            </lane>
        </edge>
        <edge id="gneE7">
            <lane id="gneE7_0">
                <vehicle id="385" pos="77.24" speed="8.11"/>
                <vehicle id="268" pos="133.68" speed="8.92"/>
                <vehicle id="455" pos="158.65" speed="7.81"/>
            </lane>
        </edge>
        <edge id="gneE8">
            <lane id="gneE8_0">
                <vehicle id="500" pos="212.62" speed="7.35"/>
                <vehicle id="329" pos="238.50" speed="7.21"/>
            </lane>
        </edge>
    </timestep>
