<?xml version="1.0"?>
<timestep time="534.00">
        <edge id=":gneJ11_18">
            <lane id=":gneJ11_18_0">
                <vehicle id="403" pos="1.61" speed="1.71"/>
            </lane>
        </edge>
        <edge id=":gneJ11_41">
            <lane id=":gneJ11_41_0">
                <vehicle id="339" pos="4.59" speed="3.13"/>
            </lane>
        </edge>
        <edge id=":gneJ15_10">
            <lane id=":gneJ15_10_0">
                <vehicle id="358" pos="10.95" speed="7.27"/>
            </lane>
        </edge>
        <edge id=":gneJ28_4">
            <lane id=":gneJ28_4_0">
                <vehicle id="350" pos="3.03" speed="3.19"/>
            </lane>
        </edge>
        <edge id="gneE1">
            <lane id="gneE1_0">
                <vehicle id="518" pos="72.32" speed="4.68"/>
                <vehicle id="501" pos="145.76" speed="4.30"/>
            </lane>
        </edge>
        <edge id="gneE10">
            <lane id="gneE10_0">
                <vehicle id="462" pos="21.22" speed="5.82"/>
                <vehicle id="477" pos="48.15" speed="5.33"/>
                <vehicle id="460" pos="64.50" speed="4.88"/>
                <vehicle id="426" pos="111.27" speed="5.40"/>
                <vehicle id="373" pos="137.44" speed="4.29"/>
            </lane>
        </edge>
        <edge id="gneE11">
            <lane id="gneE11_0">
                <vehicle id="492" pos="35.16" speed="8.73"/>
                <vehicle id="521" pos="80.56" speed="7.87"/>
                <vehicle id="427" pos="105.28" speed="8.19"/>
            </lane>
        </edge>
        <edge id="gneE12">
            <lane id="gneE12_0">
                <vehicle id="476" pos="1.68" speed="10.07"/>
                <vehicle id="437" pos="225.82" speed="13.44"/>
                <vehicle id="432" pos="253.68" speed="12.94"/>
            </lane>
        </edge>
        <edge id="gneE13">
            <lane id="gneE13_0">
                <vehicle id="531" pos="19.27" speed="7.07"/>
                <vehicle id="507" pos="46.79" speed="9.92"/>
                <vehicle id="474" pos="78.53" speed="9.43"/>
                <vehicle id="502" pos="127.53" speed="9.67"/>
                <vehicle id="479" pos="300.95" speed="0.66"/>
            </lane>
        </edge>
        <edge id="gneE14">
            <lane id="gneE14_0">
                <vehicle id="394" pos="21.93" speed="10.10"/>
                <vehicle id="B2_2" pos="156.35" speed="6.72"/>
            </lane>
        </edge>
        <edge id="gneE15">
            <lane id="gneE15_0">
                <vehicle id="410" pos="15.82" speed="8.46"/>
                <vehicle id="275" pos="56.51" speed="8.12"/>
                <vehicle id="253" pos="95.26" speed="8.59"/>
                <vehicle id="377" pos="121.52" speed="8.78"/>
                <vehicle id="235" pos="153.86" speed="8.05"/>
            </lane>
        </edge>
        <edge id="gneE17">
            <lane id="gneE17_0">
                <vehicle id="491" pos="39.75" speed="9.53"/>
                <vehicle id="324" pos="82.95" speed="9.52"/>
                <vehicle id="516" pos="139.89" speed="9.87"/>
                <vehicle id="512" pos="175.47" speed="9.75"/>
                <vehicle id="443" pos="206.09" speed="9.57"/>
            </lane>
        </edge>
        <edge id="gneE18">
            <lane id="gneE18_0">
                <vehicle id="370" pos="7.46" speed="9.88"/>
                <vehicle id="485" pos="77.56" speed="9.97"/>
                <vehicle id="433" pos="145.84" speed="9.69"/>
                <vehicle id="471" pos="212.37" speed="9.47"/>
            </lane>
        </edge>
        <edge id="gneE19">
            <lane id="gneE19_0">
                <vehicle id="445" pos="187.63" speed="12.17"/>
                <vehicle id="440" pos="207.82" speed="0.21"/>
                <vehicle id="367" pos="215.33" speed="0.00"/>
                <vehicle id="439" pos="222.83" speed="0.00"/>
                <vehicle id="409" pos="230.33" speed="0.00"/>
                <vehicle id="231" pos="237.83" speed="0.00"/>
                <vehicle id="397" pos="245.33" speed="0.00"/>
                <vehicle id="389" pos="252.84" speed="0.00"/>
                <vehicle id="392" pos="260.34" speed="0.00"/>
                <vehicle id="456" pos="267.84" speed="0.00"/>
                <vehicle id="215" pos="276.48" speed="1.14"/>
            </lane>
        </edge>
        <edge id="gneE20">
            <lane id="gneE20_0">
                <vehicle id="511" pos="1.79" speed="8.19"/>
                <vehicle id="495" pos="107.23" speed="8.76"/>
                <vehicle id="380" pos="206.05" speed="8.94"/>
                <vehicle id="379" pos="268.55" speed="7.94"/>
            </lane>
        </edge>
        <edge id="gneE23">
            <lane id="gneE23_0">
                <vehicle id="382" pos="66.52" speed="7.48"/>
                <vehicle id="517" pos="123.03" speed="7.31"/>
                <vehicle id="429" pos="179.11" speed="7.83"/>
            </lane>
        </edge>
        <edge id="gneE24">
            <lane id="gneE24_0">
                <vehicle id="442" pos="50.08" speed="12.97"/>
                <vehicle id="446" pos="92.88" speed="11.66"/>
                <vehicle id="435" pos="115.17" speed="12.41"/>
                <vehicle id="363" pos="183.08" speed="12.35"/>
            </lane>
        </edge>
        <edge id="gneE25">
            <lane id="gneE25_0">
                <vehicle id="496" pos="55.78" speed="9.42"/>
                <vehicle id="519" pos="130.52" speed="9.84"/>
                <vehicle id="325" pos="245.17" speed="8.88"/>
            </lane>
        </edge>
        <edge id="gneE26">
            <lane id="gneE26_0">
                <vehicle id="510" pos="16.41" speed="6.49"/>
                <vehicle id="497" pos="105.54" speed="6.85"/>
                <vehicle id="452" pos="166.05" speed="6.94"/>
                <vehicle id="418" pos="183.39" speed="6.91"/>
                <vehicle id="406" pos="251.48" speed="6.56"/>
                <vehicle id="400" pos="280.84" speed="5.79"/>
            </lane>
        </edge>
        <edge id="gneE27">
            <lane id="gneE27_0">
                <vehicle id="404" pos="19.60" speed="5.10"/>
                <vehicle id="484" pos="96.95" speed="4.76"/>
            </lane>
        </edge>
        <edge id="gneE28">
            <lane id="gneE28_0">
                <vehicle id="490" pos="44.63" speed="7.75"/>
                <vehicle id="525" pos="62.40" speed="8.39"/>
            </lane>
        </edge>
        <edge id="gneE30">
            <lane id="gneE30_0">
                <vehicle id="499" pos="60.33" speed="8.10"/>
                <vehicle id="506" pos="226.97" speed="8.85"/>
            </lane>
        </edge>
        <edge id="gneE31">
            <lane id="gneE31_0">
                <vehicle id="330" pos="12.99" speed="7.93"/>
                <vehicle id="425" pos="78.75" speed="8.65"/>
                <vehicle id="359" pos="99.00" speed="8.08"/>
                <vehicle id="481" pos="117.46" speed="8.35"/>
                <vehicle id="444" pos="215.12" speed="7.85"/>
            </lane>
        </edge>
        <edge id="gneE32">
            <lane id="gneE32_0">
                <vehicle id="527" pos="37.94" speed="7.27"/>
                <vehicle id="472" pos="56.22" speed="7.21"/>
                <vehicle id="390" pos="76.73" speed="6.74"/>
            </lane>
        </edge>
        <edge id="gneE38">
            <lane id="gneE38_0">
                <vehicle id="532" pos="6.87" speed="1.77"/>
                <vehicle id="508" pos="24.12" speed="8.63"/>
                <vehicle id="528" pos="41.53" speed="7.76"/>
                <vehicle id="333" pos="162.99" speed="8.37"/>
                <vehicle id="B1_2" pos="260.17" speed="0.52"/>
                <vehicle id="402" pos="267.96" speed="0.01"/>
                <vehicle id="430" pos="275.47" speed="0.00"/>
                <vehicle id="393" pos="282.97" speed="0.00"/>
                <vehicle id="464" pos="290.47" speed="0.00"/>
                <vehicle id="436" pos="297.97" speed="0.00"/>
                <vehicle id="396" pos="305.47" speed="0.00"/>
                <vehicle id="451" pos="312.97" speed="0.00"/>
                <vehicle id="449" pos="320.48" speed="0.00"/>
                <vehicle id="336" pos="327.98" speed="0.00"/>
                <vehicle id="399" pos="335.48" speed="0.00"/>
                <vehicle id="408" pos="342.98" speed="0.00"/>
            </lane>
        </edge>
        <edge id="gneE4">
            <lane id="gneE4_0">
                <vehicle id="450" pos="4.62" speed="6.06"/>
                <vehicle id="488" pos="142.57" speed="8.99"/>
            </lane>
        </edge>
        <edge id="gneE41">
            <lane id="gneE41_0">
                <vehicle id="375" pos="133.68" speed="8.60"/>
            </lane>
        </edge>
        <edge id="gneE42">
            <lane id="gneE42_0">
                <vehicle id="457" pos="53.85" speed="7.71"/>
                <vehicle id="421" pos="70.17" speed="7.19"/>
            </lane>
        </edge>
        <edge id="gneE43">
            <lane id="gneE43_0">
                <vehicle id="522" pos="67.96" speed="6.36"/>
                <vehicle id="520" pos="87.34" speed="5.86"/>
                <vehicle id="434" pos="179.93" speed="5.81"/>
                <vehicle id="428" pos="252.03" speed="4.98"/>
                <vehicle id="459" pos="261.41" speed="0.40"/>
                <vehicle id="381" pos="269.14" speed="0.10"/>
                <vehicle id="454" pos="276.70" speed="0.04"/>
                <vehicle id="465" pos="284.23" speed="0.00"/>
                <vehicle id="365" pos="291.73" speed="0.00"/>
                <vehicle id="458" pos="299.23" speed="0.00"/>
                <vehicle id="422" pos="306.73" speed="0.00"/>
            </lane>
        </edge>
        <edge id="gneE45">
            <lane id="gneE45_0">
                <vehicle id="487" pos="223.48" speed="7.81"/>
                <vehicle id="316" pos="279.04" speed="8.89"/>
                <vehicle id="298" pos="306.73" speed="0.00"/>
            </lane>
        </edge>
        <edge id="gneE46">
            <lane id="gneE46_0">
                <vehicle id="337" pos="36.61" speed="9.70"/>
            </lane>
        </edge>
        <edge id="gneE47">
            <lane id="gneE47_0">
                <vehicle id="529" pos="11.14" speed="3.83"/>
                <vehicle id="482" pos="35.80" speed="8.19"/>
                <vehicle id="526" pos="59.16" speed="8.52"/>
                <vehicle id="493" pos="125.91" speed="8.08"/>
                <vehicle id="386" pos="169.29" speed="8.09"/>
            </lane>
        </edge>
        <edge id="gneE48">
            <lane id="gneE48_0">
                <vehicle id="533" pos="6.91" speed="1.81"/>
                <vehicle id="503" pos="50.03" speed="6.58"/>
                <vehicle id="504" pos="175.66" speed="5.82"/>
                <vehicle id="338" pos="192.13" speed="6.82"/>
                <vehicle id="254" pos="266.94" speed="1.67"/>
                <vehicle id="468" pos="274.63" speed="0.00"/>
                <vehicle id="463" pos="282.13" speed="0.00"/>
                <vehicle id="424" pos="289.64" speed="0.00"/>
                <vehicle id="423" pos="297.14" speed="0.00"/>
                <vehicle id="415" pos="304.64" speed="0.00"/>
                <vehicle id="227" pos="312.14" speed="0.00"/>
                <vehicle id="296" pos="319.64" speed="0.00"/>
            </lane>
        </edge>
        <edge id="gneE49">
            <lane id="gneE49_0">
                <vehicle id="361" pos="8.29" speed="7.51"/>
                <vehicle id="509" pos="35.14" speed="7.82"/>
                <vehicle id="366" pos="101.00" speed="7.63"/>
                <vehicle id="376" pos="133.93" speed="7.80"/>
                <vehicle id="494" pos="285.83" speed="6.90"/>
            </lane>
        </edge>
        <edge id="gneE5">
            <lane id="gneE5_0">
                <vehicle id="309" pos="104.97" speed="5.01"/>
                <vehicle id="480" pos="145.38" speed="5.96"/>
            </lane>
        </edge>
        <edge id="gneE50">
            <lane id="gneE50_0">
                <vehicle id="523" pos="58.64" speed="5.53"/>
                <vehicle id="505" pos="158.23" speed="5.73"/>
                <vehicle id="420" pos="217.46" speed="5.03"/>
            </lane>
        </edge>
        <edge id="gneE51">
            <lane id="gneE51_0">
                <vehicle id="344" pos="6.08" speed="6.41"/>
                <vehicle id="B3_2" pos="87.01" speed="5.88"/>
                <vehicle id="498" pos="226.15" speed="6.76"/>
                <vehicle id="374" pos="267.05" speed="5.94"/>
                <vehicle id="483" pos="318.91" speed="6.73"/>
                <vehicle id="279" pos="350.80" speed="0.00"/>
                <vehicle id="413" pos="358.30" speed="0.00"/>
                <vehicle id="453" pos="365.80" speed="0.00"/>
            </lane>
        </edge>
        <edge id="gneE52">
            <lane id="gneE52_0">
                <vehicle id="395" pos="179.85" speed="6.02"/>
                <vehicle id="312" pos="305.01" speed="5.86"/>
            </lane>
        </edge>
        <edge id="gneE53">
            <lane id="gneE53_0">
                <vehicle id="207" pos="178.60" speed="6.57"/>
                <vehicle id="B4_2" pos="216.39" speed="5.95"/>
                <vehicle id="473" pos="245.43" speed="0.75"/>
                <vehicle id="469" pos="253.22" speed="0.10"/>
                <vehicle id="486" pos="261.15" speed="0.41"/>
                <vehicle id="448" pos="269.35" speed="0.65"/>
                <vehicle id="233" pos="279.25" speed="1.87"/>
                <vehicle id="431" pos="288.16" speed="0.71"/>
                <vehicle id="401" pos="297.27" speed="1.05"/>
                <vehicle id="441" pos="305.35" speed="0.25"/>
                <vehicle id="364" pos="313.11" speed="0.05"/>
                <vehicle id="368" pos="320.65" speed="0.02"/>
                <vehicle id="209" pos="328.16" speed="0.00"/>
                <vehicle id="405" pos="335.66" speed="0.00"/>
            </lane>
        </edge>
        <edge id="gneE54">
            <lane id="gneE54_0">
                <vehicle id="342" pos="31.42" speed="6.15"/>
                <vehicle id="461" pos="109.40" speed="6.46"/>
            </lane>
        </edge>
        <edge id="gneE55">
            <lane id="gneE55_0">
                <vehicle id="310" pos="54.81" speed="7.13"/>
                <vehicle id="261" pos="72.75" speed="7.23"/>
            </lane>
        </edge>
        <edge id="gneE57">
            <lane id="gneE57_0">
                <vehicle id="513" pos="150.71" speed="7.20"/>
            </lane>
        </edge>
        <edge id="gneE58">
            <lane id="gneE58_0">
                <vehicle id="419" pos="28.59" speed="7.03"/>
                <vehicle id="524" pos="70.84" speed="7.34"/>
                <vehicle id="475" pos="281.03" speed="7.93"/>
            </lane>
        </edge>
        <edge id="gneE59">
            <lane id="gneE59_0">
                <vehicle id="478" pos="74.96" speed="8.46"/>
                <vehicle id="514" pos="105.51" speed="8.23"/>
                <vehicle id="470" pos="139.84" speed="8.82"/>
                <vehicle id="302" pos="169.24" speed="8.52"/>
            </lane>
        </edge>
        <edge id="gneE60">
            <lane id="gneE60_0">
                <vehicle id="467" pos="262.55" speed="0.00"/>
                <vehicle id="349" pos="270.05" speed="0.00"/>
                <vehicle id="398" pos="277.55" speed="0.00"/>
                <vehicle id="387" pos="285.05" speed="0.00"/>
                <vehicle id="416" pos="292.55" speed="0.00"/>
                <vehicle id="320" pos="300.05" speed="0.00"/>
                <vehicle id="356" pos="307.55" speed="0.00"/>
                <vehicle id="287" pos="315.06" speed="0.00"/>
                <vehicle id="340" pos="322.56" speed="0.00"/>
                <vehicle id="383" pos="330.06" speed="0.00"/>
                <vehicle id="293" pos="337.56" speed="0.00"/>
            </lane>
        </edge>
        <edge id="gneE61">
            <lane id="gneE61_0">
                <vehicle id="515" pos="121.81" speed="6.58"/>
                <vehicle id="489" pos="138.43" speed="7.33"/>
            </lane>
        </edge>
        <edge id="gneE7">
            <lane id="gneE7_0">
                <vehicle id="385" pos="101.98" speed="8.56"/>
                <vehicle id="268" pos="160.14" speed="8.76"/>
                <vehicle id="455" pos="184.04" speed="8.39"/>
            </lane>
        </edge>
        <edge id="gneE8">
            <lane id="gneE8_0">
                <vehicle id="500" pos="234.52" speed="7.55"/>
                <vehicle id="329" pos="260.62" speed="7.22"/>
            </lane>
        </edge>
    </timestep>
