<?xml version="1.0"?>
<timestep time="548.00">
        <edge id=":gneJ11_7">
            <lane id=":gneJ11_7_0">
                <vehicle id="453" pos="4.12" speed="2.79"/>
            </lane>
        </edge>
        <edge id=":gneJ11_22">
            <lane id=":gneJ11_22_0">
                <vehicle id="368" pos="5.67" speed="0.52"/>
            </lane>
        </edge>
        <edge id=":gneJ11_32">
            <lane id=":gneJ11_32_0">
                <vehicle id="383" pos="0.13" speed="3.85"/>
                <vehicle id="293" pos="17.03" speed="7.40"/>
            </lane>
        </edge>
        <edge id=":gneJ15_6">
            <lane id=":gneJ15_6_0">
                <vehicle id="465" pos="11.58" speed="8.08"/>
            </lane>
        </edge>
        <edge id=":gneJ15_13">
            <lane id=":gneJ15_13_0">
                <vehicle id="406" pos="10.02" speed="5.16"/>
            </lane>
        </edge>
        <edge id=":gneJ15_22">
            <lane id=":gneJ15_22_0">
                <vehicle id="490" pos="5.62" speed="5.91"/>
            </lane>
        </edge>
        <edge id=":gneJ18_0">
            <lane id=":gneJ18_0_0">
                <vehicle id="457" pos="9.76" speed="7.95"/>
            </lane>
        </edge>
        <edge id=":gneJ28_8">
            <lane id=":gneJ28_8_0">
                <vehicle id="316" pos="12.31" speed="6.45"/>
            </lane>
        </edge>
        <edge id=":gneJ3_0">
            <lane id=":gneJ3_0_0">
                <vehicle id="512" pos="4.62" speed="4.77"/>
            </lane>
        </edge>
        <edge id=":gneJ8_5">
            <lane id=":gneJ8_5_0">
                <vehicle id="275" pos="4.10" speed="2.80"/>
            </lane>
        </edge>
        <edge id="gneE1">
            <lane id="gneE1_0">
                <vehicle id="518" pos="130.76" speed="4.00"/>
            </lane>
        </edge>
        <edge id="gneE10">
            <lane id="gneE10_0">
                <vehicle id="479" pos="7.97" speed="5.95"/>
                <vehicle id="462" pos="96.36" speed="4.75"/>
                <vehicle id="477" pos="122.85" speed="5.34"/>
                <vehicle id="460" pos="138.70" speed="4.33"/>
            </lane>
        </edge>
        <edge id="gneE11">
            <lane id="gneE11_0">
                <vehicle id="506" pos="40.93" speed="8.67"/>
            </lane>
        </edge>
        <edge id="gneE12">
            <lane id="gneE12_0">
                <vehicle id="492" pos="8.33" speed="9.82"/>
                <vehicle id="377" pos="83.20" speed="13.46"/>
                <vehicle id="235" pos="140.64" speed="13.12"/>
                <vehicle id="476" pos="186.17" speed="13.11"/>
            </lane>
        </edge>
        <edge id="gneE13">
            <lane id="gneE13_0">
                <vehicle id="531" pos="150.98" speed="9.51"/>
                <vehicle id="507" pos="179.16" speed="9.39"/>
                <vehicle id="474" pos="208.53" speed="9.06"/>
                <vehicle id="502" pos="258.08" speed="9.40"/>
            </lane>
        </edge>
        <edge id="gneE14">
            <lane id="gneE14_0">
                <vehicle id="548" pos="5.10" speed="0.00"/>
                <vehicle id="427" pos="89.47" speed="10.48"/>
                <vehicle id="394" pos="159.23" speed="4.13"/>
            </lane>
        </edge>
        <edge id="gneE15">
            <lane id="gneE15_0">
                <vehicle id="471" pos="4.93" speed="4.97"/>
                <vehicle id="545" pos="19.14" speed="6.61"/>
                <vehicle id="410" pos="132.28" speed="8.23"/>
            </lane>
        </edge>
        <edge id="gneE17">
            <lane id="gneE17_0">
                <vehicle id="380" pos="33.40" speed="9.61"/>
                <vehicle id="541" pos="52.97" speed="8.77"/>
                <vehicle id="B2_2" pos="78.53" speed="9.05"/>
                <vehicle id="379" pos="108.08" speed="9.88"/>
                <vehicle id="491" pos="170.09" speed="9.49"/>
                <vehicle id="324" pos="212.85" speed="9.45"/>
                <vehicle id="516" pos="269.50" speed="8.89"/>
            </lane>
        </edge>
        <edge id="gneE18">
            <lane id="gneE18_0">
                <vehicle id="488" pos="72.11" speed="9.01"/>
                <vehicle id="537" pos="92.30" speed="9.57"/>
                <vehicle id="370" pos="138.35" speed="9.08"/>
                <vehicle id="485" pos="207.47" speed="9.03"/>
                <vehicle id="433" pos="276.88" speed="9.04"/>
            </lane>
        </edge>
        <edge id="gneE19">
            <lane id="gneE19_0">
                <vehicle id="542" pos="39.81" speed="11.10"/>
                <vehicle id="445" pos="206.23" speed="3.31"/>
                <vehicle id="440" pos="218.58" speed="3.38"/>
                <vehicle id="367" pos="228.12" speed="1.36"/>
                <vehicle id="439" pos="237.24" speed="0.69"/>
                <vehicle id="409" pos="245.18" speed="0.32"/>
                <vehicle id="231" pos="252.77" speed="0.05"/>
                <vehicle id="397" pos="260.32" speed="0.01"/>
                <vehicle id="389" pos="267.84" speed="0.00"/>
                <vehicle id="392" pos="275.34" speed="0.00"/>
                <vehicle id="456" pos="282.84" speed="0.00"/>
            </lane>
        </edge>
        <edge id="gneE20">
            <lane id="gneE20_0">
                <vehicle id="442" pos="14.92" speed="8.71"/>
                <vehicle id="513" pos="68.60" speed="8.73"/>
                <vehicle id="363" pos="98.56" speed="7.90"/>
                <vehicle id="511" pos="117.26" speed="8.55"/>
                <vehicle id="495" pos="226.44" speed="8.75"/>
            </lane>
        </edge>
        <edge id="gneE23">
            <lane id="gneE23_0">
                <vehicle id="405" pos="65.03" speed="7.31"/>
                <vehicle id="339" pos="86.74" speed="7.48"/>
                <vehicle id="382" pos="166.91" speed="6.90"/>
            </lane>
        </edge>
        <edge id="gneE24">
            <lane id="gneE24_0">
                <vehicle id="458" pos="43.39" speed="12.19"/>
                <vehicle id="422" pos="67.65" speed="11.78"/>
            </lane>
        </edge>
        <edge id="gneE25">
            <lane id="gneE25_0">
                <vehicle id="429" pos="100.78" speed="8.93"/>
                <vehicle id="496" pos="185.46" speed="9.26"/>
                <vehicle id="519" pos="259.20" speed="8.82"/>
                <vehicle id="325" pos="290.83" speed="0.00"/>
            </lane>
        </edge>
        <edge id="gneE26">
            <lane id="gneE26_0">
                <vehicle id="521" pos="30.31" speed="6.53"/>
                <vehicle id="530" pos="83.06" speed="6.74"/>
                <vehicle id="510" pos="106.59" speed="6.36"/>
                <vehicle id="497" pos="195.25" speed="5.74"/>
                <vehicle id="452" pos="253.58" speed="6.33"/>
                <vehicle id="418" pos="270.56" speed="6.77"/>
            </lane>
        </edge>
        <edge id="gneE27">
            <lane id="gneE27_0">
                <vehicle id="358" pos="72.22" speed="5.46"/>
                <vehicle id="404" pos="94.07" speed="5.72"/>
            </lane>
        </edge>
        <edge id="gneE28">
            <lane id="gneE28_0">
                <vehicle id="444" pos="36.59" speed="8.60"/>
            </lane>
        </edge>
        <edge id="gneE3">
            <lane id="gneE3_0">
                <vehicle id="546" pos="11.23" speed="4.31"/>
                <vehicle id="501" pos="107.97" speed="9.26"/>
            </lane>
        </edge>
        <edge id="gneE30">
            <lane id="gneE30_0">
                <vehicle id="499" pos="179.22" speed="7.77"/>
            </lane>
        </edge>
        <edge id="gneE31">
            <lane id="gneE31_0">
                <vehicle id="373" pos="107.69" speed="8.43"/>
                <vehicle id="330" pos="129.18" speed="8.18"/>
                <vehicle id="425" pos="196.66" speed="8.26"/>
                <vehicle id="359" pos="217.03" speed="8.74"/>
                <vehicle id="481" pos="238.12" speed="8.85"/>
            </lane>
        </edge>
        <edge id="gneE32">
            <lane id="gneE32_0">
                <vehicle id="525" pos="13.06" speed="7.84"/>
                <vehicle id="400" pos="42.72" speed="7.81"/>
                <vehicle id="539" pos="60.42" speed="7.84"/>
                <vehicle id="527" pos="139.72" speed="7.05"/>
                <vehicle id="472" pos="161.43" speed="7.85"/>
                <vehicle id="390" pos="177.07" speed="7.04"/>
            </lane>
        </edge>
        <edge id="gneE38">
            <lane id="gneE38_0">
                <vehicle id="421" pos="17.65" speed="7.71"/>
                <vehicle id="532" pos="114.33" speed="8.65"/>
                <vehicle id="508" pos="139.27" speed="8.39"/>
                <vehicle id="528" pos="157.42" speed="8.52"/>
                <vehicle id="333" pos="252.93" speed="0.04"/>
                <vehicle id="B1_2" pos="260.47" speed="0.00"/>
                <vehicle id="402" pos="267.97" speed="0.00"/>
                <vehicle id="430" pos="275.47" speed="0.00"/>
                <vehicle id="393" pos="282.97" speed="0.00"/>
                <vehicle id="464" pos="290.47" speed="0.00"/>
                <vehicle id="436" pos="297.97" speed="0.00"/>
                <vehicle id="396" pos="305.47" speed="0.00"/>
                <vehicle id="451" pos="312.98" speed="0.00"/>
                <vehicle id="449" pos="320.48" speed="0.00"/>
                <vehicle id="336" pos="327.98" speed="0.00"/>
                <vehicle id="399" pos="335.48" speed="0.00"/>
                <vehicle id="408" pos="342.98" speed="0.00"/>
            </lane>
        </edge>
        <edge id="gneE4">
            <lane id="gneE4_0">
                <vehicle id="437" pos="49.56" speed="9.64"/>
                <vehicle id="450" pos="133.83" speed="9.87"/>
            </lane>
        </edge>
        <edge id="gneE42">
            <lane id="gneE42_0">
                <vehicle id="350" pos="84.71" speed="6.81"/>
            </lane>
        </edge>
        <edge id="gneE43">
            <lane id="gneE43_0">
                <vehicle id="493" pos="18.78" speed="6.65"/>
                <vehicle id="522" pos="157.77" speed="5.93"/>
                <vehicle id="520" pos="173.79" speed="6.62"/>
                <vehicle id="434" pos="247.66" speed="0.74"/>
                <vehicle id="428" pos="257.60" speed="2.40"/>
                <vehicle id="459" pos="270.44" speed="4.37"/>
                <vehicle id="381" pos="286.54" speed="6.59"/>
                <vehicle id="454" pos="301.77" speed="6.81"/>
            </lane>
        </edge>
        <edge id="gneE45">
            <lane id="gneE45_0">
                <vehicle id="543" pos="12.28" speed="4.59"/>
                <vehicle id="517" pos="30.85" speed="8.83"/>
                <vehicle id="487" pos="302.78" speed="2.57"/>
            </lane>
        </edge>
        <edge id="gneE46">
            <lane id="gneE46_0">
                <vehicle id="298" pos="58.45" speed="9.23"/>
                <vehicle id="538" pos="78.62" speed="9.49"/>
                <vehicle id="337" pos="169.86" speed="9.31"/>
            </lane>
        </edge>
        <edge id="gneE47">
            <lane id="gneE47_0">
                <vehicle id="494" pos="34.56" speed="8.21"/>
                <vehicle id="461" pos="61.73" speed="8.81"/>
                <vehicle id="529" pos="124.87" speed="8.45"/>
                <vehicle id="482" pos="152.79" speed="8.28"/>
                <vehicle id="526" pos="177.14" speed="8.74"/>
            </lane>
        </edge>
        <edge id="gneE48">
            <lane id="gneE48_0">
                <vehicle id="533" pos="92.83" speed="5.96"/>
                <vehicle id="503" pos="138.43" speed="6.68"/>
                <vehicle id="504" pos="251.98" speed="0.30"/>
                <vehicle id="338" pos="259.63" speed="0.00"/>
                <vehicle id="254" pos="267.13" speed="0.00"/>
                <vehicle id="468" pos="274.63" speed="0.00"/>
                <vehicle id="463" pos="282.13" speed="0.00"/>
                <vehicle id="424" pos="289.64" speed="0.00"/>
                <vehicle id="423" pos="297.14" speed="0.00"/>
                <vehicle id="415" pos="304.64" speed="0.00"/>
                <vehicle id="227" pos="312.14" speed="0.00"/>
                <vehicle id="296" pos="319.64" speed="0.00"/>
            </lane>
        </edge>
        <edge id="gneE49">
            <lane id="gneE49_0">
                <vehicle id="540" pos="53.16" speed="7.98"/>
                <vehicle id="403" pos="89.70" speed="6.85"/>
                <vehicle id="361" pos="109.55" speed="6.90"/>
                <vehicle id="509" pos="138.22" speed="7.52"/>
                <vehicle id="366" pos="204.79" speed="6.98"/>
                <vehicle id="376" pos="236.25" speed="7.42"/>
            </lane>
        </edge>
        <edge id="gneE5">
            <lane id="gneE5_0">
                <vehicle id="535" pos="68.48" speed="5.04"/>
            </lane>
        </edge>
        <edge id="gneE50">
            <lane id="gneE50_0">
                <vehicle id="536" pos="65.76" speed="4.79"/>
                <vehicle id="523" pos="134.50" speed="5.86"/>
                <vehicle id="505" pos="234.92" speed="5.87"/>
                <vehicle id="420" pos="294.05" speed="5.69"/>
            </lane>
        </edge>
        <edge id="gneE51">
            <lane id="gneE51_0">
                <vehicle id="544" pos="23.46" speed="5.77"/>
                <vehicle id="375" pos="70.68" speed="6.07"/>
                <vehicle id="344" pos="93.63" speed="5.80"/>
                <vehicle id="B3_2" pos="176.41" speed="6.43"/>
                <vehicle id="498" pos="315.79" speed="6.18"/>
                <vehicle id="374" pos="335.78" speed="0.01"/>
                <vehicle id="483" pos="343.30" speed="0.00"/>
                <vehicle id="279" pos="350.80" speed="0.00"/>
                <vehicle id="413" pos="359.33" speed="1.03"/>
            </lane>
        </edge>
        <edge id="gneE52">
            <lane id="gneE52_0">
                <vehicle id="435" pos="28.66" speed="6.92"/>
                <vehicle id="395" pos="268.54" speed="6.76"/>
            </lane>
        </edge>
        <edge id="gneE53">
            <lane id="gneE53_0">
                <vehicle id="310" pos="9.40" speed="6.77"/>
                <vehicle id="261" pos="25.21" speed="6.75"/>
                <vehicle id="207" pos="237.97" speed="0.12"/>
                <vehicle id="B4_2" pos="245.78" speed="0.21"/>
                <vehicle id="473" pos="253.67" speed="0.39"/>
                <vehicle id="469" pos="262.89" speed="1.44"/>
                <vehicle id="486" pos="275.31" speed="3.68"/>
                <vehicle id="448" pos="288.53" speed="5.24"/>
                <vehicle id="233" pos="302.12" speed="5.27"/>
                <vehicle id="431" pos="311.15" speed="0.66"/>
                <vehicle id="401" pos="319.80" speed="0.64"/>
                <vehicle id="441" pos="328.80" speed="0.92"/>
                <vehicle id="364" pos="340.10" speed="3.21"/>
            </lane>
        </edge>
        <edge id="gneE54">
            <lane id="gneE54_0">
                <vehicle id="547" pos="7.35" speed="2.25"/>
                <vehicle id="312" pos="40.29" speed="6.42"/>
                <vehicle id="342" pos="119.85" speed="6.32"/>
            </lane>
        </edge>
        <edge id="gneE58">
            <lane id="gneE58_0">
                <vehicle id="443" pos="14.48" speed="7.75"/>
                <vehicle id="419" pos="131.36" speed="7.35"/>
                <vehicle id="524" pos="174.05" speed="7.12"/>
            </lane>
        </edge>
        <edge id="gneE59">
            <lane id="gneE59_0">
                <vehicle id="478" pos="192.45" speed="7.72"/>
                <vehicle id="514" pos="223.00" speed="8.75"/>
                <vehicle id="470" pos="256.49" speed="8.23"/>
                <vehicle id="302" pos="286.72" speed="8.71"/>
            </lane>
        </edge>
        <edge id="gneE6">
            <lane id="gneE6_0">
                <vehicle id="500" pos="27.36" speed="7.01"/>
                <vehicle id="329" pos="53.14" speed="7.95"/>
            </lane>
        </edge>
        <edge id="gneE60">
            <lane id="gneE60_0">
                <vehicle id="467" pos="262.55" speed="0.00"/>
                <vehicle id="349" pos="270.05" speed="0.00"/>
                <vehicle id="398" pos="277.55" speed="0.00"/>
                <vehicle id="387" pos="285.05" speed="0.00"/>
                <vehicle id="416" pos="292.55" speed="0.00"/>
                <vehicle id="320" pos="300.05" speed="0.00"/>
                <vehicle id="356" pos="307.56" speed="0.00"/>
                <vehicle id="287" pos="315.61" speed="0.56"/>
                <vehicle id="340" pos="325.78" speed="2.30"/>
            </lane>
        </edge>
        <edge id="gneE61">
            <lane id="gneE61_0">
                <vehicle id="446" pos="23.50" speed="7.91"/>
                <vehicle id="515" pos="223.51" speed="6.99"/>
                <vehicle id="489" pos="240.52" speed="7.72"/>
            </lane>
        </edge>
        <edge id="gneE7">
            <lane id="gneE7_0">
                <vehicle id="534" pos="81.14" speed="8.14"/>
                <vehicle id="480" pos="109.09" speed="8.29"/>
                <vehicle id="385" pos="219.35" speed="7.86"/>
                <vehicle id="268" pos="278.91" speed="8.02"/>
                <vehicle id="455" pos="299.51" speed="8.38"/>
            </lane>
        </edge>
        <edge id="gneE8">
            <lane id="gneE8_0">
                <vehicle id="426" pos="53.32" speed="6.85"/>
            </lane>
        </edge>
    </timestep>
