<?xml version="1.0"?>
<timestep time="549.00">
        <edge id=":gneJ11_7">
            <lane id=":gneJ11_7_0">
                <vehicle id="453" pos="8.40" speed="4.28"/>
            </lane>
        </edge>
        <edge id=":gneJ11_21">
            <lane id=":gneJ11_21_0">
                <vehicle id="364" pos="0.38" speed="3.54"/>
            </lane>
        </edge>
        <edge id=":gneJ11_22">
            <lane id=":gneJ11_22_0">
                <vehicle id="368" pos="6.04" speed="0.37"/>
            </lane>
        </edge>
        <edge id=":gneJ11_32">
            <lane id=":gneJ11_32_0">
                <vehicle id="383" pos="5.37" speed="5.25"/>
                <vehicle id="293" pos="26.37" speed="9.34"/>
            </lane>
        </edge>
        <edge id=":gneJ15_13">
            <lane id=":gneJ15_13_0">
                <vehicle id="406" pos="17.66" speed="7.64"/>
            </lane>
        </edge>
        <edge id=":gneJ15_22">
            <lane id=":gneJ15_22_0">
                <vehicle id="490" pos="12.95" speed="7.33"/>
            </lane>
        </edge>
        <edge id=":gneJ28_7">
            <lane id=":gneJ28_7_0">
                <vehicle id="487" pos="1.07" speed="5.12"/>
            </lane>
        </edge>
        <edge id=":gneJ3_0">
            <lane id=":gneJ3_0_0">
                <vehicle id="512" pos="11.38" speed="6.76"/>
            </lane>
        </edge>
        <edge id=":gneJ6_2">
            <lane id=":gneJ6_2_0">
                <vehicle id="460" pos="4.75" speed="5.09"/>
            </lane>
        </edge>
        <edge id=":gneJ8_12">
            <lane id=":gneJ8_12_0">
                <vehicle id="275" pos="3.77" speed="5.09"/>
            </lane>
        </edge>
        <edge id=":gneJ9_0">
            <lane id=":gneJ9_0_0">
                <vehicle id="394" pos="4.87" speed="6.43"/>
            </lane>
        </edge>
        <edge id="gneE1">
            <lane id="gneE1_0">
                <vehicle id="518" pos="134.81" speed="4.05"/>
            </lane>
        </edge>
        <edge id="gneE10">
            <lane id="gneE10_0">
                <vehicle id="479" pos="12.71" speed="4.74"/>
                <vehicle id="462" pos="102.26" speed="5.89"/>
                <vehicle id="477" pos="128.78" speed="5.93"/>
            </lane>
        </edge>
        <edge id="gneE11">
            <lane id="gneE11_0">
                <vehicle id="455" pos="0.17" speed="8.53"/>
                <vehicle id="506" pos="49.70" speed="8.77"/>
            </lane>
        </edge>
        <edge id="gneE12">
            <lane id="gneE12_0">
                <vehicle id="492" pos="19.91" speed="11.58"/>
                <vehicle id="377" pos="95.96" speed="12.76"/>
                <vehicle id="235" pos="153.42" speed="12.78"/>
                <vehicle id="476" pos="199.03" speed="12.86"/>
            </lane>
        </edge>
        <edge id="gneE13">
            <lane id="gneE13_0">
                <vehicle id="531" pos="159.86" speed="8.88"/>
                <vehicle id="507" pos="189.14" speed="9.98"/>
                <vehicle id="474" pos="217.84" speed="9.31"/>
                <vehicle id="502" pos="267.13" speed="9.05"/>
            </lane>
        </edge>
        <edge id="gneE14">
            <lane id="gneE14_0">
                <vehicle id="548" pos="7.02" speed="1.92"/>
                <vehicle id="427" pos="99.66" speed="10.19"/>
            </lane>
        </edge>
        <edge id="gneE15">
            <lane id="gneE15_0">
                <vehicle id="471" pos="10.95" speed="6.03"/>
                <vehicle id="545" pos="27.46" speed="8.32"/>
                <vehicle id="410" pos="140.30" speed="8.02"/>
            </lane>
        </edge>
        <edge id="gneE17">
            <lane id="gneE17_0">
                <vehicle id="380" pos="42.37" speed="8.97"/>
                <vehicle id="541" pos="62.17" speed="9.19"/>
                <vehicle id="B2_2" pos="87.41" speed="8.89"/>
                <vehicle id="379" pos="117.64" speed="9.56"/>
                <vehicle id="491" pos="179.81" speed="9.73"/>
                <vehicle id="324" pos="222.59" speed="9.74"/>
                <vehicle id="516" pos="278.61" speed="9.11"/>
            </lane>
        </edge>
        <edge id="gneE18">
            <lane id="gneE18_0">
                <vehicle id="488" pos="81.28" speed="9.17"/>
                <vehicle id="537" pos="101.82" speed="9.52"/>
                <vehicle id="370" pos="148.00" speed="9.65"/>
                <vehicle id="485" pos="216.44" speed="8.97"/>
                <vehicle id="433" pos="285.17" speed="8.29"/>
            </lane>
        </edge>
        <edge id="gneE19">
            <lane id="gneE19_0">
                <vehicle id="542" pos="51.66" speed="11.85"/>
                <vehicle id="445" pos="210.70" speed="4.47"/>
                <vehicle id="440" pos="220.51" speed="1.93"/>
                <vehicle id="367" pos="229.50" speed="1.38"/>
                <vehicle id="439" pos="237.47" speed="0.23"/>
                <vehicle id="409" pos="245.25" speed="0.08"/>
                <vehicle id="231" pos="252.82" speed="0.05"/>
                <vehicle id="397" pos="260.33" speed="0.01"/>
                <vehicle id="389" pos="267.84" speed="0.00"/>
                <vehicle id="392" pos="275.34" speed="0.00"/>
                <vehicle id="456" pos="282.84" speed="0.00"/>
            </lane>
        </edge>
        <edge id="gneE20">
            <lane id="gneE20_0">
                <vehicle id="442" pos="23.03" speed="8.12"/>
                <vehicle id="513" pos="77.23" speed="8.63"/>
                <vehicle id="363" pos="107.32" speed="8.76"/>
                <vehicle id="511" pos="126.17" speed="8.91"/>
                <vehicle id="495" pos="234.50" speed="8.06"/>
            </lane>
        </edge>
        <edge id="gneE23">
            <lane id="gneE23_0">
                <vehicle id="405" pos="72.36" speed="7.33"/>
                <vehicle id="339" pos="94.57" speed="7.83"/>
                <vehicle id="382" pos="174.56" speed="7.65"/>
            </lane>
        </edge>
        <edge id="gneE24">
            <lane id="gneE24_0">
                <vehicle id="458" pos="55.51" speed="12.12"/>
                <vehicle id="422" pos="80.17" speed="12.51"/>
            </lane>
        </edge>
        <edge id="gneE25">
            <lane id="gneE25_0">
                <vehicle id="465" pos="0.07" speed="9.67"/>
                <vehicle id="429" pos="109.97" speed="9.19"/>
                <vehicle id="496" pos="194.35" speed="8.90"/>
                <vehicle id="519" pos="268.58" speed="9.38"/>
                <vehicle id="325" pos="290.83" speed="0.00"/>
            </lane>
        </edge>
        <edge id="gneE26">
            <lane id="gneE26_0">
                <vehicle id="521" pos="37.24" speed="6.93"/>
                <vehicle id="530" pos="89.31" speed="6.25"/>
                <vehicle id="510" pos="113.20" speed="6.61"/>
                <vehicle id="497" pos="202.20" speed="6.95"/>
                <vehicle id="452" pos="259.77" speed="6.19"/>
                <vehicle id="418" pos="276.74" speed="6.18"/>
            </lane>
        </edge>
        <edge id="gneE27">
            <lane id="gneE27_0">
                <vehicle id="358" pos="77.98" speed="5.75"/>
                <vehicle id="404" pos="99.35" speed="5.28"/>
            </lane>
        </edge>
        <edge id="gneE28">
            <lane id="gneE28_0">
                <vehicle id="444" pos="45.32" speed="8.74"/>
            </lane>
        </edge>
        <edge id="gneE3">
            <lane id="gneE3_0">
                <vehicle id="546" pos="17.65" speed="6.42"/>
                <vehicle id="501" pos="117.16" speed="9.18"/>
            </lane>
        </edge>
        <edge id="gneE30">
            <lane id="gneE30_0">
                <vehicle id="499" pos="187.64" speed="8.42"/>
            </lane>
        </edge>
        <edge id="gneE31">
            <lane id="gneE31_0">
                <vehicle id="373" pos="115.72" speed="8.03"/>
                <vehicle id="330" pos="136.92" speed="7.74"/>
                <vehicle id="425" pos="204.80" speed="8.14"/>
                <vehicle id="359" pos="225.57" speed="8.54"/>
                <vehicle id="481" pos="246.52" speed="8.39"/>
            </lane>
        </edge>
        <edge id="gneE32">
            <lane id="gneE32_0">
                <vehicle id="525" pos="20.68" speed="7.62"/>
                <vehicle id="400" pos="50.07" speed="7.35"/>
                <vehicle id="539" pos="67.31" speed="6.89"/>
                <vehicle id="527" pos="146.83" speed="7.11"/>
                <vehicle id="472" pos="167.79" speed="6.36"/>
                <vehicle id="390" pos="184.15" speed="7.08"/>
            </lane>
        </edge>
        <edge id="gneE38">
            <lane id="gneE38_0">
                <vehicle id="457" pos="7.09" speed="7.82"/>
                <vehicle id="421" pos="26.50" speed="8.85"/>
                <vehicle id="532" pos="122.07" speed="7.73"/>
                <vehicle id="508" pos="148.07" speed="8.80"/>
                <vehicle id="528" pos="165.32" speed="7.90"/>
                <vehicle id="333" pos="252.95" speed="0.02"/>
                <vehicle id="B1_2" pos="260.47" speed="0.00"/>
                <vehicle id="402" pos="267.97" speed="0.00"/>
                <vehicle id="430" pos="275.47" speed="0.00"/>
                <vehicle id="393" pos="282.97" speed="0.00"/>
                <vehicle id="464" pos="290.47" speed="0.00"/>
                <vehicle id="436" pos="297.97" speed="0.00"/>
                <vehicle id="396" pos="305.47" speed="0.00"/>
                <vehicle id="451" pos="312.98" speed="0.00"/>
                <vehicle id="449" pos="320.48" speed="0.00"/>
                <vehicle id="336" pos="327.98" speed="0.00"/>
                <vehicle id="399" pos="335.48" speed="0.00"/>
                <vehicle id="408" pos="342.98" speed="0.00"/>
            </lane>
        </edge>
        <edge id="gneE4">
            <lane id="gneE4_0">
                <vehicle id="437" pos="59.03" speed="9.46"/>
                <vehicle id="450" pos="142.78" speed="8.96"/>
            </lane>
        </edge>
        <edge id="gneE42">
            <lane id="gneE42_0">
                <vehicle id="316" pos="1.22" speed="6.91"/>
                <vehicle id="350" pos="92.65" speed="7.94"/>
            </lane>
        </edge>
        <edge id="gneE43">
            <lane id="gneE43_0">
                <vehicle id="493" pos="24.69" speed="5.91"/>
                <vehicle id="522" pos="164.61" speed="6.84"/>
                <vehicle id="520" pos="180.12" speed="6.33"/>
                <vehicle id="434" pos="249.07" speed="1.41"/>
                <vehicle id="428" pos="261.36" speed="3.76"/>
                <vehicle id="459" pos="276.47" speed="6.03"/>
                <vehicle id="381" pos="292.93" speed="6.38"/>
                <vehicle id="454" pos="305.88" speed="4.12"/>
            </lane>
        </edge>
        <edge id="gneE45">
            <lane id="gneE45_0">
                <vehicle id="543" pos="18.82" speed="6.54"/>
                <vehicle id="517" pos="39.10" speed="8.25"/>
            </lane>
        </edge>
        <edge id="gneE46">
            <lane id="gneE46_0">
                <vehicle id="298" pos="68.31" speed="9.85"/>
                <vehicle id="538" pos="88.32" speed="9.69"/>
                <vehicle id="337" pos="178.57" speed="8.71"/>
            </lane>
        </edge>
        <edge id="gneE47">
            <lane id="gneE47_0">
                <vehicle id="494" pos="43.15" speed="8.60"/>
                <vehicle id="461" pos="70.30" speed="8.57"/>
                <vehicle id="529" pos="132.86" speed="7.99"/>
                <vehicle id="482" pos="161.43" speed="8.63"/>
                <vehicle id="526" pos="185.09" speed="7.96"/>
            </lane>
        </edge>
        <edge id="gneE48">
            <lane id="gneE48_0">
                <vehicle id="533" pos="98.74" speed="5.91"/>
                <vehicle id="503" pos="144.78" speed="6.35"/>
                <vehicle id="504" pos="252.12" speed="0.14"/>
                <vehicle id="338" pos="259.63" speed="0.00"/>
                <vehicle id="254" pos="267.13" speed="0.00"/>
                <vehicle id="468" pos="274.63" speed="0.00"/>
                <vehicle id="463" pos="282.13" speed="0.00"/>
                <vehicle id="424" pos="289.64" speed="0.00"/>
                <vehicle id="423" pos="297.14" speed="0.00"/>
                <vehicle id="415" pos="304.64" speed="0.00"/>
                <vehicle id="227" pos="312.14" speed="0.00"/>
                <vehicle id="296" pos="319.64" speed="0.00"/>
            </lane>
        </edge>
        <edge id="gneE49">
            <lane id="gneE49_0">
                <vehicle id="540" pos="60.46" speed="7.31"/>
                <vehicle id="403" pos="97.61" speed="7.91"/>
                <vehicle id="361" pos="116.84" speed="7.29"/>
                <vehicle id="509" pos="145.48" speed="7.26"/>
                <vehicle id="366" pos="211.86" speed="7.07"/>
                <vehicle id="376" pos="243.13" speed="6.88"/>
            </lane>
        </edge>
        <edge id="gneE5">
            <lane id="gneE5_0">
                <vehicle id="535" pos="74.19" speed="5.70"/>
            </lane>
        </edge>
        <edge id="gneE50">
            <lane id="gneE50_0">
                <vehicle id="536" pos="71.57" speed="5.81"/>
                <vehicle id="523" pos="139.99" speed="5.49"/>
                <vehicle id="505" pos="239.92" speed="5.00"/>
                <vehicle id="420" pos="300.05" speed="5.99"/>
            </lane>
        </edge>
        <edge id="gneE51">
            <lane id="gneE51_0">
                <vehicle id="544" pos="29.82" speed="6.35"/>
                <vehicle id="375" pos="76.83" speed="6.15"/>
                <vehicle id="344" pos="99.67" speed="6.03"/>
                <vehicle id="B3_2" pos="182.50" speed="6.09"/>
                <vehicle id="498" pos="321.99" speed="6.21"/>
                <vehicle id="374" pos="335.79" speed="0.01"/>
                <vehicle id="483" pos="343.30" speed="0.00"/>
                <vehicle id="279" pos="351.59" speed="0.79"/>
                <vehicle id="413" pos="361.80" speed="2.47"/>
            </lane>
        </edge>
        <edge id="gneE52">
            <lane id="gneE52_0">
                <vehicle id="435" pos="35.24" speed="6.58"/>
                <vehicle id="395" pos="275.21" speed="6.67"/>
            </lane>
        </edge>
        <edge id="gneE53">
            <lane id="gneE53_0">
                <vehicle id="310" pos="16.05" speed="6.66"/>
                <vehicle id="261" pos="31.38" speed="6.17"/>
                <vehicle id="207" pos="238.19" speed="0.22"/>
                <vehicle id="B4_2" pos="246.00" speed="0.23"/>
                <vehicle id="473" pos="255.05" speed="1.39"/>
                <vehicle id="469" pos="265.66" speed="2.77"/>
                <vehicle id="486" pos="279.98" speed="4.67"/>
                <vehicle id="448" pos="293.64" speed="5.11"/>
                <vehicle id="233" pos="303.25" speed="1.13"/>
                <vehicle id="431" pos="312.19" speed="1.04"/>
                <vehicle id="401" pos="320.73" speed="0.93"/>
                <vehicle id="441" pos="331.83" speed="3.03"/>
            </lane>
        </edge>
        <edge id="gneE54">
            <lane id="gneE54_0">
                <vehicle id="547" pos="11.37" speed="4.02"/>
                <vehicle id="312" pos="47.11" speed="6.82"/>
                <vehicle id="342" pos="126.48" speed="6.63"/>
            </lane>
        </edge>
        <edge id="gneE58">
            <lane id="gneE58_0">
                <vehicle id="443" pos="22.33" speed="7.85"/>
                <vehicle id="419" pos="138.42" speed="7.06"/>
                <vehicle id="524" pos="181.16" speed="7.10"/>
            </lane>
        </edge>
        <edge id="gneE59">
            <lane id="gneE59_0">
                <vehicle id="478" pos="200.26" speed="7.81"/>
                <vehicle id="514" pos="231.03" speed="8.02"/>
                <vehicle id="470" pos="264.22" speed="7.73"/>
                <vehicle id="302" pos="295.23" speed="8.50"/>
            </lane>
        </edge>
        <edge id="gneE6">
            <lane id="gneE6_0">
                <vehicle id="500" pos="34.58" speed="7.22"/>
                <vehicle id="329" pos="60.03" speed="6.89"/>
            </lane>
        </edge>
        <edge id="gneE60">
            <lane id="gneE60_0">
                <vehicle id="467" pos="262.55" speed="0.00"/>
                <vehicle id="349" pos="270.05" speed="0.00"/>
                <vehicle id="398" pos="277.55" speed="0.00"/>
                <vehicle id="387" pos="285.05" speed="0.00"/>
                <vehicle id="416" pos="292.55" speed="0.00"/>
                <vehicle id="320" pos="300.05" speed="0.00"/>
                <vehicle id="356" pos="308.04" speed="0.48"/>
                <vehicle id="287" pos="318.00" speed="2.38"/>
                <vehicle id="340" pos="329.19" speed="3.40"/>
            </lane>
        </edge>
        <edge id="gneE61">
            <lane id="gneE61_0">
                <vehicle id="446" pos="30.70" speed="7.20"/>
                <vehicle id="515" pos="230.42" speed="6.91"/>
                <vehicle id="489" pos="247.64" speed="7.12"/>
            </lane>
        </edge>
        <edge id="gneE7">
            <lane id="gneE7_0">
                <vehicle id="534" pos="88.94" speed="7.80"/>
                <vehicle id="480" pos="117.08" speed="8.00"/>
                <vehicle id="385" pos="228.26" speed="8.91"/>
                <vehicle id="268" pos="287.59" speed="8.68"/>
            </lane>
        </edge>
        <edge id="gneE8">
            <lane id="gneE8_0">
                <vehicle id="426" pos="60.73" speed="7.41"/>
            </lane>
        </edge>
    </timestep>
