<?xml version="1.0"?>
<timestep time="553.00">
        <edge id=":gneJ11_21">
            <lane id=":gneJ11_21_0">
                <vehicle id="364" pos="6.47" speed="0.12"/>
            </lane>
        </edge>
        <edge id=":gneJ11_22">
            <lane id=":gneJ11_22_0">
                <vehicle id="368" pos="25.97" speed="7.72"/>
            </lane>
        </edge>
        <edge id=":gneJ11_32">
            <lane id=":gneJ11_32_0">
                <vehicle id="383" pos="24.95" speed="4.67"/>
            </lane>
        </edge>
        <edge id=":gneJ15_5">
            <lane id=":gneJ15_5_0">
                <vehicle id="454" pos="2.04" speed="2.16"/>
            </lane>
        </edge>
        <edge id=":gneJ28_1">
            <lane id=":gneJ28_1_0">
                <vehicle id="482" pos="0.45" speed="8.36"/>
            </lane>
        </edge>
        <edge id=":gneJ28_12">
            <lane id=":gneJ28_12_0">
                <vehicle id="526" pos="14.39" speed="9.10"/>
            </lane>
        </edge>
        <edge id=":gneJ3_7">
            <lane id=":gneJ3_7_0">
                <vehicle id="518" pos="8.19" speed="6.44"/>
            </lane>
        </edge>
        <edge id=":gneJ3_11">
            <lane id=":gneJ3_11_0">
                <vehicle id="450" pos="3.69" speed="0.31"/>
            </lane>
        </edge>
        <edge id=":gneJ4_2">
            <lane id=":gneJ4_2_0">
                <vehicle id="501" pos="0.39" speed="8.90"/>
            </lane>
        </edge>
        <edge id=":gneJ8_12">
            <lane id=":gneJ8_12_0">
                <vehicle id="410" pos="3.58" speed="7.14"/>
            </lane>
        </edge>
        <edge id="gneE10">
            <lane id="gneE10_0">
                <vehicle id="479" pos="33.20" speed="5.44"/>
                <vehicle id="462" pos="124.32" speed="5.90"/>
            </lane>
        </edge>
        <edge id="gneE11">
            <lane id="gneE11_0">
                <vehicle id="549" pos="10.46" speed="3.93"/>
                <vehicle id="455" pos="33.22" speed="8.60"/>
                <vehicle id="506" pos="82.60" speed="8.38"/>
            </lane>
        </edge>
        <edge id="gneE12">
            <lane id="gneE12_0">
                <vehicle id="275" pos="35.73" speed="12.06"/>
                <vehicle id="492" pos="72.89" speed="13.45"/>
                <vehicle id="377" pos="148.63" speed="13.49"/>
                <vehicle id="235" pos="206.65" speed="12.88"/>
                <vehicle id="476" pos="251.49" speed="13.62"/>
            </lane>
        </edge>
        <edge id="gneE13">
            <lane id="gneE13_0">
                <vehicle id="550" pos="13.67" speed="4.38"/>
                <vehicle id="531" pos="197.59" speed="9.76"/>
                <vehicle id="507" pos="225.96" speed="8.87"/>
                <vehicle id="474" pos="255.39" speed="9.38"/>
                <vehicle id="502" pos="300.06" speed="5.56"/>
            </lane>
        </edge>
        <edge id="gneE14">
            <lane id="gneE14_0">
                <vehicle id="548" pos="30.99" speed="8.89"/>
                <vehicle id="427" pos="140.58" speed="9.85"/>
            </lane>
        </edge>
        <edge id="gneE15">
            <lane id="gneE15_0">
                <vehicle id="433" pos="16.07" speed="8.56"/>
                <vehicle id="471" pos="42.71" speed="8.02"/>
                <vehicle id="545" pos="59.50" speed="7.87"/>
            </lane>
        </edge>
        <edge id="gneE17">
            <lane id="gneE17_0">
                <vehicle id="394" pos="35.82" speed="8.77"/>
                <vehicle id="380" pos="80.18" speed="9.94"/>
                <vehicle id="541" pos="99.33" speed="9.28"/>
                <vehicle id="B2_2" pos="123.89" speed="8.91"/>
                <vehicle id="379" pos="155.50" speed="9.45"/>
                <vehicle id="491" pos="217.07" speed="9.82"/>
                <vehicle id="324" pos="260.34" speed="9.68"/>
            </lane>
        </edge>
        <edge id="gneE18">
            <lane id="gneE18_0">
                <vehicle id="488" pos="117.75" speed="8.71"/>
                <vehicle id="537" pos="138.02" speed="9.30"/>
                <vehicle id="370" pos="184.08" speed="8.81"/>
                <vehicle id="485" pos="254.84" speed="9.64"/>
            </lane>
        </edge>
        <edge id="gneE19">
            <lane id="gneE19_0">
                <vehicle id="542" pos="101.11" speed="12.63"/>
                <vehicle id="445" pos="214.81" speed="0.38"/>
                <vehicle id="440" pos="222.74" speed="0.10"/>
                <vehicle id="367" pos="230.29" speed="0.04"/>
                <vehicle id="439" pos="237.82" speed="0.01"/>
                <vehicle id="409" pos="245.33" speed="0.00"/>
                <vehicle id="231" pos="252.83" speed="0.00"/>
                <vehicle id="397" pos="260.34" speed="0.00"/>
                <vehicle id="389" pos="267.84" speed="0.00"/>
                <vehicle id="392" pos="275.34" speed="0.00"/>
                <vehicle id="456" pos="282.84" speed="0.00"/>
            </lane>
        </edge>
        <edge id="gneE20">
            <lane id="gneE20_0">
                <vehicle id="453" pos="13.28" speed="8.97"/>
                <vehicle id="442" pos="56.57" speed="8.82"/>
                <vehicle id="513" pos="111.98" speed="8.53"/>
                <vehicle id="363" pos="139.03" speed="7.92"/>
                <vehicle id="511" pos="158.98" speed="8.32"/>
                <vehicle id="495" pos="267.30" speed="8.74"/>
            </lane>
        </edge>
        <edge id="gneE23">
            <lane id="gneE23_0">
                <vehicle id="405" pos="102.69" speed="7.90"/>
                <vehicle id="339" pos="124.49" speed="7.66"/>
            </lane>
        </edge>
        <edge id="gneE24">
            <lane id="gneE24_0">
                <vehicle id="458" pos="105.15" speed="12.95"/>
                <vehicle id="422" pos="129.55" speed="11.71"/>
            </lane>
        </edge>
        <edge id="gneE25">
            <lane id="gneE25_0">
                <vehicle id="465" pos="37.40" speed="9.57"/>
                <vehicle id="429" pos="147.37" speed="8.73"/>
                <vehicle id="496" pos="230.67" speed="8.87"/>
                <vehicle id="519" pos="283.29" speed="0.05"/>
                <vehicle id="325" pos="290.83" speed="0.00"/>
            </lane>
        </edge>
        <edge id="gneE26">
            <lane id="gneE26_0">
                <vehicle id="521" pos="63.50" speed="6.71"/>
                <vehicle id="530" pos="114.33" speed="6.49"/>
                <vehicle id="510" pos="138.84" speed="5.94"/>
                <vehicle id="497" pos="228.60" speed="6.87"/>
                <vehicle id="452" pos="281.69" speed="3.69"/>
                <vehicle id="418" pos="290.78" speed="0.13"/>
            </lane>
        </edge>
        <edge id="gneE27">
            <lane id="gneE27_0">
                <vehicle id="382" pos="4.39" speed="5.14"/>
                <vehicle id="358" pos="99.27" speed="5.06"/>
                <vehicle id="404" pos="121.18" speed="5.66"/>
            </lane>
        </edge>
        <edge id="gneE28">
            <lane id="gneE28_0">
                <vehicle id="444" pos="79.61" speed="8.65"/>
            </lane>
        </edge>
        <edge id="gneE3">
            <lane id="gneE3_0">
                <vehicle id="516" pos="10.96" speed="9.87"/>
                <vehicle id="512" pos="35.19" speed="9.68"/>
                <vehicle id="546" pos="55.11" speed="9.63"/>
            </lane>
        </edge>
        <edge id="gneE30">
            <lane id="gneE30_0">
                <vehicle id="499" pos="221.11" speed="8.71"/>
            </lane>
        </edge>
        <edge id="gneE31">
            <lane id="gneE31_0">
                <vehicle id="460" pos="31.65" speed="7.96"/>
                <vehicle id="373" pos="150.22" speed="8.92"/>
                <vehicle id="330" pos="169.79" speed="8.44"/>
                <vehicle id="425" pos="238.95" speed="8.80"/>
                <vehicle id="359" pos="258.57" speed="8.31"/>
                <vehicle id="481" pos="279.42" speed="8.68"/>
            </lane>
        </edge>
        <edge id="gneE32">
            <lane id="gneE32_0">
                <vehicle id="490" pos="26.90" speed="7.94"/>
                <vehicle id="525" pos="51.60" speed="7.77"/>
                <vehicle id="400" pos="80.19" speed="7.20"/>
                <vehicle id="539" pos="97.31" speed="7.78"/>
                <vehicle id="527" pos="176.96" speed="7.31"/>
                <vehicle id="472" pos="197.35" speed="7.53"/>
                <vehicle id="390" pos="213.01" speed="6.73"/>
            </lane>
        </edge>
        <edge id="gneE38">
            <lane id="gneE38_0">
                <vehicle id="457" pos="39.48" speed="8.18"/>
                <vehicle id="421" pos="59.60" speed="8.68"/>
                <vehicle id="532" pos="155.53" speed="8.60"/>
                <vehicle id="508" pos="181.05" speed="7.80"/>
                <vehicle id="528" pos="198.95" speed="8.14"/>
                <vehicle id="333" pos="252.97" speed="0.00"/>
                <vehicle id="B1_2" pos="260.47" speed="0.00"/>
                <vehicle id="402" pos="267.97" speed="0.00"/>
                <vehicle id="430" pos="275.47" speed="0.00"/>
                <vehicle id="393" pos="282.97" speed="0.00"/>
                <vehicle id="464" pos="290.47" speed="0.00"/>
                <vehicle id="436" pos="297.97" speed="0.00"/>
                <vehicle id="396" pos="305.47" speed="0.00"/>
                <vehicle id="451" pos="312.98" speed="0.00"/>
                <vehicle id="449" pos="320.48" speed="0.00"/>
                <vehicle id="336" pos="327.98" speed="0.00"/>
                <vehicle id="399" pos="335.48" speed="0.00"/>
                <vehicle id="408" pos="342.98" speed="0.00"/>
            </lane>
        </edge>
        <edge id="gneE4">
            <lane id="gneE4_0">
                <vehicle id="437" pos="95.58" speed="9.48"/>
            </lane>
        </edge>
        <edge id="gneE42">
            <lane id="gneE42_0">
                <vehicle id="551" pos="9.68" speed="3.14"/>
                <vehicle id="316" pos="30.54" speed="7.39"/>
                <vehicle id="350" pos="122.14" speed="7.79"/>
            </lane>
        </edge>
        <edge id="gneE43">
            <lane id="gneE43_0">
                <vehicle id="493" pos="49.83" speed="6.53"/>
                <vehicle id="522" pos="189.00" speed="6.17"/>
                <vehicle id="520" pos="204.93" speed="6.63"/>
                <vehicle id="434" pos="269.85" speed="5.50"/>
                <vehicle id="428" pos="282.62" speed="4.05"/>
                <vehicle id="459" pos="291.29" speed="1.17"/>
                <vehicle id="381" pos="299.13" speed="0.11"/>
            </lane>
        </edge>
        <edge id="gneE45">
            <lane id="gneE45_0">
                <vehicle id="406" pos="30.07" speed="8.98"/>
                <vehicle id="543" pos="51.76" speed="8.53"/>
                <vehicle id="517" pos="73.77" speed="8.83"/>
            </lane>
        </edge>
        <edge id="gneE46">
            <lane id="gneE46_0">
                <vehicle id="487" pos="22.54" speed="9.82"/>
                <vehicle id="298" pos="105.60" speed="9.03"/>
                <vehicle id="538" pos="125.57" speed="9.91"/>
            </lane>
        </edge>
        <edge id="gneE47">
            <lane id="gneE47_0">
                <vehicle id="494" pos="76.68" speed="8.69"/>
                <vehicle id="461" pos="104.91" speed="8.29"/>
                <vehicle id="529" pos="165.51" speed="8.97"/>
            </lane>
        </edge>
        <edge id="gneE48">
            <lane id="gneE48_0">
                <vehicle id="337" pos="10.32" speed="6.22"/>
                <vehicle id="533" pos="124.60" speed="5.92"/>
                <vehicle id="503" pos="170.32" speed="6.11"/>
                <vehicle id="504" pos="252.13" speed="0.00"/>
                <vehicle id="338" pos="259.63" speed="0.00"/>
                <vehicle id="254" pos="267.13" speed="0.00"/>
                <vehicle id="468" pos="274.63" speed="0.00"/>
                <vehicle id="463" pos="282.13" speed="0.00"/>
                <vehicle id="424" pos="289.64" speed="0.00"/>
                <vehicle id="423" pos="297.14" speed="0.00"/>
                <vehicle id="415" pos="304.64" speed="0.00"/>
                <vehicle id="227" pos="312.14" speed="0.00"/>
                <vehicle id="296" pos="319.64" speed="0.00"/>
            </lane>
        </edge>
        <edge id="gneE49">
            <lane id="gneE49_0">
                <vehicle id="293" pos="26.09" speed="7.22"/>
                <vehicle id="540" pos="91.30" speed="7.61"/>
                <vehicle id="403" pos="126.89" speed="7.23"/>
                <vehicle id="361" pos="146.94" speed="7.85"/>
                <vehicle id="509" pos="173.79" speed="6.77"/>
                <vehicle id="366" pos="241.27" speed="7.93"/>
                <vehicle id="376" pos="272.98" speed="7.80"/>
            </lane>
        </edge>
        <edge id="gneE5">
            <lane id="gneE5_0">
                <vehicle id="553" pos="5.10" speed="0.00"/>
                <vehicle id="535" pos="96.74" speed="5.91"/>
            </lane>
        </edge>
        <edge id="gneE50">
            <lane id="gneE50_0">
                <vehicle id="536" pos="92.28" speed="5.54"/>
                <vehicle id="523" pos="161.18" speed="4.89"/>
                <vehicle id="505" pos="259.39" speed="4.95"/>
                <vehicle id="420" pos="321.52" speed="5.31"/>
            </lane>
        </edge>
        <edge id="gneE51">
            <lane id="gneE51_0">
                <vehicle id="544" pos="55.46" speed="6.11"/>
                <vehicle id="375" pos="102.99" speed="6.59"/>
                <vehicle id="344" pos="127.21" speed="6.97"/>
                <vehicle id="B3_2" pos="207.11" speed="5.95"/>
                <vehicle id="498" pos="329.39" speed="0.46"/>
                <vehicle id="374" pos="339.22" speed="1.93"/>
                <vehicle id="483" pos="349.55" speed="1.72"/>
                <vehicle id="279" pos="358.12" speed="0.39"/>
                <vehicle id="413" pos="365.79" speed="0.04"/>
            </lane>
        </edge>
        <edge id="gneE52">
            <lane id="gneE52_0">
                <vehicle id="435" pos="60.18" speed="5.79"/>
                <vehicle id="395" pos="301.21" speed="6.79"/>
            </lane>
        </edge>
        <edge id="gneE53">
            <lane id="gneE53_0">
                <vehicle id="310" pos="41.99" speed="6.27"/>
                <vehicle id="261" pos="57.41" speed="6.86"/>
                <vehicle id="207" pos="244.18" speed="3.69"/>
                <vehicle id="B4_2" pos="256.55" speed="4.86"/>
                <vehicle id="473" pos="270.98" speed="3.53"/>
                <vehicle id="469" pos="280.87" speed="2.04"/>
                <vehicle id="486" pos="289.49" speed="0.98"/>
                <vehicle id="448" pos="299.38" speed="1.86"/>
                <vehicle id="233" pos="310.10" speed="3.20"/>
                <vehicle id="431" pos="319.73" speed="1.36"/>
                <vehicle id="401" pos="329.70" speed="1.89"/>
                <vehicle id="441" pos="341.60" speed="4.02"/>
            </lane>
        </edge>
        <edge id="gneE54">
            <lane id="gneE54_0">
                <vehicle id="547" pos="36.90" speed="6.45"/>
                <vehicle id="312" pos="72.70" speed="6.15"/>
            </lane>
        </edge>
        <edge id="gneE58">
            <lane id="gneE58_0">
                <vehicle id="443" pos="50.89" speed="7.26"/>
                <vehicle id="419" pos="167.08" speed="7.67"/>
                <vehicle id="524" pos="211.05" speed="6.80"/>
            </lane>
        </edge>
        <edge id="gneE59">
            <lane id="gneE59_0">
                <vehicle id="478" pos="234.23" speed="8.50"/>
                <vehicle id="514" pos="265.22" speed="8.49"/>
                <vehicle id="470" pos="297.18" speed="8.78"/>
                <vehicle id="302" pos="317.24" speed="0.73"/>
            </lane>
        </edge>
        <edge id="gneE6">
            <lane id="gneE6_0">
                <vehicle id="500" pos="64.06" speed="7.35"/>
                <vehicle id="329" pos="89.17" speed="7.81"/>
            </lane>
        </edge>
        <edge id="gneE60">
            <lane id="gneE60_0">
                <vehicle id="467" pos="262.55" speed="0.00"/>
                <vehicle id="349" pos="270.05" speed="0.00"/>
                <vehicle id="398" pos="277.65" speed="0.10"/>
                <vehicle id="387" pos="286.97" speed="1.76"/>
                <vehicle id="416" pos="295.95" speed="1.22"/>
                <vehicle id="320" pos="308.71" speed="4.37"/>
                <vehicle id="356" pos="321.19" speed="3.95"/>
                <vehicle id="287" pos="329.53" speed="0.40"/>
                <vehicle id="340" pos="337.41" speed="0.18"/>
            </lane>
        </edge>
        <edge id="gneE61">
            <lane id="gneE61_0">
                <vehicle id="446" pos="59.07" speed="7.13"/>
                <vehicle id="515" pos="259.43" speed="7.49"/>
                <vehicle id="489" pos="276.48" speed="6.95"/>
            </lane>
        </edge>
        <edge id="gneE7">
            <lane id="gneE7_0">
                <vehicle id="552" pos="6.46" speed="1.36"/>
                <vehicle id="534" pos="122.34" speed="7.88"/>
                <vehicle id="480" pos="151.43" speed="8.78"/>
                <vehicle id="385" pos="262.03" speed="8.90"/>
            </lane>
        </edge>
        <edge id="gneE8">
            <lane id="gneE8_0">
                <vehicle id="477" pos="1.94" speed="7.29"/>
                <vehicle id="426" pos="89.28" speed="7.27"/>
            </lane>
        </edge>
    </timestep>
