<?xml version="1.0"?>
<timestep time="559.00">
        <edge id=":gneJ11_39">
            <lane id=":gneJ11_39_0">
                <vehicle id="456" pos="5.49" speed="3.64"/>
            </lane>
        </edge>
        <edge id=":gneJ15_0">
            <lane id=":gneJ15_0_0">
                <vehicle id="399" pos="0.10" speed="4.10"/>
            </lane>
        </edge>
        <edge id=":gneJ15_2">
            <lane id=":gneJ15_2_0">
                <vehicle id="408" pos="18.89" speed="7.70"/>
            </lane>
        </edge>
        <edge id=":gneJ28_12">
            <lane id=":gneJ28_12_0">
                <vehicle id="529" pos="13.66" speed="8.83"/>
            </lane>
        </edge>
        <edge id=":gneJ8_6">
            <lane id=":gneJ8_6_0">
                <vehicle id="474" pos="4.21" speed="7.13"/>
            </lane>
        </edge>
        <edge id="gneE10">
            <lane id="gneE10_0">
                <vehicle id="479" pos="64.87" speed="5.05"/>
            </lane>
        </edge>
        <edge id="gneE11">
            <lane id="gneE11_0">
                <vehicle id="554" pos="35.79" speed="8.77"/>
                <vehicle id="549" pos="55.72" speed="8.17"/>
                <vehicle id="455" pos="84.67" speed="8.49"/>
                <vehicle id="506" pos="132.34" speed="8.14"/>
            </lane>
        </edge>
        <edge id="gneE12">
            <lane id="gneE12_0">
                <vehicle id="410" pos="71.57" speed="13.86"/>
                <vehicle id="275" pos="115.16" speed="12.69"/>
                <vehicle id="492" pos="151.30" speed="13.13"/>
                <vehicle id="377" pos="227.08" speed="12.92"/>
                <vehicle id="235" pos="284.97" speed="12.90"/>
            </lane>
        </edge>
        <edge id="gneE13">
            <lane id="gneE13_0">
                <vehicle id="501" pos="45.16" speed="8.68"/>
                <vehicle id="550" pos="64.44" speed="8.74"/>
                <vehicle id="531" pos="252.77" speed="8.75"/>
                <vehicle id="507" pos="281.46" speed="9.46"/>
            </lane>
        </edge>
        <edge id="gneE14">
            <lane id="gneE14_0">
                <vehicle id="548" pos="93.88" speed="10.65"/>
            </lane>
        </edge>
        <edge id="gneE15">
            <lane id="gneE15_0">
                <vehicle id="485" pos="8.78" speed="8.66"/>
                <vehicle id="433" pos="66.87" speed="8.91"/>
                <vehicle id="471" pos="91.83" speed="8.10"/>
                <vehicle id="545" pos="109.23" speed="8.24"/>
            </lane>
        </edge>
        <edge id="gneE17">
            <lane id="gneE17_0">
                <vehicle id="427" pos="12.96" speed="8.62"/>
                <vehicle id="495" pos="29.60" speed="9.45"/>
                <vehicle id="394" pos="93.48" speed="9.31"/>
                <vehicle id="380" pos="135.56" speed="8.54"/>
                <vehicle id="541" pos="155.63" speed="9.89"/>
                <vehicle id="B2_2" pos="179.71" speed="9.24"/>
                <vehicle id="379" pos="210.94" speed="9.27"/>
                <vehicle id="491" pos="271.68" speed="8.92"/>
            </lane>
        </edge>
        <edge id="gneE18">
            <lane id="gneE18_0">
                <vehicle id="302" pos="2.34" speed="5.42"/>
                <vehicle id="450" pos="26.57" speed="9.07"/>
                <vehicle id="518" pos="48.26" speed="9.67"/>
                <vehicle id="488" pos="173.63" speed="9.62"/>
                <vehicle id="537" pos="194.20" speed="9.53"/>
                <vehicle id="370" pos="240.13" speed="9.97"/>
            </lane>
        </edge>
        <edge id="gneE19">
            <lane id="gneE19_0">
                <vehicle id="542" pos="175.53" speed="12.62"/>
                <vehicle id="445" pos="215.33" speed="0.01"/>
                <vehicle id="440" pos="222.83" speed="0.00"/>
                <vehicle id="367" pos="230.33" speed="0.00"/>
                <vehicle id="439" pos="237.83" speed="0.00"/>
                <vehicle id="409" pos="245.33" speed="0.00"/>
                <vehicle id="231" pos="252.83" speed="0.00"/>
                <vehicle id="397" pos="260.34" speed="0.00"/>
                <vehicle id="389" pos="267.84" speed="0.00"/>
                <vehicle id="392" pos="276.90" speed="1.56"/>
            </lane>
        </edge>
        <edge id="gneE20">
            <lane id="gneE20_0">
                <vehicle id="364" pos="5.19" speed="8.60"/>
                <vehicle id="453" pos="61.84" speed="7.80"/>
                <vehicle id="442" pos="107.45" speed="8.40"/>
                <vehicle id="513" pos="164.12" speed="8.87"/>
                <vehicle id="363" pos="188.23" speed="7.87"/>
                <vehicle id="511" pos="209.83" speed="8.81"/>
            </lane>
        </edge>
        <edge id="gneE23">
            <lane id="gneE23_0">
                <vehicle id="559" pos="5.10" speed="0.00"/>
                <vehicle id="405" pos="146.57" speed="6.84"/>
                <vehicle id="339" pos="168.26" speed="6.76"/>
            </lane>
        </edge>
        <edge id="gneE24">
            <lane id="gneE24_0">
                <vehicle id="458" pos="179.31" speed="12.44"/>
            </lane>
        </edge>
        <edge id="gneE25">
            <lane id="gneE25_0">
                <vehicle id="465" pos="94.01" speed="9.84"/>
                <vehicle id="429" pos="202.48" speed="9.59"/>
                <vehicle id="496" pos="275.55" speed="1.92"/>
                <vehicle id="519" pos="283.33" speed="0.00"/>
                <vehicle id="325" pos="290.83" speed="0.00"/>
            </lane>
        </edge>
        <edge id="gneE26">
            <lane id="gneE26_0">
                <vehicle id="502" pos="15.00" speed="6.38"/>
                <vehicle id="521" pos="100.92" speed="6.30"/>
                <vehicle id="530" pos="152.15" speed="5.93"/>
                <vehicle id="510" pos="178.37" speed="6.57"/>
                <vehicle id="497" pos="267.23" speed="6.65"/>
                <vehicle id="452" pos="290.08" speed="3.80"/>
            </lane>
        </edge>
        <edge id="gneE27">
            <lane id="gneE27_0">
                <vehicle id="418" pos="1.67" speed="5.72"/>
                <vehicle id="454" pos="17.07" speed="5.88"/>
                <vehicle id="382" pos="36.76" speed="4.75"/>
                <vehicle id="358" pos="132.58" speed="5.93"/>
            </lane>
        </edge>
        <edge id="gneE28">
            <lane id="gneE28_0">
                <vehicle id="359" pos="13.71" speed="8.84"/>
                <vehicle id="481" pos="34.74" speed="8.95"/>
                <vehicle id="444" pos="129.70" speed="8.46"/>
            </lane>
        </edge>
        <edge id="gneE3">
            <lane id="gneE3_0">
                <vehicle id="516" pos="68.08" speed="9.95"/>
                <vehicle id="512" pos="91.65" speed="9.80"/>
                <vehicle id="546" pos="110.76" speed="9.12"/>
            </lane>
        </edge>
        <edge id="gneE30">
            <lane id="gneE30_0">
                <vehicle id="404" pos="8.49" speed="8.92"/>
                <vehicle id="499" pos="271.61" speed="8.32"/>
            </lane>
        </edge>
        <edge id="gneE31">
            <lane id="gneE31_0">
                <vehicle id="385" pos="2.08" speed="8.84"/>
                <vehicle id="460" pos="81.14" speed="7.78"/>
                <vehicle id="373" pos="200.41" speed="8.48"/>
                <vehicle id="330" pos="219.67" speed="8.97"/>
                <vehicle id="425" pos="288.14" speed="8.19"/>
            </lane>
        </edge>
        <edge id="gneE32">
            <lane id="gneE32_0">
                <vehicle id="381" pos="17.43" speed="7.97"/>
                <vehicle id="490" pos="71.72" speed="6.99"/>
                <vehicle id="525" pos="95.36" speed="7.36"/>
                <vehicle id="400" pos="123.59" speed="6.80"/>
                <vehicle id="539" pos="142.01" speed="7.33"/>
                <vehicle id="527" pos="221.81" speed="7.88"/>
                <vehicle id="472" pos="239.04" speed="6.95"/>
                <vehicle id="390" pos="257.92" speed="7.98"/>
            </lane>
        </edge>
        <edge id="gneE38">
            <lane id="gneE38_0">
                <vehicle id="350" pos="13.11" speed="7.98"/>
                <vehicle id="457" pos="89.84" speed="8.87"/>
                <vehicle id="421" pos="109.31" speed="8.65"/>
                <vehicle id="532" pos="204.23" speed="8.17"/>
                <vehicle id="508" pos="230.32" speed="7.99"/>
                <vehicle id="528" pos="244.30" speed="3.96"/>
                <vehicle id="333" pos="252.97" speed="0.00"/>
                <vehicle id="B1_2" pos="260.47" speed="0.00"/>
                <vehicle id="402" pos="267.97" speed="0.00"/>
                <vehicle id="430" pos="275.47" speed="0.00"/>
                <vehicle id="393" pos="282.97" speed="0.00"/>
                <vehicle id="464" pos="290.47" speed="0.00"/>
                <vehicle id="436" pos="297.97" speed="0.00"/>
                <vehicle id="396" pos="305.47" speed="0.00"/>
                <vehicle id="451" pos="312.98" speed="0.00"/>
                <vehicle id="449" pos="320.94" speed="0.47"/>
                <vehicle id="336" pos="331.41" speed="2.85"/>
            </lane>
        </edge>
        <edge id="gneE4">
            <lane id="gneE4_0">
                <vehicle id="437" pos="152.17" speed="9.36"/>
            </lane>
        </edge>
        <edge id="gneE42">
            <lane id="gneE42_0">
                <vehicle id="551" pos="50.83" speed="7.77"/>
                <vehicle id="316" pos="74.73" speed="7.73"/>
            </lane>
        </edge>
        <edge id="gneE43">
            <lane id="gneE43_0">
                <vehicle id="482" pos="17.02" speed="5.89"/>
                <vehicle id="526" pos="36.94" speed="6.63"/>
                <vehicle id="493" pos="86.74" speed="6.04"/>
                <vehicle id="522" pos="227.53" speed="5.86"/>
                <vehicle id="520" pos="244.62" speed="6.40"/>
                <vehicle id="434" pos="284.85" speed="4.59"/>
                <vehicle id="428" pos="298.04" speed="4.98"/>
                <vehicle id="459" pos="306.58" speed="0.55"/>
            </lane>
        </edge>
        <edge id="gneE45">
            <lane id="gneE45_0">
                <vehicle id="557" pos="9.87" speed="3.25"/>
                <vehicle id="406" pos="79.33" speed="8.46"/>
                <vehicle id="543" pos="103.05" speed="8.38"/>
                <vehicle id="517" pos="123.87" speed="7.71"/>
            </lane>
        </edge>
        <edge id="gneE46">
            <lane id="gneE46_0">
                <vehicle id="487" pos="78.85" speed="9.62"/>
                <vehicle id="298" pos="161.07" speed="8.71"/>
                <vehicle id="538" pos="181.78" speed="9.92"/>
            </lane>
        </edge>
        <edge id="gneE47">
            <lane id="gneE47_0">
                <vehicle id="555" pos="25.25" speed="7.62"/>
                <vehicle id="494" pos="124.27" speed="7.91"/>
                <vehicle id="461" pos="154.47" speed="8.47"/>
            </lane>
        </edge>
        <edge id="gneE48">
            <lane id="gneE48_0">
                <vehicle id="337" pos="47.66" speed="6.20"/>
                <vehicle id="533" pos="164.51" speed="6.70"/>
                <vehicle id="503" pos="207.66" speed="6.44"/>
                <vehicle id="504" pos="252.13" speed="0.00"/>
                <vehicle id="338" pos="259.63" speed="0.00"/>
                <vehicle id="254" pos="267.13" speed="0.00"/>
                <vehicle id="468" pos="274.63" speed="0.00"/>
                <vehicle id="463" pos="282.13" speed="0.00"/>
                <vehicle id="424" pos="289.64" speed="0.00"/>
                <vehicle id="423" pos="297.14" speed="0.00"/>
                <vehicle id="415" pos="304.64" speed="0.00"/>
                <vehicle id="227" pos="312.14" speed="0.00"/>
                <vehicle id="296" pos="319.64" speed="0.00"/>
            </lane>
        </edge>
        <edge id="gneE49">
            <lane id="gneE49_0">
                <vehicle id="383" pos="36.53" speed="6.74"/>
                <vehicle id="293" pos="70.45" speed="7.17"/>
                <vehicle id="540" pos="135.14" speed="6.95"/>
                <vehicle id="403" pos="171.64" speed="7.77"/>
                <vehicle id="361" pos="191.51" speed="7.65"/>
                <vehicle id="509" pos="218.81" speed="7.38"/>
                <vehicle id="366" pos="284.49" speed="6.87"/>
                <vehicle id="376" pos="316.02" speed="6.27"/>
            </lane>
        </edge>
        <edge id="gneE5">
            <lane id="gneE5_0">
                <vehicle id="553" pos="30.54" speed="4.84"/>
                <vehicle id="535" pos="128.77" speed="5.15"/>
            </lane>
        </edge>
        <edge id="gneE50">
            <lane id="gneE50_0">
                <vehicle id="536" pos="124.00" speed="5.18"/>
                <vehicle id="523" pos="193.12" speed="5.43"/>
                <vehicle id="505" pos="292.34" speed="6.00"/>
                <vehicle id="420" pos="352.94" speed="5.04"/>
            </lane>
        </edge>
        <edge id="gneE51">
            <lane id="gneE51_0">
                <vehicle id="544" pos="93.18" speed="6.62"/>
                <vehicle id="375" pos="142.22" speed="6.47"/>
                <vehicle id="344" pos="167.21" speed="6.92"/>
                <vehicle id="B3_2" pos="245.03" speed="5.73"/>
                <vehicle id="498" pos="335.71" speed="0.18"/>
                <vehicle id="374" pos="343.27" speed="0.03"/>
                <vehicle id="483" pos="350.80" speed="0.00"/>
                <vehicle id="279" pos="358.30" speed="0.00"/>
                <vehicle id="413" pos="365.80" speed="0.00"/>
            </lane>
        </edge>
        <edge id="gneE52">
            <lane id="gneE52_0">
                <vehicle id="435" pos="99.13" speed="6.93"/>
                <vehicle id="395" pos="339.84" speed="6.87"/>
            </lane>
        </edge>
        <edge id="gneE53">
            <lane id="gneE53_0">
                <vehicle id="310" pos="78.91" speed="5.27"/>
                <vehicle id="261" pos="94.91" speed="6.53"/>
                <vehicle id="207" pos="263.05" speed="3.58"/>
                <vehicle id="B4_2" pos="271.53" speed="0.77"/>
                <vehicle id="473" pos="281.46" speed="2.20"/>
                <vehicle id="469" pos="291.44" speed="2.01"/>
                <vehicle id="486" pos="302.21" speed="2.39"/>
                <vehicle id="448" pos="311.94" speed="2.08"/>
                <vehicle id="233" pos="320.34" speed="0.56"/>
                <vehicle id="431" pos="328.10" speed="0.10"/>
                <vehicle id="401" pos="335.66" speed="0.00"/>
                <vehicle id="441" pos="343.16" speed="0.00"/>
            </lane>
        </edge>
        <edge id="gneE54">
            <lane id="gneE54_0">
                <vehicle id="547" pos="76.39" speed="5.88"/>
                <vehicle id="312" pos="111.09" speed="6.66"/>
            </lane>
        </edge>
        <edge id="gneE58">
            <lane id="gneE58_0">
                <vehicle id="443" pos="96.44" speed="7.24"/>
                <vehicle id="419" pos="211.70" speed="6.96"/>
                <vehicle id="524" pos="254.82" speed="7.04"/>
            </lane>
        </edge>
        <edge id="gneE59">
            <lane id="gneE59_0">
                <vehicle id="478" pos="283.74" speed="8.57"/>
                <vehicle id="514" pos="303.50" speed="1.20"/>
                <vehicle id="470" pos="314.67" speed="3.17"/>
            </lane>
        </edge>
        <edge id="gneE6">
            <lane id="gneE6_0">
                <vehicle id="500" pos="109.23" speed="7.81"/>
                <vehicle id="329" pos="133.52" speed="6.98"/>
            </lane>
        </edge>
        <edge id="gneE60">
            <lane id="gneE60_0">
                <vehicle id="467" pos="271.50" speed="4.14"/>
                <vehicle id="349" pos="281.76" speed="1.45"/>
                <vehicle id="398" pos="290.87" speed="0.62"/>
                <vehicle id="387" pos="299.28" speed="0.48"/>
                <vehicle id="416" pos="307.40" speed="0.28"/>
                <vehicle id="320" pos="315.02" speed="0.07"/>
                <vehicle id="356" pos="322.55" speed="0.01"/>
                <vehicle id="287" pos="330.06" speed="0.00"/>
                <vehicle id="340" pos="337.56" speed="0.00"/>
            </lane>
        </edge>
        <edge id="gneE61">
            <lane id="gneE61_0">
                <vehicle id="368" pos="40.53" speed="7.63"/>
                <vehicle id="446" pos="103.25" speed="7.27"/>
                <vehicle id="515" pos="303.54" speed="7.98"/>
                <vehicle id="489" pos="320.92" speed="7.00"/>
            </lane>
        </edge>
        <edge id="gneE7">
            <lane id="gneE7_0">
                <vehicle id="552" pos="48.69" speed="8.24"/>
                <vehicle id="534" pos="172.83" speed="8.33"/>
                <vehicle id="480" pos="203.69" speed="8.91"/>
            </lane>
        </edge>
        <edge id="gneE8">
            <lane id="gneE8_0">
                <vehicle id="556" pos="16.66" speed="5.89"/>
                <vehicle id="477" pos="44.69" speed="7.24"/>
                <vehicle id="426" pos="132.36" speed="7.48"/>
            </lane>
        </edge>
    </timestep>
