<?xml version="1.0"?>
<timestep time="564.00">
        <edge id=":gneJ11_7">
            <lane id=":gneJ11_7_0">
                <vehicle id="413" pos="10.57" speed="5.64"/>
            </lane>
        </edge>
        <edge id=":gneJ11_14">
            <lane id=":gneJ11_14_0">
                <vehicle id="296" pos="1.36" speed="1.46"/>
            </lane>
        </edge>
        <edge id=":gneJ11_39">
            <lane id=":gneJ11_39_0">
                <vehicle id="392" pos="27.07" speed="8.86"/>
            </lane>
        </edge>
        <edge id=":gneJ15_3">
            <lane id=":gneJ15_3_0">
                <vehicle id="336" pos="2.20" speed="2.35"/>
            </lane>
        </edge>
        <edge id=":gneJ28_2">
            <lane id=":gneJ28_2_0">
                <vehicle id="461" pos="0.96" speed="7.62"/>
            </lane>
        </edge>
        <edge id=":gneJ4_2">
            <lane id=":gneJ4_2_0">
                <vehicle id="546" pos="0.79" speed="6.76"/>
            </lane>
        </edge>
        <edge id=":gneJ8_2">
            <lane id=":gneJ8_2_0">
                <vehicle id="325" pos="1.33" speed="1.44"/>
            </lane>
        </edge>
        <edge id="gneE1">
            <lane id="gneE1_0">
                <vehicle id="563" pos="6.46" speed="1.36"/>
            </lane>
        </edge>
        <edge id="gneE10">
            <lane id="gneE10_0">
                <vehicle id="561" pos="15.64" speed="4.79"/>
                <vehicle id="479" pos="91.55" speed="5.48"/>
            </lane>
        </edge>
        <edge id="gneE11">
            <lane id="gneE11_0">
                <vehicle id="499" pos="9.20" speed="8.53"/>
                <vehicle id="554" pos="78.19" speed="8.20"/>
                <vehicle id="549" pos="98.08" speed="8.88"/>
                <vehicle id="455" pos="125.22" speed="8.24"/>
            </lane>
        </edge>
        <edge id="gneE12">
            <lane id="gneE12_0">
                <vehicle id="506" pos="45.13" speed="12.70"/>
                <vehicle id="410" pos="137.55" speed="13.05"/>
                <vehicle id="275" pos="180.72" speed="12.88"/>
                <vehicle id="492" pos="217.53" speed="13.59"/>
                <vehicle id="377" pos="290.56" speed="10.47"/>
            </lane>
        </edge>
        <edge id="gneE13">
            <lane id="gneE13_0">
                <vehicle id="562" pos="11.61" speed="4.16"/>
                <vehicle id="501" pos="90.96" speed="9.02"/>
                <vehicle id="550" pos="111.65" speed="9.64"/>
                <vehicle id="531" pos="296.59" speed="6.58"/>
            </lane>
        </edge>
        <edge id="gneE14">
            <lane id="gneE14_0">
                <vehicle id="474" pos="49.33" speed="10.34"/>
                <vehicle id="548" pos="147.25" speed="10.17"/>
            </lane>
        </edge>
        <edge id="gneE15">
            <lane id="gneE15_0">
                <vehicle id="485" pos="50.51" speed="8.64"/>
                <vehicle id="433" pos="108.98" speed="8.22"/>
                <vehicle id="471" pos="133.72" speed="8.70"/>
                <vehicle id="545" pos="152.00" speed="8.81"/>
            </lane>
        </edge>
        <edge id="gneE17">
            <lane id="gneE17_0">
                <vehicle id="427" pos="57.34" speed="9.14"/>
                <vehicle id="495" pos="76.04" speed="8.75"/>
                <vehicle id="394" pos="138.96" speed="8.97"/>
                <vehicle id="380" pos="183.74" speed="9.69"/>
                <vehicle id="541" pos="202.69" speed="9.27"/>
                <vehicle id="B2_2" pos="226.34" speed="9.03"/>
                <vehicle id="379" pos="259.03" speed="9.99"/>
            </lane>
        </edge>
        <edge id="gneE18">
            <lane id="gneE18_0">
                <vehicle id="514" pos="7.10" speed="9.53"/>
                <vehicle id="470" pos="28.19" speed="9.24"/>
                <vehicle id="302" pos="47.46" speed="9.11"/>
                <vehicle id="450" pos="73.04" speed="9.17"/>
                <vehicle id="518" pos="93.08" speed="8.71"/>
                <vehicle id="488" pos="220.60" speed="9.82"/>
                <vehicle id="537" pos="240.38" speed="9.62"/>
                <vehicle id="370" pos="286.18" speed="8.83"/>
            </lane>
        </edge>
        <edge id="gneE19">
            <lane id="gneE19_0">
                <vehicle id="542" pos="207.75" speed="0.18"/>
                <vehicle id="445" pos="215.33" speed="0.00"/>
                <vehicle id="440" pos="222.83" speed="0.00"/>
                <vehicle id="367" pos="230.33" speed="0.00"/>
                <vehicle id="439" pos="238.00" speed="0.16"/>
                <vehicle id="409" pos="247.39" speed="1.85"/>
                <vehicle id="231" pos="258.45" speed="3.41"/>
                <vehicle id="397" pos="271.52" speed="4.96"/>
                <vehicle id="389" pos="282.10" speed="1.93"/>
            </lane>
        </edge>
        <edge id="gneE20">
            <lane id="gneE20_0">
                <vehicle id="458" pos="24.03" speed="8.30"/>
                <vehicle id="364" pos="46.00" speed="8.17"/>
                <vehicle id="453" pos="103.44" speed="8.93"/>
                <vehicle id="442" pos="148.84" speed="8.41"/>
                <vehicle id="513" pos="205.21" speed="8.09"/>
                <vehicle id="363" pos="228.10" speed="7.78"/>
                <vehicle id="511" pos="252.60" speed="8.63"/>
            </lane>
        </edge>
        <edge id="gneE23">
            <lane id="gneE23_0">
                <vehicle id="560" pos="9.11" speed="2.67"/>
                <vehicle id="559" pos="34.56" speed="7.36"/>
                <vehicle id="405" pos="183.40" speed="7.68"/>
            </lane>
        </edge>
        <edge id="gneE24">
            <lane id="gneE24_0">
                <vehicle id="452" pos="14.62" speed="7.93"/>
                <vehicle id="408" pos="55.59" speed="12.23"/>
            </lane>
        </edge>
        <edge id="gneE25">
            <lane id="gneE25_0">
                <vehicle id="465" pos="140.71" speed="9.22"/>
                <vehicle id="429" pos="248.92" speed="9.86"/>
                <vehicle id="496" pos="275.83" speed="0.00"/>
                <vehicle id="519" pos="283.33" speed="0.00"/>
            </lane>
        </edge>
        <edge id="gneE26">
            <lane id="gneE26_0">
                <vehicle id="507" pos="8.05" speed="6.47"/>
                <vehicle id="502" pos="47.12" speed="6.71"/>
                <vehicle id="521" pos="130.76" speed="5.97"/>
                <vehicle id="530" pos="183.55" speed="5.98"/>
                <vehicle id="510" pos="211.44" speed="5.89"/>
                <vehicle id="497" pos="290.09" speed="1.13"/>
            </lane>
        </edge>
        <edge id="gneE27">
            <lane id="gneE27_0">
                <vehicle id="399" pos="14.34" speed="5.91"/>
                <vehicle id="418" pos="28.09" speed="5.12"/>
                <vehicle id="454" pos="43.60" speed="5.33"/>
                <vehicle id="382" pos="63.67" speed="5.67"/>
            </lane>
        </edge>
        <edge id="gneE28">
            <lane id="gneE28_0">
                <vehicle id="425" pos="34.97" speed="8.92"/>
                <vehicle id="359" pos="56.04" speed="8.68"/>
                <vehicle id="481" pos="76.07" speed="7.88"/>
            </lane>
        </edge>
        <edge id="gneE3">
            <lane id="gneE3_0">
                <vehicle id="491" pos="6.89" speed="8.79"/>
                <vehicle id="516" pos="114.22" speed="8.84"/>
                <vehicle id="512" pos="137.92" speed="9.92"/>
            </lane>
        </edge>
        <edge id="gneE30">
            <lane id="gneE30_0">
                <vehicle id="358" pos="17.91" speed="8.24"/>
                <vehicle id="404" pos="49.63" speed="8.71"/>
            </lane>
        </edge>
        <edge id="gneE31">
            <lane id="gneE31_0">
                <vehicle id="385" pos="44.19" speed="7.85"/>
                <vehicle id="460" pos="122.67" speed="8.39"/>
                <vehicle id="373" pos="241.97" speed="8.38"/>
                <vehicle id="330" pos="261.71" speed="7.81"/>
            </lane>
        </edge>
        <edge id="gneE32">
            <lane id="gneE32_0">
                <vehicle id="339" pos="2.18" speed="6.78"/>
                <vehicle id="381" pos="54.59" speed="6.93"/>
                <vehicle id="490" pos="106.98" speed="7.54"/>
                <vehicle id="525" pos="132.01" speed="7.14"/>
                <vehicle id="400" pos="159.61" speed="7.20"/>
                <vehicle id="539" pos="177.26" speed="7.23"/>
                <vehicle id="527" pos="257.85" speed="6.81"/>
                <vehicle id="472" pos="275.46" speed="7.29"/>
                <vehicle id="390" pos="295.94" speed="7.36"/>
            </lane>
        </edge>
        <edge id="gneE38">
            <lane id="gneE38_0">
                <vehicle id="350" pos="55.67" speed="8.61"/>
                <vehicle id="457" pos="130.40" speed="8.61"/>
                <vehicle id="421" pos="149.81" speed="8.63"/>
                <vehicle id="532" pos="229.98" speed="1.39"/>
                <vehicle id="508" pos="237.94" speed="0.10"/>
                <vehicle id="528" pos="245.47" speed="0.01"/>
                <vehicle id="333" pos="252.97" speed="0.00"/>
                <vehicle id="B1_2" pos="260.47" speed="0.00"/>
                <vehicle id="402" pos="267.97" speed="0.00"/>
                <vehicle id="430" pos="275.47" speed="0.00"/>
                <vehicle id="393" pos="283.06" speed="0.09"/>
                <vehicle id="464" pos="291.46" speed="0.84"/>
                <vehicle id="436" pos="301.18" speed="2.15"/>
                <vehicle id="396" pos="314.50" speed="5.21"/>
                <vehicle id="451" pos="325.94" speed="2.74"/>
                <vehicle id="449" pos="334.89" speed="1.06"/>
            </lane>
        </edge>
        <edge id="gneE42">
            <lane id="gneE42_0">
                <vehicle id="551" pos="86.77" speed="7.21"/>
                <vehicle id="316" pos="112.75" speed="7.05"/>
            </lane>
        </edge>
        <edge id="gneE43">
            <lane id="gneE43_0">
                <vehicle id="529" pos="31.47" speed="5.98"/>
                <vehicle id="482" pos="48.24" speed="6.11"/>
                <vehicle id="526" pos="69.89" speed="6.40"/>
                <vehicle id="493" pos="117.71" speed="6.25"/>
                <vehicle id="522" pos="259.65" speed="6.16"/>
                <vehicle id="520" pos="277.12" speed="6.60"/>
                <vehicle id="434" pos="291.70" speed="0.05"/>
                <vehicle id="428" pos="299.23" speed="0.00"/>
                <vehicle id="459" pos="306.73" speed="0.00"/>
            </lane>
        </edge>
        <edge id="gneE45">
            <lane id="gneE45_0">
                <vehicle id="557" pos="48.35" speed="8.70"/>
                <vehicle id="406" pos="120.71" speed="8.72"/>
                <vehicle id="543" pos="144.53" speed="8.48"/>
                <vehicle id="517" pos="165.95" speed="8.55"/>
            </lane>
        </edge>
        <edge id="gneE46">
            <lane id="gneE46_0">
                <vehicle id="487" pos="125.39" speed="9.50"/>
            </lane>
        </edge>
        <edge id="gneE47">
            <lane id="gneE47_0">
                <vehicle id="376" pos="26.42" speed="8.26"/>
                <vehicle id="555" pos="67.00" speed="8.35"/>
                <vehicle id="494" pos="166.31" speed="8.41"/>
            </lane>
        </edge>
        <edge id="gneE48">
            <lane id="gneE48_0">
                <vehicle id="538" pos="17.48" speed="5.92"/>
                <vehicle id="337" pos="78.02" speed="6.09"/>
                <vehicle id="533" pos="197.06" speed="6.71"/>
                <vehicle id="503" pos="240.59" speed="6.94"/>
                <vehicle id="504" pos="252.13" speed="0.00"/>
                <vehicle id="338" pos="259.63" speed="0.00"/>
                <vehicle id="254" pos="267.13" speed="0.00"/>
                <vehicle id="468" pos="274.63" speed="0.00"/>
                <vehicle id="463" pos="282.13" speed="0.00"/>
                <vehicle id="424" pos="289.64" speed="0.00"/>
                <vehicle id="423" pos="297.14" speed="0.00"/>
                <vehicle id="415" pos="304.64" speed="0.00"/>
                <vehicle id="227" pos="312.14" speed="0.00"/>
            </lane>
        </edge>
        <edge id="gneE49">
            <lane id="gneE49_0">
                <vehicle id="456" pos="11.95" speed="6.81"/>
                <vehicle id="383" pos="73.40" speed="6.73"/>
                <vehicle id="293" pos="105.81" speed="6.77"/>
                <vehicle id="540" pos="170.35" speed="6.89"/>
                <vehicle id="403" pos="207.67" speed="6.87"/>
                <vehicle id="361" pos="228.53" speed="7.95"/>
                <vehicle id="509" pos="255.17" speed="7.01"/>
                <vehicle id="366" pos="317.08" speed="4.89"/>
            </lane>
        </edge>
        <edge id="gneE5">
            <lane id="gneE5_0">
                <vehicle id="235" pos="8.82" speed="4.70"/>
                <vehicle id="553" pos="57.72" speed="5.58"/>
            </lane>
        </edge>
        <edge id="gneE50">
            <lane id="gneE50_0">
                <vehicle id="536" pos="149.53" speed="5.10"/>
                <vehicle id="523" pos="218.49" speed="5.22"/>
                <vehicle id="505" pos="318.31" speed="5.76"/>
            </lane>
        </edge>
        <edge id="gneE51">
            <lane id="gneE51_0">
                <vehicle id="544" pos="125.19" speed="6.88"/>
                <vehicle id="375" pos="174.82" speed="5.73"/>
                <vehicle id="344" pos="198.66" speed="6.07"/>
                <vehicle id="B3_2" pos="276.20" speed="5.99"/>
                <vehicle id="498" pos="335.79" speed="0.00"/>
                <vehicle id="374" pos="343.30" speed="0.00"/>
                <vehicle id="483" pos="351.36" speed="0.56"/>
                <vehicle id="279" pos="362.77" speed="3.51"/>
            </lane>
        </edge>
        <edge id="gneE52">
            <lane id="gneE52_0">
                <vehicle id="435" pos="130.90" speed="6.88"/>
            </lane>
        </edge>
        <edge id="gneE53">
            <lane id="gneE53_0">
                <vehicle id="310" pos="110.64" speed="6.48"/>
                <vehicle id="261" pos="126.38" speed="6.09"/>
                <vehicle id="207" pos="272.04" speed="2.53"/>
                <vehicle id="B4_2" pos="280.55" speed="0.49"/>
                <vehicle id="473" pos="289.51" speed="1.13"/>
                <vehicle id="469" pos="297.88" speed="0.56"/>
                <vehicle id="486" pos="305.57" speed="0.16"/>
                <vehicle id="448" pos="313.13" speed="0.02"/>
                <vehicle id="233" pos="320.66" speed="0.01"/>
                <vehicle id="431" pos="328.16" speed="0.00"/>
                <vehicle id="401" pos="335.66" speed="0.00"/>
                <vehicle id="441" pos="343.16" speed="0.00"/>
            </lane>
        </edge>
        <edge id="gneE54">
            <lane id="gneE54_0">
                <vehicle id="395" pos="18.45" speed="6.14"/>
                <vehicle id="547" pos="109.37" speed="6.82"/>
            </lane>
        </edge>
        <edge id="gneE58">
            <lane id="gneE58_0">
                <vehicle id="564" pos="5.10" speed="0.00"/>
                <vehicle id="443" pos="133.92" speed="7.19"/>
                <vehicle id="419" pos="248.34" speed="7.65"/>
                <vehicle id="524" pos="291.74" speed="7.68"/>
            </lane>
        </edge>
        <edge id="gneE59">
            <lane id="gneE59_0">
                <vehicle id="515" pos="1.30" speed="7.13"/>
                <vehicle id="489" pos="18.78" speed="8.18"/>
                <vehicle id="478" pos="313.42" speed="6.66"/>
            </lane>
        </edge>
        <edge id="gneE6">
            <lane id="gneE6_0">
                <vehicle id="500" pos="146.91" speed="7.81"/>
            </lane>
        </edge>
        <edge id="gneE60">
            <lane id="gneE60_0">
                <vehicle id="467" pos="277.31" speed="0.18"/>
                <vehicle id="349" pos="284.97" speed="0.05"/>
                <vehicle id="398" pos="292.52" speed="0.04"/>
                <vehicle id="387" pos="300.05" speed="0.02"/>
                <vehicle id="416" pos="307.55" speed="0.00"/>
                <vehicle id="320" pos="315.06" speed="0.00"/>
                <vehicle id="356" pos="322.56" speed="0.00"/>
                <vehicle id="287" pos="330.06" speed="0.00"/>
                <vehicle id="340" pos="337.56" speed="0.00"/>
            </lane>
        </edge>
        <edge id="gneE61">
            <lane id="gneE61_0">
                <vehicle id="368" pos="77.47" speed="7.74"/>
                <vehicle id="446" pos="139.58" speed="6.85"/>
            </lane>
        </edge>
        <edge id="gneE7">
            <lane id="gneE7_0">
                <vehicle id="535" pos="6.13" speed="6.68"/>
                <vehicle id="552" pos="89.37" speed="8.03"/>
                <vehicle id="534" pos="215.08" speed="8.66"/>
                <vehicle id="480" pos="245.21" speed="7.88"/>
            </lane>
        </edge>
        <edge id="gneE8">
            <lane id="gneE8_0">
                <vehicle id="556" pos="52.51" speed="6.74"/>
                <vehicle id="477" pos="81.57" speed="7.81"/>
                <vehicle id="426" pos="169.24" speed="6.81"/>
            </lane>
        </edge>
    </timestep>
