<?xml version="1.0"?>
<timestep time="575.00">
        <edge id=":gneJ11_4">
            <lane id=":gneJ11_4_0">
                <vehicle id="408" pos="1.42" speed="7.74"/>
            </lane>
        </edge>
        <edge id=":gneJ15_17">
            <lane id=":gneJ15_17_0">
                <vehicle id="359" pos="6.73" speed="8.51"/>
            </lane>
        </edge>
        <edge id=":gneJ28_5">
            <lane id=":gneJ28_5_0">
                <vehicle id="505" pos="10.01" speed="6.87"/>
            </lane>
        </edge>
        <edge id=":gneJ3_0">
            <lane id=":gneJ3_0_0">
                <vehicle id="541" pos="5.20" speed="5.91"/>
            </lane>
        </edge>
        <edge id=":gneJ6_5">
            <lane id=":gneJ6_5_0">
                <vehicle id="534" pos="4.76" speed="8.45"/>
            </lane>
        </edge>
        <edge id=":gneJ9_5">
            <lane id=":gneJ9_5_0">
                <vehicle id="488" pos="4.21" speed="4.17"/>
            </lane>
        </edge>
        <edge id="gneE1">
            <lane id="gneE1_0">
                <vehicle id="563" pos="53.24" speed="4.26"/>
            </lane>
        </edge>
        <edge id="gneE10">
            <lane id="gneE10_0">
                <vehicle id="496" pos="2.94" speed="5.12"/>
                <vehicle id="519" pos="18.22" speed="5.83"/>
                <vehicle id="471" pos="32.28" speed="5.12"/>
                <vehicle id="561" pos="72.91" speed="5.32"/>
                <vehicle id="479" pos="138.94" speed="0.04"/>
            </lane>
        </edge>
        <edge id="gneE11">
            <lane id="gneE11_0">
                <vehicle id="499" pos="101.75" speed="8.05"/>
            </lane>
        </edge>
        <edge id="gneE12">
            <lane id="gneE12_0">
                <vehicle id="433" pos="34.18" speed="13.09"/>
                <vehicle id="506" pos="189.74" speed="12.60"/>
                <vehicle id="410" pos="284.47" speed="12.78"/>
            </lane>
        </edge>
        <edge id="gneE13">
            <lane id="gneE13_0">
                <vehicle id="516" pos="58.82" speed="9.99"/>
                <vehicle id="546" pos="89.41" speed="8.73"/>
                <vehicle id="562" pos="108.40" speed="9.17"/>
                <vehicle id="501" pos="195.40" speed="9.68"/>
                <vehicle id="550" pos="215.68" speed="9.16"/>
                <vehicle id="531" pos="301.18" speed="0.00"/>
            </lane>
        </edge>
        <edge id="gneE14">
            <lane id="gneE14_0">
                <vehicle id="325" pos="87.19" speed="10.76"/>
                <vehicle id="474" pos="158.23" speed="6.96"/>
            </lane>
        </edge>
        <edge id="gneE15">
            <lane id="gneE15_0">
                <vehicle id="537" pos="10.00" speed="7.00"/>
                <vehicle id="485" pos="143.16" speed="8.98"/>
            </lane>
        </edge>
        <edge id="gneE17">
            <lane id="gneE17_0">
                <vehicle id="363" pos="22.71" speed="8.56"/>
                <vehicle id="569" pos="41.24" speed="9.68"/>
                <vehicle id="548" pos="73.61" speed="9.81"/>
                <vehicle id="427" pos="159.27" speed="9.65"/>
                <vehicle id="495" pos="179.94" speed="9.75"/>
                <vehicle id="394" pos="243.95" speed="9.51"/>
                <vehicle id="380" pos="276.51" speed="4.98"/>
            </lane>
        </edge>
        <edge id="gneE18">
            <lane id="gneE18_0">
                <vehicle id="558" pos="63.08" speed="9.56"/>
                <vehicle id="478" pos="88.79" speed="8.84"/>
                <vehicle id="514" pos="108.58" speed="9.20"/>
                <vehicle id="470" pos="129.70" speed="9.16"/>
                <vehicle id="302" pos="151.12" speed="9.51"/>
                <vehicle id="450" pos="176.29" speed="9.34"/>
                <vehicle id="518" pos="195.74" speed="9.82"/>
            </lane>
        </edge>
        <edge id="gneE19">
            <lane id="gneE19_0">
                <vehicle id="370" pos="122.01" speed="12.40"/>
                <vehicle id="542" pos="221.59" speed="0.73"/>
                <vehicle id="445" pos="229.91" speed="0.53"/>
                <vehicle id="440" pos="237.64" speed="0.14"/>
                <vehicle id="367" pos="245.27" speed="0.07"/>
                <vehicle id="439" pos="252.83" speed="0.01"/>
                <vehicle id="409" pos="260.34" speed="0.00"/>
                <vehicle id="231" pos="267.84" speed="0.00"/>
                <vehicle id="397" pos="275.34" speed="0.00"/>
                <vehicle id="389" pos="282.84" speed="0.00"/>
            </lane>
        </edge>
        <edge id="gneE2">
            <lane id="gneE2_0">
                <vehicle id="B2_2" pos="15.32" speed="9.84"/>
            </lane>
        </edge>
        <edge id="gneE20">
            <lane id="gneE20_0">
                <vehicle id="340" pos="11.27" speed="8.96"/>
                <vehicle id="483" pos="35.07" speed="8.92"/>
                <vehicle id="296" pos="51.69" speed="7.81"/>
                <vehicle id="413" pos="73.60" speed="7.78"/>
                <vehicle id="458" pos="115.01" speed="8.41"/>
                <vehicle id="364" pos="135.36" speed="8.07"/>
                <vehicle id="453" pos="194.28" speed="8.24"/>
                <vehicle id="442" pos="237.15" speed="8.35"/>
            </lane>
        </edge>
        <edge id="gneE23">
            <lane id="gneE23_0">
                <vehicle id="575" pos="5.10" speed="0.00"/>
                <vehicle id="227" pos="16.58" speed="7.19"/>
                <vehicle id="560" pos="85.71" speed="7.32"/>
                <vehicle id="559" pos="113.99" speed="6.86"/>
            </lane>
        </edge>
        <edge id="gneE24">
            <lane id="gneE24_0">
                <vehicle id="481" pos="26.65" speed="12.87"/>
                <vehicle id="452" pos="147.40" speed="12.56"/>
            </lane>
        </edge>
        <edge id="gneE25">
            <lane id="gneE25_0">
                <vehicle id="449" pos="56.11" speed="9.72"/>
                <vehicle id="405" pos="85.02" speed="9.83"/>
                <vehicle id="465" pos="244.79" speed="9.35"/>
                <vehicle id="429" pos="284.72" speed="4.87"/>
            </lane>
        </edge>
        <edge id="gneE26">
            <lane id="gneE26_0">
                <vehicle id="554" pos="4.46" speed="5.97"/>
                <vehicle id="549" pos="24.80" speed="6.58"/>
                <vehicle id="545" pos="55.71" speed="5.83"/>
                <vehicle id="507" pos="79.56" speed="6.83"/>
                <vehicle id="502" pos="117.18" speed="6.24"/>
                <vehicle id="521" pos="199.64" speed="6.50"/>
                <vehicle id="530" pos="255.04" speed="6.04"/>
                <vehicle id="510" pos="280.15" speed="5.18"/>
                <vehicle id="497" pos="290.83" speed="0.00"/>
            </lane>
        </edge>
        <edge id="gneE27">
            <lane id="gneE27_0">
                <vehicle id="399" pos="71.03" speed="4.72"/>
                <vehicle id="418" pos="86.30" speed="4.98"/>
                <vehicle id="454" pos="102.32" speed="4.78"/>
                <vehicle id="382" pos="123.97" speed="5.89"/>
            </lane>
        </edge>
        <edge id="gneE28">
            <lane id="gneE28_0">
                <vehicle id="572" pos="14.98" speed="5.45"/>
                <vehicle id="373" pos="38.18" speed="8.57"/>
                <vehicle id="330" pos="56.64" speed="8.88"/>
                <vehicle id="425" pos="125.94" speed="8.05"/>
            </lane>
        </edge>
        <edge id="gneE3">
            <lane id="gneE3_0">
                <vehicle id="573" pos="11.10" speed="3.82"/>
                <vehicle id="379" pos="59.13" speed="9.31"/>
                <vehicle id="491" pos="110.36" speed="8.85"/>
            </lane>
        </edge>
        <edge id="gneE30">
            <lane id="gneE30_0">
                <vehicle id="358" pos="108.20" speed="8.17"/>
                <vehicle id="404" pos="141.48" speed="7.98"/>
            </lane>
        </edge>
        <edge id="gneE31">
            <lane id="gneE31_0">
                <vehicle id="480" pos="22.89" speed="7.84"/>
                <vehicle id="385" pos="135.81" speed="8.43"/>
                <vehicle id="460" pos="215.18" speed="8.62"/>
            </lane>
        </edge>
        <edge id="gneE32">
            <lane id="gneE32_0">
                <vehicle id="339" pos="84.24" speed="7.91"/>
                <vehicle id="381" pos="136.33" speed="7.21"/>
                <vehicle id="490" pos="187.09" speed="7.60"/>
                <vehicle id="525" pos="214.84" speed="7.39"/>
                <vehicle id="400" pos="241.35" speed="6.93"/>
                <vehicle id="539" pos="259.18" speed="6.98"/>
                <vehicle id="527" pos="338.30" speed="7.14"/>
            </lane>
        </edge>
        <edge id="gneE38">
            <lane id="gneE38_0">
                <vehicle id="551" pos="11.96" speed="7.90"/>
                <vehicle id="350" pos="147.20" speed="7.94"/>
                <vehicle id="457" pos="214.30" speed="3.79"/>
                <vehicle id="421" pos="223.83" speed="1.48"/>
                <vehicle id="532" pos="233.04" speed="1.68"/>
                <vehicle id="508" pos="243.75" speed="3.20"/>
                <vehicle id="528" pos="254.87" speed="2.82"/>
                <vehicle id="333" pos="265.57" speed="2.57"/>
                <vehicle id="B1_2" pos="277.87" speed="3.69"/>
                <vehicle id="402" pos="291.69" speed="5.75"/>
                <vehicle id="430" pos="301.98" speed="2.01"/>
                <vehicle id="393" pos="311.50" speed="1.50"/>
                <vehicle id="464" pos="320.19" speed="0.38"/>
                <vehicle id="436" pos="327.96" speed="0.24"/>
                <vehicle id="396" pos="335.48" speed="0.00"/>
                <vehicle id="451" pos="342.98" speed="0.00"/>
            </lane>
        </edge>
        <edge id="gneE4">
            <lane id="gneE4_0">
                <vehicle id="492" pos="17.40" speed="9.35"/>
                <vehicle id="377" pos="36.52" speed="8.83"/>
                <vehicle id="565" pos="62.39" speed="9.16"/>
                <vehicle id="500" pos="88.89" speed="9.17"/>
            </lane>
        </edge>
        <edge id="gneE41">
            <lane id="gneE41_0">
                <vehicle id="390" pos="34.61" speed="8.54"/>
            </lane>
        </edge>
        <edge id="gneE43">
            <lane id="gneE43_0">
                <vehicle id="494" pos="31.39" speed="6.33"/>
                <vehicle id="529" pos="101.90" speed="6.12"/>
                <vehicle id="482" pos="118.44" speed="7.00"/>
                <vehicle id="526" pos="139.70" speed="5.88"/>
                <vehicle id="493" pos="186.07" speed="6.12"/>
                <vehicle id="522" pos="276.72" speed="0.00"/>
                <vehicle id="520" pos="284.23" speed="0.00"/>
                <vehicle id="434" pos="291.73" speed="0.00"/>
                <vehicle id="428" pos="299.23" speed="0.00"/>
                <vehicle id="459" pos="306.73" speed="0.00"/>
            </lane>
        </edge>
        <edge id="gneE45">
            <lane id="gneE45_0">
                <vehicle id="336" pos="62.23" speed="8.00"/>
                <vehicle id="557" pos="138.60" speed="8.55"/>
                <vehicle id="406" pos="211.25" speed="8.76"/>
                <vehicle id="543" pos="235.34" speed="8.03"/>
                <vehicle id="517" pos="258.10" speed="8.57"/>
            </lane>
        </edge>
        <edge id="gneE46">
            <lane id="gneE46_0">
                <vehicle id="568" pos="54.01" speed="9.51"/>
            </lane>
        </edge>
        <edge id="gneE47">
            <lane id="gneE47_0">
                <vehicle id="509" pos="3.71" speed="7.92"/>
                <vehicle id="547" pos="35.54" speed="7.76"/>
                <vehicle id="376" pos="119.21" speed="8.54"/>
                <vehicle id="555" pos="160.32" speed="8.67"/>
            </lane>
        </edge>
        <edge id="gneE48">
            <lane id="gneE48_0">
                <vehicle id="566" pos="55.16" speed="6.86"/>
                <vehicle id="538" pos="85.74" speed="5.87"/>
                <vehicle id="337" pos="145.70" speed="5.89"/>
                <vehicle id="533" pos="237.15" speed="0.03"/>
                <vehicle id="503" pos="244.97" speed="0.31"/>
                <vehicle id="504" pos="253.28" speed="0.70"/>
                <vehicle id="338" pos="263.83" speed="2.60"/>
                <vehicle id="254" pos="272.90" speed="0.58"/>
                <vehicle id="468" pos="281.64" speed="0.72"/>
                <vehicle id="463" pos="291.32" speed="2.08"/>
                <vehicle id="424" pos="303.84" speed="3.79"/>
                <vehicle id="423" pos="317.89" speed="5.53"/>
            </lane>
        </edge>
        <edge id="gneE49">
            <lane id="gneE49_0">
                <vehicle id="571" pos="23.84" speed="6.74"/>
                <vehicle id="392" pos="74.19" speed="6.75"/>
                <vehicle id="456" pos="93.03" speed="7.27"/>
                <vehicle id="383" pos="155.45" speed="7.82"/>
                <vehicle id="293" pos="185.29" speed="6.95"/>
                <vehicle id="540" pos="251.33" speed="6.75"/>
                <vehicle id="403" pos="288.37" speed="7.06"/>
                <vehicle id="361" pos="310.44" speed="7.20"/>
            </lane>
        </edge>
        <edge id="gneE5">
            <lane id="gneE5_0">
                <vehicle id="512" pos="41.00" speed="4.80"/>
                <vehicle id="235" pos="68.43" speed="4.73"/>
                <vehicle id="553" pos="116.71" speed="4.93"/>
            </lane>
        </edge>
        <edge id="gneE50">
            <lane id="gneE50_0">
                <vehicle id="415" pos="3.01" speed="5.53"/>
                <vehicle id="536" pos="207.72" speed="5.26"/>
                <vehicle id="523" pos="277.04" speed="4.94"/>
            </lane>
        </edge>
        <edge id="gneE51">
            <lane id="gneE51_0">
                <vehicle id="461" pos="56.51" speed="5.92"/>
                <vehicle id="544" pos="195.07" speed="5.91"/>
                <vehicle id="375" pos="241.18" speed="5.71"/>
                <vehicle id="344" pos="267.90" speed="6.56"/>
                <vehicle id="B3_2" pos="345.36" speed="6.63"/>
                <vehicle id="498" pos="365.77" speed="0.22"/>
            </lane>
        </edge>
        <edge id="gneE52">
            <lane id="gneE52_0">
                <vehicle id="435" pos="200.10" speed="5.81"/>
            </lane>
        </edge>
        <edge id="gneE53">
            <lane id="gneE53_0">
                <vehicle id="574" pos="7.27" speed="2.17"/>
                <vehicle id="310" pos="179.98" speed="6.07"/>
                <vehicle id="261" pos="195.68" speed="6.24"/>
                <vehicle id="207" pos="275.65" speed="0.00"/>
                <vehicle id="B4_2" pos="283.15" speed="0.00"/>
                <vehicle id="473" pos="290.65" speed="0.00"/>
                <vehicle id="469" pos="298.15" speed="0.00"/>
                <vehicle id="486" pos="305.65" speed="0.00"/>
                <vehicle id="448" pos="313.15" speed="0.00"/>
                <vehicle id="233" pos="320.66" speed="0.00"/>
                <vehicle id="431" pos="328.16" speed="0.00"/>
                <vehicle id="401" pos="335.66" speed="0.00"/>
                <vehicle id="441" pos="343.16" speed="0.00"/>
            </lane>
        </edge>
        <edge id="gneE54">
            <lane id="gneE54_0">
                <vehicle id="395" pos="89.99" speed="6.72"/>
            </lane>
        </edge>
        <edge id="gneE55">
            <lane id="gneE55_0">
                <vehicle id="487" pos="17.50" speed="7.11"/>
                <vehicle id="366" pos="71.91" speed="6.92"/>
            </lane>
        </edge>
        <edge id="gneE58">
            <lane id="gneE58_0">
                <vehicle id="564" pos="76.68" speed="7.91"/>
                <vehicle id="443" pos="214.42" speed="7.73"/>
            </lane>
        </edge>
        <edge id="gneE59">
            <lane id="gneE59_0">
                <vehicle id="567" pos="58.48" speed="8.04"/>
                <vehicle id="515" pos="94.44" speed="8.97"/>
                <vehicle id="489" pos="113.15" speed="8.84"/>
            </lane>
        </edge>
        <edge id="gneE60">
            <lane id="gneE60_0">
                <vehicle id="419" pos="4.01" speed="5.93"/>
                <vehicle id="524" pos="43.81" speed="6.91"/>
                <vehicle id="467" pos="277.55" speed="0.00"/>
                <vehicle id="349" pos="285.05" speed="0.00"/>
                <vehicle id="398" pos="292.55" speed="0.00"/>
                <vehicle id="387" pos="300.24" speed="0.18"/>
                <vehicle id="416" pos="308.98" speed="1.12"/>
                <vehicle id="320" pos="320.85" speed="3.90"/>
                <vehicle id="356" pos="329.73" speed="0.47"/>
                <vehicle id="287" pos="337.56" speed="0.01"/>
            </lane>
        </edge>
        <edge id="gneE61">
            <lane id="gneE61_0">
                <vehicle id="368" pos="158.62" speed="7.62"/>
                <vehicle id="446" pos="219.48" speed="7.43"/>
            </lane>
        </edge>
        <edge id="gneE7">
            <lane id="gneE7_0">
                <vehicle id="535" pos="100.54" speed="8.66"/>
                <vehicle id="552" pos="181.20" speed="8.71"/>
            </lane>
        </edge>
        <edge id="gneE8">
            <lane id="gneE8_0">
                <vehicle id="556" pos="133.18" speed="7.61"/>
                <vehicle id="477" pos="161.78" speed="7.28"/>
                <vehicle id="426" pos="250.51" speed="7.37"/>
            </lane>
        </edge>
    </timestep>
