<?xml version="1.0"?>
<timestep time="578.00">
        <edge id=":gneJ11_21">
            <lane id=":gneJ11_21_0">
                <vehicle id="441" pos="11.63" speed="5.82"/>
            </lane>
        </edge>
        <edge id=":gneJ15_1">
            <lane id=":gneJ15_1_0">
                <vehicle id="451" pos="4.77" speed="3.44"/>
            </lane>
        </edge>
        <edge id=":gneJ3_1">
            <lane id=":gneJ3_1_0">
                <vehicle id="380" pos="15.89" speed="10.28"/>
            </lane>
        </edge>
        <edge id=":gneJ8_5">
            <lane id=":gneJ8_5_0">
                <vehicle id="485" pos="4.40" speed="4.96"/>
            </lane>
        </edge>
        <edge id="gneE1">
            <lane id="gneE1_0">
                <vehicle id="563" pos="65.61" speed="3.98"/>
            </lane>
        </edge>
        <edge id="gneE10">
            <lane id="gneE10_0">
                <vehicle id="496" pos="19.49" speed="5.85"/>
                <vehicle id="519" pos="34.37" speed="5.80"/>
                <vehicle id="471" pos="48.83" speed="5.91"/>
                <vehicle id="561" pos="89.63" speed="5.48"/>
            </lane>
        </edge>
        <edge id="gneE11">
            <lane id="gneE11_0">
                <vehicle id="499" pos="127.24" speed="8.79"/>
            </lane>
        </edge>
        <edge id="gneE12">
            <lane id="gneE12_0">
                <vehicle id="433" pos="74.97" speed="13.53"/>
                <vehicle id="506" pos="228.43" speed="12.66"/>
            </lane>
        </edge>
        <edge id="gneE13">
            <lane id="gneE13_0">
                <vehicle id="516" pos="87.56" speed="9.61"/>
                <vehicle id="546" pos="117.01" speed="9.83"/>
                <vehicle id="562" pos="136.38" speed="9.63"/>
                <vehicle id="501" pos="222.67" speed="9.06"/>
                <vehicle id="550" pos="244.13" speed="9.99"/>
                <vehicle id="531" pos="301.18" speed="0.00"/>
            </lane>
        </edge>
        <edge id="gneE14">
            <lane id="gneE14_0">
                <vehicle id="325" pos="118.90" speed="10.18"/>
            </lane>
        </edge>
        <edge id="gneE15">
            <lane id="gneE15_0">
                <vehicle id="488" pos="16.98" speed="8.66"/>
                <vehicle id="537" pos="35.81" speed="8.60"/>
            </lane>
        </edge>
        <edge id="gneE17">
            <lane id="gneE17_0">
                <vehicle id="578" pos="5.10" speed="0.00"/>
                <vehicle id="363" pos="51.53" speed="9.79"/>
                <vehicle id="569" pos="69.21" speed="8.74"/>
                <vehicle id="548" pos="102.10" speed="9.64"/>
                <vehicle id="427" pos="186.76" speed="8.85"/>
                <vehicle id="495" pos="209.27" speed="9.57"/>
                <vehicle id="394" pos="272.50" speed="8.94"/>
            </lane>
        </edge>
        <edge id="gneE18">
            <lane id="gneE18_0">
                <vehicle id="558" pos="90.64" speed="9.86"/>
                <vehicle id="478" pos="115.97" speed="8.95"/>
                <vehicle id="514" pos="135.84" speed="9.27"/>
                <vehicle id="470" pos="157.02" speed="9.28"/>
                <vehicle id="302" pos="178.04" speed="8.88"/>
                <vehicle id="450" pos="204.44" speed="8.90"/>
                <vehicle id="518" pos="223.05" speed="8.73"/>
            </lane>
        </edge>
        <edge id="gneE19">
            <lane id="gneE19_0">
                <vehicle id="474" pos="0.82" speed="6.48"/>
                <vehicle id="370" pos="158.91" speed="11.77"/>
                <vehicle id="542" pos="222.69" speed="0.18"/>
                <vehicle id="445" pos="230.27" speed="0.07"/>
                <vehicle id="440" pos="237.82" speed="0.03"/>
                <vehicle id="367" pos="245.33" speed="0.01"/>
                <vehicle id="439" pos="252.83" speed="0.00"/>
                <vehicle id="409" pos="260.34" speed="0.00"/>
                <vehicle id="231" pos="267.84" speed="0.00"/>
                <vehicle id="397" pos="275.34" speed="0.00"/>
                <vehicle id="389" pos="282.84" speed="0.00"/>
            </lane>
        </edge>
        <edge id="gneE2">
            <lane id="gneE2_0">
                <vehicle id="B2_2" pos="46.17" speed="10.26"/>
            </lane>
        </edge>
        <edge id="gneE20">
            <lane id="gneE20_0">
                <vehicle id="340" pos="37.02" speed="8.46"/>
                <vehicle id="483" pos="60.11" speed="8.80"/>
                <vehicle id="296" pos="75.85" speed="7.76"/>
                <vehicle id="413" pos="97.99" speed="7.88"/>
                <vehicle id="458" pos="140.17" speed="8.26"/>
                <vehicle id="364" pos="159.20" speed="8.22"/>
                <vehicle id="453" pos="218.07" speed="8.19"/>
                <vehicle id="442" pos="262.72" speed="8.57"/>
            </lane>
        </edge>
        <edge id="gneE23">
            <lane id="gneE23_0">
                <vehicle id="575" pos="17.73" speed="6.14"/>
                <vehicle id="227" pos="38.73" speed="7.24"/>
                <vehicle id="560" pos="106.98" speed="6.83"/>
                <vehicle id="559" pos="136.81" speed="7.99"/>
            </lane>
        </edge>
        <edge id="gneE24">
            <lane id="gneE24_0">
                <vehicle id="359" pos="29.22" speed="12.50"/>
                <vehicle id="481" pos="63.34" speed="11.75"/>
                <vehicle id="452" pos="181.72" speed="9.45"/>
            </lane>
        </edge>
        <edge id="gneE25">
            <lane id="gneE25_0">
                <vehicle id="449" pos="84.02" speed="8.82"/>
                <vehicle id="405" pos="113.33" speed="9.21"/>
                <vehicle id="465" pos="273.48" speed="9.75"/>
            </lane>
        </edge>
        <edge id="gneE26">
            <lane id="gneE26_0">
                <vehicle id="554" pos="24.51" speed="6.47"/>
                <vehicle id="549" pos="43.66" speed="6.58"/>
                <vehicle id="545" pos="73.71" speed="5.87"/>
                <vehicle id="507" pos="98.44" speed="5.77"/>
                <vehicle id="502" pos="136.92" speed="6.36"/>
                <vehicle id="521" pos="218.14" speed="6.28"/>
                <vehicle id="530" pos="273.67" speed="6.22"/>
                <vehicle id="510" pos="283.26" speed="0.11"/>
                <vehicle id="497" pos="290.83" speed="0.00"/>
            </lane>
        </edge>
        <edge id="gneE27">
            <lane id="gneE27_0">
                <vehicle id="399" pos="86.70" speed="5.03"/>
                <vehicle id="418" pos="101.65" speed="4.97"/>
                <vehicle id="454" pos="118.46" speed="5.51"/>
                <vehicle id="382" pos="139.64" speed="5.81"/>
            </lane>
        </edge>
        <edge id="gneE28">
            <lane id="gneE28_0">
                <vehicle id="572" pos="38.97" speed="8.75"/>
                <vehicle id="373" pos="62.70" speed="8.59"/>
                <vehicle id="330" pos="81.74" speed="8.46"/>
            </lane>
        </edge>
        <edge id="gneE3">
            <lane id="gneE3_0">
                <vehicle id="541" pos="13.10" speed="7.36"/>
                <vehicle id="573" pos="31.75" speed="8.33"/>
                <vehicle id="379" pos="88.24" speed="9.93"/>
                <vehicle id="491" pos="139.40" speed="9.76"/>
            </lane>
        </edge>
        <edge id="gneE30">
            <lane id="gneE30_0">
                <vehicle id="358" pos="133.51" speed="8.06"/>
                <vehicle id="404" pos="166.37" speed="8.56"/>
            </lane>
        </edge>
        <edge id="gneE31">
            <lane id="gneE31_0">
                <vehicle id="479" pos="1.37" speed="4.39"/>
                <vehicle id="534" pos="19.86" speed="7.81"/>
                <vehicle id="480" pos="47.82" speed="7.99"/>
                <vehicle id="385" pos="161.69" speed="8.85"/>
                <vehicle id="460" pos="240.93" speed="8.59"/>
            </lane>
        </edge>
        <edge id="gneE32">
            <lane id="gneE32_0">
                <vehicle id="339" pos="107.38" speed="7.37"/>
                <vehicle id="381" pos="158.35" speed="7.66"/>
                <vehicle id="490" pos="208.56" speed="6.76"/>
                <vehicle id="525" pos="237.36" speed="6.87"/>
                <vehicle id="400" pos="263.53" speed="7.54"/>
                <vehicle id="539" pos="281.94" speed="7.74"/>
            </lane>
        </edge>
        <edge id="gneE38">
            <lane id="gneE38_0">
                <vehicle id="551" pos="36.88" speed="8.48"/>
                <vehicle id="350" pos="172.24" speed="8.17"/>
                <vehicle id="457" pos="219.03" speed="1.47"/>
                <vehicle id="421" pos="230.34" speed="3.73"/>
                <vehicle id="532" pos="241.19" speed="2.52"/>
                <vehicle id="508" pos="252.22" speed="3.46"/>
                <vehicle id="528" pos="265.47" speed="4.95"/>
                <vehicle id="333" pos="276.42" speed="2.86"/>
                <vehicle id="B1_2" pos="286.91" speed="1.94"/>
                <vehicle id="402" pos="296.85" speed="1.81"/>
                <vehicle id="430" pos="304.93" speed="0.31"/>
                <vehicle id="393" pos="312.89" speed="0.16"/>
                <vehicle id="464" pos="320.46" speed="0.06"/>
                <vehicle id="436" pos="327.98" speed="0.00"/>
                <vehicle id="396" pos="336.32" speed="0.85"/>
            </lane>
        </edge>
        <edge id="gneE4">
            <lane id="gneE4_0">
                <vehicle id="570" pos="7.35" speed="2.25"/>
                <vehicle id="492" pos="45.91" speed="9.81"/>
                <vehicle id="377" pos="64.11" speed="8.86"/>
                <vehicle id="565" pos="89.30" speed="8.81"/>
                <vehicle id="500" pos="115.61" speed="8.92"/>
            </lane>
        </edge>
        <edge id="gneE41">
            <lane id="gneE41_0">
                <vehicle id="576" pos="5.10" speed="0.00"/>
                <vehicle id="527" pos="15.42" speed="8.58"/>
                <vehicle id="390" pos="60.41" speed="8.33"/>
            </lane>
        </edge>
        <edge id="gneE43">
            <lane id="gneE43_0">
                <vehicle id="505" pos="9.55" speed="5.77"/>
                <vehicle id="494" pos="49.91" speed="6.05"/>
                <vehicle id="529" pos="120.03" speed="6.56"/>
                <vehicle id="482" pos="137.23" speed="5.79"/>
                <vehicle id="526" pos="158.83" speed="6.29"/>
                <vehicle id="493" pos="205.20" speed="6.48"/>
                <vehicle id="522" pos="276.72" speed="0.00"/>
                <vehicle id="520" pos="284.23" speed="0.00"/>
                <vehicle id="434" pos="291.73" speed="0.00"/>
                <vehicle id="428" pos="299.23" speed="0.00"/>
                <vehicle id="459" pos="306.73" speed="0.00"/>
            </lane>
        </edge>
        <edge id="gneE45">
            <lane id="gneE45_0">
                <vehicle id="336" pos="87.25" speed="8.80"/>
                <vehicle id="557" pos="163.12" speed="8.24"/>
                <vehicle id="406" pos="234.96" speed="7.78"/>
                <vehicle id="543" pos="261.34" speed="8.56"/>
                <vehicle id="517" pos="282.86" speed="7.80"/>
            </lane>
        </edge>
        <edge id="gneE46">
            <lane id="gneE46_0">
                <vehicle id="568" pos="81.95" speed="9.54"/>
            </lane>
        </edge>
        <edge id="gneE47">
            <lane id="gneE47_0">
                <vehicle id="509" pos="29.13" speed="8.70"/>
                <vehicle id="547" pos="60.72" speed="8.55"/>
                <vehicle id="376" pos="143.68" speed="8.60"/>
                <vehicle id="555" pos="185.50" speed="8.84"/>
            </lane>
        </edge>
        <edge id="gneE48">
            <lane id="gneE48_0">
                <vehicle id="566" pos="75.07" speed="6.88"/>
                <vehicle id="538" pos="104.75" speed="6.46"/>
                <vehicle id="337" pos="163.45" speed="6.07"/>
                <vehicle id="533" pos="238.90" speed="1.11"/>
                <vehicle id="503" pos="249.03" speed="2.21"/>
                <vehicle id="504" pos="257.70" speed="0.80"/>
                <vehicle id="338" pos="266.99" speed="1.16"/>
                <vehicle id="254" pos="278.29" speed="3.13"/>
                <vehicle id="468" pos="292.91" speed="5.66"/>
                <vehicle id="463" pos="302.50" speed="1.35"/>
                <vehicle id="424" pos="311.80" speed="0.59"/>
                <vehicle id="423" pos="319.64" speed="0.12"/>
            </lane>
        </edge>
        <edge id="gneE49">
            <lane id="gneE49_0">
                <vehicle id="408" pos="7.01" speed="7.40"/>
                <vehicle id="571" pos="46.51" speed="7.46"/>
                <vehicle id="392" pos="95.63" speed="7.49"/>
                <vehicle id="456" pos="113.96" speed="7.07"/>
                <vehicle id="383" pos="177.24" speed="7.05"/>
                <vehicle id="293" pos="207.90" speed="7.60"/>
                <vehicle id="540" pos="273.32" speed="7.89"/>
                <vehicle id="403" pos="309.77" speed="6.93"/>
            </lane>
        </edge>
        <edge id="gneE5">
            <lane id="gneE5_0">
                <vehicle id="512" pos="57.95" speed="5.90"/>
                <vehicle id="235" pos="84.83" speed="5.30"/>
                <vehicle id="553" pos="132.27" speed="5.02"/>
            </lane>
        </edge>
        <edge id="gneE50">
            <lane id="gneE50_0">
                <vehicle id="415" pos="19.67" speed="5.96"/>
                <vehicle id="536" pos="222.88" speed="5.58"/>
                <vehicle id="523" pos="293.71" speed="5.82"/>
            </lane>
        </edge>
        <edge id="gneE51">
            <lane id="gneE51_0">
                <vehicle id="461" pos="75.39" speed="6.07"/>
                <vehicle id="544" pos="213.94" speed="6.03"/>
                <vehicle id="375" pos="261.11" speed="6.62"/>
                <vehicle id="344" pos="287.18" speed="6.67"/>
                <vehicle id="B3_2" pos="358.25" speed="1.92"/>
                <vehicle id="498" pos="365.80" speed="0.00"/>
            </lane>
        </edge>
        <edge id="gneE52">
            <lane id="gneE52_0">
                <vehicle id="435" pos="220.03" speed="6.29"/>
            </lane>
        </edge>
        <edge id="gneE53">
            <lane id="gneE53_0">
                <vehicle id="574" pos="24.48" speed="6.09"/>
                <vehicle id="310" pos="198.40" speed="5.16"/>
                <vehicle id="261" pos="213.59" speed="5.93"/>
                <vehicle id="207" pos="275.65" speed="0.00"/>
                <vehicle id="B4_2" pos="283.15" speed="0.00"/>
                <vehicle id="473" pos="290.65" speed="0.00"/>
                <vehicle id="469" pos="298.15" speed="0.00"/>
                <vehicle id="486" pos="305.65" speed="0.00"/>
                <vehicle id="448" pos="313.15" speed="0.00"/>
                <vehicle id="233" pos="320.66" speed="0.00"/>
                <vehicle id="431" pos="329.76" speed="1.60"/>
                <vehicle id="401" pos="340.67" speed="3.28"/>
            </lane>
        </edge>
        <edge id="gneE54">
            <lane id="gneE54_0">
                <vehicle id="395" pos="108.96" speed="6.08"/>
            </lane>
        </edge>
        <edge id="gneE55">
            <lane id="gneE55_0">
                <vehicle id="361" pos="6.98" speed="7.96"/>
                <vehicle id="487" pos="38.96" speed="6.74"/>
                <vehicle id="366" pos="93.82" speed="7.03"/>
            </lane>
        </edge>
        <edge id="gneE58">
            <lane id="gneE58_0">
                <vehicle id="577" pos="6.60" speed="1.50"/>
                <vehicle id="564" pos="98.62" speed="7.01"/>
                <vehicle id="443" pos="236.89" speed="7.77"/>
            </lane>
        </edge>
        <edge id="gneE59">
            <lane id="gneE59_0">
                <vehicle id="567" pos="83.41" speed="8.21"/>
                <vehicle id="515" pos="120.02" speed="8.67"/>
                <vehicle id="489" pos="138.59" speed="8.79"/>
            </lane>
        </edge>
        <edge id="gneE60">
            <lane id="gneE60_0">
                <vehicle id="419" pos="22.55" speed="6.37"/>
                <vehicle id="524" pos="63.12" speed="5.84"/>
                <vehicle id="467" pos="277.65" speed="0.10"/>
                <vehicle id="349" pos="285.79" speed="0.61"/>
                <vehicle id="398" pos="295.10" speed="1.78"/>
                <vehicle id="387" pos="305.51" speed="1.76"/>
                <vehicle id="416" pos="314.27" speed="0.71"/>
                <vehicle id="320" pos="322.55" speed="0.11"/>
                <vehicle id="356" pos="330.06" speed="0.00"/>
                <vehicle id="287" pos="337.56" speed="0.00"/>
            </lane>
        </edge>
        <edge id="gneE61">
            <lane id="gneE61_0">
                <vehicle id="368" pos="181.20" speed="7.49"/>
                <vehicle id="446" pos="242.12" speed="7.11"/>
            </lane>
        </edge>
        <edge id="gneE7">
            <lane id="gneE7_0">
                <vehicle id="535" pos="126.29" speed="8.47"/>
                <vehicle id="552" pos="205.67" speed="8.66"/>
            </lane>
        </edge>
        <edge id="gneE8">
            <lane id="gneE8_0">
                <vehicle id="556" pos="155.74" speed="6.82"/>
                <vehicle id="477" pos="184.59" speed="7.98"/>
                <vehicle id="426" pos="272.65" speed="7.75"/>
            </lane>
        </edge>
    </timestep>
