<?xml version="1.0"?>
<timestep time="582.00">
        <edge id=":gneJ11_7">
            <lane id=":gneJ11_7_0">
                <vehicle id="498" pos="2.29" speed="2.39"/>
            </lane>
        </edge>
        <edge id=":gneJ11_32">
            <lane id=":gneJ11_32_0">
                <vehicle id="287" pos="10.21" speed="5.18"/>
            </lane>
        </edge>
        <edge id=":gneJ15_12">
            <lane id=":gneJ15_12_0">
                <vehicle id="510" pos="3.70" speed="5.93"/>
            </lane>
        </edge>
        <edge id=":gneJ15_15">
            <lane id=":gneJ15_15_0">
                <vehicle id="497" pos="8.00" speed="1.59"/>
            </lane>
        </edge>
        <edge id=":gneJ28_12">
            <lane id=":gneJ28_12_0">
                <vehicle id="555" pos="11.95" speed="7.17"/>
            </lane>
        </edge>
        <edge id=":gneJ28_6">
            <lane id=":gneJ28_6_0">
                <vehicle id="517" pos="3.95" speed="6.36"/>
            </lane>
        </edge>
        <edge id=":gneJ3_0">
            <lane id=":gneJ3_0_0">
                <vehicle id="394" pos="12.88" speed="8.03"/>
            </lane>
        </edge>
        <edge id="gneE1">
            <lane id="gneE1_0">
                <vehicle id="563" pos="82.84" speed="3.77"/>
            </lane>
        </edge>
        <edge id="gneE10">
            <lane id="gneE10_0">
                <vehicle id="465" pos="3.69" speed="4.79"/>
                <vehicle id="496" pos="41.37" speed="5.64"/>
                <vehicle id="519" pos="55.16" speed="4.93"/>
                <vehicle id="471" pos="69.25" speed="5.04"/>
                <vehicle id="561" pos="110.82" speed="4.90"/>
            </lane>
        </edge>
        <edge id="gneE12">
            <lane id="gneE12_0">
                <vehicle id="485" pos="35.13" speed="12.70"/>
                <vehicle id="433" pos="127.38" speed="12.61"/>
                <vehicle id="506" pos="281.35" speed="13.30"/>
            </lane>
        </edge>
        <edge id="gneE13">
            <lane id="gneE13_0">
                <vehicle id="491" pos="17.59" speed="9.91"/>
                <vehicle id="516" pos="125.19" speed="9.74"/>
                <vehicle id="546" pos="153.53" speed="8.73"/>
                <vehicle id="562" pos="173.87" speed="9.59"/>
                <vehicle id="501" pos="260.69" speed="9.66"/>
                <vehicle id="550" pos="281.15" speed="9.79"/>
                <vehicle id="531" pos="301.18" speed="0.00"/>
            </lane>
        </edge>
        <edge id="gneE14">
            <lane id="gneE14_0">
                <vehicle id="325" pos="157.19" speed="6.45"/>
            </lane>
        </edge>
        <edge id="gneE15">
            <lane id="gneE15_0">
                <vehicle id="488" pos="52.44" speed="8.89"/>
                <vehicle id="537" pos="70.22" speed="8.92"/>
            </lane>
        </edge>
        <edge id="gneE17">
            <lane id="gneE17_0">
                <vehicle id="442" pos="5.59" speed="9.68"/>
                <vehicle id="578" pos="28.57" speed="9.25"/>
                <vehicle id="363" pos="88.12" speed="9.09"/>
                <vehicle id="569" pos="108.04" speed="9.90"/>
                <vehicle id="548" pos="139.68" speed="9.63"/>
                <vehicle id="427" pos="224.84" speed="9.15"/>
                <vehicle id="495" pos="247.20" speed="9.76"/>
            </lane>
        </edge>
        <edge id="gneE18">
            <lane id="gneE18_0">
                <vehicle id="558" pos="128.17" speed="9.53"/>
                <vehicle id="478" pos="153.14" speed="9.14"/>
                <vehicle id="514" pos="172.91" speed="8.75"/>
                <vehicle id="470" pos="195.11" speed="9.89"/>
                <vehicle id="302" pos="215.08" speed="10.00"/>
                <vehicle id="450" pos="240.20" speed="9.07"/>
                <vehicle id="518" pos="260.08" speed="8.85"/>
            </lane>
        </edge>
        <edge id="gneE19">
            <lane id="gneE19_0">
                <vehicle id="582" pos="5.10" speed="0.00"/>
                <vehicle id="474" pos="41.58" speed="11.75"/>
                <vehicle id="370" pos="206.69" speed="10.76"/>
                <vehicle id="542" pos="222.82" speed="0.02"/>
                <vehicle id="445" pos="230.33" speed="0.01"/>
                <vehicle id="440" pos="237.83" speed="0.00"/>
                <vehicle id="367" pos="245.33" speed="0.00"/>
                <vehicle id="439" pos="252.83" speed="0.00"/>
                <vehicle id="409" pos="260.34" speed="0.00"/>
                <vehicle id="231" pos="267.84" speed="0.00"/>
                <vehicle id="397" pos="275.34" speed="0.00"/>
                <vehicle id="389" pos="282.84" speed="0.00"/>
            </lane>
        </edge>
        <edge id="gneE2">
            <lane id="gneE2_0">
                <vehicle id="380" pos="38.62" speed="10.92"/>
                <vehicle id="B2_2" pos="87.80" speed="10.26"/>
            </lane>
        </edge>
        <edge id="gneE20">
            <lane id="gneE20_0">
                <vehicle id="441" pos="15.49" speed="8.16"/>
                <vehicle id="340" pos="70.28" speed="8.56"/>
                <vehicle id="483" pos="91.08" speed="8.28"/>
                <vehicle id="296" pos="110.09" speed="8.75"/>
                <vehicle id="413" pos="131.30" speed="7.81"/>
                <vehicle id="458" pos="173.06" speed="7.71"/>
                <vehicle id="364" pos="193.66" speed="8.82"/>
                <vehicle id="453" pos="251.21" speed="8.94"/>
            </lane>
        </edge>
        <edge id="gneE23">
            <lane id="gneE23_0">
                <vehicle id="575" pos="46.59" speed="7.10"/>
                <vehicle id="227" pos="68.39" speed="7.07"/>
                <vehicle id="560" pos="136.41" speed="7.80"/>
                <vehicle id="559" pos="163.98" speed="6.78"/>
            </lane>
        </edge>
        <edge id="gneE24">
            <lane id="gneE24_0">
                <vehicle id="359" pos="79.06" speed="11.87"/>
                <vehicle id="481" pos="112.87" speed="11.74"/>
            </lane>
        </edge>
        <edge id="gneE25">
            <lane id="gneE25_0">
                <vehicle id="451" pos="0.92" speed="2.40"/>
                <vehicle id="579" pos="13.91" speed="4.36"/>
                <vehicle id="449" pos="120.89" speed="9.42"/>
                <vehicle id="405" pos="151.04" speed="9.94"/>
            </lane>
        </edge>
        <edge id="gneE26">
            <lane id="gneE26_0">
                <vehicle id="499" pos="5.17" speed="5.96"/>
                <vehicle id="554" pos="49.76" speed="5.75"/>
                <vehicle id="549" pos="69.42" speed="6.06"/>
                <vehicle id="545" pos="99.57" speed="6.64"/>
                <vehicle id="507" pos="122.48" speed="6.38"/>
                <vehicle id="502" pos="163.06" speed="6.38"/>
                <vehicle id="521" pos="244.43" speed="6.45"/>
                <vehicle id="530" pos="280.52" speed="3.12"/>
            </lane>
        </edge>
        <edge id="gneE27">
            <lane id="gneE27_0">
                <vehicle id="399" pos="107.97" speed="4.87"/>
                <vehicle id="418" pos="123.74" speed="5.50"/>
                <vehicle id="454" pos="140.19" speed="5.73"/>
            </lane>
        </edge>
        <edge id="gneE28">
            <lane id="gneE28_0">
                <vehicle id="572" pos="72.67" speed="8.24"/>
                <vehicle id="373" pos="96.75" speed="8.90"/>
                <vehicle id="330" pos="114.36" speed="8.02"/>
            </lane>
        </edge>
        <edge id="gneE3">
            <lane id="gneE3_0">
                <vehicle id="541" pos="49.26" speed="8.94"/>
                <vehicle id="573" pos="69.47" speed="9.82"/>
                <vehicle id="379" pos="125.82" speed="9.66"/>
            </lane>
        </edge>
        <edge id="gneE30">
            <lane id="gneE30_0">
                <vehicle id="382" pos="20.28" speed="7.89"/>
                <vehicle id="358" pos="167.19" speed="8.12"/>
                <vehicle id="404" pos="200.41" speed="8.25"/>
            </lane>
        </edge>
        <edge id="gneE31">
            <lane id="gneE31_0">
                <vehicle id="479" pos="33.00" speed="8.17"/>
                <vehicle id="534" pos="52.34" speed="8.47"/>
                <vehicle id="480" pos="80.63" speed="7.78"/>
                <vehicle id="385" pos="195.18" speed="8.23"/>
                <vehicle id="460" pos="273.75" speed="8.47"/>
            </lane>
        </edge>
        <edge id="gneE32">
            <lane id="gneE32_0">
                <vehicle id="339" pos="136.86" speed="7.66"/>
                <vehicle id="381" pos="186.61" speed="7.19"/>
                <vehicle id="490" pos="238.39" speed="7.29"/>
                <vehicle id="525" pos="267.50" speed="7.64"/>
                <vehicle id="400" pos="292.52" speed="7.02"/>
                <vehicle id="539" pos="310.80" speed="6.97"/>
            </lane>
        </edge>
        <edge id="gneE38">
            <lane id="gneE38_0">
                <vehicle id="551" pos="69.91" speed="8.40"/>
                <vehicle id="350" pos="205.44" speed="8.63"/>
                <vehicle id="457" pos="231.42" speed="3.75"/>
                <vehicle id="421" pos="242.64" speed="2.89"/>
                <vehicle id="532" pos="253.50" speed="2.42"/>
                <vehicle id="508" pos="264.17" speed="2.90"/>
                <vehicle id="528" pos="274.65" speed="1.46"/>
                <vehicle id="333" pos="282.56" speed="0.21"/>
                <vehicle id="B1_2" pos="290.24" speed="0.14"/>
                <vehicle id="402" pos="297.91" speed="0.10"/>
                <vehicle id="430" pos="305.84" speed="0.39"/>
                <vehicle id="393" pos="316.29" speed="2.87"/>
                <vehicle id="464" pos="326.51" speed="2.55"/>
                <vehicle id="436" pos="335.37" speed="0.74"/>
                <vehicle id="396" pos="342.96" speed="0.05"/>
            </lane>
        </edge>
        <edge id="gneE4">
            <lane id="gneE4_0">
                <vehicle id="570" pos="33.57" speed="9.91"/>
                <vehicle id="492" pos="82.65" speed="9.45"/>
                <vehicle id="377" pos="102.18" speed="9.14"/>
                <vehicle id="565" pos="126.09" speed="8.76"/>
                <vehicle id="500" pos="151.01" speed="8.51"/>
            </lane>
        </edge>
        <edge id="gneE41">
            <lane id="gneE41_0">
                <vehicle id="576" pos="24.39" speed="8.25"/>
                <vehicle id="527" pos="47.57" speed="7.78"/>
                <vehicle id="390" pos="92.83" speed="8.79"/>
            </lane>
        </edge>
        <edge id="gneE43">
            <lane id="gneE43_0">
                <vehicle id="505" pos="34.94" speed="6.61"/>
                <vehicle id="494" pos="75.67" speed="6.02"/>
                <vehicle id="529" pos="145.66" speed="6.87"/>
                <vehicle id="482" pos="162.59" speed="6.99"/>
                <vehicle id="526" pos="185.21" speed="6.99"/>
                <vehicle id="493" pos="231.25" speed="6.32"/>
                <vehicle id="522" pos="276.72" speed="0.00"/>
                <vehicle id="520" pos="284.23" speed="0.00"/>
                <vehicle id="434" pos="291.73" speed="0.00"/>
                <vehicle id="428" pos="299.23" speed="0.00"/>
                <vehicle id="459" pos="306.73" speed="0.00"/>
            </lane>
        </edge>
        <edge id="gneE45">
            <lane id="gneE45_0">
                <vehicle id="336" pos="121.57" speed="8.74"/>
                <vehicle id="557" pos="196.54" speed="8.19"/>
                <vehicle id="406" pos="267.77" speed="7.79"/>
                <vehicle id="543" pos="293.08" speed="6.50"/>
            </lane>
        </edge>
        <edge id="gneE46">
            <lane id="gneE46_0">
                <vehicle id="568" pos="118.81" speed="9.06"/>
            </lane>
        </edge>
        <edge id="gneE47">
            <lane id="gneE47_0">
                <vehicle id="509" pos="62.23" speed="8.12"/>
                <vehicle id="547" pos="93.67" speed="8.03"/>
                <vehicle id="376" pos="177.56" speed="8.23"/>
            </lane>
        </edge>
        <edge id="gneE48">
            <lane id="gneE48_0">
                <vehicle id="566" pos="101.29" speed="6.65"/>
                <vehicle id="538" pos="129.61" speed="5.99"/>
                <vehicle id="337" pos="189.14" speed="6.74"/>
                <vehicle id="533" pos="245.29" speed="2.22"/>
                <vehicle id="503" pos="256.11" speed="2.71"/>
                <vehicle id="504" pos="269.53" speed="4.97"/>
                <vehicle id="338" pos="280.20" speed="1.91"/>
                <vehicle id="254" pos="288.36" speed="0.54"/>
                <vehicle id="468" pos="296.89" speed="0.64"/>
                <vehicle id="463" pos="304.54" speed="0.11"/>
                <vehicle id="424" pos="312.14" speed="0.00"/>
                <vehicle id="423" pos="319.64" speed="0.00"/>
            </lane>
        </edge>
        <edge id="gneE49">
            <lane id="gneE49_0">
                <vehicle id="408" pos="35.67" speed="7.38"/>
                <vehicle id="571" pos="74.88" speed="6.96"/>
                <vehicle id="392" pos="125.61" speed="7.14"/>
                <vehicle id="456" pos="142.81" speed="7.67"/>
                <vehicle id="383" pos="205.76" speed="7.34"/>
                <vehicle id="293" pos="237.23" speed="7.15"/>
                <vehicle id="540" pos="302.33" speed="7.66"/>
            </lane>
        </edge>
        <edge id="gneE5">
            <lane id="gneE5_0">
                <vehicle id="512" pos="80.47" speed="5.17"/>
                <vehicle id="235" pos="105.60" speed="5.23"/>
            </lane>
        </edge>
        <edge id="gneE50">
            <lane id="gneE50_0">
                <vehicle id="452" pos="4.46" speed="5.04"/>
                <vehicle id="415" pos="41.95" speed="5.23"/>
                <vehicle id="536" pos="243.42" speed="5.39"/>
                <vehicle id="523" pos="315.50" speed="5.72"/>
            </lane>
        </edge>
        <edge id="gneE51">
            <lane id="gneE51_0">
                <vehicle id="461" pos="101.10" speed="6.86"/>
                <vehicle id="544" pos="239.92" speed="6.75"/>
                <vehicle id="375" pos="287.47" speed="6.75"/>
                <vehicle id="344" pos="312.58" speed="6.03"/>
                <vehicle id="B3_2" pos="358.30" speed="0.00"/>
            </lane>
        </edge>
        <edge id="gneE52">
            <lane id="gneE52_0">
                <vehicle id="435" pos="245.76" speed="6.56"/>
            </lane>
        </edge>
        <edge id="gneE53">
            <lane id="gneE53_0">
                <vehicle id="574" pos="49.39" speed="6.06"/>
                <vehicle id="310" pos="222.45" speed="6.17"/>
                <vehicle id="261" pos="238.63" speed="6.31"/>
                <vehicle id="207" pos="275.65" speed="0.00"/>
                <vehicle id="B4_2" pos="283.15" speed="0.00"/>
                <vehicle id="473" pos="290.65" speed="0.00"/>
                <vehicle id="469" pos="298.54" speed="0.39"/>
                <vehicle id="486" pos="308.78" speed="2.49"/>
                <vehicle id="448" pos="318.31" speed="1.98"/>
                <vehicle id="233" pos="327.31" speed="1.16"/>
                <vehicle id="431" pos="335.57" speed="0.33"/>
                <vehicle id="401" pos="343.14" speed="0.04"/>
            </lane>
        </edge>
        <edge id="gneE54">
            <lane id="gneE54_0">
                <vehicle id="395" pos="135.62" speed="6.93"/>
            </lane>
        </edge>
        <edge id="gneE55">
            <lane id="gneE55_0">
                <vehicle id="361" pos="36.00" speed="7.49"/>
                <vehicle id="487" pos="68.08" speed="7.19"/>
                <vehicle id="366" pos="123.20" speed="7.63"/>
            </lane>
        </edge>
        <edge id="gneE58">
            <lane id="gneE58_0">
                <vehicle id="577" pos="27.53" speed="7.45"/>
                <vehicle id="564" pos="127.82" speed="6.89"/>
                <vehicle id="443" pos="266.76" speed="7.75"/>
            </lane>
        </edge>
        <edge id="gneE59">
            <lane id="gneE59_0">
                <vehicle id="567" pos="117.85" speed="8.08"/>
                <vehicle id="515" pos="153.89" speed="8.67"/>
                <vehicle id="489" pos="172.19" speed="8.53"/>
            </lane>
        </edge>
        <edge id="gneE60">
            <lane id="gneE60_0">
                <vehicle id="581" pos="7.45" speed="2.35"/>
                <vehicle id="419" pos="48.45" speed="6.11"/>
                <vehicle id="524" pos="89.48" speed="6.56"/>
                <vehicle id="467" pos="283.36" speed="2.61"/>
                <vehicle id="349" pos="291.88" speed="0.60"/>
                <vehicle id="398" pos="299.93" speed="0.21"/>
                <vehicle id="387" pos="307.54" speed="0.07"/>
                <vehicle id="416" pos="315.06" speed="0.00"/>
                <vehicle id="320" pos="323.46" speed="0.90"/>
                <vehicle id="356" pos="333.99" speed="2.71"/>
            </lane>
        </edge>
        <edge id="gneE61">
            <lane id="gneE61_0">
                <vehicle id="580" pos="12.51" speed="4.91"/>
                <vehicle id="368" pos="210.37" speed="7.76"/>
                <vehicle id="446" pos="272.35" speed="7.15"/>
            </lane>
        </edge>
        <edge id="gneE7">
            <lane id="gneE7_0">
                <vehicle id="553" pos="5.17" speed="7.36"/>
                <vehicle id="535" pos="160.07" speed="8.59"/>
                <vehicle id="552" pos="237.54" speed="8.34"/>
            </lane>
        </edge>
        <edge id="gneE8">
            <lane id="gneE8_0">
                <vehicle id="556" pos="186.02" speed="7.72"/>
                <vehicle id="477" pos="213.98" speed="7.61"/>
                <vehicle id="426" pos="302.02" speed="7.04"/>
            </lane>
        </edge>
    </timestep>
