<?xml version="1.0"?>
<timestep time="594.00">
        <edge id=":gneJ11_32">
            <lane id=":gneJ11_32_0">
                <vehicle id="416" pos="11.56" speed="7.48"/>
            </lane>
        </edge>
        <edge id=":gneJ11_41">
            <lane id=":gneJ11_41_0">
                <vehicle id="389" pos="4.73" speed="3.45"/>
            </lane>
        </edge>
        <edge id=":gneJ15_21">
            <lane id=":gneJ15_21_0">
                <vehicle id="572" pos="7.57" speed="5.36"/>
            </lane>
        </edge>
        <edge id=":gneJ28_1">
            <lane id=":gneJ28_1_0">
                <vehicle id="547" pos="0.39" speed="7.43"/>
            </lane>
        </edge>
        <edge id=":gneJ28_10">
            <lane id=":gneJ28_10_0">
                <vehicle id="527" pos="3.15" speed="7.92"/>
            </lane>
        </edge>
        <edge id=":gneJ30_3">
            <lane id=":gneJ30_3_0">
                <vehicle id="293" pos="3.95" speed="7.32"/>
            </lane>
        </edge>
        <edge id=":gneJ6_0">
            <lane id=":gneJ6_0_0">
                <vehicle id="404" pos="6.91" speed="8.92"/>
            </lane>
        </edge>
        <edge id=":gneJ8_4">
            <lane id=":gneJ8_4_0">
                <vehicle id="537" pos="7.50" speed="8.05"/>
            </lane>
        </edge>
        <edge id=":gneJ9_4">
            <lane id=":gneJ9_4_0">
                <vehicle id="470" pos="3.21" speed="7.69"/>
            </lane>
        </edge>
        <edge id="gneE1">
            <lane id="gneE1_0">
                <vehicle id="587" pos="32.68" speed="4.37"/>
                <vehicle id="584" pos="46.10" speed="4.17"/>
                <vehicle id="563" pos="133.91" speed="3.86"/>
            </lane>
        </edge>
        <edge id="gneE10">
            <lane id="gneE10_0">
                <vehicle id="465" pos="68.94" speed="5.86"/>
                <vehicle id="496" pos="104.24" speed="5.42"/>
                <vehicle id="519" pos="119.99" speed="5.62"/>
                <vehicle id="471" pos="136.18" speed="5.90"/>
            </lane>
        </edge>
        <edge id="gneE11">
            <lane id="gneE11_0">
                <vehicle id="552" pos="28.65" speed="8.15"/>
            </lane>
        </edge>
        <edge id="gneE12">
            <lane id="gneE12_0">
                <vehicle id="485" pos="195.66" speed="12.88"/>
                <vehicle id="433" pos="285.89" speed="13.06"/>
            </lane>
        </edge>
        <edge id="gneE13">
            <lane id="gneE13_0">
                <vehicle id="541" pos="0.78" speed="9.27"/>
                <vehicle id="573" pos="22.56" speed="8.72"/>
                <vehicle id="491" pos="129.46" speed="8.97"/>
                <vehicle id="516" pos="238.40" speed="9.51"/>
                <vehicle id="546" pos="265.73" speed="9.48"/>
                <vehicle id="562" pos="289.20" speed="9.96"/>
            </lane>
        </edge>
        <edge id="gneE15">
            <lane id="gneE15_0">
                <vehicle id="364" pos="5.82" speed="8.93"/>
                <vehicle id="518" pos="41.24" speed="8.54"/>
                <vehicle id="453" pos="65.59" speed="8.66"/>
                <vehicle id="488" pos="151.32" speed="8.34"/>
            </lane>
        </edge>
        <edge id="gneE17">
            <lane id="gneE17_0">
                <vehicle id="442" pos="118.08" speed="8.79"/>
                <vehicle id="578" pos="140.95" speed="9.29"/>
                <vehicle id="363" pos="200.02" speed="9.08"/>
                <vehicle id="569" pos="221.28" speed="9.18"/>
                <vehicle id="548" pos="252.43" speed="8.95"/>
                <vehicle id="427" pos="278.74" speed="0.00"/>
                <vehicle id="495" pos="286.24" speed="0.00"/>
            </lane>
        </edge>
        <edge id="gneE18">
            <lane id="gneE18_0">
                <vehicle id="565" pos="57.55" speed="9.08"/>
                <vehicle id="500" pos="85.43" speed="9.25"/>
                <vehicle id="558" pos="239.53" speed="8.51"/>
                <vehicle id="478" pos="257.44" speed="6.22"/>
                <vehicle id="514" pos="273.62" speed="6.67"/>
            </lane>
        </edge>
        <edge id="gneE19">
            <lane id="gneE19_0">
                <vehicle id="325" pos="14.91" speed="8.36"/>
                <vehicle id="582" pos="122.82" speed="11.78"/>
                <vehicle id="474" pos="191.37" speed="12.26"/>
                <vehicle id="370" pos="215.33" speed="0.00"/>
                <vehicle id="542" pos="222.83" speed="0.00"/>
                <vehicle id="445" pos="230.33" speed="0.00"/>
                <vehicle id="440" pos="237.83" speed="0.00"/>
                <vehicle id="367" pos="245.33" speed="0.00"/>
                <vehicle id="439" pos="252.83" speed="0.00"/>
                <vehicle id="409" pos="260.34" speed="0.00"/>
                <vehicle id="231" pos="267.84" speed="0.00"/>
                <vehicle id="397" pos="276.64" speed="1.30"/>
            </lane>
        </edge>
        <edge id="gneE20">
            <lane id="gneE20_0">
                <vehicle id="356" pos="49.41" speed="8.35"/>
                <vehicle id="498" pos="69.28" speed="7.75"/>
                <vehicle id="441" pos="113.73" speed="7.94"/>
                <vehicle id="340" pos="170.94" speed="8.07"/>
                <vehicle id="483" pos="191.39" speed="8.23"/>
                <vehicle id="296" pos="211.03" speed="8.00"/>
                <vehicle id="413" pos="231.54" speed="8.24"/>
                <vehicle id="458" pos="272.29" speed="7.94"/>
            </lane>
        </edge>
        <edge id="gneE23">
            <lane id="gneE23_0">
                <vehicle id="320" pos="3.33" speed="7.71"/>
                <vehicle id="575" pos="134.90" speed="7.17"/>
                <vehicle id="227" pos="155.29" speed="6.78"/>
            </lane>
        </edge>
        <edge id="gneE24">
            <lane id="gneE24_0">
                <vehicle id="530" pos="106.26" speed="12.51"/>
                <vehicle id="510" pos="141.33" speed="12.99"/>
            </lane>
        </edge>
        <edge id="gneE25">
            <lane id="gneE25_0">
                <vehicle id="459" pos="19.33" speed="9.64"/>
                <vehicle id="559" pos="60.78" speed="8.86"/>
                <vehicle id="451" pos="99.98" speed="8.59"/>
                <vehicle id="579" pos="119.74" speed="9.71"/>
                <vehicle id="449" pos="234.75" speed="8.90"/>
                <vehicle id="405" pos="261.27" speed="8.73"/>
            </lane>
        </edge>
        <edge id="gneE26">
            <lane id="gneE26_0">
                <vehicle id="501" pos="35.58" speed="6.03"/>
                <vehicle id="531" pos="58.71" speed="5.91"/>
                <vehicle id="499" pos="79.63" speed="6.12"/>
                <vehicle id="554" pos="125.49" speed="6.68"/>
                <vehicle id="549" pos="147.62" speed="6.55"/>
                <vehicle id="545" pos="175.64" speed="5.88"/>
                <vehicle id="507" pos="198.06" speed="5.81"/>
                <vehicle id="502" pos="238.82" speed="5.94"/>
                <vehicle id="521" pos="290.83" speed="0.00"/>
            </lane>
        </edge>
        <edge id="gneE27">
            <lane id="gneE27_0">
                <vehicle id="497" pos="57.31" speed="5.79"/>
            </lane>
        </edge>
        <edge id="gneE28">
            <lane id="gneE28_0">
                <vehicle id="460" pos="79.33" speed="7.71"/>
            </lane>
        </edge>
        <edge id="gneE3">
            <lane id="gneE3_0">
                <vehicle id="394" pos="112.27" speed="9.95"/>
            </lane>
        </edge>
        <edge id="gneE30">
            <lane id="gneE30_0">
                <vehicle id="399" pos="37.53" speed="8.91"/>
                <vehicle id="418" pos="62.50" speed="8.38"/>
                <vehicle id="454" pos="88.51" speed="8.62"/>
                <vehicle id="382" pos="121.62" speed="8.50"/>
                <vehicle id="358" pos="267.81" speed="8.02"/>
            </lane>
        </edge>
        <edge id="gneE31">
            <lane id="gneE31_0">
                <vehicle id="593" pos="7.06" speed="1.96"/>
                <vehicle id="561" pos="45.93" speed="7.85"/>
                <vehicle id="479" pos="132.41" speed="8.72"/>
                <vehicle id="534" pos="155.91" speed="8.98"/>
                <vehicle id="480" pos="181.60" speed="8.35"/>
            </lane>
        </edge>
        <edge id="gneE32">
            <lane id="gneE32_0">
                <vehicle id="591" pos="15.30" speed="5.62"/>
                <vehicle id="339" pos="223.37" speed="7.45"/>
                <vehicle id="381" pos="273.34" speed="7.52"/>
                <vehicle id="490" pos="324.67" speed="6.97"/>
            </lane>
        </edge>
        <edge id="gneE38">
            <lane id="gneE38_0">
                <vehicle id="551" pos="168.84" speed="8.64"/>
                <vehicle id="350" pos="239.45" speed="0.50"/>
                <vehicle id="457" pos="248.28" speed="1.09"/>
                <vehicle id="421" pos="257.58" speed="1.20"/>
                <vehicle id="532" pos="266.73" speed="0.49"/>
                <vehicle id="508" pos="275.07" speed="0.36"/>
                <vehicle id="528" pos="282.77" speed="0.16"/>
                <vehicle id="333" pos="290.43" speed="0.09"/>
                <vehicle id="B1_2" pos="297.96" speed="0.01"/>
                <vehicle id="402" pos="305.47" speed="0.00"/>
                <vehicle id="430" pos="312.97" speed="0.00"/>
                <vehicle id="393" pos="320.48" speed="0.00"/>
                <vehicle id="464" pos="327.98" speed="0.00"/>
                <vehicle id="436" pos="335.48" speed="0.00"/>
                <vehicle id="396" pos="342.98" speed="0.00"/>
            </lane>
        </edge>
        <edge id="gneE4">
            <lane id="gneE4_0">
                <vehicle id="592" pos="10.91" speed="3.78"/>
                <vehicle id="506" pos="37.84" speed="9.69"/>
                <vehicle id="570" pos="145.56" speed="8.84"/>
            </lane>
        </edge>
        <edge id="gneE41">
            <lane id="gneE41_0">
                <vehicle id="525" pos="9.92" speed="8.21"/>
                <vehicle id="400" pos="38.83" speed="7.88"/>
                <vehicle id="539" pos="59.09" speed="7.94"/>
                <vehicle id="576" pos="125.77" speed="7.71"/>
            </lane>
        </edge>
        <edge id="gneE43">
            <lane id="gneE43_0">
                <vehicle id="588" pos="29.07" speed="5.91"/>
                <vehicle id="555" pos="73.95" speed="5.84"/>
                <vehicle id="505" pos="108.20" speed="5.70"/>
                <vehicle id="494" pos="152.88" speed="6.17"/>
                <vehicle id="529" pos="222.28" speed="6.88"/>
                <vehicle id="482" pos="239.14" speed="6.76"/>
                <vehicle id="526" pos="260.14" speed="4.37"/>
                <vehicle id="493" pos="269.58" speed="0.36"/>
                <vehicle id="522" pos="278.81" speed="1.54"/>
                <vehicle id="520" pos="290.63" speed="4.03"/>
                <vehicle id="434" pos="299.18" speed="0.77"/>
                <vehicle id="428" pos="306.73" speed="0.02"/>
            </lane>
        </edge>
        <edge id="gneE45">
            <lane id="gneE45_0">
                <vehicle id="560" pos="30.08" speed="8.98"/>
                <vehicle id="336" pos="222.32" speed="8.37"/>
                <vehicle id="557" pos="297.02" speed="8.08"/>
            </lane>
        </edge>
        <edge id="gneE46">
            <lane id="gneE46_0">
                <vehicle id="523" pos="6.06" speed="7.35"/>
                <vehicle id="590" pos="24.52" speed="7.60"/>
            </lane>
        </edge>
        <edge id="gneE47">
            <lane id="gneE47_0">
                <vehicle id="585" pos="43.95" speed="8.83"/>
                <vehicle id="540" pos="64.26" speed="7.86"/>
                <vehicle id="509" pos="163.13" speed="8.68"/>
            </lane>
        </edge>
        <edge id="gneE48">
            <lane id="gneE48_0">
                <vehicle id="568" pos="18.72" speed="5.83"/>
                <vehicle id="566" pos="178.82" speed="6.32"/>
                <vehicle id="538" pos="206.35" speed="6.91"/>
                <vehicle id="337" pos="251.86" speed="0.58"/>
                <vehicle id="533" pos="259.62" speed="0.04"/>
                <vehicle id="503" pos="267.13" speed="0.01"/>
                <vehicle id="504" pos="274.63" speed="0.00"/>
                <vehicle id="338" pos="282.13" speed="0.00"/>
                <vehicle id="254" pos="289.63" speed="0.00"/>
                <vehicle id="468" pos="297.14" speed="0.00"/>
                <vehicle id="463" pos="304.64" speed="0.00"/>
                <vehicle id="424" pos="312.14" speed="0.00"/>
                <vehicle id="423" pos="319.64" speed="0.00"/>
            </lane>
        </edge>
        <edge id="gneE49">
            <lane id="gneE49_0">
                <vehicle id="287" pos="71.31" speed="7.62"/>
                <vehicle id="408" pos="123.90" speed="7.00"/>
                <vehicle id="571" pos="164.58" speed="7.30"/>
                <vehicle id="392" pos="213.58" speed="7.45"/>
                <vehicle id="456" pos="229.51" speed="7.58"/>
                <vehicle id="383" pos="293.43" speed="6.99"/>
            </lane>
        </edge>
        <edge id="gneE5">
            <lane id="gneE5_0">
                <vehicle id="379" pos="43.01" speed="5.83"/>
                <vehicle id="512" pos="145.30" speed="5.49"/>
            </lane>
        </edge>
        <edge id="gneE50">
            <lane id="gneE50_0">
                <vehicle id="452" pos="67.74" speed="4.85"/>
                <vehicle id="415" pos="106.78" speed="5.51"/>
                <vehicle id="536" pos="307.76" speed="5.26"/>
            </lane>
        </edge>
        <edge id="gneE51">
            <lane id="gneE51_0">
                <vehicle id="406" pos="35.52" speed="6.56"/>
                <vehicle id="543" pos="54.27" speed="6.15"/>
                <vehicle id="517" pos="72.40" speed="6.83"/>
                <vehicle id="461" pos="176.27" speed="6.55"/>
                <vehicle id="544" pos="315.63" speed="5.77"/>
                <vehicle id="375" pos="350.72" speed="0.24"/>
                <vehicle id="344" pos="358.30" speed="0.00"/>
                <vehicle id="B3_2" pos="365.80" speed="0.00"/>
            </lane>
        </edge>
        <edge id="gneE52">
            <lane id="gneE52_0">
                <vehicle id="435" pos="320.95" speed="6.63"/>
            </lane>
        </edge>
        <edge id="gneE53">
            <lane id="gneE53_0">
                <vehicle id="487" pos="9.33" speed="6.11"/>
                <vehicle id="583" pos="64.70" speed="6.71"/>
                <vehicle id="574" pos="124.46" speed="6.18"/>
                <vehicle id="310" pos="267.64" speed="0.40"/>
                <vehicle id="261" pos="275.37" speed="0.15"/>
                <vehicle id="207" pos="283.06" speed="0.12"/>
                <vehicle id="B4_2" pos="290.62" speed="0.03"/>
                <vehicle id="473" pos="298.15" speed="0.03"/>
                <vehicle id="469" pos="305.65" speed="0.00"/>
                <vehicle id="486" pos="313.15" speed="0.00"/>
                <vehicle id="448" pos="320.66" speed="0.00"/>
                <vehicle id="233" pos="328.16" speed="0.00"/>
                <vehicle id="431" pos="335.66" speed="0.00"/>
                <vehicle id="401" pos="343.16" speed="0.00"/>
            </lane>
        </edge>
        <edge id="gneE55">
            <lane id="gneE55_0">
                <vehicle id="361" pos="123.67" speed="7.50"/>
            </lane>
        </edge>
        <edge id="gneE56">
            <lane id="gneE56_0">
                <vehicle id="481" pos="40.54" speed="8.72"/>
            </lane>
        </edge>
        <edge id="gneE58">
            <lane id="gneE58_0">
                <vehicle id="492" pos="6.19" speed="7.16"/>
                <vehicle id="577" pos="115.93" speed="6.80"/>
                <vehicle id="564" pos="214.23" speed="6.77"/>
            </lane>
        </edge>
        <edge id="gneE59">
            <lane id="gneE59_0">
                <vehicle id="567" pos="217.42" speed="8.04"/>
                <vehicle id="515" pos="255.06" speed="8.57"/>
                <vehicle id="489" pos="273.72" speed="7.82"/>
            </lane>
        </edge>
        <edge id="gneE6">
            <lane id="gneE6_0">
                <vehicle id="586" pos="54.67" speed="7.74"/>
            </lane>
        </edge>
        <edge id="gneE60">
            <lane id="gneE60_0">
                <vehicle id="589" pos="9.79" speed="3.16"/>
                <vehicle id="443" pos="25.96" speed="6.22"/>
                <vehicle id="581" pos="80.49" speed="6.51"/>
                <vehicle id="419" pos="124.16" speed="6.40"/>
                <vehicle id="524" pos="166.80" speed="6.98"/>
                <vehicle id="467" pos="297.22" speed="1.79"/>
                <vehicle id="349" pos="307.46" speed="1.96"/>
                <vehicle id="398" pos="319.51" speed="3.74"/>
                <vehicle id="387" pos="332.45" speed="4.98"/>
            </lane>
        </edge>
        <edge id="gneE61">
            <lane id="gneE61_0">
                <vehicle id="580" pos="99.97" speed="6.76"/>
                <vehicle id="368" pos="298.68" speed="7.70"/>
            </lane>
        </edge>
        <edge id="gneE7">
            <lane id="gneE7_0">
                <vehicle id="235" pos="26.50" speed="8.02"/>
                <vehicle id="553" pos="107.53" speed="8.23"/>
                <vehicle id="535" pos="261.85" speed="8.92"/>
            </lane>
        </edge>
        <edge id="gneE8">
            <lane id="gneE8_0">
                <vehicle id="556" pos="274.06" speed="7.41"/>
                <vehicle id="477" pos="299.61" speed="7.11"/>
            </lane>
        </edge>
    </timestep>
