<?xml version="1.0"?>
<timestep time="596.00">
        <edge id=":gneJ11_31">
            <lane id=":gneJ11_31_0">
                <vehicle id="387" pos="4.39" speed="5.97"/>
            </lane>
        </edge>
        <edge id=":gneJ11_32">
            <lane id=":gneJ11_32_0">
                <vehicle id="416" pos="28.71" speed="7.91"/>
            </lane>
        </edge>
        <edge id=":gneJ11_41">
            <lane id=":gneJ11_41_0">
                <vehicle id="397" pos="1.21" speed="4.42"/>
                <vehicle id="389" pos="18.21" speed="7.66"/>
            </lane>
        </edge>
        <edge id=":gneJ15_1">
            <lane id=":gneJ15_1_0">
                <vehicle id="396" pos="5.92" speed="3.80"/>
            </lane>
        </edge>
        <edge id=":gneJ15_7">
            <lane id=":gneJ15_7_0">
                <vehicle id="428" pos="1.74" speed="1.84"/>
            </lane>
        </edge>
        <edge id=":gneJ28_1">
            <lane id=":gneJ28_1_0">
                <vehicle id="547" pos="4.82" speed="0.77"/>
            </lane>
        </edge>
        <edge id=":gneJ3_11">
            <lane id=":gneJ3_11_0">
                <vehicle id="570" pos="2.99" speed="3.53"/>
            </lane>
        </edge>
        <edge id=":gneJ9_3">
            <lane id=":gneJ9_3_0">
                <vehicle id="458" pos="5.10" speed="7.84"/>
            </lane>
        </edge>
        <edge id=":gneJ9_5">
            <lane id=":gneJ9_5_0">
                <vehicle id="514" pos="0.61" speed="6.42"/>
            </lane>
        </edge>
        <edge id="gneE1">
            <lane id="gneE1_0">
                <vehicle id="596" pos="5.10" speed="0.00"/>
                <vehicle id="587" pos="41.96" speed="4.58"/>
                <vehicle id="584" pos="54.93" speed="4.19"/>
                <vehicle id="563" pos="143.17" speed="4.76"/>
            </lane>
        </edge>
        <edge id="gneE10">
            <lane id="gneE10_0">
                <vehicle id="537" pos="8.21" speed="4.76"/>
                <vehicle id="465" pos="79.91" speed="5.10"/>
                <vehicle id="496" pos="114.04" speed="4.75"/>
                <vehicle id="519" pos="129.53" speed="4.80"/>
                <vehicle id="471" pos="138.83" speed="0.14"/>
            </lane>
        </edge>
        <edge id="gneE11">
            <lane id="gneE11_0">
                <vehicle id="552" pos="45.79" speed="8.52"/>
            </lane>
        </edge>
        <edge id="gneE12">
            <lane id="gneE12_0">
                <vehicle id="485" pos="222.03" speed="13.42"/>
                <vehicle id="433" pos="299.85" speed="5.40"/>
            </lane>
        </edge>
        <edge id="gneE13">
            <lane id="gneE13_0">
                <vehicle id="541" pos="19.03" speed="9.30"/>
                <vehicle id="573" pos="41.69" speed="9.21"/>
                <vehicle id="491" pos="147.37" speed="8.98"/>
                <vehicle id="516" pos="255.97" speed="8.81"/>
                <vehicle id="546" pos="284.17" speed="9.38"/>
            </lane>
        </edge>
        <edge id="gneE14">
            <lane id="gneE14_0">
                <vehicle id="562" pos="0.27" speed="9.27"/>
            </lane>
        </edge>
        <edge id="gneE15">
            <lane id="gneE15_0">
                <vehicle id="364" pos="22.76" speed="8.72"/>
                <vehicle id="518" pos="58.48" speed="8.56"/>
                <vehicle id="453" pos="81.63" speed="7.84"/>
            </lane>
        </edge>
        <edge id="gneE17">
            <lane id="gneE17_0">
                <vehicle id="442" pos="136.47" speed="9.67"/>
                <vehicle id="578" pos="159.75" speed="9.34"/>
                <vehicle id="363" pos="218.73" speed="8.81"/>
                <vehicle id="569" pos="240.71" speed="9.47"/>
                <vehicle id="548" pos="267.79" speed="5.53"/>
                <vehicle id="427" pos="278.74" speed="0.00"/>
                <vehicle id="495" pos="286.24" speed="0.00"/>
            </lane>
        </edge>
        <edge id="gneE18">
            <lane id="gneE18_0">
                <vehicle id="565" pos="75.97" speed="9.49"/>
                <vehicle id="500" pos="104.81" speed="9.59"/>
                <vehicle id="558" pos="255.15" speed="7.38"/>
                <vehicle id="478" pos="270.77" speed="6.72"/>
            </lane>
        </edge>
        <edge id="gneE19">
            <lane id="gneE19_0">
                <vehicle id="470" pos="14.59" speed="10.89"/>
                <vehicle id="325" pos="37.18" speed="12.13"/>
                <vehicle id="582" pos="146.77" speed="12.10"/>
                <vehicle id="474" pos="206.21" speed="5.28"/>
                <vehicle id="370" pos="215.33" speed="0.00"/>
                <vehicle id="542" pos="222.83" speed="0.00"/>
                <vehicle id="445" pos="230.33" speed="0.00"/>
                <vehicle id="440" pos="237.83" speed="0.00"/>
                <vehicle id="367" pos="245.33" speed="0.00"/>
                <vehicle id="439" pos="252.84" speed="0.00"/>
                <vehicle id="409" pos="261.08" speed="0.75"/>
                <vehicle id="231" pos="271.68" speed="2.99"/>
            </lane>
        </edge>
        <edge id="gneE20">
            <lane id="gneE20_0">
                <vehicle id="356" pos="66.23" speed="7.92"/>
                <vehicle id="498" pos="86.59" speed="8.37"/>
                <vehicle id="441" pos="131.14" speed="8.59"/>
                <vehicle id="340" pos="187.16" speed="8.20"/>
                <vehicle id="483" pos="207.95" speed="8.07"/>
                <vehicle id="296" pos="227.70" speed="8.15"/>
                <vehicle id="413" pos="248.54" speed="8.74"/>
            </lane>
        </edge>
        <edge id="gneE23">
            <lane id="gneE23_0">
                <vehicle id="320" pos="17.75" speed="7.44"/>
                <vehicle id="575" pos="149.03" speed="6.85"/>
                <vehicle id="227" pos="169.45" speed="7.08"/>
            </lane>
        </edge>
        <edge id="gneE24">
            <lane id="gneE24_0">
                <vehicle id="530" pos="131.12" speed="12.79"/>
                <vehicle id="510" pos="165.55" speed="12.17"/>
            </lane>
        </edge>
        <edge id="gneE25">
            <lane id="gneE25_0">
                <vehicle id="459" pos="38.23" speed="9.67"/>
                <vehicle id="559" pos="79.95" speed="9.81"/>
                <vehicle id="451" pos="118.49" speed="9.52"/>
                <vehicle id="579" pos="138.75" speed="9.40"/>
                <vehicle id="449" pos="253.57" speed="9.59"/>
                <vehicle id="405" pos="279.71" speed="9.58"/>
            </lane>
        </edge>
        <edge id="gneE26">
            <lane id="gneE26_0">
                <vehicle id="501" pos="47.57" speed="5.74"/>
                <vehicle id="531" pos="70.63" speed="5.94"/>
                <vehicle id="499" pos="92.79" speed="6.84"/>
                <vehicle id="554" pos="137.99" speed="6.65"/>
                <vehicle id="549" pos="160.25" speed="6.03"/>
                <vehicle id="545" pos="188.44" speed="5.88"/>
                <vehicle id="507" pos="210.46" speed="6.24"/>
                <vehicle id="502" pos="252.04" speed="6.43"/>
                <vehicle id="521" pos="290.83" speed="0.00"/>
            </lane>
        </edge>
        <edge id="gneE27">
            <lane id="gneE27_0">
                <vehicle id="595" pos="6.62" speed="1.52"/>
                <vehicle id="497" pos="67.48" speed="5.23"/>
            </lane>
        </edge>
        <edge id="gneE28">
            <lane id="gneE28_0">
                <vehicle id="460" pos="96.84" speed="8.84"/>
            </lane>
        </edge>
        <edge id="gneE3">
            <lane id="gneE3_0">
                <vehicle id="394" pos="130.70" speed="9.45"/>
            </lane>
        </edge>
        <edge id="gneE30">
            <lane id="gneE30_0">
                <vehicle id="399" pos="53.87" speed="7.97"/>
                <vehicle id="418" pos="79.35" speed="8.93"/>
                <vehicle id="454" pos="106.28" speed="8.85"/>
                <vehicle id="382" pos="138.88" speed="8.69"/>
                <vehicle id="358" pos="283.57" speed="7.85"/>
            </lane>
        </edge>
        <edge id="gneE31">
            <lane id="gneE31_0">
                <vehicle id="593" pos="16.01" speed="5.59"/>
                <vehicle id="561" pos="62.79" speed="8.17"/>
                <vehicle id="479" pos="148.93" speed="7.83"/>
                <vehicle id="534" pos="172.18" speed="8.55"/>
                <vehicle id="480" pos="198.47" speed="8.03"/>
            </lane>
        </edge>
        <edge id="gneE32">
            <lane id="gneE32_0">
                <vehicle id="591" pos="29.90" speed="6.96"/>
                <vehicle id="339" pos="238.23" speed="7.04"/>
                <vehicle id="381" pos="288.49" speed="7.64"/>
                <vehicle id="490" pos="338.38" speed="6.95"/>
            </lane>
        </edge>
        <edge id="gneE38">
            <lane id="gneE38_0">
                <vehicle id="551" pos="185.09" speed="7.82"/>
                <vehicle id="350" pos="241.40" speed="0.88"/>
                <vehicle id="457" pos="251.10" speed="1.47"/>
                <vehicle id="421" pos="259.65" speed="0.74"/>
                <vehicle id="532" pos="267.46" speed="0.28"/>
                <vehicle id="508" pos="275.33" speed="0.11"/>
                <vehicle id="528" pos="282.94" speed="0.09"/>
                <vehicle id="333" pos="290.46" speed="0.01"/>
                <vehicle id="B1_2" pos="297.97" speed="0.00"/>
                <vehicle id="402" pos="305.47" speed="0.00"/>
                <vehicle id="430" pos="312.97" speed="0.00"/>
                <vehicle id="393" pos="320.48" speed="0.00"/>
                <vehicle id="464" pos="327.98" speed="0.00"/>
                <vehicle id="436" pos="337.68" speed="2.21"/>
            </lane>
        </edge>
        <edge id="gneE4">
            <lane id="gneE4_0">
                <vehicle id="592" pos="24.12" speed="7.52"/>
                <vehicle id="506" pos="56.24" speed="9.49"/>
            </lane>
        </edge>
        <edge id="gneE41">
            <lane id="gneE41_0">
                <vehicle id="525" pos="27.04" speed="8.73"/>
                <vehicle id="400" pos="55.91" speed="8.87"/>
                <vehicle id="539" pos="75.11" speed="7.90"/>
                <vehicle id="576" pos="142.62" speed="8.62"/>
            </lane>
        </edge>
        <edge id="gneE43">
            <lane id="gneE43_0">
                <vehicle id="588" pos="41.61" speed="6.28"/>
                <vehicle id="555" pos="85.40" speed="5.74"/>
                <vehicle id="505" pos="121.09" speed="6.56"/>
                <vehicle id="494" pos="166.19" speed="6.86"/>
                <vehicle id="529" pos="234.82" speed="6.79"/>
                <vehicle id="482" pos="251.70" speed="6.81"/>
                <vehicle id="526" pos="263.10" speed="1.34"/>
                <vehicle id="493" pos="273.49" speed="2.39"/>
                <vehicle id="522" pos="283.27" speed="1.60"/>
                <vehicle id="520" pos="291.58" speed="0.17"/>
                <vehicle id="434" pos="299.23" speed="0.02"/>
            </lane>
        </edge>
        <edge id="gneE45">
            <lane id="gneE45_0">
                <vehicle id="572" pos="6.05" speed="8.24"/>
                <vehicle id="560" pos="45.98" speed="7.88"/>
                <vehicle id="336" pos="240.08" speed="8.81"/>
                <vehicle id="557" pos="306.68" speed="3.76"/>
            </lane>
        </edge>
        <edge id="gneE46">
            <lane id="gneE46_0">
                <vehicle id="523" pos="23.95" speed="8.85"/>
                <vehicle id="590" pos="43.56" speed="9.14"/>
            </lane>
        </edge>
        <edge id="gneE47">
            <lane id="gneE47_0">
                <vehicle id="293" pos="9.87" speed="7.90"/>
                <vehicle id="585" pos="60.02" speed="8.03"/>
                <vehicle id="540" pos="81.01" speed="8.04"/>
                <vehicle id="509" pos="180.34" speed="8.54"/>
            </lane>
        </edge>
        <edge id="gneE48">
            <lane id="gneE48_0">
                <vehicle id="568" pos="31.41" speed="6.69"/>
                <vehicle id="566" pos="192.02" speed="6.53"/>
                <vehicle id="538" pos="218.83" speed="6.45"/>
                <vehicle id="337" pos="252.10" speed="0.08"/>
                <vehicle id="533" pos="259.63" speed="0.00"/>
                <vehicle id="503" pos="267.13" speed="0.00"/>
                <vehicle id="504" pos="274.63" speed="0.00"/>
                <vehicle id="338" pos="282.13" speed="0.00"/>
                <vehicle id="254" pos="289.63" speed="0.00"/>
                <vehicle id="468" pos="297.14" speed="0.00"/>
                <vehicle id="463" pos="304.64" speed="0.00"/>
                <vehicle id="424" pos="312.14" speed="0.00"/>
                <vehicle id="423" pos="319.64" speed="0.00"/>
            </lane>
        </edge>
        <edge id="gneE49">
            <lane id="gneE49_0">
                <vehicle id="287" pos="85.31" speed="6.73"/>
                <vehicle id="408" pos="138.28" speed="6.94"/>
                <vehicle id="571" pos="178.73" speed="7.08"/>
                <vehicle id="392" pos="227.59" speed="6.69"/>
                <vehicle id="456" pos="244.20" speed="7.92"/>
                <vehicle id="383" pos="308.38" speed="7.68"/>
            </lane>
        </edge>
        <edge id="gneE5">
            <lane id="gneE5_0">
                <vehicle id="379" pos="52.93" speed="5.20"/>
            </lane>
        </edge>
        <edge id="gneE50">
            <lane id="gneE50_0">
                <vehicle id="452" pos="78.12" speed="4.92"/>
                <vehicle id="415" pos="118.45" speed="5.90"/>
                <vehicle id="536" pos="318.65" speed="5.40"/>
            </lane>
        </edge>
        <edge id="gneE51">
            <lane id="gneE51_0">
                <vehicle id="527" pos="4.25" speed="6.98"/>
                <vehicle id="406" pos="49.21" speed="6.76"/>
                <vehicle id="543" pos="66.82" speed="6.07"/>
                <vehicle id="517" pos="84.87" speed="5.75"/>
                <vehicle id="461" pos="189.12" speed="6.16"/>
                <vehicle id="544" pos="328.74" speed="6.86"/>
                <vehicle id="375" pos="350.79" speed="0.02"/>
                <vehicle id="344" pos="358.30" speed="0.00"/>
                <vehicle id="B3_2" pos="365.80" speed="0.00"/>
            </lane>
        </edge>
        <edge id="gneE52">
            <lane id="gneE52_0">
                <vehicle id="435" pos="333.79" speed="6.68"/>
            </lane>
        </edge>
        <edge id="gneE53">
            <lane id="gneE53_0">
                <vehicle id="487" pos="21.56" speed="6.08"/>
                <vehicle id="583" pos="77.32" speed="6.83"/>
                <vehicle id="574" pos="137.66" speed="6.44"/>
                <vehicle id="310" pos="267.95" speed="0.18"/>
                <vehicle id="261" pos="275.59" speed="0.05"/>
                <vehicle id="207" pos="283.13" speed="0.02"/>
                <vehicle id="B4_2" pos="290.65" speed="0.01"/>
                <vehicle id="473" pos="298.15" speed="0.00"/>
                <vehicle id="469" pos="305.65" speed="0.00"/>
                <vehicle id="486" pos="313.15" speed="0.00"/>
                <vehicle id="448" pos="320.66" speed="0.00"/>
                <vehicle id="233" pos="328.16" speed="0.00"/>
                <vehicle id="431" pos="335.66" speed="0.00"/>
                <vehicle id="401" pos="343.16" speed="0.00"/>
            </lane>
        </edge>
        <edge id="gneE55">
            <lane id="gneE55_0">
                <vehicle id="361" pos="137.91" speed="6.76"/>
            </lane>
        </edge>
        <edge id="gneE56">
            <lane id="gneE56_0">
                <vehicle id="481" pos="57.50" speed="8.98"/>
            </lane>
        </edge>
        <edge id="gneE58">
            <lane id="gneE58_0">
                <vehicle id="492" pos="21.48" speed="7.82"/>
                <vehicle id="577" pos="129.73" speed="7.05"/>
                <vehicle id="564" pos="228.60" speed="7.42"/>
            </lane>
        </edge>
        <edge id="gneE59">
            <lane id="gneE59_0">
                <vehicle id="567" pos="234.36" speed="8.82"/>
                <vehicle id="515" pos="271.32" speed="8.46"/>
                <vehicle id="489" pos="291.24" speed="9.00"/>
            </lane>
        </edge>
        <edge id="gneE6">
            <lane id="gneE6_0">
                <vehicle id="477" pos="3.07" speed="6.74"/>
                <vehicle id="586" pos="70.46" speed="7.93"/>
            </lane>
        </edge>
        <edge id="gneE60">
            <lane id="gneE60_0">
                <vehicle id="589" pos="21.57" speed="6.83"/>
                <vehicle id="443" pos="38.80" speed="6.40"/>
                <vehicle id="581" pos="92.46" speed="6.10"/>
                <vehicle id="419" pos="137.10" speed="6.15"/>
                <vehicle id="524" pos="179.59" speed="6.83"/>
                <vehicle id="467" pos="302.70" speed="3.03"/>
                <vehicle id="349" pos="314.60" speed="3.59"/>
                <vehicle id="398" pos="327.76" speed="4.16"/>
            </lane>
        </edge>
        <edge id="gneE61">
            <lane id="gneE61_0">
                <vehicle id="580" pos="115.53" speed="7.89"/>
                <vehicle id="368" pos="312.55" speed="6.97"/>
            </lane>
        </edge>
        <edge id="gneE7">
            <lane id="gneE7_0">
                <vehicle id="512" pos="8.11" speed="7.96"/>
                <vehicle id="235" pos="44.13" speed="8.72"/>
                <vehicle id="553" pos="123.41" speed="7.79"/>
                <vehicle id="535" pos="278.46" speed="8.90"/>
            </lane>
        </edge>
        <edge id="gneE8">
            <lane id="gneE8_0">
                <vehicle id="404" pos="12.06" speed="6.73"/>
                <vehicle id="556" pos="288.45" speed="6.73"/>
            </lane>
        </edge>
    </timestep>
