<?xml version="1.0"?>
<timestep time="597.00">
        <edge id=":gneJ11_31">
            <lane id=":gneJ11_31_0">
                <vehicle id="387" pos="12.37" speed="7.97"/>
            </lane>
        </edge>
        <edge id=":gneJ11_41">
            <lane id=":gneJ11_41_0">
                <vehicle id="397" pos="7.66" speed="6.45"/>
            </lane>
        </edge>
        <edge id=":gneJ15_1">
            <lane id=":gneJ15_1_0">
                <vehicle id="396" pos="12.31" speed="6.40"/>
            </lane>
        </edge>
        <edge id=":gneJ15_7">
            <lane id=":gneJ15_7_0">
                <vehicle id="428" pos="5.11" speed="3.37"/>
            </lane>
        </edge>
        <edge id=":gneJ18_1">
            <lane id=":gneJ18_1_0">
                <vehicle id="490" pos="2.66" speed="7.36"/>
            </lane>
        </edge>
        <edge id=":gneJ28_1">
            <lane id=":gneJ28_1_0">
                <vehicle id="547" pos="4.98" speed="0.16"/>
            </lane>
        </edge>
        <edge id=":gneJ28_10">
            <lane id=":gneJ28_10_0">
                <vehicle id="576" pos="4.93" speed="7.78"/>
            </lane>
        </edge>
        <edge id=":gneJ3_7">
            <lane id=":gneJ3_7_0">
                <vehicle id="563" pos="1.11" speed="4.41"/>
            </lane>
        </edge>
        <edge id=":gneJ3_11">
            <lane id=":gneJ3_11_0">
                <vehicle id="570" pos="3.38" speed="0.39"/>
            </lane>
        </edge>
        <edge id=":gneJ4_1">
            <lane id=":gneJ4_1_0">
                <vehicle id="433" pos="6.08" speed="7.50"/>
            </lane>
        </edge>
        <edge id=":gneJ9_6">
            <lane id=":gneJ9_6_0">
                <vehicle id="514" pos="0.10" speed="4.57"/>
            </lane>
        </edge>
        <edge id="gneE1">
            <lane id="gneE1_0">
                <vehicle id="596" pos="7.42" speed="2.32"/>
                <vehicle id="587" pos="46.87" speed="4.91"/>
                <vehicle id="584" pos="58.93" speed="4.00"/>
            </lane>
        </edge>
        <edge id="gneE10">
            <lane id="gneE10_0">
                <vehicle id="537" pos="13.92" speed="5.71"/>
                <vehicle id="465" pos="85.35" speed="5.44"/>
                <vehicle id="496" pos="118.88" speed="4.84"/>
                <vehicle id="519" pos="130.89" speed="1.36"/>
                <vehicle id="471" pos="138.90" speed="0.07"/>
            </lane>
        </edge>
        <edge id="gneE11">
            <lane id="gneE11_0">
                <vehicle id="552" pos="53.50" speed="7.70"/>
            </lane>
        </edge>
        <edge id="gneE12">
            <lane id="gneE12_0">
                <vehicle id="485" pos="235.71" speed="13.68"/>
            </lane>
        </edge>
        <edge id="gneE13">
            <lane id="gneE13_0">
                <vehicle id="541" pos="28.12" speed="9.09"/>
                <vehicle id="573" pos="50.76" speed="9.06"/>
                <vehicle id="491" pos="157.35" speed="9.98"/>
                <vehicle id="516" pos="265.97" speed="10.00"/>
                <vehicle id="546" pos="293.93" speed="9.76"/>
            </lane>
        </edge>
        <edge id="gneE14">
            <lane id="gneE14_0">
                <vehicle id="562" pos="10.42" speed="10.15"/>
            </lane>
        </edge>
        <edge id="gneE15">
            <lane id="gneE15_0">
                <vehicle id="364" pos="30.93" speed="8.17"/>
                <vehicle id="518" pos="66.73" speed="8.25"/>
                <vehicle id="453" pos="89.34" speed="7.72"/>
            </lane>
        </edge>
        <edge id="gneE17">
            <lane id="gneE17_0">
                <vehicle id="458" pos="4.54" speed="8.89"/>
                <vehicle id="442" pos="145.66" speed="9.19"/>
                <vehicle id="578" pos="168.97" speed="9.22"/>
                <vehicle id="363" pos="227.90" speed="9.16"/>
                <vehicle id="569" pos="249.55" speed="8.84"/>
                <vehicle id="548" pos="270.10" speed="2.31"/>
                <vehicle id="427" pos="278.74" speed="0.00"/>
                <vehicle id="495" pos="286.24" speed="0.00"/>
            </lane>
        </edge>
        <edge id="gneE18">
            <lane id="gneE18_0">
                <vehicle id="565" pos="84.95" speed="8.98"/>
                <vehicle id="500" pos="113.76" speed="8.95"/>
                <vehicle id="558" pos="261.45" speed="6.30"/>
                <vehicle id="478" pos="277.91" speed="7.15"/>
            </lane>
        </edge>
        <edge id="gneE19">
            <lane id="gneE19_0">
                <vehicle id="470" pos="27.44" speed="12.85"/>
                <vehicle id="325" pos="49.25" speed="12.07"/>
                <vehicle id="582" pos="159.70" speed="12.93"/>
                <vehicle id="474" pos="207.69" speed="1.48"/>
                <vehicle id="370" pos="215.33" speed="0.00"/>
                <vehicle id="542" pos="222.83" speed="0.00"/>
                <vehicle id="445" pos="230.33" speed="0.00"/>
                <vehicle id="440" pos="237.83" speed="0.00"/>
                <vehicle id="367" pos="245.33" speed="0.00"/>
                <vehicle id="439" pos="253.21" speed="0.38"/>
                <vehicle id="409" pos="263.82" speed="2.74"/>
                <vehicle id="231" pos="275.25" speed="3.58"/>
            </lane>
        </edge>
        <edge id="gneE20">
            <lane id="gneE20_0">
                <vehicle id="356" pos="74.94" speed="8.71"/>
                <vehicle id="498" pos="95.52" speed="8.93"/>
                <vehicle id="441" pos="140.08" speed="8.95"/>
                <vehicle id="340" pos="194.94" speed="7.78"/>
                <vehicle id="483" pos="216.70" speed="8.75"/>
                <vehicle id="296" pos="236.09" speed="8.39"/>
                <vehicle id="413" pos="257.45" speed="8.91"/>
            </lane>
        </edge>
        <edge id="gneE23">
            <lane id="gneE23_0">
                <vehicle id="389" pos="4.49" speed="6.85"/>
                <vehicle id="320" pos="25.01" speed="7.26"/>
                <vehicle id="575" pos="156.91" speed="7.88"/>
                <vehicle id="227" pos="177.36" speed="7.91"/>
            </lane>
        </edge>
        <edge id="gneE24">
            <lane id="gneE24_0">
                <vehicle id="530" pos="144.00" speed="12.88"/>
                <vehicle id="510" pos="177.65" speed="12.10"/>
            </lane>
        </edge>
        <edge id="gneE25">
            <lane id="gneE25_0">
                <vehicle id="459" pos="48.22" speed="9.99"/>
                <vehicle id="559" pos="88.91" speed="8.95"/>
                <vehicle id="451" pos="127.98" speed="9.49"/>
                <vehicle id="579" pos="148.02" speed="9.27"/>
                <vehicle id="449" pos="262.56" speed="8.99"/>
                <vehicle id="405" pos="286.30" speed="6.60"/>
            </lane>
        </edge>
        <edge id="gneE26">
            <lane id="gneE26_0">
                <vehicle id="501" pos="54.35" speed="6.78"/>
                <vehicle id="531" pos="77.34" speed="6.71"/>
                <vehicle id="499" pos="99.52" speed="6.73"/>
                <vehicle id="554" pos="144.10" speed="6.10"/>
                <vehicle id="549" pos="167.19" speed="6.94"/>
                <vehicle id="545" pos="194.52" speed="6.09"/>
                <vehicle id="507" pos="217.03" speed="6.57"/>
                <vehicle id="502" pos="258.91" speed="6.87"/>
                <vehicle id="521" pos="290.83" speed="0.00"/>
            </lane>
        </edge>
        <edge id="gneE27">
            <lane id="gneE27_0">
                <vehicle id="595" pos="9.51" speed="2.89"/>
                <vehicle id="497" pos="72.24" speed="4.76"/>
            </lane>
        </edge>
        <edge id="gneE28">
            <lane id="gneE28_0">
                <vehicle id="460" pos="105.20" speed="8.36"/>
            </lane>
        </edge>
        <edge id="gneE3">
            <lane id="gneE3_0">
                <vehicle id="394" pos="140.19" speed="9.49"/>
            </lane>
        </edge>
        <edge id="gneE30">
            <lane id="gneE30_0">
                <vehicle id="399" pos="61.84" speed="7.97"/>
                <vehicle id="418" pos="87.91" speed="8.55"/>
                <vehicle id="454" pos="115.17" speed="8.89"/>
                <vehicle id="382" pos="147.50" speed="8.62"/>
                <vehicle id="358" pos="291.32" speed="7.75"/>
            </lane>
        </edge>
        <edge id="gneE31">
            <lane id="gneE31_0">
                <vehicle id="593" pos="23.12" speed="7.11"/>
                <vehicle id="561" pos="71.13" speed="8.34"/>
                <vehicle id="479" pos="157.88" speed="8.95"/>
                <vehicle id="534" pos="180.70" speed="8.52"/>
                <vehicle id="480" pos="207.02" speed="8.55"/>
            </lane>
        </edge>
        <edge id="gneE32">
            <lane id="gneE32_0">
                <vehicle id="591" pos="37.81" speed="7.92"/>
                <vehicle id="339" pos="245.08" speed="6.85"/>
                <vehicle id="381" pos="295.25" speed="6.76"/>
            </lane>
        </edge>
        <edge id="gneE38">
            <lane id="gneE38_0">
                <vehicle id="551" pos="193.17" speed="8.08"/>
                <vehicle id="350" pos="242.75" speed="1.35"/>
                <vehicle id="457" pos="251.72" speed="0.62"/>
                <vehicle id="421" pos="259.82" speed="0.17"/>
                <vehicle id="532" pos="267.76" speed="0.29"/>
                <vehicle id="508" pos="275.43" speed="0.10"/>
                <vehicle id="528" pos="282.96" speed="0.02"/>
                <vehicle id="333" pos="290.47" speed="0.00"/>
                <vehicle id="B1_2" pos="297.97" speed="0.00"/>
                <vehicle id="402" pos="305.47" speed="0.00"/>
                <vehicle id="430" pos="312.97" speed="0.00"/>
                <vehicle id="393" pos="320.48" speed="0.00"/>
                <vehicle id="464" pos="329.39" speed="1.41"/>
                <vehicle id="436" pos="342.07" speed="4.39"/>
            </lane>
        </edge>
        <edge id="gneE4">
            <lane id="gneE4_0">
                <vehicle id="592" pos="33.36" speed="9.24"/>
                <vehicle id="506" pos="65.55" speed="9.31"/>
            </lane>
        </edge>
        <edge id="gneE41">
            <lane id="gneE41_0">
                <vehicle id="525" pos="35.09" speed="8.05"/>
                <vehicle id="400" pos="64.52" speed="8.60"/>
                <vehicle id="539" pos="83.53" speed="8.42"/>
            </lane>
        </edge>
        <edge id="gneE43">
            <lane id="gneE43_0">
                <vehicle id="588" pos="48.57" speed="6.97"/>
                <vehicle id="555" pos="91.74" speed="6.34"/>
                <vehicle id="505" pos="127.78" speed="6.69"/>
                <vehicle id="494" pos="172.94" speed="6.75"/>
                <vehicle id="529" pos="241.29" speed="6.47"/>
                <vehicle id="482" pos="254.45" speed="2.75"/>
                <vehicle id="526" pos="265.39" speed="2.29"/>
                <vehicle id="493" pos="275.38" speed="1.88"/>
                <vehicle id="522" pos="283.98" speed="0.70"/>
                <vehicle id="520" pos="291.66" speed="0.08"/>
                <vehicle id="434" pos="300.32" speed="1.09"/>
            </lane>
        </edge>
        <edge id="gneE45">
            <lane id="gneE45_0">
                <vehicle id="572" pos="13.90" speed="7.85"/>
                <vehicle id="560" pos="53.83" speed="7.85"/>
                <vehicle id="336" pos="248.18" speed="8.10"/>
                <vehicle id="557" pos="306.72" speed="0.04"/>
            </lane>
        </edge>
        <edge id="gneE46">
            <lane id="gneE46_0">
                <vehicle id="523" pos="32.86" speed="8.91"/>
                <vehicle id="590" pos="53.48" speed="9.92"/>
            </lane>
        </edge>
        <edge id="gneE47">
            <lane id="gneE47_0">
                <vehicle id="293" pos="18.09" speed="8.23"/>
                <vehicle id="585" pos="67.96" speed="7.94"/>
                <vehicle id="540" pos="88.85" speed="7.84"/>
                <vehicle id="509" pos="187.24" speed="6.90"/>
            </lane>
        </edge>
        <edge id="gneE48">
            <lane id="gneE48_0">
                <vehicle id="597" pos="5.10" speed="0.00"/>
                <vehicle id="568" pos="38.28" speed="6.86"/>
                <vehicle id="566" pos="198.63" speed="6.61"/>
                <vehicle id="538" pos="225.43" speed="6.60"/>
                <vehicle id="337" pos="252.12" speed="0.02"/>
                <vehicle id="533" pos="259.63" speed="0.00"/>
                <vehicle id="503" pos="267.13" speed="0.00"/>
                <vehicle id="504" pos="274.63" speed="0.00"/>
                <vehicle id="338" pos="282.13" speed="0.00"/>
                <vehicle id="254" pos="289.63" speed="0.00"/>
                <vehicle id="468" pos="297.14" speed="0.00"/>
                <vehicle id="463" pos="304.64" speed="0.00"/>
                <vehicle id="424" pos="312.14" speed="0.00"/>
                <vehicle id="423" pos="319.64" speed="0.00"/>
            </lane>
        </edge>
        <edge id="gneE49">
            <lane id="gneE49_0">
                <vehicle id="416" pos="7.00" speed="7.54"/>
                <vehicle id="287" pos="92.41" speed="7.09"/>
                <vehicle id="408" pos="145.56" speed="7.28"/>
                <vehicle id="571" pos="185.60" speed="6.87"/>
                <vehicle id="392" pos="235.01" speed="7.42"/>
                <vehicle id="456" pos="252.17" speed="7.97"/>
                <vehicle id="383" pos="315.30" speed="6.92"/>
            </lane>
        </edge>
        <edge id="gneE5">
            <lane id="gneE5_0">
                <vehicle id="594" pos="5.10" speed="0.00"/>
                <vehicle id="379" pos="58.29" speed="5.36"/>
            </lane>
        </edge>
        <edge id="gneE50">
            <lane id="gneE50_0">
                <vehicle id="452" pos="83.34" speed="5.21"/>
                <vehicle id="415" pos="124.31" speed="5.86"/>
                <vehicle id="536" pos="323.85" speed="5.20"/>
            </lane>
        </edge>
        <edge id="gneE51">
            <lane id="gneE51_0">
                <vehicle id="527" pos="10.95" speed="6.70"/>
                <vehicle id="406" pos="55.38" speed="6.16"/>
                <vehicle id="543" pos="72.74" speed="5.93"/>
                <vehicle id="517" pos="91.20" speed="6.34"/>
                <vehicle id="461" pos="195.95" speed="6.84"/>
                <vehicle id="544" pos="335.36" speed="6.62"/>
                <vehicle id="375" pos="350.79" speed="0.01"/>
                <vehicle id="344" pos="358.30" speed="0.00"/>
                <vehicle id="B3_2" pos="365.80" speed="0.00"/>
            </lane>
        </edge>
        <edge id="gneE52">
            <lane id="gneE52_0">
                <vehicle id="435" pos="339.67" speed="5.88"/>
            </lane>
        </edge>
        <edge id="gneE53">
            <lane id="gneE53_0">
                <vehicle id="487" pos="27.33" speed="5.77"/>
                <vehicle id="583" pos="84.13" speed="6.81"/>
                <vehicle id="574" pos="144.12" speed="6.46"/>
                <vehicle id="310" pos="268.04" speed="0.09"/>
                <vehicle id="261" pos="275.63" speed="0.04"/>
                <vehicle id="207" pos="283.14" speed="0.01"/>
                <vehicle id="B4_2" pos="290.65" speed="0.00"/>
                <vehicle id="473" pos="298.15" speed="0.00"/>
                <vehicle id="469" pos="305.65" speed="0.00"/>
                <vehicle id="486" pos="313.15" speed="0.00"/>
                <vehicle id="448" pos="320.66" speed="0.00"/>
                <vehicle id="233" pos="328.16" speed="0.00"/>
                <vehicle id="431" pos="335.66" speed="0.00"/>
                <vehicle id="401" pos="343.16" speed="0.00"/>
            </lane>
        </edge>
        <edge id="gneE56">
            <lane id="gneE56_0">
                <vehicle id="481" pos="65.39" speed="7.89"/>
            </lane>
        </edge>
        <edge id="gneE58">
            <lane id="gneE58_0">
                <vehicle id="492" pos="28.64" speed="7.16"/>
                <vehicle id="577" pos="136.98" speed="7.24"/>
                <vehicle id="564" pos="235.70" speed="7.10"/>
            </lane>
        </edge>
        <edge id="gneE59">
            <lane id="gneE59_0">
                <vehicle id="567" pos="242.64" speed="8.29"/>
                <vehicle id="515" pos="279.13" speed="7.81"/>
                <vehicle id="489" pos="299.79" speed="8.54"/>
            </lane>
        </edge>
        <edge id="gneE6">
            <lane id="gneE6_0">
                <vehicle id="477" pos="10.40" speed="7.32"/>
                <vehicle id="586" pos="77.49" speed="7.03"/>
            </lane>
        </edge>
        <edge id="gneE60">
            <lane id="gneE60_0">
                <vehicle id="589" pos="28.22" speed="6.65"/>
                <vehicle id="443" pos="45.23" speed="6.43"/>
                <vehicle id="581" pos="98.30" speed="5.83"/>
                <vehicle id="419" pos="143.74" speed="6.64"/>
                <vehicle id="524" pos="186.51" speed="6.92"/>
                <vehicle id="467" pos="306.62" speed="3.92"/>
                <vehicle id="349" pos="319.50" speed="4.90"/>
                <vehicle id="398" pos="334.01" speed="6.25"/>
            </lane>
        </edge>
        <edge id="gneE61">
            <lane id="gneE61_0">
                <vehicle id="580" pos="122.70" speed="7.17"/>
                <vehicle id="368" pos="320.37" speed="7.82"/>
            </lane>
        </edge>
        <edge id="gneE7">
            <lane id="gneE7_0">
                <vehicle id="512" pos="16.50" speed="8.39"/>
                <vehicle id="235" pos="52.51" speed="8.38"/>
                <vehicle id="553" pos="131.47" speed="8.07"/>
                <vehicle id="535" pos="287.30" speed="8.84"/>
            </lane>
        </edge>
        <edge id="gneE8">
            <lane id="gneE8_0">
                <vehicle id="404" pos="19.26" speed="7.19"/>
                <vehicle id="556" pos="295.78" speed="7.33"/>
            </lane>
        </edge>
    </timestep>
