<?xml version="1.0"?>
<timestep time="598.00">
        <edge id=":gneJ11_0">
            <lane id=":gneJ11_0_0">
                <vehicle id="510" pos="4.41" speed="12.11"/>
            </lane>
        </edge>
        <edge id=":gneJ11_9">
            <lane id=":gneJ11_9_0">
                <vehicle id="B3_2" pos="2.15" speed="2.25"/>
            </lane>
        </edge>
        <edge id=":gneJ11_31">
            <lane id=":gneJ11_31_0">
                <vehicle id="387" pos="22.11" speed="9.74"/>
            </lane>
        </edge>
        <edge id=":gneJ11_41">
            <lane id=":gneJ11_41_0">
                <vehicle id="397" pos="14.96" speed="7.30"/>
            </lane>
        </edge>
        <edge id=":gneJ15_7">
            <lane id=":gneJ15_7_0">
                <vehicle id="428" pos="10.53" speed="5.42"/>
            </lane>
        </edge>
        <edge id=":gneJ28_1">
            <lane id=":gneJ28_1_0">
                <vehicle id="547" pos="4.99" speed="0.01"/>
            </lane>
        </edge>
        <edge id=":gneJ28_10">
            <lane id=":gneJ28_10_0">
                <vehicle id="576" pos="14.01" speed="9.08"/>
            </lane>
        </edge>
        <edge id=":gneJ3_7">
            <lane id=":gneJ3_7_0">
                <vehicle id="563" pos="7.20" speed="6.10"/>
            </lane>
        </edge>
        <edge id=":gneJ3_11">
            <lane id=":gneJ3_11_0">
                <vehicle id="570" pos="3.61" speed="0.24"/>
            </lane>
        </edge>
        <edge id=":gneJ30_3">
            <lane id=":gneJ30_3_0">
                <vehicle id="383" pos="2.77" speed="7.21"/>
            </lane>
        </edge>
        <edge id=":gneJ6_1">
            <lane id=":gneJ6_1_0">
                <vehicle id="358" pos="3.03" speed="4.86"/>
            </lane>
        </edge>
        <edge id=":gneJ9_4">
            <lane id=":gneJ9_4_0">
                <vehicle id="478" pos="0.35" speed="8.78"/>
            </lane>
        </edge>
        <edge id="gneE1">
            <lane id="gneE1_0">
                <vehicle id="596" pos="11.41" speed="3.98"/>
                <vehicle id="587" pos="51.12" speed="4.25"/>
                <vehicle id="584" pos="62.83" speed="3.90"/>
            </lane>
        </edge>
        <edge id="gneE10">
            <lane id="gneE10_0">
                <vehicle id="537" pos="18.65" speed="4.73"/>
                <vehicle id="465" pos="90.53" speed="5.18"/>
                <vehicle id="496" pos="122.30" speed="3.42"/>
                <vehicle id="519" pos="131.24" speed="0.35"/>
                <vehicle id="471" pos="138.94" speed="0.04"/>
            </lane>
        </edge>
        <edge id="gneE11">
            <lane id="gneE11_0">
                <vehicle id="552" pos="62.21" speed="8.72"/>
            </lane>
        </edge>
        <edge id="gneE12">
            <lane id="gneE12_0">
                <vehicle id="485" pos="248.32" speed="12.61"/>
            </lane>
        </edge>
        <edge id="gneE13">
            <lane id="gneE13_0">
                <vehicle id="541" pos="37.90" speed="9.78"/>
                <vehicle id="573" pos="59.89" speed="9.14"/>
                <vehicle id="491" pos="167.01" speed="9.66"/>
                <vehicle id="516" pos="275.69" speed="9.72"/>
                <vehicle id="546" pos="299.46" speed="5.53"/>
            </lane>
        </edge>
        <edge id="gneE14">
            <lane id="gneE14_0">
                <vehicle id="562" pos="20.97" speed="10.55"/>
            </lane>
        </edge>
        <edge id="gneE15">
            <lane id="gneE15_0">
                <vehicle id="514" pos="1.76" speed="6.83"/>
                <vehicle id="364" pos="39.54" speed="8.62"/>
                <vehicle id="518" pos="74.93" speed="8.20"/>
                <vehicle id="453" pos="97.51" speed="8.17"/>
            </lane>
        </edge>
        <edge id="gneE17">
            <lane id="gneE17_0">
                <vehicle id="458" pos="14.03" speed="9.50"/>
                <vehicle id="442" pos="155.54" speed="9.88"/>
                <vehicle id="578" pos="178.58" speed="9.61"/>
                <vehicle id="363" pos="237.45" speed="9.55"/>
                <vehicle id="569" pos="257.46" speed="7.91"/>
                <vehicle id="548" pos="271.01" speed="0.91"/>
                <vehicle id="427" pos="278.74" speed="0.00"/>
                <vehicle id="495" pos="286.24" speed="0.00"/>
            </lane>
        </edge>
        <edge id="gneE18">
            <lane id="gneE18_0">
                <vehicle id="565" pos="94.11" speed="9.16"/>
                <vehicle id="500" pos="123.61" speed="9.85"/>
                <vehicle id="558" pos="269.10" speed="7.65"/>
            </lane>
        </edge>
        <edge id="gneE19">
            <lane id="gneE19_0">
                <vehicle id="470" pos="39.74" speed="12.30"/>
                <vehicle id="325" pos="61.63" speed="12.38"/>
                <vehicle id="582" pos="171.94" speed="12.24"/>
                <vehicle id="474" pos="207.80" speed="0.11"/>
                <vehicle id="370" pos="215.33" speed="0.00"/>
                <vehicle id="542" pos="222.83" speed="0.00"/>
                <vehicle id="445" pos="230.33" speed="0.00"/>
                <vehicle id="440" pos="237.83" speed="0.00"/>
                <vehicle id="367" pos="245.69" speed="0.35"/>
                <vehicle id="439" pos="255.54" speed="2.33"/>
                <vehicle id="409" pos="266.47" speed="2.64"/>
                <vehicle id="231" pos="280.58" speed="5.32"/>
            </lane>
        </edge>
        <edge id="gneE20">
            <lane id="gneE20_0">
                <vehicle id="356" pos="83.44" speed="8.50"/>
                <vehicle id="498" pos="104.08" speed="8.55"/>
                <vehicle id="441" pos="148.93" speed="8.85"/>
                <vehicle id="340" pos="203.85" speed="8.91"/>
                <vehicle id="483" pos="224.88" speed="8.18"/>
                <vehicle id="296" pos="244.98" speed="8.89"/>
                <vehicle id="413" pos="265.55" speed="8.10"/>
            </lane>
        </edge>
        <edge id="gneE23">
            <lane id="gneE23_0">
                <vehicle id="389" pos="12.22" speed="7.74"/>
                <vehicle id="320" pos="32.82" speed="7.81"/>
                <vehicle id="575" pos="163.96" speed="7.04"/>
            </lane>
        </edge>
        <edge id="gneE24">
            <lane id="gneE24_0">
                <vehicle id="530" pos="156.02" speed="12.02"/>
            </lane>
        </edge>
        <edge id="gneE25">
            <lane id="gneE25_0">
                <vehicle id="396" pos="0.05" speed="8.02"/>
                <vehicle id="459" pos="57.50" speed="9.28"/>
                <vehicle id="559" pos="98.36" speed="9.45"/>
                <vehicle id="451" pos="137.11" speed="9.14"/>
                <vehicle id="579" pos="157.97" speed="9.95"/>
                <vehicle id="449" pos="271.31" speed="8.75"/>
                <vehicle id="405" pos="290.65" speed="4.35"/>
            </lane>
        </edge>
        <edge id="gneE26">
            <lane id="gneE26_0">
                <vehicle id="501" pos="60.81" speed="6.47"/>
                <vehicle id="531" pos="84.11" speed="6.77"/>
                <vehicle id="499" pos="105.69" speed="6.17"/>
                <vehicle id="554" pos="150.60" speed="6.50"/>
                <vehicle id="549" pos="173.37" speed="6.19"/>
                <vehicle id="545" pos="200.55" speed="6.03"/>
                <vehicle id="507" pos="222.77" speed="5.74"/>
                <vehicle id="502" pos="265.30" speed="6.40"/>
                <vehicle id="521" pos="290.83" speed="0.00"/>
            </lane>
        </edge>
        <edge id="gneE27">
            <lane id="gneE27_0">
                <vehicle id="595" pos="14.48" speed="4.97"/>
                <vehicle id="497" pos="77.90" speed="5.66"/>
            </lane>
        </edge>
        <edge id="gneE28">
            <lane id="gneE28_0">
                <vehicle id="460" pos="114.03" speed="8.83"/>
            </lane>
        </edge>
        <edge id="gneE3">
            <lane id="gneE3_0">
                <vehicle id="394" pos="150.09" speed="9.90"/>
            </lane>
        </edge>
        <edge id="gneE30">
            <lane id="gneE30_0">
                <vehicle id="399" pos="69.74" speed="7.90"/>
                <vehicle id="418" pos="96.22" speed="8.31"/>
                <vehicle id="454" pos="123.11" speed="7.94"/>
                <vehicle id="382" pos="155.54" speed="8.05"/>
            </lane>
        </edge>
        <edge id="gneE31">
            <lane id="gneE31_0">
                <vehicle id="593" pos="31.58" speed="8.46"/>
                <vehicle id="561" pos="79.13" speed="8.00"/>
                <vehicle id="479" pos="166.29" speed="8.40"/>
                <vehicle id="534" pos="189.67" speed="8.97"/>
                <vehicle id="480" pos="215.37" speed="8.35"/>
            </lane>
        </edge>
        <edge id="gneE32">
            <lane id="gneE32_0">
                <vehicle id="591" pos="45.68" speed="7.87"/>
                <vehicle id="339" pos="251.81" speed="6.72"/>
                <vehicle id="381" pos="302.89" speed="7.64"/>
            </lane>
        </edge>
        <edge id="gneE38">
            <lane id="gneE38_0">
                <vehicle id="551" pos="201.10" speed="7.93"/>
                <vehicle id="350" pos="243.59" speed="0.84"/>
                <vehicle id="457" pos="252.23" speed="0.51"/>
                <vehicle id="421" pos="260.25" speed="0.43"/>
                <vehicle id="532" pos="267.88" speed="0.13"/>
                <vehicle id="508" pos="275.46" speed="0.03"/>
                <vehicle id="528" pos="282.97" speed="0.01"/>
                <vehicle id="333" pos="290.47" speed="0.00"/>
                <vehicle id="B1_2" pos="297.97" speed="0.00"/>
                <vehicle id="402" pos="305.47" speed="0.00"/>
                <vehicle id="430" pos="312.97" speed="0.00"/>
                <vehicle id="393" pos="321.22" speed="0.75"/>
                <vehicle id="464" pos="332.83" speed="3.44"/>
                <vehicle id="436" pos="342.53" speed="0.46"/>
            </lane>
        </edge>
        <edge id="gneE4">
            <lane id="gneE4_0">
                <vehicle id="433" pos="5.45" speed="9.73"/>
                <vehicle id="592" pos="42.89" speed="9.53"/>
                <vehicle id="506" pos="74.25" speed="8.70"/>
            </lane>
        </edge>
        <edge id="gneE41">
            <lane id="gneE41_0">
                <vehicle id="490" pos="7.00" speed="7.76"/>
                <vehicle id="525" pos="43.87" speed="8.78"/>
                <vehicle id="400" pos="72.74" speed="8.22"/>
                <vehicle id="539" pos="92.39" speed="8.86"/>
            </lane>
        </edge>
        <edge id="gneE43">
            <lane id="gneE43_0">
                <vehicle id="588" pos="55.09" speed="6.51"/>
                <vehicle id="555" pos="98.11" speed="6.37"/>
                <vehicle id="505" pos="134.76" speed="6.97"/>
                <vehicle id="494" pos="178.97" speed="6.03"/>
                <vehicle id="529" pos="245.73" speed="4.43"/>
                <vehicle id="482" pos="257.35" speed="2.90"/>
                <vehicle id="526" pos="267.30" speed="1.91"/>
                <vehicle id="493" pos="276.35" speed="0.97"/>
                <vehicle id="522" pos="284.09" speed="0.12"/>
                <vehicle id="520" pos="292.61" speed="0.95"/>
                <vehicle id="434" pos="303.58" speed="3.26"/>
            </lane>
        </edge>
        <edge id="gneE45">
            <lane id="gneE45_0">
                <vehicle id="572" pos="21.96" speed="8.06"/>
                <vehicle id="560" pos="62.37" speed="8.54"/>
                <vehicle id="336" pos="255.99" speed="7.81"/>
                <vehicle id="557" pos="306.73" speed="0.01"/>
            </lane>
        </edge>
        <edge id="gneE46">
            <lane id="gneE46_0">
                <vehicle id="523" pos="42.05" speed="9.19"/>
                <vehicle id="590" pos="63.41" speed="9.93"/>
            </lane>
        </edge>
        <edge id="gneE47">
            <lane id="gneE47_0">
                <vehicle id="293" pos="26.01" speed="7.92"/>
                <vehicle id="585" pos="76.15" speed="8.19"/>
                <vehicle id="540" pos="97.12" speed="8.27"/>
                <vehicle id="509" pos="190.53" speed="3.29"/>
            </lane>
        </edge>
        <edge id="gneE48">
            <lane id="gneE48_0">
                <vehicle id="597" pos="6.62" speed="1.52"/>
                <vehicle id="568" pos="44.42" speed="6.14"/>
                <vehicle id="566" pos="204.94" speed="6.31"/>
                <vehicle id="538" pos="231.94" speed="6.52"/>
                <vehicle id="337" pos="252.13" speed="0.00"/>
                <vehicle id="533" pos="259.63" speed="0.00"/>
                <vehicle id="503" pos="267.13" speed="0.00"/>
                <vehicle id="504" pos="274.63" speed="0.00"/>
                <vehicle id="338" pos="282.13" speed="0.00"/>
                <vehicle id="254" pos="289.63" speed="0.00"/>
                <vehicle id="468" pos="297.14" speed="0.00"/>
                <vehicle id="463" pos="304.64" speed="0.00"/>
                <vehicle id="424" pos="312.14" speed="0.00"/>
                <vehicle id="423" pos="319.64" speed="0.00"/>
            </lane>
        </edge>
        <edge id="gneE49">
            <lane id="gneE49_0">
                <vehicle id="416" pos="14.82" speed="7.82"/>
                <vehicle id="287" pos="99.79" speed="7.38"/>
                <vehicle id="408" pos="152.28" speed="6.72"/>
                <vehicle id="571" pos="193.54" speed="7.93"/>
                <vehicle id="392" pos="242.65" speed="7.64"/>
                <vehicle id="456" pos="260.02" speed="7.84"/>
            </lane>
        </edge>
        <edge id="gneE5">
            <lane id="gneE5_0">
                <vehicle id="594" pos="7.45" speed="2.35"/>
                <vehicle id="379" pos="64.02" speed="5.72"/>
            </lane>
        </edge>
        <edge id="gneE50">
            <lane id="gneE50_0">
                <vehicle id="452" pos="89.15" speed="5.81"/>
                <vehicle id="415" pos="129.74" speed="5.43"/>
                <vehicle id="536" pos="329.73" speed="5.88"/>
            </lane>
        </edge>
        <edge id="gneE51">
            <lane id="gneE51_0">
                <vehicle id="527" pos="17.50" speed="6.54"/>
                <vehicle id="406" pos="62.05" speed="6.67"/>
                <vehicle id="543" pos="79.56" speed="6.82"/>
                <vehicle id="517" pos="97.85" speed="6.65"/>
                <vehicle id="461" pos="201.90" speed="5.95"/>
                <vehicle id="544" pos="340.94" speed="5.58"/>
                <vehicle id="375" pos="350.80" speed="0.00"/>
                <vehicle id="344" pos="358.30" speed="0.00"/>
            </lane>
        </edge>
        <edge id="gneE53">
            <lane id="gneE53_0">
                <vehicle id="487" pos="33.36" speed="6.03"/>
                <vehicle id="583" pos="90.97" speed="6.84"/>
                <vehicle id="574" pos="150.63" speed="6.51"/>
                <vehicle id="310" pos="268.12" speed="0.08"/>
                <vehicle id="261" pos="275.64" speed="0.01"/>
                <vehicle id="207" pos="283.15" speed="0.00"/>
                <vehicle id="B4_2" pos="290.65" speed="0.00"/>
                <vehicle id="473" pos="298.15" speed="0.00"/>
                <vehicle id="469" pos="305.65" speed="0.00"/>
                <vehicle id="486" pos="313.15" speed="0.00"/>
                <vehicle id="448" pos="320.66" speed="0.00"/>
                <vehicle id="233" pos="328.16" speed="0.00"/>
                <vehicle id="431" pos="335.66" speed="0.00"/>
                <vehicle id="401" pos="343.16" speed="0.00"/>
            </lane>
        </edge>
        <edge id="gneE56">
            <lane id="gneE56_0">
                <vehicle id="481" pos="73.22" speed="7.83"/>
            </lane>
        </edge>
        <edge id="gneE58">
            <lane id="gneE58_0">
                <vehicle id="492" pos="36.32" speed="7.68"/>
                <vehicle id="577" pos="144.68" speed="7.70"/>
                <vehicle id="564" pos="242.91" speed="7.21"/>
            </lane>
        </edge>
        <edge id="gneE59">
            <lane id="gneE59_0">
                <vehicle id="567" pos="250.45" speed="7.81"/>
                <vehicle id="515" pos="287.33" speed="8.20"/>
                <vehicle id="489" pos="308.41" speed="8.62"/>
            </lane>
        </edge>
        <edge id="gneE6">
            <lane id="gneE6_0">
                <vehicle id="477" pos="17.66" speed="7.26"/>
                <vehicle id="586" pos="84.47" speed="6.98"/>
            </lane>
        </edge>
        <edge id="gneE60">
            <lane id="gneE60_0">
                <vehicle id="589" pos="34.84" speed="6.62"/>
                <vehicle id="443" pos="51.30" speed="6.07"/>
                <vehicle id="581" pos="104.40" speed="6.11"/>
                <vehicle id="419" pos="149.50" speed="5.76"/>
                <vehicle id="524" pos="192.57" speed="6.06"/>
                <vehicle id="467" pos="310.50" speed="3.87"/>
                <vehicle id="349" pos="325.13" speed="5.63"/>
                <vehicle id="398" pos="336.26" speed="2.25"/>
            </lane>
        </edge>
        <edge id="gneE61">
            <lane id="gneE61_0">
                <vehicle id="580" pos="129.94" speed="7.24"/>
                <vehicle id="368" pos="327.41" speed="7.04"/>
            </lane>
        </edge>
        <edge id="gneE7">
            <lane id="gneE7_0">
                <vehicle id="512" pos="24.23" speed="7.73"/>
                <vehicle id="235" pos="61.48" speed="8.96"/>
                <vehicle id="553" pos="140.36" speed="8.89"/>
                <vehicle id="535" pos="295.36" speed="8.06"/>
            </lane>
        </edge>
        <edge id="gneE8">
            <lane id="gneE8_0">
                <vehicle id="404" pos="26.21" speed="6.95"/>
                <vehicle id="556" pos="302.57" speed="6.79"/>
            </lane>
        </edge>
    </timestep>
