<?xml version="1.0"?>
<timestep time="605.00">
        <edge id=":gneJ11_14">
            <lane id=":gneJ11_14_0">
                <vehicle id="423" pos="9.81" speed="5.25"/>
            </lane>
        </edge>
        <edge id=":gneJ15_1">
            <lane id=":gneJ15_1_0">
                <vehicle id="436" pos="2.48" speed="2.58"/>
            </lane>
        </edge>
        <edge id=":gneJ15_13">
            <lane id=":gneJ15_13_0">
                <vehicle id="521" pos="1.27" speed="1.37"/>
            </lane>
        </edge>
        <edge id=":gneJ28_10">
            <lane id=":gneJ28_10_0">
                <vehicle id="539" pos="6.62" speed="8.06"/>
            </lane>
        </edge>
        <edge id=":gneJ6_3">
            <lane id=":gneJ6_3_0">
                <vehicle id="471" pos="8.63" speed="4.40"/>
            </lane>
        </edge>
        <edge id=":gneJ9_3">
            <lane id=":gneJ9_3_0">
                <vehicle id="483" pos="0.22" speed="7.88"/>
            </lane>
        </edge>
        <edge id="gneE1">
            <lane id="gneE1_0">
                <vehicle id="596" pos="41.75" speed="3.78"/>
                <vehicle id="587" pos="79.25" speed="4.64"/>
                <vehicle id="584" pos="93.31" speed="3.81"/>
            </lane>
        </edge>
        <edge id="gneE10">
            <lane id="gneE10_0">
                <vehicle id="546" pos="27.54" speed="5.98"/>
                <vehicle id="537" pos="54.95" speed="5.31"/>
                <vehicle id="465" pos="116.43" speed="0.09"/>
                <vehicle id="496" pos="124.74" speed="0.80"/>
                <vehicle id="519" pos="135.72" speed="3.33"/>
            </lane>
        </edge>
        <edge id="gneE11">
            <lane id="gneE11_0">
                <vehicle id="358" pos="23.03" speed="8.60"/>
                <vehicle id="552" pos="120.80" speed="8.45"/>
            </lane>
        </edge>
        <edge id="gneE12">
            <lane id="gneE12_0">
                <vehicle id="449" pos="29.14" speed="12.97"/>
            </lane>
        </edge>
        <edge id="gneE13">
            <lane id="gneE13_0">
                <vehicle id="605" pos="5.10" speed="0.00"/>
                <vehicle id="541" pos="103.53" speed="9.07"/>
                <vehicle id="573" pos="126.98" speed="9.97"/>
                <vehicle id="491" pos="232.19" speed="9.23"/>
            </lane>
        </edge>
        <edge id="gneE14">
            <lane id="gneE14_0">
                <vehicle id="601" pos="15.75" speed="5.66"/>
                <vehicle id="405" pos="54.02" speed="9.98"/>
                <vehicle id="562" pos="93.16" speed="10.42"/>
            </lane>
        </edge>
        <edge id="gneE15">
            <lane id="gneE15_0">
                <vehicle id="558" pos="18.15" speed="6.86"/>
                <vehicle id="413" pos="35.13" speed="8.01"/>
                <vehicle id="514" pos="60.33" speed="8.87"/>
                <vehicle id="364" pos="98.64" speed="8.85"/>
                <vehicle id="518" pos="132.86" speed="8.04"/>
                <vehicle id="453" pos="156.96" speed="8.49"/>
            </lane>
        </edge>
        <edge id="gneE17">
            <lane id="gneE17_0">
                <vehicle id="458" pos="79.94" speed="9.77"/>
                <vehicle id="442" pos="221.42" speed="9.11"/>
                <vehicle id="578" pos="244.57" speed="7.47"/>
                <vehicle id="363" pos="256.84" speed="0.66"/>
                <vehicle id="569" pos="267.85" speed="2.89"/>
                <vehicle id="548" pos="283.61" speed="5.81"/>
            </lane>
        </edge>
        <edge id="gneE18">
            <lane id="gneE18_0">
                <vehicle id="570" pos="8.23" speed="5.25"/>
                <vehicle id="600" pos="24.97" speed="8.02"/>
                <vehicle id="563" pos="57.26" speed="9.18"/>
                <vehicle id="565" pos="158.81" speed="9.33"/>
                <vehicle id="500" pos="188.64" speed="9.46"/>
            </lane>
        </edge>
        <edge id="gneE19">
            <lane id="gneE19_0">
                <vehicle id="478" pos="77.37" speed="12.51"/>
                <vehicle id="470" pos="128.35" speed="12.48"/>
                <vehicle id="325" pos="149.94" speed="12.70"/>
                <vehicle id="582" pos="200.58" speed="0.17"/>
                <vehicle id="474" pos="209.62" speed="1.39"/>
                <vehicle id="370" pos="219.99" speed="2.60"/>
                <vehicle id="542" pos="232.49" speed="4.10"/>
                <vehicle id="445" pos="248.11" speed="6.58"/>
                <vehicle id="440" pos="262.42" speed="5.17"/>
                <vehicle id="367" pos="276.41" speed="6.05"/>
            </lane>
        </edge>
        <edge id="gneE2">
            <lane id="gneE2_0">
                <vehicle id="495" pos="9.72" speed="9.67"/>
            </lane>
        </edge>
        <edge id="gneE20">
            <lane id="gneE20_0">
                <vehicle id="530" pos="24.87" speed="8.45"/>
                <vehicle id="510" pos="47.87" speed="8.58"/>
                <vehicle id="356" pos="140.61" speed="8.41"/>
                <vehicle id="498" pos="162.32" speed="8.27"/>
                <vehicle id="441" pos="207.31" speed="8.48"/>
                <vehicle id="340" pos="263.33" speed="8.78"/>
            </lane>
        </edge>
        <edge id="gneE23">
            <lane id="gneE23_0">
                <vehicle id="401" pos="10.74" speed="6.86"/>
                <vehicle id="397" pos="46.80" speed="6.92"/>
                <vehicle id="389" pos="63.98" speed="7.69"/>
                <vehicle id="320" pos="83.07" speed="7.89"/>
            </lane>
        </edge>
        <edge id="gneE24">
            <lane id="gneE24_0">
                <vehicle id="428" pos="65.58" speed="12.37"/>
            </lane>
        </edge>
        <edge id="gneE25">
            <lane id="gneE25_0">
                <vehicle id="575" pos="16.36" speed="8.86"/>
                <vehicle id="396" pos="65.38" speed="8.71"/>
                <vehicle id="459" pos="124.26" speed="9.89"/>
                <vehicle id="559" pos="162.63" speed="8.90"/>
                <vehicle id="451" pos="203.14" speed="9.00"/>
                <vehicle id="579" pos="222.52" speed="8.98"/>
            </lane>
        </edge>
        <edge id="gneE26">
            <lane id="gneE26_0">
                <vehicle id="516" pos="14.32" speed="6.86"/>
                <vehicle id="501" pos="105.55" speed="6.78"/>
                <vehicle id="531" pos="129.58" speed="6.92"/>
                <vehicle id="499" pos="151.70" speed="6.49"/>
                <vehicle id="554" pos="195.69" speed="6.50"/>
                <vehicle id="549" pos="216.70" speed="6.14"/>
                <vehicle id="545" pos="245.19" speed="6.82"/>
                <vehicle id="507" pos="268.90" speed="6.91"/>
                <vehicle id="502" pos="283.33" speed="0.01"/>
            </lane>
        </edge>
        <edge id="gneE27">
            <lane id="gneE27_0">
                <vehicle id="595" pos="53.62" speed="5.48"/>
                <vehicle id="497" pos="115.87" speed="5.67"/>
            </lane>
        </edge>
        <edge id="gneE3">
            <lane id="gneE3_0">
                <vehicle id="599" pos="44.13" speed="9.65"/>
            </lane>
        </edge>
        <edge id="gneE30">
            <lane id="gneE30_0">
                <vehicle id="603" pos="12.08" speed="4.38"/>
                <vehicle id="399" pos="126.12" speed="8.00"/>
                <vehicle id="418" pos="153.16" speed="7.75"/>
                <vehicle id="454" pos="182.13" speed="8.87"/>
                <vehicle id="382" pos="214.90" speed="8.93"/>
            </lane>
        </edge>
        <edge id="gneE31">
            <lane id="gneE31_0">
                <vehicle id="535" pos="42.14" speed="8.12"/>
                <vehicle id="593" pos="89.95" speed="8.47"/>
                <vehicle id="561" pos="137.23" speed="8.81"/>
                <vehicle id="479" pos="226.16" speed="8.85"/>
                <vehicle id="534" pos="249.30" speed="8.17"/>
                <vehicle id="480" pos="274.10" speed="7.80"/>
            </lane>
        </edge>
        <edge id="gneE32">
            <lane id="gneE32_0">
                <vehicle id="591" pos="95.85" speed="6.80"/>
                <vehicle id="339" pos="303.47" speed="7.76"/>
            </lane>
        </edge>
        <edge id="gneE38">
            <lane id="gneE38_0">
                <vehicle id="551" pos="237.87" speed="0.06"/>
                <vehicle id="350" pos="245.45" speed="0.02"/>
                <vehicle id="457" pos="252.96" speed="0.00"/>
                <vehicle id="421" pos="260.47" speed="0.00"/>
                <vehicle id="532" pos="268.21" speed="0.24"/>
                <vehicle id="508" pos="276.15" speed="0.41"/>
                <vehicle id="528" pos="285.34" speed="1.36"/>
                <vehicle id="333" pos="295.29" speed="1.28"/>
                <vehicle id="B1_2" pos="304.20" speed="1.00"/>
                <vehicle id="402" pos="312.65" speed="0.33"/>
                <vehicle id="430" pos="320.38" speed="0.21"/>
                <vehicle id="393" pos="327.96" speed="0.05"/>
                <vehicle id="464" pos="335.47" speed="0.01"/>
            </lane>
        </edge>
        <edge id="gneE4">
            <lane id="gneE4_0">
                <vehicle id="598" pos="44.28" speed="8.88"/>
                <vehicle id="433" pos="70.82" speed="9.72"/>
                <vehicle id="592" pos="107.74" speed="8.91"/>
                <vehicle id="506" pos="138.74" speed="9.28"/>
            </lane>
        </edge>
        <edge id="gneE41">
            <lane id="gneE41_0">
                <vehicle id="381" pos="8.26" speed="8.20"/>
                <vehicle id="490" pos="65.53" speed="8.74"/>
                <vehicle id="525" pos="102.23" speed="8.98"/>
                <vehicle id="400" pos="131.94" speed="8.60"/>
            </lane>
        </edge>
        <edge id="gneE42">
            <lane id="gneE42_0">
                <vehicle id="509" pos="22.28" speed="7.98"/>
            </lane>
        </edge>
        <edge id="gneE43">
            <lane id="gneE43_0">
                <vehicle id="547" pos="18.60" speed="5.88"/>
                <vehicle id="588" pos="100.16" speed="6.98"/>
                <vehicle id="555" pos="140.88" speed="6.16"/>
                <vehicle id="505" pos="177.09" speed="6.19"/>
                <vehicle id="494" pos="222.29" speed="5.86"/>
                <vehicle id="529" pos="256.47" speed="1.61"/>
                <vehicle id="482" pos="267.65" speed="3.62"/>
                <vehicle id="526" pos="281.05" speed="5.50"/>
                <vehicle id="493" pos="291.14" speed="0.91"/>
                <vehicle id="522" pos="299.05" speed="0.33"/>
                <vehicle id="520" pos="306.73" speed="0.02"/>
            </lane>
        </edge>
        <edge id="gneE45">
            <lane id="gneE45_0">
                <vehicle id="460" pos="3.34" speed="7.76"/>
                <vehicle id="572" pos="80.18" speed="8.08"/>
                <vehicle id="560" pos="120.79" speed="8.25"/>
            </lane>
        </edge>
        <edge id="gneE46">
            <lane id="gneE46_0">
                <vehicle id="523" pos="106.66" speed="9.40"/>
                <vehicle id="590" pos="129.04" speed="9.67"/>
            </lane>
        </edge>
        <edge id="gneE47">
            <lane id="gneE47_0">
                <vehicle id="383" pos="50.44" speed="7.72"/>
                <vehicle id="293" pos="85.34" speed="8.21"/>
                <vehicle id="585" pos="132.36" speed="7.93"/>
                <vehicle id="540" pos="156.67" speed="8.30"/>
            </lane>
        </edge>
        <edge id="gneE48">
            <lane id="gneE48_0">
                <vehicle id="597" pos="47.50" speed="5.92"/>
                <vehicle id="568" pos="89.18" speed="5.92"/>
                <vehicle id="566" pos="237.13" speed="0.05"/>
                <vehicle id="538" pos="244.63" speed="0.00"/>
                <vehicle id="337" pos="252.13" speed="0.00"/>
                <vehicle id="533" pos="259.63" speed="0.00"/>
                <vehicle id="503" pos="267.13" speed="0.00"/>
                <vehicle id="504" pos="274.63" speed="0.00"/>
                <vehicle id="338" pos="282.13" speed="0.00"/>
                <vehicle id="254" pos="289.64" speed="0.00"/>
                <vehicle id="468" pos="297.14" speed="0.00"/>
                <vehicle id="463" pos="305.62" speed="0.98"/>
                <vehicle id="424" pos="316.36" speed="3.00"/>
            </lane>
        </edge>
        <edge id="gneE49">
            <lane id="gneE49_0">
                <vehicle id="604" pos="7.38" speed="2.28"/>
                <vehicle id="416" pos="67.00" speed="7.49"/>
                <vehicle id="287" pos="150.07" speed="7.33"/>
                <vehicle id="408" pos="203.36" speed="7.06"/>
                <vehicle id="571" pos="245.26" speed="7.40"/>
                <vehicle id="392" pos="293.56" speed="7.03"/>
                <vehicle id="456" pos="311.07" speed="6.71"/>
            </lane>
        </edge>
        <edge id="gneE5">
            <lane id="gneE5_0">
                <vehicle id="594" pos="43.43" speed="4.84"/>
                <vehicle id="379" pos="101.75" speed="5.81"/>
            </lane>
        </edge>
        <edge id="gneE50">
            <lane id="gneE50_0">
                <vehicle id="452" pos="125.23" speed="5.52"/>
                <vehicle id="415" pos="166.34" speed="4.93"/>
                <vehicle id="536" pos="364.93" speed="2.20"/>
            </lane>
        </edge>
        <edge id="gneE51">
            <lane id="gneE51_0">
                <vehicle id="557" pos="17.00" speed="6.54"/>
                <vehicle id="576" pos="42.37" speed="6.09"/>
                <vehicle id="527" pos="61.62" speed="6.17"/>
                <vehicle id="406" pos="104.75" speed="6.48"/>
                <vehicle id="543" pos="124.30" speed="6.65"/>
                <vehicle id="517" pos="140.40" speed="5.83"/>
                <vehicle id="461" pos="246.79" speed="5.71"/>
                <vehicle id="544" pos="363.43" speed="5.08"/>
            </lane>
        </edge>
        <edge id="gneE52">
            <lane id="gneE52_0">
                <vehicle id="387" pos="40.33" speed="6.24"/>
            </lane>
        </edge>
        <edge id="gneE53">
            <lane id="gneE53_0">
                <vehicle id="487" pos="76.06" speed="5.70"/>
                <vehicle id="583" pos="134.82" speed="6.50"/>
                <vehicle id="574" pos="197.72" speed="6.06"/>
                <vehicle id="310" pos="268.15" speed="0.00"/>
                <vehicle id="261" pos="275.65" speed="0.00"/>
                <vehicle id="207" pos="283.15" speed="0.00"/>
                <vehicle id="B4_2" pos="290.65" speed="0.00"/>
                <vehicle id="473" pos="298.15" speed="0.00"/>
                <vehicle id="469" pos="305.92" speed="0.27"/>
                <vehicle id="486" pos="315.14" speed="1.46"/>
                <vehicle id="448" pos="327.55" speed="3.91"/>
                <vehicle id="233" pos="335.59" speed="0.07"/>
                <vehicle id="431" pos="343.16" speed="0.01"/>
            </lane>
        </edge>
        <edge id="gneE56">
            <lane id="gneE56_0">
                <vehicle id="409" pos="16.69" speed="8.41"/>
                <vehicle id="B3_2" pos="33.17" speed="8.22"/>
                <vehicle id="481" pos="132.25" speed="8.02"/>
            </lane>
        </edge>
        <edge id="gneE58">
            <lane id="gneE58_0">
                <vehicle id="492" pos="86.95" speed="7.51"/>
                <vehicle id="577" pos="195.44" speed="7.86"/>
                <vehicle id="564" pos="293.33" speed="7.22"/>
            </lane>
        </edge>
        <edge id="gneE59">
            <lane id="gneE59_0">
                <vehicle id="602" pos="18.04" speed="6.19"/>
                <vehicle id="368" pos="43.24" speed="8.10"/>
                <vehicle id="567" pos="302.04" speed="2.94"/>
                <vehicle id="515" pos="310.23" speed="0.00"/>
                <vehicle id="489" pos="317.73" speed="0.00"/>
            </lane>
        </edge>
        <edge id="gneE6">
            <lane id="gneE6_0">
                <vehicle id="556" pos="44.98" speed="7.76"/>
                <vehicle id="477" pos="70.75" speed="7.87"/>
                <vehicle id="586" pos="136.26" speed="7.54"/>
            </lane>
        </edge>
        <edge id="gneE60">
            <lane id="gneE60_0">
                <vehicle id="589" pos="80.44" speed="6.73"/>
                <vehicle id="443" pos="94.63" speed="5.76"/>
                <vehicle id="581" pos="148.25" speed="6.06"/>
                <vehicle id="419" pos="193.89" speed="6.77"/>
                <vehicle id="524" pos="238.50" speed="6.66"/>
                <vehicle id="467" pos="322.55" speed="0.01"/>
                <vehicle id="349" pos="330.06" speed="0.00"/>
                <vehicle id="398" pos="337.56" speed="0.00"/>
            </lane>
        </edge>
        <edge id="gneE61">
            <lane id="gneE61_0">
                <vehicle id="439" pos="1.85" speed="7.22"/>
                <vehicle id="580" pos="179.72" speed="6.83"/>
            </lane>
        </edge>
        <edge id="gneE7">
            <lane id="gneE7_0">
                <vehicle id="512" pos="82.98" speed="8.49"/>
                <vehicle id="235" pos="119.60" speed="7.94"/>
                <vehicle id="553" pos="198.93" speed="7.83"/>
            </lane>
        </edge>
        <edge id="gneE8">
            <lane id="gneE8_0">
                <vehicle id="404" pos="77.36" speed="7.01"/>
            </lane>
        </edge>
    </timestep>
