<?xml version="1.0"?>
<timestep time="608.00">
        <edge id=":gneJ11_14">
            <lane id=":gneJ11_14_0">
                <vehicle id="424" pos="14.49" speed="7.83"/>
            </lane>
        </edge>
        <edge id=":gneJ15_12">
            <lane id=":gneJ15_12_0">
                <vehicle id="502" pos="1.88" speed="5.23"/>
            </lane>
        </edge>
        <edge id=":gneJ15_13">
            <lane id=":gneJ15_13_0">
                <vehicle id="521" pos="16.83" speed="6.86"/>
            </lane>
        </edge>
        <edge id=":gneJ4_6">
            <lane id=":gneJ4_6_0">
                <vehicle id="586" pos="4.24" speed="7.65"/>
            </lane>
        </edge>
        <edge id=":gneJ9_2">
            <lane id=":gneJ9_2_0">
                <vehicle id="340" pos="4.90" speed="7.73"/>
            </lane>
        </edge>
        <edge id="gneE1">
            <lane id="gneE1_0">
                <vehicle id="596" pos="55.35" speed="4.95"/>
                <vehicle id="587" pos="92.09" speed="4.41"/>
                <vehicle id="584" pos="105.63" speed="4.34"/>
            </lane>
        </edge>
        <edge id="gneE10">
            <lane id="gneE10_0">
                <vehicle id="607" pos="6.82" speed="1.72"/>
                <vehicle id="546" pos="43.52" speed="5.09"/>
                <vehicle id="537" pos="70.80" speed="5.03"/>
                <vehicle id="465" pos="125.12" speed="4.74"/>
                <vehicle id="496" pos="138.87" speed="5.01"/>
            </lane>
        </edge>
        <edge id="gneE11">
            <lane id="gneE11_0">
                <vehicle id="358" pos="46.61" speed="7.77"/>
            </lane>
        </edge>
        <edge id="gneE12">
            <lane id="gneE12_0">
                <vehicle id="453" pos="10.93" speed="10.02"/>
                <vehicle id="449" pos="68.57" speed="13.77"/>
            </lane>
        </edge>
        <edge id="gneE13">
            <lane id="gneE13_0">
                <vehicle id="605" pos="16.86" speed="5.91"/>
                <vehicle id="541" pos="131.01" speed="9.50"/>
                <vehicle id="573" pos="154.87" speed="9.15"/>
                <vehicle id="491" pos="258.70" speed="8.74"/>
            </lane>
        </edge>
        <edge id="gneE14">
            <lane id="gneE14_0">
                <vehicle id="601" pos="43.22" speed="9.83"/>
                <vehicle id="405" pos="84.90" speed="10.42"/>
                <vehicle id="562" pos="125.29" speed="10.52"/>
            </lane>
        </edge>
        <edge id="gneE15">
            <lane id="gneE15_0">
                <vehicle id="558" pos="42.75" speed="7.98"/>
                <vehicle id="413" pos="60.60" speed="8.84"/>
                <vehicle id="514" pos="85.73" speed="8.72"/>
                <vehicle id="364" pos="122.79" speed="8.55"/>
                <vehicle id="518" pos="156.89" speed="8.01"/>
            </lane>
        </edge>
        <edge id="gneE17">
            <lane id="gneE17_0">
                <vehicle id="483" pos="17.82" speed="9.35"/>
                <vehicle id="458" pos="108.50" speed="9.47"/>
                <vehicle id="442" pos="241.98" speed="4.23"/>
                <vehicle id="578" pos="253.38" speed="2.85"/>
                <vehicle id="363" pos="269.38" speed="6.38"/>
                <vehicle id="569" pos="284.37" speed="5.34"/>
            </lane>
        </edge>
        <edge id="gneE18">
            <lane id="gneE18_0">
                <vehicle id="489" pos="1.65" speed="5.47"/>
                <vehicle id="570" pos="34.27" speed="9.45"/>
                <vehicle id="600" pos="52.93" speed="9.27"/>
                <vehicle id="563" pos="84.77" speed="9.92"/>
                <vehicle id="565" pos="186.94" speed="8.82"/>
                <vehicle id="500" pos="217.08" speed="9.68"/>
            </lane>
        </edge>
        <edge id="gneE19">
            <lane id="gneE19_0">
                <vehicle id="478" pos="115.82" speed="12.63"/>
                <vehicle id="470" pos="164.64" speed="11.74"/>
                <vehicle id="325" pos="185.81" speed="10.58"/>
                <vehicle id="582" pos="207.63" speed="4.10"/>
                <vehicle id="474" pos="220.72" speed="5.25"/>
                <vehicle id="370" pos="235.44" speed="6.13"/>
                <vehicle id="542" pos="250.07" speed="5.17"/>
                <vehicle id="445" pos="266.98" speed="7.57"/>
                <vehicle id="440" pos="280.88" speed="5.37"/>
            </lane>
        </edge>
        <edge id="gneE2">
            <lane id="gneE2_0">
                <vehicle id="495" pos="40.26" speed="10.01"/>
            </lane>
        </edge>
        <edge id="gneE20">
            <lane id="gneE20_0">
                <vehicle id="423" pos="2.39" speed="7.98"/>
                <vehicle id="530" pos="48.85" speed="8.19"/>
                <vehicle id="510" pos="73.22" speed="8.23"/>
                <vehicle id="356" pos="166.12" speed="8.27"/>
                <vehicle id="498" pos="187.98" speed="7.85"/>
                <vehicle id="441" pos="231.69" speed="8.79"/>
            </lane>
        </edge>
        <edge id="gneE23">
            <lane id="gneE23_0">
                <vehicle id="544" pos="7.08" speed="6.75"/>
                <vehicle id="401" pos="31.96" speed="7.00"/>
                <vehicle id="397" pos="69.37" speed="7.84"/>
                <vehicle id="389" pos="86.07" speed="7.63"/>
                <vehicle id="320" pos="105.74" speed="7.64"/>
            </lane>
        </edge>
        <edge id="gneE24">
            <lane id="gneE24_0">
                <vehicle id="428" pos="102.92" speed="12.69"/>
            </lane>
        </edge>
        <edge id="gneE25">
            <lane id="gneE25_0">
                <vehicle id="436" pos="1.33" speed="8.06"/>
                <vehicle id="575" pos="44.59" speed="8.99"/>
                <vehicle id="396" pos="93.17" speed="8.87"/>
                <vehicle id="459" pos="151.89" speed="9.39"/>
                <vehicle id="559" pos="189.51" speed="8.93"/>
                <vehicle id="451" pos="231.39" speed="9.25"/>
                <vehicle id="579" pos="251.83" speed="9.87"/>
            </lane>
        </edge>
        <edge id="gneE26">
            <lane id="gneE26_0">
                <vehicle id="516" pos="32.87" speed="6.22"/>
                <vehicle id="501" pos="124.47" speed="6.61"/>
                <vehicle id="531" pos="148.41" speed="6.42"/>
                <vehicle id="499" pos="171.87" speed="6.67"/>
                <vehicle id="554" pos="214.89" speed="6.77"/>
                <vehicle id="549" pos="236.27" speed="6.83"/>
                <vehicle id="545" pos="265.15" speed="6.85"/>
                <vehicle id="507" pos="279.30" speed="2.67"/>
            </lane>
        </edge>
        <edge id="gneE27">
            <lane id="gneE27_0">
                <vehicle id="595" pos="70.66" speed="5.51"/>
                <vehicle id="497" pos="131.54" speed="4.83"/>
            </lane>
        </edge>
        <edge id="gneE28">
            <lane id="gneE28_0">
                <vehicle id="480" pos="4.02" speed="8.76"/>
            </lane>
        </edge>
        <edge id="gneE3">
            <lane id="gneE3_0">
                <vehicle id="548" pos="11.51" speed="9.97"/>
                <vehicle id="599" pos="72.74" speed="9.73"/>
            </lane>
        </edge>
        <edge id="gneE30">
            <lane id="gneE30_0">
                <vehicle id="603" pos="35.49" speed="7.93"/>
                <vehicle id="399" pos="151.03" speed="8.94"/>
                <vehicle id="418" pos="178.85" speed="8.80"/>
                <vehicle id="454" pos="207.09" speed="8.20"/>
                <vehicle id="382" pos="240.27" speed="8.62"/>
            </lane>
        </edge>
        <edge id="gneE31">
            <lane id="gneE31_0">
                <vehicle id="519" pos="12.39" speed="7.98"/>
                <vehicle id="535" pos="67.79" speed="8.49"/>
                <vehicle id="593" pos="115.23" speed="7.79"/>
                <vehicle id="561" pos="162.54" speed="8.57"/>
                <vehicle id="479" pos="249.90" speed="8.02"/>
                <vehicle id="534" pos="274.65" speed="8.16"/>
            </lane>
        </edge>
        <edge id="gneE32">
            <lane id="gneE32_0">
                <vehicle id="608" pos="5.10" speed="0.00"/>
                <vehicle id="591" pos="117.43" speed="7.15"/>
                <vehicle id="339" pos="325.77" speed="7.93"/>
            </lane>
        </edge>
        <edge id="gneE38">
            <lane id="gneE38_0">
                <vehicle id="551" pos="237.96" speed="0.00"/>
                <vehicle id="350" pos="245.55" speed="0.09"/>
                <vehicle id="457" pos="253.38" speed="0.32"/>
                <vehicle id="421" pos="262.23" speed="1.34"/>
                <vehicle id="532" pos="271.92" speed="2.10"/>
                <vehicle id="508" pos="280.83" speed="0.93"/>
                <vehicle id="528" pos="289.80" speed="1.19"/>
                <vehicle id="333" pos="297.61" speed="0.28"/>
                <vehicle id="B1_2" pos="305.39" speed="0.03"/>
                <vehicle id="402" pos="312.94" speed="0.02"/>
                <vehicle id="430" pos="321.86" speed="1.41"/>
                <vehicle id="393" pos="333.90" speed="3.84"/>
                <vehicle id="464" pos="342.53" speed="0.54"/>
            </lane>
        </edge>
        <edge id="gneE4">
            <lane id="gneE4_0">
                <vehicle id="598" pos="71.74" speed="8.84"/>
                <vehicle id="433" pos="98.82" speed="9.95"/>
                <vehicle id="592" pos="135.43" speed="8.91"/>
            </lane>
        </edge>
        <edge id="gneE41">
            <lane id="gneE41_0">
                <vehicle id="381" pos="34.05" speed="8.72"/>
                <vehicle id="490" pos="90.44" speed="8.21"/>
                <vehicle id="525" pos="127.71" speed="8.97"/>
            </lane>
        </edge>
        <edge id="gneE42">
            <lane id="gneE42_0">
                <vehicle id="509" pos="44.30" speed="7.69"/>
            </lane>
        </edge>
        <edge id="gneE43">
            <lane id="gneE43_0">
                <vehicle id="547" pos="38.94" speed="6.45"/>
                <vehicle id="588" pos="118.38" speed="5.98"/>
                <vehicle id="555" pos="158.70" speed="6.26"/>
                <vehicle id="505" pos="196.80" speed="6.63"/>
                <vehicle id="494" pos="241.25" speed="6.38"/>
                <vehicle id="529" pos="267.17" speed="3.25"/>
                <vehicle id="482" pos="275.75" speed="0.85"/>
                <vehicle id="526" pos="284.12" speed="0.30"/>
                <vehicle id="493" pos="291.72" speed="0.02"/>
                <vehicle id="522" pos="299.23" speed="0.00"/>
                <vehicle id="520" pos="306.73" speed="0.00"/>
            </lane>
        </edge>
        <edge id="gneE45">
            <lane id="gneE45_0">
                <vehicle id="460" pos="28.98" speed="8.61"/>
                <vehicle id="572" pos="105.27" speed="8.55"/>
                <vehicle id="560" pos="145.06" speed="8.09"/>
            </lane>
        </edge>
        <edge id="gneE46">
            <lane id="gneE46_0">
                <vehicle id="523" pos="135.27" speed="9.16"/>
                <vehicle id="590" pos="157.27" speed="9.38"/>
            </lane>
        </edge>
        <edge id="gneE47">
            <lane id="gneE47_0">
                <vehicle id="383" pos="74.98" speed="7.84"/>
                <vehicle id="293" pos="110.58" speed="8.39"/>
                <vehicle id="585" pos="157.12" speed="8.06"/>
                <vehicle id="540" pos="180.72" speed="8.08"/>
            </lane>
        </edge>
        <edge id="gneE48">
            <lane id="gneE48_0">
                <vehicle id="597" pos="67.69" speed="6.88"/>
                <vehicle id="568" pos="108.76" speed="6.70"/>
                <vehicle id="566" pos="237.13" speed="0.00"/>
                <vehicle id="538" pos="244.63" speed="0.00"/>
                <vehicle id="337" pos="252.13" speed="0.00"/>
                <vehicle id="533" pos="259.63" speed="0.00"/>
                <vehicle id="503" pos="267.13" speed="0.00"/>
                <vehicle id="504" pos="274.63" speed="0.00"/>
                <vehicle id="338" pos="282.48" speed="0.35"/>
                <vehicle id="254" pos="291.68" speed="1.38"/>
                <vehicle id="468" pos="302.63" speed="3.07"/>
                <vehicle id="463" pos="317.67" speed="6.11"/>
            </lane>
        </edge>
        <edge id="gneE49">
            <lane id="gneE49_0">
                <vehicle id="604" pos="25.74" speed="7.44"/>
                <vehicle id="416" pos="89.81" speed="7.54"/>
                <vehicle id="287" pos="171.41" speed="7.79"/>
                <vehicle id="408" pos="225.69" speed="7.22"/>
                <vehicle id="571" pos="266.75" speed="6.72"/>
                <vehicle id="392" pos="313.91" speed="6.89"/>
            </lane>
        </edge>
        <edge id="gneE5">
            <lane id="gneE5_0">
                <vehicle id="594" pos="58.56" speed="5.31"/>
                <vehicle id="379" pos="118.22" speed="5.35"/>
            </lane>
        </edge>
        <edge id="gneE50">
            <lane id="gneE50_0">
                <vehicle id="452" pos="142.36" speed="5.75"/>
                <vehicle id="415" pos="182.76" speed="5.27"/>
                <vehicle id="536" pos="365.79" speed="0.01"/>
            </lane>
        </edge>
        <edge id="gneE51">
            <lane id="gneE51_0">
                <vehicle id="539" pos="11.58" speed="6.02"/>
                <vehicle id="557" pos="36.08" speed="6.26"/>
                <vehicle id="576" pos="62.95" speed="6.85"/>
                <vehicle id="527" pos="80.79" speed="6.60"/>
                <vehicle id="406" pos="123.50" speed="6.84"/>
                <vehicle id="543" pos="141.97" speed="5.94"/>
                <vehicle id="517" pos="160.27" speed="6.94"/>
                <vehicle id="461" pos="266.16" speed="5.98"/>
            </lane>
        </edge>
        <edge id="gneE52">
            <lane id="gneE52_0">
                <vehicle id="387" pos="60.21" speed="6.78"/>
            </lane>
        </edge>
        <edge id="gneE53">
            <lane id="gneE53_0">
                <vehicle id="487" pos="94.92" speed="5.76"/>
                <vehicle id="583" pos="153.05" speed="5.88"/>
                <vehicle id="574" pos="217.21" speed="6.28"/>
                <vehicle id="310" pos="268.15" speed="0.00"/>
                <vehicle id="261" pos="275.65" speed="0.00"/>
                <vehicle id="207" pos="283.24" speed="0.09"/>
                <vehicle id="B4_2" pos="291.49" speed="0.66"/>
                <vehicle id="473" pos="301.98" speed="2.63"/>
                <vehicle id="469" pos="312.52" speed="2.10"/>
                <vehicle id="486" pos="320.50" speed="0.26"/>
                <vehicle id="448" pos="328.12" speed="0.04"/>
                <vehicle id="233" pos="335.66" speed="0.00"/>
                <vehicle id="431" pos="343.16" speed="0.00"/>
            </lane>
        </edge>
        <edge id="gneE55">
            <lane id="gneE55_0">
                <vehicle id="456" pos="5.92" speed="7.36"/>
            </lane>
        </edge>
        <edge id="gneE56">
            <lane id="gneE56_0">
                <vehicle id="409" pos="41.67" speed="8.13"/>
                <vehicle id="B3_2" pos="58.05" speed="8.00"/>
                <vehicle id="481" pos="158.07" speed="8.39"/>
            </lane>
        </edge>
        <edge id="gneE58">
            <lane id="gneE58_0">
                <vehicle id="492" pos="108.52" speed="6.73"/>
                <vehicle id="577" pos="216.85" speed="7.08"/>
                <vehicle id="564" pos="315.39" speed="7.60"/>
            </lane>
        </edge>
        <edge id="gneE59">
            <lane id="gneE59_0">
                <vehicle id="602" pos="42.95" speed="8.10"/>
                <vehicle id="368" pos="68.44" speed="8.45"/>
                <vehicle id="567" pos="303.90" speed="1.26"/>
                <vehicle id="515" pos="314.27" speed="2.74"/>
            </lane>
        </edge>
        <edge id="gneE6">
            <lane id="gneE6_0">
                <vehicle id="556" pos="67.14" speed="7.45"/>
                <vehicle id="477" pos="92.72" speed="7.43"/>
            </lane>
        </edge>
        <edge id="gneE60">
            <lane id="gneE60_0">
                <vehicle id="589" pos="97.73" speed="5.78"/>
                <vehicle id="443" pos="112.88" speed="6.45"/>
                <vehicle id="581" pos="167.15" speed="6.40"/>
                <vehicle id="419" pos="213.52" speed="6.06"/>
                <vehicle id="524" pos="257.59" speed="6.06"/>
                <vehicle id="467" pos="322.56" speed="0.00"/>
                <vehicle id="349" pos="330.06" speed="0.00"/>
                <vehicle id="398" pos="337.56" speed="0.00"/>
            </lane>
        </edge>
        <edge id="gneE61">
            <lane id="gneE61_0">
                <vehicle id="439" pos="23.52" speed="7.06"/>
                <vehicle id="580" pos="202.39" speed="7.54"/>
            </lane>
        </edge>
        <edge id="gneE7">
            <lane id="gneE7_0">
                <vehicle id="606" pos="10.66" speed="3.64"/>
                <vehicle id="512" pos="107.74" speed="8.33"/>
                <vehicle id="235" pos="143.74" speed="8.00"/>
                <vehicle id="553" pos="223.59" speed="8.53"/>
            </lane>
        </edge>
        <edge id="gneE8">
            <lane id="gneE8_0">
                <vehicle id="471" pos="19.08" speed="7.00"/>
                <vehicle id="404" pos="99.44" speed="7.14"/>
            </lane>
        </edge>
    </timestep>
