<?xml version="1.0"?>
<timestep time="617.00">
        <edge id=":gneJ11_34">
            <lane id=":gneJ11_34_0">
                <vehicle id="398" pos="11.57" speed="5.57"/>
            </lane>
        </edge>
        <edge id=":gneJ15_6">
            <lane id=":gneJ15_6_0">
                <vehicle id="522" pos="9.54" speed="6.54"/>
            </lane>
        </edge>
        <edge id=":gneJ28_5">
            <lane id=":gneJ28_5_0">
                <vehicle id="536" pos="1.74" speed="1.85"/>
            </lane>
        </edge>
        <edge id=":gneJ3_11">
            <lane id=":gneJ3_11_0">
                <vehicle id="598" pos="0.26" speed="7.08"/>
            </lane>
        </edge>
        <edge id=":gneJ30_3">
            <lane id=":gneJ30_3_0">
                <vehicle id="571" pos="3.06" speed="3.71"/>
            </lane>
        </edge>
        <edge id=":gneJ4_2">
            <lane id=":gneJ4_2_0">
                <vehicle id="599" pos="2.59" speed="9.45"/>
            </lane>
        </edge>
        <edge id=":gneJ9_6">
            <lane id=":gneJ9_6_0">
                <vehicle id="500" pos="3.95" speed="7.09"/>
            </lane>
        </edge>
        <edge id="gneE1">
            <lane id="gneE1_0">
                <vehicle id="596" pos="96.16" speed="4.30"/>
                <vehicle id="587" pos="129.63" speed="4.65"/>
                <vehicle id="584" pos="143.40" speed="4.09"/>
            </lane>
        </edge>
        <edge id="gneE10">
            <lane id="gneE10_0">
                <vehicle id="451" pos="6.34" speed="4.99"/>
                <vehicle id="579" pos="22.43" speed="5.83"/>
                <vehicle id="607" pos="51.14" speed="5.35"/>
                <vehicle id="546" pos="90.85" speed="5.13"/>
                <vehicle id="537" pos="118.15" speed="4.88"/>
            </lane>
        </edge>
        <edge id="gneE11">
            <lane id="gneE11_0">
                <vehicle id="609" pos="57.50" speed="8.79"/>
                <vehicle id="358" pos="120.60" speed="8.71"/>
            </lane>
        </edge>
        <edge id="gneE12">
            <lane id="gneE12_0">
                <vehicle id="453" pos="128.01" speed="13.48"/>
                <vehicle id="449" pos="187.60" speed="13.30"/>
            </lane>
        </edge>
        <edge id="gneE13">
            <lane id="gneE13_0">
                <vehicle id="586" pos="78.22" speed="9.17"/>
                <vehicle id="605" pos="96.80" speed="8.77"/>
                <vehicle id="541" pos="214.62" speed="8.87"/>
                <vehicle id="573" pos="238.00" speed="9.23"/>
            </lane>
        </edge>
        <edge id="gneE14">
            <lane id="gneE14_0">
                <vehicle id="601" pos="136.88" speed="10.39"/>
                <vehicle id="405" pos="160.58" speed="0.58"/>
            </lane>
        </edge>
        <edge id="gneE15">
            <lane id="gneE15_0">
                <vehicle id="441" pos="16.63" speed="7.83"/>
                <vehicle id="610" pos="51.03" speed="8.08"/>
                <vehicle id="340" pos="75.28" speed="8.97"/>
                <vehicle id="558" pos="118.86" speed="8.68"/>
                <vehicle id="413" pos="136.44" speed="8.72"/>
                <vehicle id="514" pos="160.22" speed="8.45"/>
            </lane>
        </edge>
        <edge id="gneE17">
            <lane id="gneE17_0">
                <vehicle id="562" pos="35.60" speed="9.52"/>
                <vehicle id="483" pos="102.65" speed="9.13"/>
                <vehicle id="458" pos="194.33" speed="9.51"/>
            </lane>
        </edge>
        <edge id="gneE18">
            <lane id="gneE18_0">
                <vehicle id="592" pos="36.66" speed="8.97"/>
                <vehicle id="489" pos="82.35" speed="9.81"/>
                <vehicle id="570" pos="117.30" speed="9.14"/>
                <vehicle id="600" pos="136.56" speed="9.00"/>
                <vehicle id="563" pos="169.66" speed="9.97"/>
                <vehicle id="565" pos="272.12" speed="9.61"/>
            </lane>
        </edge>
        <edge id="gneE19">
            <lane id="gneE19_0">
                <vehicle id="614" pos="18.57" speed="6.27"/>
                <vehicle id="478" pos="213.24" speed="7.69"/>
                <vehicle id="470" pos="232.83" speed="9.27"/>
                <vehicle id="325" pos="246.45" speed="4.67"/>
                <vehicle id="582" pos="258.82" speed="2.29"/>
                <vehicle id="474" pos="267.72" speed="0.21"/>
                <vehicle id="370" pos="275.32" speed="0.03"/>
                <vehicle id="542" pos="282.84" speed="0.00"/>
            </lane>
        </edge>
        <edge id="gneE2">
            <lane id="gneE2_0">
                <vehicle id="495" pos="131.72" speed="10.12"/>
            </lane>
        </edge>
        <edge id="gneE20">
            <lane id="gneE20_0">
                <vehicle id="463" pos="41.27" speed="8.33"/>
                <vehicle id="424" pos="60.15" speed="8.48"/>
                <vehicle id="423" pos="77.19" speed="8.82"/>
                <vehicle id="530" pos="123.35" speed="8.08"/>
                <vehicle id="510" pos="146.14" speed="8.48"/>
                <vehicle id="356" pos="240.50" speed="8.35"/>
                <vehicle id="498" pos="265.49" speed="8.89"/>
            </lane>
        </edge>
        <edge id="gneE23">
            <lane id="gneE23_0">
                <vehicle id="615" pos="6.83" speed="1.73"/>
                <vehicle id="468" pos="26.26" speed="7.23"/>
                <vehicle id="544" pos="72.68" speed="6.80"/>
                <vehicle id="401" pos="99.92" speed="7.28"/>
                <vehicle id="397" pos="133.30" speed="6.98"/>
                <vehicle id="389" pos="153.55" speed="7.29"/>
                <vehicle id="320" pos="174.35" speed="7.21"/>
            </lane>
        </edge>
        <edge id="gneE24">
            <lane id="gneE24_0">
                <vehicle id="520" pos="9.13" speed="9.57"/>
                <vehicle id="507" pos="68.27" speed="12.65"/>
                <vehicle id="502" pos="97.86" speed="12.90"/>
            </lane>
        </edge>
        <edge id="gneE25">
            <lane id="gneE25_0">
                <vehicle id="436" pos="85.57" speed="9.15"/>
                <vehicle id="575" pos="127.88" speed="9.03"/>
                <vehicle id="396" pos="176.65" speed="9.87"/>
                <vehicle id="459" pos="236.06" speed="9.97"/>
                <vehicle id="559" pos="273.21" speed="9.01"/>
            </lane>
        </edge>
        <edge id="gneE26">
            <lane id="gneE26_0">
                <vehicle id="364" pos="23.70" speed="5.96"/>
                <vehicle id="518" pos="51.14" speed="6.12"/>
                <vehicle id="516" pos="90.89" speed="6.61"/>
                <vehicle id="501" pos="181.88" speed="6.48"/>
                <vehicle id="531" pos="205.57" speed="6.80"/>
                <vehicle id="499" pos="228.73" speed="6.69"/>
                <vehicle id="554" pos="269.02" speed="5.74"/>
                <vehicle id="549" pos="289.83" speed="3.51"/>
            </lane>
        </edge>
        <edge id="gneE27">
            <lane id="gneE27_0">
                <vehicle id="616" pos="7.26" speed="2.16"/>
                <vehicle id="613" pos="20.80" speed="5.15"/>
                <vehicle id="595" pos="118.49" speed="4.99"/>
            </lane>
        </edge>
        <edge id="gneE28">
            <lane id="gneE28_0">
                <vehicle id="479" pos="30.74" speed="8.35"/>
                <vehicle id="480" pos="80.35" speed="8.06"/>
            </lane>
        </edge>
        <edge id="gneE3">
            <lane id="gneE3_0">
                <vehicle id="578" pos="15.33" speed="9.08"/>
                <vehicle id="363" pos="35.25" speed="9.88"/>
                <vehicle id="569" pos="68.51" speed="8.94"/>
                <vehicle id="548" pos="96.65" speed="8.82"/>
            </lane>
        </edge>
        <edge id="gneE30">
            <lane id="gneE30_0">
                <vehicle id="603" pos="109.38" speed="8.15"/>
                <vehicle id="399" pos="226.95" speed="8.01"/>
                <vehicle id="418" pos="253.08" speed="8.03"/>
                <vehicle id="454" pos="281.89" speed="8.20"/>
            </lane>
        </edge>
        <edge id="gneE31">
            <lane id="gneE31_0">
                <vehicle id="519" pos="85.40" speed="8.67"/>
                <vehicle id="535" pos="141.43" speed="8.61"/>
                <vehicle id="593" pos="189.86" speed="8.31"/>
                <vehicle id="561" pos="236.68" speed="8.28"/>
            </lane>
        </edge>
        <edge id="gneE32">
            <lane id="gneE32_0">
                <vehicle id="545" pos="13.64" speed="7.25"/>
                <vehicle id="608" pos="59.72" speed="7.03"/>
                <vehicle id="591" pos="184.05" speed="7.70"/>
            </lane>
        </edge>
        <edge id="gneE38">
            <lane id="gneE38_0">
                <vehicle id="551" pos="244.90" speed="0.40"/>
                <vehicle id="350" pos="252.90" speed="0.41"/>
                <vehicle id="457" pos="261.76" speed="1.35"/>
                <vehicle id="421" pos="271.14" speed="1.78"/>
                <vehicle id="532" pos="280.55" speed="0.90"/>
                <vehicle id="508" pos="289.41" speed="1.20"/>
                <vehicle id="528" pos="297.47" speed="0.15"/>
                <vehicle id="333" pos="305.30" speed="0.21"/>
                <vehicle id="B1_2" pos="312.95" speed="0.02"/>
                <vehicle id="402" pos="320.47" speed="0.01"/>
                <vehicle id="430" pos="327.98" speed="0.00"/>
                <vehicle id="393" pos="335.48" speed="0.00"/>
                <vehicle id="464" pos="342.98" speed="0.00"/>
            </lane>
        </edge>
        <edge id="gneE4">
            <lane id="gneE4_0">
                <vehicle id="477" pos="1.02" speed="8.59"/>
            </lane>
        </edge>
        <edge id="gneE41">
            <lane id="gneE41_0">
                <vehicle id="339" pos="51.05" speed="8.30"/>
                <vehicle id="381" pos="111.91" speed="8.61"/>
            </lane>
        </edge>
        <edge id="gneE42">
            <lane id="gneE42_0">
                <vehicle id="509" pos="110.46" speed="7.35"/>
            </lane>
        </edge>
        <edge id="gneE43">
            <lane id="gneE43_0">
                <vehicle id="490" pos="6.38" speed="6.96"/>
                <vehicle id="525" pos="32.65" speed="6.18"/>
                <vehicle id="547" pos="99.05" speed="6.63"/>
                <vehicle id="588" pos="173.02" speed="5.77"/>
                <vehicle id="555" pos="215.76" speed="6.29"/>
                <vehicle id="505" pos="251.85" speed="5.44"/>
                <vehicle id="494" pos="261.72" speed="0.01"/>
                <vehicle id="529" pos="269.22" speed="0.00"/>
                <vehicle id="482" pos="277.72" speed="0.99"/>
                <vehicle id="526" pos="288.29" speed="2.83"/>
                <vehicle id="493" pos="302.02" speed="5.26"/>
            </lane>
        </edge>
        <edge id="gneE45">
            <lane id="gneE45_0">
                <vehicle id="521" pos="70.52" speed="8.16"/>
                <vehicle id="460" pos="103.39" speed="8.28"/>
                <vehicle id="572" pos="179.60" speed="8.71"/>
                <vehicle id="560" pos="219.53" speed="8.54"/>
            </lane>
        </edge>
        <edge id="gneE47">
            <lane id="gneE47_0">
                <vehicle id="617" pos="5.10" speed="0.00"/>
                <vehicle id="383" pos="148.33" speed="8.43"/>
                <vehicle id="293" pos="184.40" speed="8.70"/>
            </lane>
        </edge>
        <edge id="gneE48">
            <lane id="gneE48_0">
                <vehicle id="590" pos="26.89" speed="6.60"/>
                <vehicle id="597" pos="126.05" speed="5.75"/>
                <vehicle id="568" pos="165.07" speed="6.96"/>
                <vehicle id="566" pos="239.36" speed="0.74"/>
                <vehicle id="538" pos="250.42" speed="3.35"/>
                <vehicle id="337" pos="263.90" speed="5.50"/>
                <vehicle id="533" pos="277.51" speed="5.82"/>
                <vehicle id="503" pos="294.10" speed="6.85"/>
                <vehicle id="504" pos="308.70" speed="5.80"/>
            </lane>
        </edge>
        <edge id="gneE49">
            <lane id="gneE49_0">
                <vehicle id="612" pos="28.98" speed="6.99"/>
                <vehicle id="604" pos="93.26" speed="7.45"/>
                <vehicle id="416" pos="156.09" speed="6.81"/>
                <vehicle id="287" pos="237.50" speed="7.99"/>
                <vehicle id="408" pos="292.85" speed="7.55"/>
            </lane>
        </edge>
        <edge id="gneE5">
            <lane id="gneE5_0">
                <vehicle id="594" pos="105.73" speed="5.10"/>
            </lane>
        </edge>
        <edge id="gneE50">
            <lane id="gneE50_0">
                <vehicle id="452" pos="189.17" speed="4.74"/>
                <vehicle id="415" pos="228.17" speed="5.22"/>
            </lane>
        </edge>
        <edge id="gneE51">
            <lane id="gneE51_0">
                <vehicle id="585" pos="11.80" speed="6.12"/>
                <vehicle id="540" pos="32.72" speed="6.86"/>
                <vehicle id="539" pos="69.67" speed="5.86"/>
                <vehicle id="557" pos="91.35" speed="6.08"/>
                <vehicle id="576" pos="120.65" speed="5.94"/>
                <vehicle id="527" pos="136.67" speed="6.44"/>
                <vehicle id="406" pos="180.14" speed="6.20"/>
                <vehicle id="543" pos="198.58" speed="5.99"/>
                <vehicle id="517" pos="219.15" speed="6.59"/>
                <vehicle id="461" pos="323.72" speed="6.46"/>
            </lane>
        </edge>
        <edge id="gneE52">
            <lane id="gneE52_0">
                <vehicle id="440" pos="34.42" speed="5.75"/>
                <vehicle id="387" pos="119.97" speed="6.79"/>
            </lane>
        </edge>
        <edge id="gneE53">
            <lane id="gneE53_0">
                <vehicle id="487" pos="153.09" speed="6.81"/>
                <vehicle id="583" pos="207.89" speed="6.20"/>
                <vehicle id="574" pos="267.23" speed="1.15"/>
                <vehicle id="310" pos="275.37" speed="0.33"/>
                <vehicle id="261" pos="283.04" speed="0.11"/>
                <vehicle id="207" pos="290.63" speed="0.02"/>
                <vehicle id="B4_2" pos="298.15" speed="0.00"/>
                <vehicle id="473" pos="305.65" speed="0.00"/>
                <vehicle id="469" pos="313.15" speed="0.00"/>
                <vehicle id="486" pos="320.66" speed="0.00"/>
                <vehicle id="448" pos="328.16" speed="0.00"/>
                <vehicle id="233" pos="335.66" speed="0.00"/>
                <vehicle id="431" pos="343.16" speed="0.00"/>
            </lane>
        </edge>
        <edge id="gneE55">
            <lane id="gneE55_0">
                <vehicle id="523" pos="12.96" speed="7.69"/>
                <vehicle id="392" pos="52.06" speed="7.28"/>
                <vehicle id="456" pos="71.21" speed="7.84"/>
            </lane>
        </edge>
        <edge id="gneE56">
            <lane id="gneE56_0">
                <vehicle id="409" pos="114.64" speed="8.30"/>
                <vehicle id="B3_2" pos="131.76" speed="8.06"/>
            </lane>
        </edge>
        <edge id="gneE58">
            <lane id="gneE58_0">
                <vehicle id="492" pos="176.09" speed="7.14"/>
                <vehicle id="577" pos="281.96" speed="7.51"/>
            </lane>
        </edge>
        <edge id="gneE59">
            <lane id="gneE59_0">
                <vehicle id="602" pos="117.76" speed="8.18"/>
                <vehicle id="368" pos="143.39" speed="8.89"/>
                <vehicle id="567" pos="310.23" speed="0.00"/>
                <vehicle id="515" pos="317.73" speed="0.00"/>
            </lane>
        </edge>
        <edge id="gneE6">
            <lane id="gneE6_0">
                <vehicle id="556" pos="132.39" speed="7.48"/>
            </lane>
        </edge>
        <edge id="gneE60">
            <lane id="gneE60_0">
                <vehicle id="611" pos="29.53" speed="6.54"/>
                <vehicle id="564" pos="49.16" speed="5.74"/>
                <vehicle id="589" pos="153.93" speed="5.97"/>
                <vehicle id="443" pos="171.04" speed="6.77"/>
                <vehicle id="581" pos="224.57" speed="6.53"/>
                <vehicle id="419" pos="270.54" speed="6.84"/>
                <vehicle id="524" pos="314.96" speed="4.59"/>
                <vehicle id="467" pos="323.70" speed="1.14"/>
                <vehicle id="349" pos="334.53" speed="3.10"/>
            </lane>
        </edge>
        <edge id="gneE61">
            <lane id="gneE61_0">
                <vehicle id="428" pos="5.53" speed="7.97"/>
                <vehicle id="445" pos="38.98" speed="6.98"/>
                <vehicle id="439" pos="89.74" speed="6.82"/>
                <vehicle id="580" pos="269.29" speed="7.77"/>
            </lane>
        </edge>
        <edge id="gneE7">
            <lane id="gneE7_0">
                <vehicle id="606" pos="82.69" speed="8.62"/>
                <vehicle id="512" pos="179.87" speed="7.88"/>
                <vehicle id="235" pos="221.23" speed="8.25"/>
                <vehicle id="553" pos="297.17" speed="8.21"/>
            </lane>
        </edge>
        <edge id="gneE8">
            <lane id="gneE8_0">
                <vehicle id="465" pos="35.52" speed="7.48"/>
                <vehicle id="471" pos="84.87" speed="7.19"/>
                <vehicle id="404" pos="164.41" speed="6.96"/>
            </lane>
        </edge>
    </timestep>
