<?xml version="1.0"?>
<timestep time="63.00">
        <edge id=":gneJ18_1">
            <lane id=":gneJ18_1_0">
                <vehicle id="14" pos="2.34" speed="7.73"/>
            </lane>
        </edge>
        <edge id=":gneJ3_7">
            <lane id=":gneJ3_7_0">
                <vehicle id="28" pos="9.24" speed="6.77"/>
            </lane>
        </edge>
        <edge id="gneE1">
            <lane id="gneE1_0">
                <vehicle id="50" pos="57.11" speed="3.76"/>
            </lane>
        </edge>
        <edge id="gneE10">
            <lane id="gneE10_0">
                <vehicle id="49" pos="77.30" speed="5.21"/>
            </lane>
        </edge>
        <edge id="gneE11">
            <lane id="gneE11_0">
                <vehicle id="46" pos="134.57" speed="7.80"/>
            </lane>
        </edge>
        <edge id="gneE12">
            <lane id="gneE12_0">
                <vehicle id="6" pos="17.68" speed="11.17"/>
                <vehicle id="1" pos="70.06" speed="13.76"/>
            </lane>
        </edge>
        <edge id="gneE13">
            <lane id="gneE13_0">
                <vehicle id="56" pos="53.20" speed="8.99"/>
                <vehicle id="19" pos="202.86" speed="9.90"/>
            </lane>
        </edge>
        <edge id="gneE14">
            <lane id="gneE14_0">
                <vehicle id="52" pos="92.88" speed="9.99"/>
            </lane>
        </edge>
        <edge id="gneE17">
            <lane id="gneE17_0">
                <vehicle id="2" pos="93.11" speed="9.46"/>
            </lane>
        </edge>
        <edge id="gneE19">
            <lane id="gneE19_0">
                <vehicle id="9" pos="29.67" speed="12.14"/>
                <vehicle id="20" pos="72.80" speed="12.07"/>
                <vehicle id="51" pos="124.40" speed="12.77"/>
                <vehicle id="27" pos="197.13" speed="12.09"/>
                <vehicle id="7" pos="280.25" speed="5.51"/>
            </lane>
        </edge>
        <edge id="gneE20">
            <lane id="gneE20_0">
                <vehicle id="38" pos="200.99" speed="8.55"/>
                <vehicle id="35" pos="221.14" speed="8.41"/>
            </lane>
        </edge>
        <edge id="gneE23">
            <lane id="gneE23_0">
                <vehicle id="4" pos="15.74" speed="6.95"/>
                <vehicle id="5" pos="33.50" speed="7.61"/>
            </lane>
        </edge>
        <edge id="gneE25">
            <lane id="gneE25_0">
                <vehicle id="61" pos="9.74" speed="3.05"/>
                <vehicle id="53" pos="78.18" speed="9.21"/>
            </lane>
        </edge>
        <edge id="gneE28">
            <lane id="gneE28_0">
                <vehicle id="25" pos="12.53" speed="8.52"/>
                <vehicle id="17" pos="79.97" speed="8.04"/>
            </lane>
        </edge>
        <edge id="gneE30">
            <lane id="gneE30_0">
                <vehicle id="42" pos="167.56" speed="8.34"/>
                <vehicle id="31" pos="259.09" speed="8.81"/>
            </lane>
        </edge>
        <edge id="gneE31">
            <lane id="gneE31_0">
                <vehicle id="26" pos="86.88" speed="8.93"/>
                <vehicle id="16" pos="175.72" speed="9.00"/>
            </lane>
        </edge>
        <edge id="gneE32">
            <lane id="gneE32_0">
                <vehicle id="30" pos="239.03" speed="6.76"/>
            </lane>
        </edge>
        <edge id="gneE38">
            <lane id="gneE38_0">
                <vehicle id="0" pos="15.28" speed="8.16"/>
                <vehicle id="37" pos="35.05" speed="8.95"/>
            </lane>
        </edge>
        <edge id="gneE4">
            <lane id="gneE4_0">
                <vehicle id="15" pos="124.99" speed="9.47"/>
                <vehicle id="24" pos="153.60" speed="6.30"/>
            </lane>
        </edge>
        <edge id="gneE43">
            <lane id="gneE43_0">
                <vehicle id="34" pos="58.82" speed="6.30"/>
            </lane>
        </edge>
        <edge id="gneE45">
            <lane id="gneE45_0">
                <vehicle id="12" pos="19.17" speed="8.92"/>
            </lane>
        </edge>
        <edge id="gneE48">
            <lane id="gneE48_0">
                <vehicle id="59" pos="17.56" speed="6.17"/>
                <vehicle id="55" pos="36.51" speed="6.04"/>
                <vehicle id="29" pos="55.23" speed="6.54"/>
                <vehicle id="36" pos="166.60" speed="6.10"/>
                <vehicle id="21" pos="268.48" speed="6.71"/>
                <vehicle id="18" pos="287.58" speed="6.83"/>
            </lane>
        </edge>
        <edge id="gneE49">
            <lane id="gneE49_0">
                <vehicle id="63" pos="5.10" speed="0.00"/>
                <vehicle id="54" pos="63.29" speed="7.67"/>
                <vehicle id="39" pos="171.42" speed="7.77"/>
                <vehicle id="8" pos="216.45" speed="7.19"/>
                <vehicle id="3" pos="255.39" speed="7.43"/>
            </lane>
        </edge>
        <edge id="gneE5">
            <lane id="gneE5_0">
                <vehicle id="47" pos="85.95" speed="5.94"/>
            </lane>
        </edge>
        <edge id="gneE51">
            <lane id="gneE51_0">
                <vehicle id="62" pos="6.79" speed="1.69"/>
                <vehicle id="32" pos="191.75" speed="5.79"/>
            </lane>
        </edge>
        <edge id="gneE52">
            <lane id="gneE52_0">
                <vehicle id="23" pos="96.33" speed="6.93"/>
                <vehicle id="10" pos="163.84" speed="5.77"/>
            </lane>
        </edge>
        <edge id="gneE53">
            <lane id="gneE53_0">
                <vehicle id="40" pos="14.79" speed="5.93"/>
                <vehicle id="11" pos="200.76" speed="5.80"/>
            </lane>
        </edge>
        <edge id="gneE54">
            <lane id="gneE54_0">
                <vehicle id="57" pos="36.92" speed="6.92"/>
            </lane>
        </edge>
        <edge id="gneE55">
            <lane id="gneE55_0">
                <vehicle id="58" pos="33.36" speed="7.11"/>
                <vehicle id="22" pos="133.73" speed="7.36"/>
            </lane>
        </edge>
        <edge id="gneE58">
            <lane id="gneE58_0">
                <vehicle id="44" pos="134.68" speed="7.86"/>
                <vehicle id="41" pos="160.55" speed="7.11"/>
            </lane>
        </edge>
        <edge id="gneE59">
            <lane id="gneE59_0">
                <vehicle id="33" pos="245.28" speed="8.34"/>
            </lane>
        </edge>
        <edge id="gneE6">
            <lane id="gneE6_0">
                <vehicle id="43" pos="145.09" speed="7.61"/>
            </lane>
        </edge>
        <edge id="gneE60">
            <lane id="gneE60_0">
                <vehicle id="60" pos="17.38" speed="6.31"/>
                <vehicle id="13" pos="36.06" speed="5.74"/>
                <vehicle id="48" pos="92.39" speed="6.14"/>
            </lane>
        </edge>
        <edge id="gneE61">
            <lane id="gneE61_0">
                <vehicle id="45" pos="126.79" speed="7.10"/>
            </lane>
        </edge>
    </timestep>
