<?xml version="1.0"?>
<timestep time="638.00">
        <edge id=":gneJ11_35">
            <lane id=":gneJ11_35_0">
                <vehicle id="467" pos="6.31" speed="4.20"/>
            </lane>
        </edge>
        <edge id=":gneJ3_0">
            <lane id=":gneJ3_0_0">
                <vehicle id="483" pos="4.41" speed="7.99"/>
            </lane>
        </edge>
        <edge id=":gneJ3_3">
            <lane id=":gneJ3_3_0">
                <vehicle id="567" pos="4.96" speed="3.56"/>
            </lane>
        </edge>
        <edge id=":gneJ8_12">
            <lane id=":gneJ8_12_0">
                <vehicle id="500" pos="4.69" speed="6.92"/>
            </lane>
        </edge>
        <edge id=":gneJ9_6">
            <lane id=":gneJ9_6_0">
                <vehicle id="600" pos="2.30" speed="2.41"/>
            </lane>
        </edge>
        <edge id="gneE1">
            <lane id="gneE1_0">
                <vehicle id="618" pos="92.18" speed="4.72"/>
            </lane>
        </edge>
        <edge id="gneE10">
            <lane id="gneE10_0">
                <vehicle id="441" pos="12.47" speed="5.23"/>
                <vehicle id="340" pos="51.02" speed="5.31"/>
                <vehicle id="451" pos="118.82" speed="5.22"/>
                <vehicle id="579" pos="137.02" speed="5.99"/>
            </lane>
        </edge>
        <edge id="gneE11">
            <lane id="gneE11_0">
                <vehicle id="512" pos="47.39" speed="8.31"/>
            </lane>
        </edge>
        <edge id="gneE12">
            <lane id="gneE12_0">
                <vehicle id="459" pos="175.02" speed="13.33"/>
                <vehicle id="559" pos="223.98" speed="13.72"/>
            </lane>
        </edge>
        <edge id="gneE13">
            <lane id="gneE13_0">
                <vehicle id="569" pos="89.73" speed="8.88"/>
                <vehicle id="624" pos="109.41" speed="9.77"/>
                <vehicle id="548" pos="133.38" speed="8.84"/>
                <vehicle id="556" pos="160.10" speed="9.62"/>
                <vehicle id="599" pos="192.80" speed="8.88"/>
                <vehicle id="586" pos="273.23" speed="7.98"/>
                <vehicle id="605" pos="285.74" speed="2.47"/>
                <vehicle id="541" pos="293.68" speed="0.00"/>
                <vehicle id="573" pos="301.18" speed="0.00"/>
            </lane>
        </edge>
        <edge id="gneE14">
            <lane id="gneE14_0">
                <vehicle id="625" pos="110.20" speed="10.01"/>
            </lane>
        </edge>
        <edge id="gneE15">
            <lane id="gneE15_0">
                <vehicle id="563" pos="57.36" speed="8.95"/>
                <vehicle id="565" pos="138.57" speed="8.77"/>
            </lane>
        </edge>
        <edge id="gneE17">
            <lane id="gneE17_0">
                <vehicle id="530" pos="7.47" speed="9.68"/>
                <vehicle id="510" pos="34.68" speed="9.66"/>
                <vehicle id="601" pos="103.60" speed="9.42"/>
                <vehicle id="498" pos="166.21" speed="8.76"/>
                <vehicle id="562" pos="232.36" speed="9.35"/>
            </lane>
        </edge>
        <edge id="gneE18">
            <lane id="gneE18_0">
                <vehicle id="477" pos="19.79" speed="9.52"/>
                <vehicle id="515" pos="66.40" speed="9.05"/>
                <vehicle id="598" pos="99.30" speed="9.16"/>
                <vehicle id="587" pos="141.95" speed="9.15"/>
                <vehicle id="584" pos="170.02" speed="8.73"/>
                <vehicle id="592" pos="227.96" speed="9.17"/>
                <vehicle id="489" pos="274.15" speed="6.20"/>
                <vehicle id="570" pos="283.78" speed="0.23"/>
            </lane>
        </edge>
        <edge id="gneE19">
            <lane id="gneE19_0">
                <vehicle id="405" pos="152.18" speed="12.26"/>
                <vehicle id="614" pos="230.31" speed="0.05"/>
                <vehicle id="478" pos="237.83" speed="0.00"/>
                <vehicle id="470" pos="245.33" speed="0.00"/>
                <vehicle id="325" pos="252.83" speed="0.00"/>
                <vehicle id="582" pos="260.34" speed="0.00"/>
                <vehicle id="474" pos="267.84" speed="0.00"/>
                <vehicle id="370" pos="275.34" speed="0.00"/>
                <vehicle id="542" pos="282.84" speed="0.00"/>
            </lane>
        </edge>
        <edge id="gneE20">
            <lane id="gneE20_0">
                <vehicle id="632" pos="16.28" speed="5.18"/>
                <vehicle id="448" pos="39.92" speed="8.15"/>
                <vehicle id="502" pos="95.19" speed="8.97"/>
                <vehicle id="431" pos="111.56" speed="7.84"/>
                <vehicle id="463" pos="216.63" speed="7.81"/>
                <vehicle id="424" pos="235.38" speed="8.89"/>
                <vehicle id="423" pos="254.91" speed="8.53"/>
            </lane>
        </edge>
        <edge id="gneE23">
            <lane id="gneE23_0">
                <vehicle id="349" pos="17.97" speed="7.78"/>
                <vehicle id="504" pos="64.70" speed="6.75"/>
                <vehicle id="461" pos="96.19" speed="7.33"/>
                <vehicle id="398" pos="138.90" speed="7.89"/>
                <vehicle id="615" pos="156.97" speed="7.84"/>
                <vehicle id="468" pos="182.09" speed="6.75"/>
            </lane>
        </edge>
        <edge id="gneE24">
            <lane id="gneE24_0">
                <vehicle id="501" pos="24.89" speed="11.12"/>
                <vehicle id="531" pos="56.68" speed="12.48"/>
                <vehicle id="499" pos="87.35" speed="12.85"/>
                <vehicle id="480" pos="153.06" speed="12.48"/>
            </lane>
        </edge>
        <edge id="gneE25">
            <lane id="gneE25_0">
                <vehicle id="629" pos="48.81" speed="9.18"/>
                <vehicle id="628" pos="79.02" speed="9.19"/>
                <vehicle id="389" pos="141.51" speed="9.58"/>
                <vehicle id="522" pos="184.98" speed="9.32"/>
                <vehicle id="436" pos="275.81" speed="4.34"/>
                <vehicle id="575" pos="283.33" speed="0.00"/>
                <vehicle id="396" pos="290.83" speed="0.00"/>
            </lane>
        </edge>
        <edge id="gneE26">
            <lane id="gneE26_0">
                <vehicle id="609" pos="1.93" speed="4.93"/>
                <vehicle id="610" pos="43.51" speed="6.23"/>
                <vehicle id="558" pos="91.81" speed="6.75"/>
                <vehicle id="413" pos="109.86" speed="6.99"/>
                <vehicle id="514" pos="127.00" speed="6.57"/>
                <vehicle id="364" pos="158.79" speed="6.73"/>
                <vehicle id="518" pos="187.33" speed="6.32"/>
                <vehicle id="516" pos="222.08" speed="6.56"/>
            </lane>
        </edge>
        <edge id="gneE27">
            <lane id="gneE27_0">
                <vehicle id="636" pos="11.72" speed="4.21"/>
                <vehicle id="616" pos="116.52" speed="5.28"/>
                <vehicle id="613" pos="133.06" speed="5.60"/>
            </lane>
        </edge>
        <edge id="gneE28">
            <lane id="gneE28_0">
                <vehicle id="535" pos="21.26" speed="8.81"/>
                <vehicle id="593" pos="67.33" speed="8.77"/>
                <vehicle id="623" pos="89.71" speed="8.53"/>
                <vehicle id="561" pos="117.52" speed="8.00"/>
            </lane>
        </edge>
        <edge id="gneE3">
            <lane id="gneE3_0">
                <vehicle id="596" pos="65.17" speed="9.79"/>
            </lane>
        </edge>
        <edge id="gneE30">
            <lane id="gneE30_0">
                <vehicle id="595" pos="129.42" speed="7.74"/>
                <vehicle id="603" pos="282.43" speed="7.86"/>
            </lane>
        </edge>
        <edge id="gneE31">
            <lane id="gneE31_0">
                <vehicle id="546" pos="90.56" speed="8.32"/>
                <vehicle id="537" pos="132.90" speed="8.05"/>
                <vehicle id="519" pos="262.11" speed="8.81"/>
            </lane>
        </edge>
        <edge id="gneE32">
            <lane id="gneE32_0">
                <vehicle id="544" pos="24.88" speed="6.91"/>
                <vehicle id="554" pos="56.28" speed="7.99"/>
                <vehicle id="493" pos="103.98" speed="7.02"/>
                <vehicle id="320" pos="131.19" speed="7.48"/>
                <vehicle id="545" pos="166.57" speed="7.53"/>
                <vehicle id="608" pos="213.78" speed="6.92"/>
                <vehicle id="591" pos="337.46" speed="7.36"/>
            </lane>
        </edge>
        <edge id="gneE38">
            <lane id="gneE38_0">
                <vehicle id="627" pos="82.88" speed="8.75"/>
                <vehicle id="509" pos="125.96" speed="8.86"/>
                <vehicle id="551" pos="252.97" speed="0.00"/>
                <vehicle id="350" pos="260.47" speed="0.00"/>
                <vehicle id="457" pos="267.97" speed="0.00"/>
                <vehicle id="421" pos="275.47" speed="0.00"/>
                <vehicle id="532" pos="282.97" speed="0.00"/>
                <vehicle id="508" pos="290.47" speed="0.00"/>
                <vehicle id="528" pos="297.97" speed="0.00"/>
                <vehicle id="333" pos="305.47" speed="0.00"/>
                <vehicle id="B1_2" pos="312.97" speed="0.00"/>
                <vehicle id="402" pos="320.48" speed="0.00"/>
                <vehicle id="430" pos="327.98" speed="0.00"/>
                <vehicle id="393" pos="335.48" speed="0.00"/>
                <vehicle id="464" pos="342.98" speed="0.00"/>
            </lane>
        </edge>
        <edge id="gneE4">
            <lane id="gneE4_0">
                <vehicle id="631" pos="52.71" speed="9.26"/>
                <vehicle id="449" pos="101.07" speed="9.14"/>
            </lane>
        </edge>
        <edge id="gneE42">
            <lane id="gneE42_0">
                <vehicle id="621" pos="119.38" speed="7.80"/>
            </lane>
        </edge>
        <edge id="gneE43">
            <lane id="gneE43_0">
                <vehicle id="536" pos="110.34" speed="6.51"/>
                <vehicle id="490" pos="138.29" speed="5.80"/>
                <vehicle id="525" pos="166.35" speed="6.87"/>
                <vehicle id="547" pos="232.67" speed="5.99"/>
                <vehicle id="588" pos="261.69" speed="0.02"/>
                <vehicle id="555" pos="269.22" speed="0.01"/>
                <vehicle id="505" pos="276.72" speed="0.00"/>
                <vehicle id="494" pos="284.23" speed="0.00"/>
                <vehicle id="529" pos="291.73" speed="0.00"/>
                <vehicle id="482" pos="299.23" speed="0.00"/>
                <vehicle id="526" pos="306.73" speed="0.00"/>
            </lane>
        </edge>
        <edge id="gneE45">
            <lane id="gneE45_0">
                <vehicle id="397" pos="101.05" speed="8.10"/>
                <vehicle id="521" pos="245.63" speed="8.46"/>
                <vehicle id="460" pos="278.18" speed="8.90"/>
            </lane>
        </edge>
        <edge id="gneE46">
            <lane id="gneE46_0">
                <vehicle id="620" pos="155.13" speed="9.09"/>
            </lane>
        </edge>
        <edge id="gneE47">
            <lane id="gneE47_0">
                <vehicle id="622" pos="97.61" speed="7.77"/>
                <vehicle id="408" pos="126.30" speed="8.91"/>
                <vehicle id="571" pos="147.85" speed="8.44"/>
                <vehicle id="617" pos="167.22" speed="7.79"/>
            </lane>
        </edge>
        <edge id="gneE48">
            <lane id="gneE48_0">
                <vehicle id="637" pos="7.04" speed="1.94"/>
                <vehicle id="630" pos="50.02" speed="5.77"/>
                <vehicle id="619" pos="115.18" speed="5.85"/>
                <vehicle id="590" pos="160.44" speed="6.11"/>
                <vehicle id="597" pos="259.13" speed="5.92"/>
                <vehicle id="568" pos="281.93" speed="0.34"/>
                <vehicle id="566" pos="289.57" speed="0.03"/>
                <vehicle id="538" pos="297.13" speed="0.03"/>
                <vehicle id="337" pos="304.64" speed="0.00"/>
                <vehicle id="533" pos="312.14" speed="0.00"/>
                <vehicle id="503" pos="319.64" speed="0.00"/>
            </lane>
        </edge>
        <edge id="gneE49">
            <lane id="gneE49_0">
                <vehicle id="507" pos="57.25" speed="7.90"/>
                <vehicle id="612" pos="184.17" speed="7.03"/>
                <vehicle id="604" pos="245.64" speed="7.96"/>
                <vehicle id="416" pos="309.97" speed="7.17"/>
            </lane>
        </edge>
        <edge id="gneE5">
            <lane id="gneE5_0">
                <vehicle id="634" pos="11.20" speed="4.05"/>
                <vehicle id="578" pos="26.96" speed="5.69"/>
            </lane>
        </edge>
        <edge id="gneE50">
            <lane id="gneE50_0">
                <vehicle id="452" pos="297.19" speed="5.13"/>
                <vehicle id="415" pos="341.52" speed="5.15"/>
            </lane>
        </edge>
        <edge id="gneE51">
            <lane id="gneE51_0">
                <vehicle id="572" pos="28.64" speed="5.75"/>
                <vehicle id="560" pos="58.88" speed="6.77"/>
                <vehicle id="585" pos="145.34" speed="6.77"/>
                <vehicle id="540" pos="166.17" speed="5.84"/>
                <vehicle id="539" pos="204.23" speed="6.99"/>
                <vehicle id="557" pos="223.62" speed="5.75"/>
                <vehicle id="576" pos="252.22" speed="6.84"/>
                <vehicle id="527" pos="269.46" speed="6.50"/>
                <vehicle id="406" pos="313.39" speed="6.46"/>
                <vehicle id="543" pos="330.56" speed="5.81"/>
                <vehicle id="517" pos="354.35" speed="6.68"/>
            </lane>
        </edge>
        <edge id="gneE52">
            <lane id="gneE52_0">
                <vehicle id="440" pos="165.54" speed="6.33"/>
                <vehicle id="387" pos="254.13" speed="5.75"/>
            </lane>
        </edge>
        <edge id="gneE53">
            <lane id="gneE53_0">
                <vehicle id="523" pos="16.17" speed="6.27"/>
                <vehicle id="392" pos="49.74" speed="6.00"/>
                <vehicle id="487" pos="265.37" speed="1.74"/>
                <vehicle id="583" pos="274.07" speed="0.77"/>
                <vehicle id="574" pos="283.21" speed="0.90"/>
                <vehicle id="310" pos="292.19" speed="1.27"/>
                <vehicle id="261" pos="302.61" speed="1.86"/>
                <vehicle id="207" pos="312.10" speed="1.15"/>
                <vehicle id="B4_2" pos="320.43" speed="0.37"/>
                <vehicle id="473" pos="328.13" speed="0.05"/>
                <vehicle id="469" pos="335.66" speed="0.00"/>
                <vehicle id="486" pos="343.16" speed="0.00"/>
            </lane>
        </edge>
        <edge id="gneE55">
            <lane id="gneE55_0">
                <vehicle id="287" pos="59.00" speed="6.92"/>
            </lane>
        </edge>
        <edge id="gneE57">
            <lane id="gneE57_0">
                <vehicle id="626" pos="80.25" speed="7.54"/>
            </lane>
        </edge>
        <edge id="gneE58">
            <lane id="gneE58_0">
                <vehicle id="635" pos="15.26" speed="5.40"/>
                <vehicle id="458" pos="58.76" speed="7.49"/>
            </lane>
        </edge>
        <edge id="gneE59">
            <lane id="gneE59_0">
                <vehicle id="580" pos="95.20" speed="7.89"/>
                <vehicle id="602" pos="295.82" speed="8.71"/>
                <vehicle id="368" pos="311.47" speed="4.08"/>
            </lane>
        </edge>
        <edge id="gneE60">
            <lane id="gneE60_0">
                <vehicle id="577" pos="97.86" speed="6.07"/>
                <vehicle id="611" pos="164.03" speed="6.53"/>
                <vehicle id="564" pos="182.17" speed="6.85"/>
                <vehicle id="589" pos="284.39" speed="5.80"/>
                <vehicle id="443" pos="300.19" speed="4.60"/>
                <vehicle id="581" pos="314.00" speed="4.26"/>
                <vehicle id="419" pos="322.10" speed="0.39"/>
                <vehicle id="524" pos="331.67" speed="1.85"/>
            </lane>
        </edge>
        <edge id="gneE61">
            <lane id="gneE61_0">
                <vehicle id="549" pos="21.58" speed="7.95"/>
                <vehicle id="428" pos="160.29" speed="7.86"/>
                <vehicle id="445" pos="195.45" speed="7.96"/>
                <vehicle id="439" pos="241.71" speed="7.57"/>
            </lane>
        </edge>
        <edge id="gneE7">
            <lane id="gneE7_0">
                <vehicle id="594" pos="102.25" speed="8.79"/>
                <vehicle id="606" pos="255.73" speed="7.95"/>
            </lane>
        </edge>
        <edge id="gneE8">
            <lane id="gneE8_0">
                <vehicle id="638" pos="5.10" speed="0.00"/>
                <vehicle id="633" pos="33.16" speed="6.77"/>
                <vehicle id="399" pos="88.27" speed="7.93"/>
                <vehicle id="465" pos="189.21" speed="7.64"/>
                <vehicle id="471" pos="242.05" speed="7.34"/>
            </lane>
        </edge>
    </timestep>
