<?xml version="1.0"?>
<timestep time="660.00">
        <edge id=":gneJ11_5">
            <lane id=":gneJ11_5_0">
                <vehicle id="464" pos="1.25" speed="6.64"/>
            </lane>
        </edge>
        <edge id=":gneJ11_21">
            <lane id=":gneJ11_21_0">
                <vehicle id="486" pos="4.59" speed="3.20"/>
            </lane>
        </edge>
        <edge id=":gneJ11_38">
            <lane id=":gneJ11_38_0">
                <vehicle id="370" pos="22.42" speed="8.71"/>
            </lane>
        </edge>
        <edge id=":gneJ15_21">
            <lane id=":gneJ15_21_0">
                <vehicle id="535" pos="10.90" speed="5.69"/>
            </lane>
        </edge>
        <edge id=":gneJ3_0">
            <lane id=":gneJ3_0_0">
                <vehicle id="601" pos="2.46" speed="5.32"/>
            </lane>
        </edge>
        <edge id=":gneJ3_2">
            <lane id=":gneJ3_2_0">
                <vehicle id="498" pos="17.08" speed="6.73"/>
            </lane>
        </edge>
        <edge id=":gneJ9_5">
            <lane id=":gneJ9_5_0">
                <vehicle id="587" pos="4.98" speed="0.00"/>
            </lane>
        </edge>
        <edge id="gneE10">
            <lane id="gneE10_0">
                <vehicle id="522" pos="26.44" speed="5.07"/>
                <vehicle id="563" pos="41.24" speed="5.83"/>
                <vehicle id="541" pos="69.74" speed="5.96"/>
                <vehicle id="441" pos="129.83" speed="5.90"/>
            </lane>
        </edge>
        <edge id="gneE11">
            <lane id="gneE11_0">
                <vehicle id="595" pos="7.19" speed="8.35"/>
            </lane>
        </edge>
        <edge id="gneE12">
            <lane id="gneE12_0">
                <vehicle id="603" pos="24.36" speed="12.19"/>
                <vehicle id="512" pos="127.46" speed="13.78"/>
                <vehicle id="646" pos="150.76" speed="13.57"/>
                <vehicle id="575" pos="214.32" speed="13.36"/>
                <vehicle id="500" pos="284.12" speed="13.85"/>
            </lane>
        </edge>
        <edge id="gneE13">
            <lane id="gneE13_0">
                <vehicle id="483" pos="40.53" speed="9.56"/>
                <vehicle id="596" pos="112.99" speed="9.66"/>
                <vehicle id="569" pos="266.26" speed="2.66"/>
                <vehicle id="624" pos="276.80" speed="1.79"/>
                <vehicle id="548" pos="285.20" speed="0.89"/>
                <vehicle id="556" pos="293.60" speed="0.44"/>
                <vehicle id="599" pos="301.18" speed="0.01"/>
            </lane>
        </edge>
        <edge id="gneE14">
            <lane id="gneE14_0">
                <vehicle id="652" pos="68.54" speed="10.29"/>
                <vehicle id="605" pos="112.19" speed="9.98"/>
                <vehicle id="436" pos="145.20" speed="10.50"/>
                <vehicle id="396" pos="160.68" speed="0.03"/>
            </lane>
        </edge>
        <edge id="gneE15">
            <lane id="gneE15_0">
                <vehicle id="584" pos="41.44" speed="7.97"/>
                <vehicle id="592" pos="59.53" speed="8.46"/>
                <vehicle id="570" pos="92.06" speed="8.56"/>
                <vehicle id="424" pos="129.09" speed="8.51"/>
            </lane>
        </edge>
        <edge id="gneE17">
            <lane id="gneE17_0">
                <vehicle id="431" pos="6.41" speed="9.74"/>
                <vehicle id="463" pos="123.29" speed="9.30"/>
                <vehicle id="625" pos="143.91" speed="9.49"/>
                <vehicle id="423" pos="165.41" speed="9.64"/>
                <vehicle id="530" pos="210.42" speed="9.40"/>
                <vehicle id="510" pos="240.63" speed="9.22"/>
            </lane>
        </edge>
        <edge id="gneE18">
            <lane id="gneE18_0">
                <vehicle id="602" pos="11.26" speed="7.49"/>
                <vehicle id="631" pos="40.87" speed="9.42"/>
                <vehicle id="618" pos="67.58" speed="9.97"/>
                <vehicle id="449" pos="130.67" speed="9.24"/>
                <vehicle id="368" pos="174.86" speed="9.25"/>
                <vehicle id="567" pos="196.44" speed="9.01"/>
                <vehicle id="477" pos="226.14" speed="9.32"/>
                <vehicle id="515" pos="271.76" speed="7.34"/>
                <vehicle id="598" pos="283.74" speed="1.02"/>
            </lane>
        </edge>
        <edge id="gneE19">
            <lane id="gneE19_0">
                <vehicle id="657" pos="10.77" speed="4.10"/>
                <vehicle id="655" pos="32.57" speed="9.19"/>
                <vehicle id="643" pos="181.11" speed="12.61"/>
                <vehicle id="405" pos="230.31" speed="0.07"/>
                <vehicle id="614" pos="237.83" speed="0.01"/>
                <vehicle id="478" pos="245.33" speed="0.00"/>
                <vehicle id="470" pos="252.83" speed="0.00"/>
                <vehicle id="325" pos="261.64" speed="1.30"/>
                <vehicle id="582" pos="273.21" speed="3.87"/>
                <vehicle id="474" pos="282.58" speed="1.64"/>
            </lane>
        </edge>
        <edge id="gneE20">
            <lane id="gneE20_0">
                <vehicle id="576" pos="5.11" speed="8.61"/>
                <vehicle id="581" pos="87.42" speed="7.96"/>
                <vehicle id="467" pos="161.23" speed="8.31"/>
                <vehicle id="632" pos="201.48" speed="7.90"/>
                <vehicle id="448" pos="221.83" speed="8.15"/>
                <vehicle id="502" pos="277.05" speed="8.15"/>
            </lane>
        </edge>
        <edge id="gneE23">
            <lane id="gneE23_0">
                <vehicle id="626" pos="64.77" speed="7.30"/>
                <vehicle id="542" pos="93.44" speed="7.39"/>
                <vehicle id="524" pos="133.99" speed="6.88"/>
                <vehicle id="349" pos="179.66" speed="7.39"/>
            </lane>
        </edge>
        <edge id="gneE24">
            <lane id="gneE24_0">
                <vehicle id="659" pos="6.54" speed="1.44"/>
                <vehicle id="526" pos="105.09" speed="12.74"/>
            </lane>
        </edge>
        <edge id="gneE25">
            <lane id="gneE25_0">
                <vehicle id="654" pos="36.04" speed="9.59"/>
                <vehicle id="593" pos="114.51" speed="9.06"/>
                <vehicle id="623" pos="140.97" speed="9.73"/>
                <vehicle id="468" pos="187.01" speed="8.76"/>
                <vehicle id="629" pos="255.51" speed="8.89"/>
                <vehicle id="628" pos="283.86" speed="9.04"/>
            </lane>
        </edge>
        <edge id="gneE26">
            <lane id="gneE26_0">
                <vehicle id="600" pos="5.54" speed="6.05"/>
                <vehicle id="586" pos="28.66" speed="6.67"/>
                <vehicle id="573" pos="97.28" speed="6.70"/>
                <vehicle id="565" pos="121.20" speed="6.63"/>
                <vehicle id="609" pos="143.36" speed="6.93"/>
                <vehicle id="610" pos="184.39" speed="6.75"/>
                <vehicle id="558" pos="229.64" speed="6.30"/>
                <vehicle id="413" pos="245.46" speed="6.17"/>
                <vehicle id="514" pos="267.20" speed="2.69"/>
                <vehicle id="364" pos="275.80" speed="0.04"/>
                <vehicle id="518" pos="283.33" speed="0.00"/>
                <vehicle id="516" pos="290.83" speed="0.00"/>
            </lane>
        </edge>
        <edge id="gneE27">
            <lane id="gneE27_0">
                <vehicle id="393" pos="55.49" speed="5.16"/>
                <vehicle id="398" pos="74.09" speed="5.88"/>
                <vehicle id="636" pos="125.11" speed="4.78"/>
            </lane>
        </edge>
        <edge id="gneE28">
            <lane id="gneE28_0">
                <vehicle id="660" pos="5.10" speed="0.00"/>
                <vehicle id="537" pos="23.24" speed="8.55"/>
            </lane>
        </edge>
        <edge id="gneE3">
            <lane id="gneE3_0">
                <vehicle id="653" pos="53.56" speed="8.81"/>
                <vehicle id="562" pos="133.07" speed="9.93"/>
            </lane>
        </edge>
        <edge id="gneE30">
            <lane id="gneE30_0">
                <vehicle id="649" pos="79.85" speed="8.82"/>
                <vehicle id="616" pos="135.42" speed="8.73"/>
                <vehicle id="613" pos="161.21" speed="8.50"/>
            </lane>
        </edge>
        <edge id="gneE31">
            <lane id="gneE31_0">
                <vehicle id="606" pos="123.83" speed="8.26"/>
                <vehicle id="546" pos="275.00" speed="8.28"/>
            </lane>
        </edge>
        <edge id="gneE32">
            <lane id="gneE32_0">
                <vehicle id="544" pos="188.00" speed="7.61"/>
                <vehicle id="554" pos="216.97" speed="6.71"/>
                <vehicle id="493" pos="263.78" speed="6.96"/>
                <vehicle id="320" pos="291.94" speed="6.72"/>
                <vehicle id="545" pos="332.93" speed="7.58"/>
            </lane>
        </edge>
        <edge id="gneE38">
            <lane id="gneE38_0">
                <vehicle id="621" pos="143.58" speed="8.99"/>
                <vehicle id="627" pos="242.17" speed="1.51"/>
                <vehicle id="509" pos="250.71" speed="0.90"/>
                <vehicle id="551" pos="261.20" speed="2.20"/>
                <vehicle id="350" pos="270.85" speed="1.46"/>
                <vehicle id="457" pos="280.10" speed="1.19"/>
                <vehicle id="421" pos="289.28" speed="1.42"/>
                <vehicle id="532" pos="297.77" speed="0.49"/>
                <vehicle id="508" pos="305.40" speed="0.08"/>
                <vehicle id="528" pos="312.95" speed="0.03"/>
                <vehicle id="333" pos="320.47" speed="0.01"/>
                <vehicle id="B1_2" pos="327.98" speed="0.00"/>
                <vehicle id="402" pos="335.48" speed="0.00"/>
                <vehicle id="430" pos="342.98" speed="0.00"/>
            </lane>
        </edge>
        <edge id="gneE4">
            <lane id="gneE4_0">
                <vehicle id="459" pos="98.38" speed="9.82"/>
                <vehicle id="559" pos="134.16" speed="8.82"/>
            </lane>
        </edge>
        <edge id="gneE41">
            <lane id="gneE41_0">
                <vehicle id="608" pos="31.77" speed="8.62"/>
            </lane>
        </edge>
        <edge id="gneE43">
            <lane id="gneE43_0">
                <vehicle id="591" pos="12.32" speed="6.20"/>
                <vehicle id="622" pos="51.88" speed="6.47"/>
                <vehicle id="415" pos="73.20" speed="6.23"/>
                <vehicle id="536" pos="232.56" speed="0.81"/>
                <vehicle id="490" pos="242.19" speed="1.33"/>
                <vehicle id="525" pos="251.63" speed="0.86"/>
                <vehicle id="547" pos="260.61" speed="1.11"/>
                <vehicle id="588" pos="268.76" speed="0.31"/>
                <vehicle id="555" pos="276.53" speed="0.21"/>
                <vehicle id="505" pos="284.18" speed="0.04"/>
                <vehicle id="494" pos="291.73" speed="0.00"/>
                <vehicle id="529" pos="299.23" speed="0.00"/>
                <vehicle id="482" pos="306.73" speed="0.00"/>
            </lane>
        </edge>
        <edge id="gneE45">
            <lane id="gneE45_0">
                <vehicle id="504" pos="31.89" speed="8.25"/>
                <vehicle id="642" pos="99.14" speed="7.91"/>
                <vehicle id="615" pos="128.37" speed="7.90"/>
                <vehicle id="641" pos="151.24" speed="8.56"/>
                <vehicle id="397" pos="286.60" speed="8.79"/>
            </lane>
        </edge>
        <edge id="gneE46">
            <lane id="gneE46_0">
                <vehicle id="460" pos="102.13" speed="9.75"/>
            </lane>
        </edge>
        <edge id="gneE47">
            <lane id="gneE47_0">
                <vehicle id="612" pos="19.63" speed="9.00"/>
                <vehicle id="604" pos="72.74" speed="8.16"/>
                <vehicle id="648" pos="91.87" speed="8.46"/>
                <vehicle id="416" pos="163.65" speed="8.77"/>
            </lane>
        </edge>
        <edge id="gneE48">
            <lane id="gneE48_0">
                <vehicle id="620" pos="105.45" speed="6.23"/>
                <vehicle id="637" pos="144.90" speed="6.69"/>
                <vehicle id="630" pos="190.62" speed="6.45"/>
                <vehicle id="619" pos="256.51" speed="6.63"/>
                <vehicle id="590" pos="267.13" speed="0.00"/>
                <vehicle id="597" pos="274.63" speed="0.00"/>
                <vehicle id="568" pos="282.13" speed="0.00"/>
                <vehicle id="566" pos="289.63" speed="0.00"/>
                <vehicle id="538" pos="297.14" speed="0.00"/>
                <vehicle id="337" pos="304.64" speed="0.00"/>
                <vehicle id="533" pos="312.14" speed="0.00"/>
                <vehicle id="503" pos="319.64" speed="0.00"/>
            </lane>
        </edge>
        <edge id="gneE49">
            <lane id="gneE49_0">
                <vehicle id="651" pos="58.27" speed="6.91"/>
                <vehicle id="543" pos="101.14" speed="7.10"/>
                <vehicle id="507" pos="219.76" speed="7.90"/>
            </lane>
        </edge>
        <edge id="gneE5">
            <lane id="gneE5_0">
                <vehicle id="634" pos="126.18" speed="4.88"/>
                <vehicle id="578" pos="143.07" speed="4.79"/>
            </lane>
        </edge>
        <edge id="gneE50">
            <lane id="gneE50_0">
                <vehicle id="531" pos="31.80" speed="5.03"/>
            </lane>
        </edge>
        <edge id="gneE51">
            <lane id="gneE51_0">
                <vehicle id="617" pos="98.84" speed="5.95"/>
                <vehicle id="572" pos="165.76" speed="5.93"/>
                <vehicle id="560" pos="199.66" speed="6.33"/>
                <vehicle id="585" pos="286.68" speed="6.43"/>
                <vehicle id="540" pos="304.73" speed="6.19"/>
                <vehicle id="539" pos="344.98" speed="6.58"/>
                <vehicle id="557" pos="360.36" speed="6.82"/>
            </lane>
        </edge>
        <edge id="gneE52">
            <lane id="gneE52_0">
                <vehicle id="501" pos="27.70" speed="6.43"/>
                <vehicle id="650" pos="63.53" speed="6.46"/>
                <vehicle id="645" pos="93.75" speed="6.69"/>
                <vehicle id="517" pos="110.48" speed="6.07"/>
                <vehicle id="639" pos="130.75" speed="6.28"/>
                <vehicle id="440" pos="304.66" speed="6.49"/>
            </lane>
        </edge>
        <edge id="gneE53">
            <lane id="gneE53_0">
                <vehicle id="647" pos="81.52" speed="6.36"/>
                <vehicle id="523" pos="155.38" speed="6.39"/>
                <vehicle id="392" pos="187.45" speed="6.64"/>
                <vehicle id="487" pos="275.65" speed="0.00"/>
                <vehicle id="583" pos="283.15" speed="0.00"/>
                <vehicle id="574" pos="290.65" speed="0.00"/>
                <vehicle id="310" pos="298.15" speed="0.00"/>
                <vehicle id="261" pos="305.65" speed="0.00"/>
                <vehicle id="207" pos="313.15" speed="0.00"/>
                <vehicle id="B4_2" pos="320.66" speed="0.00"/>
                <vehicle id="473" pos="328.16" speed="0.00"/>
                <vehicle id="469" pos="337.03" speed="1.37"/>
            </lane>
        </edge>
        <edge id="gneE54">
            <lane id="gneE54_0">
                <vehicle id="656" pos="24.43" speed="6.68"/>
                <vehicle id="387" pos="39.50" speed="6.56"/>
            </lane>
        </edge>
        <edge id="gneE56">
            <lane id="gneE56_0">
                <vehicle id="499" pos="92.25" speed="8.09"/>
            </lane>
        </edge>
        <edge id="gneE58">
            <lane id="gneE58_0">
                <vehicle id="658" pos="9.56" speed="2.99"/>
                <vehicle id="635" pos="179.35" speed="7.62"/>
                <vehicle id="458" pos="221.72" speed="7.86"/>
            </lane>
        </edge>
        <edge id="gneE59">
            <lane id="gneE59_0">
                <vehicle id="445" pos="19.93" speed="8.33"/>
                <vehicle id="580" pos="281.68" speed="8.82"/>
            </lane>
        </edge>
        <edge id="gneE6">
            <lane id="gneE6_0">
                <vehicle id="465" pos="36.40" speed="6.84"/>
                <vehicle id="471" pos="95.08" speed="7.75"/>
                <vehicle id="640" pos="144.68" speed="7.95"/>
            </lane>
        </edge>
        <edge id="gneE60">
            <lane id="gneE60_0">
                <vehicle id="577" pos="235.55" speed="6.56"/>
                <vehicle id="611" pos="302.76" speed="5.87"/>
                <vehicle id="564" pos="320.63" speed="6.33"/>
                <vehicle id="589" pos="337.56" speed="0.00"/>
            </lane>
        </edge>
        <edge id="gneE61">
            <lane id="gneE61_0">
                <vehicle id="549" pos="180.99" speed="7.03"/>
                <vehicle id="428" pos="322.46" speed="7.27"/>
            </lane>
        </edge>
        <edge id="gneE7">
            <lane id="gneE7_0">
                <vehicle id="644" pos="124.66" speed="8.01"/>
                <vehicle id="594" pos="287.29" speed="8.77"/>
            </lane>
        </edge>
        <edge id="gneE8">
            <lane id="gneE8_0">
                <vehicle id="340" pos="28.10" speed="7.15"/>
                <vehicle id="451" pos="71.83" speed="7.45"/>
                <vehicle id="579" pos="89.17" speed="7.70"/>
                <vehicle id="638" pos="155.82" speed="6.81"/>
                <vehicle id="633" pos="195.06" speed="7.13"/>
                <vehicle id="399" pos="248.41" speed="6.81"/>
            </lane>
        </edge>
    </timestep>
