<?xml version="1.0"?>
<timestep time="667.00">
        <edge id=":gneJ11_4">
            <lane id=":gneJ11_4_0">
                <vehicle id="526" pos="0.50" speed="7.44"/>
            </lane>
        </edge>
        <edge id=":gneJ11_21">
            <lane id=":gneJ11_21_0">
                <vehicle id="B4_2" pos="2.42" speed="6.78"/>
                <vehicle id="473" pos="24.96" speed="10.99"/>
            </lane>
        </edge>
        <edge id=":gneJ18_1">
            <lane id=":gneJ18_1_0">
                <vehicle id="320" pos="1.31" speed="7.63"/>
            </lane>
        </edge>
        <edge id=":gneJ3_11">
            <lane id=":gneJ3_11_0">
                <vehicle id="459" pos="3.14" speed="4.49"/>
            </lane>
        </edge>
        <edge id=":gneJ31_1">
            <lane id=":gneJ31_1_0">
                <vehicle id="440" pos="4.60" speed="6.53"/>
            </lane>
        </edge>
        <edge id=":gneJ8_0">
            <lane id=":gneJ8_0_0">
                <vehicle id="629" pos="2.19" speed="2.30"/>
            </lane>
        </edge>
        <edge id="gneE10">
            <lane id="gneE10_0">
                <vehicle id="424" pos="11.01" speed="6.00"/>
                <vehicle id="628" pos="26.02" speed="5.46"/>
                <vehicle id="522" pos="62.76" speed="4.84"/>
                <vehicle id="563" pos="77.07" speed="4.84"/>
                <vehicle id="541" pos="108.17" speed="4.83"/>
            </lane>
        </edge>
        <edge id="gneE11">
            <lane id="gneE11_0">
                <vehicle id="595" pos="65.33" speed="7.85"/>
            </lane>
        </edge>
        <edge id="gneE12">
            <lane id="gneE12_0">
                <vehicle id="603" pos="118.08" speed="13.69"/>
                <vehicle id="512" pos="219.14" speed="12.73"/>
                <vehicle id="646" pos="243.46" speed="13.21"/>
                <vehicle id="575" pos="294.48" speed="5.26"/>
            </lane>
        </edge>
        <edge id="gneE13">
            <lane id="gneE13_0">
                <vehicle id="640" pos="15.30" speed="7.65"/>
                <vehicle id="483" pos="107.04" speed="9.54"/>
                <vehicle id="596" pos="177.99" speed="9.38"/>
                <vehicle id="569" pos="275.77" speed="2.73"/>
                <vehicle id="624" pos="285.40" speed="1.06"/>
                <vehicle id="548" pos="293.45" speed="0.16"/>
                <vehicle id="556" pos="301.16" speed="0.05"/>
            </lane>
        </edge>
        <edge id="gneE14">
            <lane id="gneE14_0">
                <vehicle id="667" pos="5.10" speed="0.00"/>
                <vehicle id="663" pos="24.98" speed="7.62"/>
                <vehicle id="652" pos="135.45" speed="6.78"/>
                <vehicle id="605" pos="145.67" speed="0.04"/>
                <vehicle id="436" pos="153.19" speed="0.00"/>
                <vehicle id="396" pos="160.69" speed="0.00"/>
            </lane>
        </edge>
        <edge id="gneE15">
            <lane id="gneE15_0">
                <vehicle id="598" pos="2.22" speed="5.29"/>
                <vehicle id="587" pos="21.13" speed="8.76"/>
                <vehicle id="502" pos="47.03" speed="8.25"/>
                <vehicle id="584" pos="101.87" speed="8.93"/>
                <vehicle id="592" pos="119.21" speed="8.47"/>
                <vehicle id="570" pos="149.83" speed="8.10"/>
            </lane>
        </edge>
        <edge id="gneE17">
            <lane id="gneE17_0">
                <vehicle id="431" pos="71.77" speed="9.29"/>
                <vehicle id="463" pos="188.39" speed="9.84"/>
                <vehicle id="625" pos="208.16" speed="9.48"/>
                <vehicle id="423" pos="229.94" speed="8.89"/>
                <vehicle id="530" pos="276.81" speed="9.52"/>
            </lane>
        </edge>
        <edge id="gneE18">
            <lane id="gneE18_0">
                <vehicle id="602" pos="76.11" speed="9.06"/>
                <vehicle id="631" pos="107.11" speed="9.78"/>
                <vehicle id="618" pos="132.00" speed="9.37"/>
                <vehicle id="449" pos="195.33" speed="8.87"/>
                <vehicle id="368" pos="238.93" speed="9.61"/>
                <vehicle id="567" pos="257.76" speed="6.11"/>
                <vehicle id="477" pos="272.76" speed="3.79"/>
                <vehicle id="515" pos="286.26" speed="5.76"/>
            </lane>
        </edge>
        <edge id="gneE19">
            <lane id="gneE19_0">
                <vehicle id="657" pos="83.54" speed="12.35"/>
                <vehicle id="655" pos="118.09" speed="12.98"/>
                <vehicle id="643" pos="226.92" speed="2.45"/>
                <vehicle id="405" pos="235.55" speed="1.10"/>
                <vehicle id="614" pos="243.74" speed="0.66"/>
                <vehicle id="478" pos="252.41" speed="0.56"/>
                <vehicle id="470" pos="260.25" speed="0.16"/>
                <vehicle id="325" pos="267.83" speed="0.02"/>
                <vehicle id="582" pos="275.34" speed="0.00"/>
                <vehicle id="474" pos="282.84" speed="0.00"/>
            </lane>
        </edge>
        <edge id="gneE20">
            <lane id="gneE20_0">
                <vehicle id="486" pos="26.02" speed="8.15"/>
                <vehicle id="576" pos="63.74" speed="8.55"/>
                <vehicle id="581" pos="147.82" speed="8.93"/>
                <vehicle id="467" pos="218.81" speed="7.89"/>
                <vehicle id="632" pos="257.96" speed="8.02"/>
                <vehicle id="448" pos="279.21" speed="8.74"/>
            </lane>
        </edge>
        <edge id="gneE23">
            <lane id="gneE23_0">
                <vehicle id="557" pos="30.40" speed="6.96"/>
                <vehicle id="626" pos="115.29" speed="6.77"/>
                <vehicle id="542" pos="146.01" speed="7.82"/>
                <vehicle id="524" pos="184.70" speed="7.14"/>
            </lane>
        </edge>
        <edge id="gneE24">
            <lane id="gneE24_0">
                <vehicle id="659" pos="66.33" speed="11.75"/>
            </lane>
        </edge>
        <edge id="gneE25">
            <lane id="gneE25_0">
                <vehicle id="430" pos="23.59" speed="8.82"/>
                <vehicle id="661" pos="42.60" speed="9.13"/>
                <vehicle id="654" pos="102.17" speed="9.61"/>
                <vehicle id="593" pos="181.78" speed="9.83"/>
                <vehicle id="623" pos="205.81" speed="9.03"/>
                <vehicle id="468" pos="254.61" speed="9.41"/>
            </lane>
        </edge>
        <edge id="gneE26">
            <lane id="gneE26_0">
                <vehicle id="665" pos="10.26" speed="3.71"/>
                <vehicle id="599" pos="26.90" speed="6.87"/>
                <vehicle id="600" pos="50.22" speed="6.31"/>
                <vehicle id="586" pos="73.76" speed="5.80"/>
                <vehicle id="573" pos="142.38" speed="6.81"/>
                <vehicle id="565" pos="165.27" speed="6.54"/>
                <vehicle id="609" pos="187.47" speed="6.86"/>
                <vehicle id="610" pos="227.21" speed="6.95"/>
                <vehicle id="558" pos="253.21" speed="0.55"/>
                <vehicle id="413" pos="261.22" speed="0.41"/>
                <vehicle id="514" pos="271.04" speed="2.31"/>
                <vehicle id="364" pos="283.19" speed="4.00"/>
                <vehicle id="518" pos="290.82" speed="0.11"/>
            </lane>
        </edge>
        <edge id="gneE27">
            <lane id="gneE27_0">
                <vehicle id="393" pos="93.65" speed="5.24"/>
                <vehicle id="398" pos="110.67" speed="5.89"/>
            </lane>
        </edge>
        <edge id="gneE28">
            <lane id="gneE28_0">
                <vehicle id="546" pos="31.48" speed="8.02"/>
                <vehicle id="660" pos="50.03" speed="8.85"/>
                <vehicle id="537" pos="83.32" speed="8.96"/>
            </lane>
        </edge>
        <edge id="gneE3">
            <lane id="gneE3_0">
                <vehicle id="601" pos="52.85" speed="9.68"/>
                <vehicle id="653" pos="119.93" speed="9.92"/>
            </lane>
        </edge>
        <edge id="gneE30">
            <lane id="gneE30_0">
                <vehicle id="636" pos="22.17" speed="7.93"/>
                <vehicle id="649" pos="139.46" speed="8.71"/>
                <vehicle id="616" pos="192.48" speed="8.69"/>
                <vehicle id="613" pos="218.38" speed="8.09"/>
            </lane>
        </edge>
        <edge id="gneE31">
            <lane id="gneE31_0">
                <vehicle id="664" pos="9.51" speed="2.94"/>
                <vehicle id="594" pos="34.50" speed="8.35"/>
                <vehicle id="606" pos="181.39" speed="8.15"/>
            </lane>
        </edge>
        <edge id="gneE32">
            <lane id="gneE32_0">
                <vehicle id="349" pos="29.96" speed="7.91"/>
                <vehicle id="544" pos="239.03" speed="6.71"/>
                <vehicle id="554" pos="269.58" speed="7.22"/>
                <vehicle id="493" pos="315.07" speed="7.07"/>
            </lane>
        </edge>
        <edge id="gneE38">
            <lane id="gneE38_0">
                <vehicle id="621" pos="200.80" speed="8.17"/>
                <vehicle id="627" pos="251.48" speed="1.00"/>
                <vehicle id="509" pos="260.15" speed="0.58"/>
                <vehicle id="551" pos="267.87" speed="0.16"/>
                <vehicle id="350" pos="275.42" speed="0.05"/>
                <vehicle id="457" pos="282.95" speed="0.03"/>
                <vehicle id="421" pos="290.47" speed="0.01"/>
                <vehicle id="532" pos="298.08" speed="0.11"/>
                <vehicle id="508" pos="306.80" speed="1.16"/>
                <vehicle id="528" pos="318.83" speed="3.97"/>
                <vehicle id="333" pos="327.54" speed="0.87"/>
                <vehicle id="B1_2" pos="335.46" speed="0.16"/>
                <vehicle id="402" pos="342.98" speed="0.01"/>
            </lane>
        </edge>
        <edge id="gneE41">
            <lane id="gneE41_0">
                <vehicle id="608" pos="91.23" speed="8.29"/>
            </lane>
        </edge>
        <edge id="gneE43">
            <lane id="gneE43_0">
                <vehicle id="416" pos="5.98" speed="6.14"/>
                <vehicle id="591" pos="56.67" speed="6.39"/>
                <vehicle id="622" pos="95.75" speed="5.78"/>
                <vehicle id="415" pos="118.47" speed="6.93"/>
                <vehicle id="536" pos="238.92" speed="0.18"/>
                <vehicle id="490" pos="246.64" speed="0.07"/>
                <vehicle id="525" pos="254.20" speed="0.05"/>
                <vehicle id="547" pos="261.72" speed="0.01"/>
                <vehicle id="588" pos="269.22" speed="0.00"/>
                <vehicle id="555" pos="276.72" speed="0.00"/>
                <vehicle id="505" pos="284.23" speed="0.00"/>
                <vehicle id="494" pos="291.73" speed="0.00"/>
                <vehicle id="529" pos="299.23" speed="0.00"/>
                <vehicle id="482" pos="306.73" speed="0.00"/>
            </lane>
        </edge>
        <edge id="gneE45">
            <lane id="gneE45_0">
                <vehicle id="516" pos="5.11" speed="8.92"/>
                <vehicle id="535" pos="51.06" speed="8.47"/>
                <vehicle id="504" pos="90.59" speed="8.09"/>
                <vehicle id="642" pos="157.27" speed="7.73"/>
                <vehicle id="615" pos="186.98" speed="8.26"/>
                <vehicle id="641" pos="209.94" speed="8.91"/>
            </lane>
        </edge>
        <edge id="gneE46">
            <lane id="gneE46_0">
                <vehicle id="397" pos="28.52" speed="9.68"/>
                <vehicle id="460" pos="167.29" speed="9.87"/>
            </lane>
        </edge>
        <edge id="gneE47">
            <lane id="gneE47_0">
                <vehicle id="612" pos="80.12" speed="8.50"/>
                <vehicle id="604" pos="131.31" speed="8.88"/>
                <vehicle id="648" pos="150.64" speed="8.57"/>
            </lane>
        </edge>
        <edge id="gneE48">
            <lane id="gneE48_0">
                <vehicle id="620" pos="149.13" speed="5.73"/>
                <vehicle id="637" pos="189.66" speed="6.27"/>
                <vehicle id="630" pos="235.60" speed="6.28"/>
                <vehicle id="619" pos="259.63" speed="0.00"/>
                <vehicle id="590" pos="267.13" speed="0.00"/>
                <vehicle id="597" pos="274.63" speed="0.00"/>
                <vehicle id="568" pos="282.13" speed="0.00"/>
                <vehicle id="566" pos="289.64" speed="0.00"/>
                <vehicle id="538" pos="297.14" speed="0.00"/>
                <vehicle id="337" pos="304.64" speed="0.00"/>
                <vehicle id="533" pos="312.14" speed="0.00"/>
                <vehicle id="503" pos="319.64" speed="0.00"/>
            </lane>
        </edge>
        <edge id="gneE49">
            <lane id="gneE49_0">
                <vehicle id="469" pos="26.46" speed="7.73"/>
                <vehicle id="651" pos="111.10" speed="7.78"/>
                <vehicle id="543" pos="152.57" speed="7.24"/>
                <vehicle id="507" pos="270.68" speed="7.22"/>
            </lane>
        </edge>
        <edge id="gneE5">
            <lane id="gneE5_0">
                <vehicle id="500" pos="3.07" speed="4.84"/>
                <vehicle id="562" pos="18.41" speed="4.82"/>
            </lane>
        </edge>
        <edge id="gneE50">
            <lane id="gneE50_0">
                <vehicle id="464" pos="25.16" speed="5.15"/>
                <vehicle id="531" pos="69.71" speed="5.26"/>
            </lane>
        </edge>
        <edge id="gneE51">
            <lane id="gneE51_0">
                <vehicle id="666" pos="6.44" speed="1.34"/>
                <vehicle id="617" pos="143.00" speed="6.92"/>
                <vehicle id="572" pos="209.17" speed="6.26"/>
                <vehicle id="560" pos="245.89" speed="6.81"/>
                <vehicle id="585" pos="331.79" speed="5.71"/>
                <vehicle id="540" pos="350.16" speed="6.75"/>
                <vehicle id="539" pos="365.79" speed="0.05"/>
            </lane>
        </edge>
        <edge id="gneE52">
            <lane id="gneE52_0">
                <vehicle id="370" pos="37.52" speed="6.20"/>
                <vehicle id="501" pos="71.94" speed="6.01"/>
                <vehicle id="650" pos="106.22" speed="6.42"/>
                <vehicle id="645" pos="137.76" speed="6.63"/>
                <vehicle id="517" pos="154.92" speed="6.52"/>
                <vehicle id="639" pos="174.77" speed="6.47"/>
            </lane>
        </edge>
        <edge id="gneE53">
            <lane id="gneE53_0">
                <vehicle id="647" pos="126.79" speed="6.42"/>
                <vehicle id="523" pos="199.50" speed="6.07"/>
                <vehicle id="392" pos="231.84" speed="6.53"/>
                <vehicle id="487" pos="275.65" speed="0.00"/>
                <vehicle id="583" pos="283.24" speed="0.09"/>
                <vehicle id="574" pos="291.50" speed="0.73"/>
                <vehicle id="310" pos="302.92" speed="3.59"/>
                <vehicle id="261" pos="314.84" speed="3.95"/>
                <vehicle id="207" pos="329.33" speed="6.41"/>
            </lane>
        </edge>
        <edge id="gneE54">
            <lane id="gneE54_0">
                <vehicle id="656" pos="68.63" speed="6.50"/>
                <vehicle id="387" pos="83.23" speed="5.88"/>
            </lane>
        </edge>
        <edge id="gneE56">
            <lane id="gneE56_0">
                <vehicle id="499" pos="151.28" speed="8.63"/>
            </lane>
        </edge>
        <edge id="gneE58">
            <lane id="gneE58_0">
                <vehicle id="559" pos="11.04" speed="6.73"/>
                <vehicle id="498" pos="42.03" speed="7.24"/>
                <vehicle id="658" pos="59.53" speed="7.38"/>
                <vehicle id="635" pos="229.58" speed="6.92"/>
                <vehicle id="458" pos="274.34" speed="7.26"/>
            </lane>
        </edge>
        <edge id="gneE59">
            <lane id="gneE59_0">
                <vehicle id="428" pos="38.31" speed="7.94"/>
                <vehicle id="445" pos="79.28" speed="8.93"/>
                <vehicle id="580" pos="317.73" speed="0.02"/>
            </lane>
        </edge>
        <edge id="gneE6">
            <lane id="gneE6_0">
                <vehicle id="662" pos="28.58" speed="7.20"/>
                <vehicle id="465" pos="86.70" speed="7.11"/>
                <vehicle id="471" pos="146.30" speed="7.63"/>
            </lane>
        </edge>
        <edge id="gneE60">
            <lane id="gneE60_0">
                <vehicle id="577" pos="279.83" speed="6.04"/>
                <vehicle id="611" pos="322.55" speed="0.01"/>
                <vehicle id="564" pos="330.06" speed="0.00"/>
                <vehicle id="589" pos="337.56" speed="0.00"/>
            </lane>
        </edge>
        <edge id="gneE61">
            <lane id="gneE61_0">
                <vehicle id="549" pos="233.10" speed="7.77"/>
            </lane>
        </edge>
        <edge id="gneE7">
            <lane id="gneE7_0">
                <vehicle id="634" pos="19.72" speed="8.87"/>
                <vehicle id="578" pos="42.11" speed="8.09"/>
                <vehicle id="644" pos="183.78" speed="8.49"/>
            </lane>
        </edge>
        <edge id="gneE8">
            <lane id="gneE8_0">
                <vehicle id="441" pos="8.40" speed="7.19"/>
                <vehicle id="340" pos="80.31" speed="7.40"/>
                <vehicle id="451" pos="123.86" speed="7.35"/>
                <vehicle id="579" pos="140.56" speed="7.40"/>
                <vehicle id="638" pos="208.47" speed="7.44"/>
                <vehicle id="633" pos="244.91" speed="7.13"/>
                <vehicle id="399" pos="298.02" speed="7.16"/>
            </lane>
        </edge>
    </timestep>
