<?xml version="1.0"?>
<timestep time="672.00">
        <edge id=":gneJ11_7">
            <lane id=":gneJ11_7_0">
                <vehicle id="539" pos="1.42" speed="1.52"/>
            </lane>
        </edge>
        <edge id=":gneJ11_39">
            <lane id=":gneJ11_39_0">
                <vehicle id="474" pos="5.31" speed="3.59"/>
            </lane>
        </edge>
        <edge id=":gneJ8_5">
            <lane id=":gneJ8_5_0">
                <vehicle id="592" pos="0.10" speed="8.45"/>
            </lane>
        </edge>
        <edge id=":gneJ9_5">
            <lane id=":gneJ9_5_0">
                <vehicle id="567" pos="1.61" speed="5.80"/>
            </lane>
        </edge>
        <edge id="gneE10">
            <lane id="gneE10_0">
                <vehicle id="629" pos="24.20" speed="5.52"/>
                <vehicle id="424" pos="38.18" speed="5.59"/>
                <vehicle id="628" pos="53.45" speed="5.33"/>
                <vehicle id="522" pos="89.06" speed="5.51"/>
                <vehicle id="563" pos="103.81" speed="5.75"/>
                <vehicle id="541" pos="135.23" speed="5.58"/>
            </lane>
        </edge>
        <edge id="gneE11">
            <lane id="gneE11_0">
                <vehicle id="595" pos="108.39" speed="8.61"/>
            </lane>
        </edge>
        <edge id="gneE12">
            <lane id="gneE12_0">
                <vehicle id="603" pos="183.12" speed="12.62"/>
                <vehicle id="512" pos="282.65" speed="10.91"/>
                <vehicle id="646" pos="298.80" speed="5.93"/>
            </lane>
        </edge>
        <edge id="gneE13">
            <lane id="gneE13_0">
                <vehicle id="653" pos="6.52" speed="9.56"/>
                <vehicle id="640" pos="61.35" speed="9.47"/>
                <vehicle id="483" pos="155.11" speed="9.37"/>
                <vehicle id="596" pos="223.56" speed="8.87"/>
                <vehicle id="569" pos="278.61" speed="0.04"/>
                <vehicle id="624" pos="286.17" speed="0.03"/>
                <vehicle id="548" pos="293.68" speed="0.00"/>
                <vehicle id="556" pos="301.18" speed="0.00"/>
            </lane>
        </edge>
        <edge id="gneE14">
            <lane id="gneE14_0">
                <vehicle id="667" pos="32.73" speed="8.99"/>
                <vehicle id="663" pos="75.47" speed="10.38"/>
                <vehicle id="652" pos="138.18" speed="0.01"/>
                <vehicle id="605" pos="145.69" speed="0.00"/>
                <vehicle id="436" pos="153.19" speed="0.00"/>
                <vehicle id="396" pos="160.69" speed="0.00"/>
            </lane>
        </edge>
        <edge id="gneE15">
            <lane id="gneE15_0">
                <vehicle id="632" pos="10.42" speed="7.96"/>
                <vehicle id="598" pos="42.19" speed="8.17"/>
                <vehicle id="587" pos="61.41" speed="7.99"/>
                <vehicle id="502" pos="88.78" speed="8.21"/>
                <vehicle id="584" pos="143.63" speed="8.92"/>
            </lane>
        </edge>
        <edge id="gneE17">
            <lane id="gneE17_0">
                <vehicle id="448" pos="26.97" speed="9.90"/>
                <vehicle id="431" pos="116.22" speed="8.82"/>
                <vehicle id="463" pos="236.30" speed="9.60"/>
                <vehicle id="625" pos="254.23" speed="9.26"/>
                <vehicle id="423" pos="275.66" speed="9.29"/>
            </lane>
        </edge>
        <edge id="gneE18">
            <lane id="gneE18_0">
                <vehicle id="580" pos="4.07" speed="6.38"/>
                <vehicle id="459" pos="28.34" speed="8.79"/>
                <vehicle id="602" pos="121.07" speed="9.06"/>
                <vehicle id="631" pos="153.30" speed="9.81"/>
                <vehicle id="618" pos="178.39" speed="9.59"/>
                <vehicle id="449" pos="241.46" speed="8.91"/>
                <vehicle id="368" pos="272.78" speed="7.46"/>
            </lane>
        </edge>
        <edge id="gneE19">
            <lane id="gneE19_0">
                <vehicle id="515" pos="44.09" speed="12.60"/>
                <vehicle id="657" pos="145.08" speed="11.75"/>
                <vehicle id="655" pos="179.68" speed="12.44"/>
                <vehicle id="643" pos="230.11" speed="0.22"/>
                <vehicle id="405" pos="237.74" speed="0.12"/>
                <vehicle id="614" pos="245.32" speed="0.03"/>
                <vehicle id="478" pos="252.83" speed="0.00"/>
                <vehicle id="470" pos="260.34" speed="0.00"/>
                <vehicle id="325" pos="267.84" speed="0.00"/>
                <vehicle id="582" pos="276.29" speed="0.95"/>
            </lane>
        </edge>
        <edge id="gneE20">
            <lane id="gneE20_0">
                <vehicle id="B4_2" pos="16.90" speed="8.01"/>
                <vehicle id="473" pos="35.64" speed="8.42"/>
                <vehicle id="486" pos="66.55" speed="7.80"/>
                <vehicle id="576" pos="106.41" speed="7.98"/>
                <vehicle id="581" pos="188.44" speed="7.75"/>
                <vehicle id="467" pos="260.81" speed="7.93"/>
            </lane>
        </edge>
        <edge id="gneE23">
            <lane id="gneE23_0">
                <vehicle id="670" pos="10.96" speed="3.97"/>
                <vehicle id="557" pos="67.03" speed="7.05"/>
                <vehicle id="626" pos="152.21" speed="7.23"/>
                <vehicle id="542" pos="183.01" speed="7.43"/>
            </lane>
        </edge>
        <edge id="gneE24">
            <lane id="gneE24_0">
                <vehicle id="672" pos="5.10" speed="0.00"/>
                <vehicle id="659" pos="128.50" speed="12.42"/>
            </lane>
        </edge>
        <edge id="gneE25">
            <lane id="gneE25_0">
                <vehicle id="524" pos="25.97" speed="9.40"/>
                <vehicle id="430" pos="69.13" speed="8.85"/>
                <vehicle id="661" pos="89.64" speed="9.37"/>
                <vehicle id="654" pos="149.66" speed="9.97"/>
                <vehicle id="593" pos="229.41" speed="8.74"/>
                <vehicle id="623" pos="251.12" speed="9.03"/>
                <vehicle id="468" pos="290.25" speed="2.31"/>
            </lane>
        </edge>
        <edge id="gneE26">
            <lane id="gneE26_0">
                <vehicle id="570" pos="19.00" speed="6.53"/>
                <vehicle id="665" pos="40.86" speed="5.86"/>
                <vehicle id="599" pos="57.60" speed="6.23"/>
                <vehicle id="600" pos="80.49" speed="5.88"/>
                <vehicle id="586" pos="105.29" speed="5.71"/>
                <vehicle id="573" pos="175.74" speed="6.76"/>
                <vehicle id="565" pos="196.87" speed="6.41"/>
                <vehicle id="609" pos="218.94" speed="6.87"/>
                <vehicle id="610" pos="251.45" speed="2.03"/>
                <vehicle id="558" pos="260.16" speed="0.86"/>
                <vehicle id="413" pos="268.20" speed="0.15"/>
                <vehicle id="514" pos="275.82" speed="0.01"/>
                <vehicle id="364" pos="283.33" speed="0.00"/>
                <vehicle id="518" pos="290.83" speed="0.00"/>
            </lane>
        </edge>
        <edge id="gneE27">
            <lane id="gneE27_0">
                <vehicle id="393" pos="120.44" speed="5.62"/>
                <vehicle id="398" pos="137.81" speed="5.06"/>
            </lane>
        </edge>
        <edge id="gneE28">
            <lane id="gneE28_0">
                <vehicle id="546" pos="72.51" speed="8.02"/>
                <vehicle id="660" pos="90.00" speed="7.93"/>
                <vehicle id="537" pos="124.99" speed="8.67"/>
            </lane>
        </edge>
        <edge id="gneE3">
            <lane id="gneE3_0">
                <vehicle id="530" pos="19.26" speed="9.29"/>
                <vehicle id="601" pos="100.62" speed="9.91"/>
            </lane>
        </edge>
        <edge id="gneE30">
            <lane id="gneE30_0">
                <vehicle id="636" pos="63.81" speed="8.52"/>
                <vehicle id="649" pos="181.28" speed="8.77"/>
                <vehicle id="616" pos="233.97" speed="7.84"/>
                <vehicle id="613" pos="260.13" speed="8.99"/>
            </lane>
        </edge>
        <edge id="gneE31">
            <lane id="gneE31_0">
                <vehicle id="664" pos="45.35" speed="8.01"/>
                <vehicle id="594" pos="75.96" speed="8.50"/>
                <vehicle id="606" pos="224.68" speed="8.79"/>
            </lane>
        </edge>
        <edge id="gneE32">
            <lane id="gneE32_0">
                <vehicle id="349" pos="66.70" speed="7.50"/>
                <vehicle id="544" pos="276.64" speed="7.56"/>
                <vehicle id="554" pos="306.29" speed="7.87"/>
            </lane>
        </edge>
        <edge id="gneE38">
            <lane id="gneE38_0">
                <vehicle id="621" pos="242.33" speed="7.41"/>
                <vehicle id="627" pos="252.93" speed="0.02"/>
                <vehicle id="509" pos="260.48" speed="0.04"/>
                <vehicle id="551" pos="268.29" speed="0.30"/>
                <vehicle id="350" pos="277.31" speed="1.41"/>
                <vehicle id="457" pos="287.19" speed="1.37"/>
                <vehicle id="421" pos="295.93" speed="0.98"/>
                <vehicle id="532" pos="304.72" speed="0.84"/>
                <vehicle id="508" pos="312.88" speed="0.09"/>
                <vehicle id="528" pos="320.47" speed="0.01"/>
                <vehicle id="333" pos="327.98" speed="0.00"/>
                <vehicle id="B1_2" pos="335.48" speed="0.00"/>
                <vehicle id="402" pos="342.98" speed="0.00"/>
            </lane>
        </edge>
        <edge id="gneE4">
            <lane id="gneE4_0">
                <vehicle id="575" pos="22.98" speed="9.05"/>
            </lane>
        </edge>
        <edge id="gneE41">
            <lane id="gneE41_0">
                <vehicle id="493" pos="5.67" speed="8.40"/>
                <vehicle id="320" pos="40.77" speed="8.46"/>
                <vehicle id="608" pos="133.67" speed="8.92"/>
            </lane>
        </edge>
        <edge id="gneE43">
            <lane id="gneE43_0">
                <vehicle id="416" pos="38.14" speed="6.36"/>
                <vehicle id="591" pos="87.98" speed="6.67"/>
                <vehicle id="622" pos="127.13" speed="6.76"/>
                <vehicle id="415" pos="148.10" speed="6.06"/>
                <vehicle id="536" pos="239.22" speed="0.00"/>
                <vehicle id="490" pos="246.72" speed="0.00"/>
                <vehicle id="525" pos="254.22" speed="0.00"/>
                <vehicle id="547" pos="261.72" speed="0.00"/>
                <vehicle id="588" pos="269.22" speed="0.00"/>
                <vehicle id="555" pos="276.72" speed="0.00"/>
                <vehicle id="505" pos="284.23" speed="0.00"/>
                <vehicle id="494" pos="291.73" speed="0.00"/>
                <vehicle id="529" pos="299.23" speed="0.00"/>
                <vehicle id="482" pos="306.73" speed="0.00"/>
            </lane>
        </edge>
        <edge id="gneE45">
            <lane id="gneE45_0">
                <vehicle id="516" pos="47.99" speed="8.75"/>
                <vehicle id="535" pos="93.60" speed="8.59"/>
                <vehicle id="504" pos="133.68" speed="8.96"/>
                <vehicle id="642" pos="198.96" speed="7.91"/>
                <vehicle id="615" pos="229.31" speed="8.57"/>
                <vehicle id="641" pos="252.65" speed="8.34"/>
            </lane>
        </edge>
        <edge id="gneE46">
            <lane id="gneE46_0">
                <vehicle id="397" pos="75.31" speed="9.60"/>
            </lane>
        </edge>
        <edge id="gneE47">
            <lane id="gneE47_0">
                <vehicle id="612" pos="121.99" speed="8.36"/>
                <vehicle id="604" pos="173.29" speed="8.79"/>
                <vehicle id="648" pos="190.80" speed="7.81"/>
            </lane>
        </edge>
        <edge id="gneE48">
            <lane id="gneE48_0">
                <vehicle id="620" pos="181.76" speed="6.47"/>
                <vehicle id="637" pos="222.08" speed="6.17"/>
                <vehicle id="630" pos="252.10" speed="0.06"/>
                <vehicle id="619" pos="259.63" speed="0.00"/>
                <vehicle id="590" pos="267.13" speed="0.00"/>
                <vehicle id="597" pos="274.63" speed="0.00"/>
                <vehicle id="568" pos="282.13" speed="0.00"/>
                <vehicle id="566" pos="289.64" speed="0.00"/>
                <vehicle id="538" pos="297.14" speed="0.00"/>
                <vehicle id="337" pos="304.64" speed="0.00"/>
                <vehicle id="533" pos="312.14" speed="0.00"/>
                <vehicle id="503" pos="319.64" speed="0.00"/>
            </lane>
        </edge>
        <edge id="gneE49">
            <lane id="gneE49_0">
                <vehicle id="526" pos="21.48" speed="7.83"/>
                <vehicle id="469" pos="63.12" speed="7.26"/>
                <vehicle id="651" pos="147.98" speed="7.44"/>
                <vehicle id="543" pos="187.37" speed="6.86"/>
                <vehicle id="507" pos="307.26" speed="7.49"/>
            </lane>
        </edge>
        <edge id="gneE5">
            <lane id="gneE5_0">
                <vehicle id="669" pos="15.48" speed="4.43"/>
                <vehicle id="500" pos="30.10" speed="5.90"/>
                <vehicle id="562" pos="45.42" speed="5.54"/>
            </lane>
        </edge>
        <edge id="gneE50">
            <lane id="gneE50_0">
                <vehicle id="464" pos="50.73" speed="5.26"/>
                <vehicle id="531" pos="96.33" speed="5.97"/>
            </lane>
        </edge>
        <edge id="gneE51">
            <lane id="gneE51_0">
                <vehicle id="666" pos="33.42" speed="6.74"/>
                <vehicle id="617" pos="175.89" speed="6.22"/>
                <vehicle id="572" pos="240.19" speed="6.03"/>
                <vehicle id="560" pos="278.49" speed="6.68"/>
                <vehicle id="585" pos="350.65" speed="0.72"/>
                <vehicle id="540" pos="358.29" speed="0.00"/>
            </lane>
        </edge>
        <edge id="gneE52">
            <lane id="gneE52_0">
                <vehicle id="370" pos="68.41" speed="6.37"/>
                <vehicle id="501" pos="103.10" speed="5.98"/>
                <vehicle id="650" pos="138.01" speed="6.95"/>
                <vehicle id="645" pos="168.03" speed="5.96"/>
                <vehicle id="517" pos="186.29" speed="5.93"/>
                <vehicle id="639" pos="205.99" speed="6.69"/>
            </lane>
        </edge>
        <edge id="gneE53">
            <lane id="gneE53_0">
                <vehicle id="671" pos="6.60" speed="1.50"/>
                <vehicle id="647" pos="159.63" speed="6.62"/>
                <vehicle id="523" pos="230.88" speed="5.98"/>
                <vehicle id="392" pos="263.35" speed="6.50"/>
                <vehicle id="487" pos="285.36" speed="4.14"/>
                <vehicle id="583" pos="300.64" speed="6.41"/>
                <vehicle id="574" pos="315.64" speed="6.23"/>
                <vehicle id="310" pos="332.75" speed="6.59"/>
            </lane>
        </edge>
        <edge id="gneE54">
            <lane id="gneE54_0">
                <vehicle id="440" pos="26.36" speed="6.65"/>
                <vehicle id="656" pos="99.49" speed="6.35"/>
                <vehicle id="387" pos="115.35" speed="6.52"/>
            </lane>
        </edge>
        <edge id="gneE58">
            <lane id="gneE58_0">
                <vehicle id="559" pos="48.16" speed="7.70"/>
                <vehicle id="498" pos="79.93" speed="7.70"/>
                <vehicle id="658" pos="96.66" speed="7.23"/>
                <vehicle id="635" pos="266.44" speed="7.90"/>
                <vehicle id="458" pos="311.65" speed="7.81"/>
            </lane>
        </edge>
        <edge id="gneE59">
            <lane id="gneE59_0">
                <vehicle id="428" pos="79.95" speed="8.37"/>
                <vehicle id="445" pos="120.09" speed="7.71"/>
            </lane>
        </edge>
        <edge id="gneE6">
            <lane id="gneE6_0">
                <vehicle id="399" pos="23.42" speed="7.09"/>
                <vehicle id="662" pos="64.63" speed="7.33"/>
                <vehicle id="465" pos="122.53" speed="7.14"/>
            </lane>
        </edge>
        <edge id="gneE60">
            <lane id="gneE60_0">
                <vehicle id="577" pos="312.15" speed="6.70"/>
                <vehicle id="611" pos="322.56" speed="0.00"/>
                <vehicle id="564" pos="330.06" speed="0.00"/>
                <vehicle id="589" pos="337.56" speed="0.00"/>
            </lane>
        </edge>
        <edge id="gneE61">
            <lane id="gneE61_0">
                <vehicle id="549" pos="271.51" speed="7.80"/>
            </lane>
        </edge>
        <edge id="gneE7">
            <lane id="gneE7_0">
                <vehicle id="668" pos="22.43" speed="7.23"/>
                <vehicle id="634" pos="61.28" speed="8.45"/>
                <vehicle id="578" pos="84.05" speed="8.85"/>
                <vehicle id="644" pos="225.73" speed="8.46"/>
            </lane>
        </edge>
        <edge id="gneE8">
            <lane id="gneE8_0">
                <vehicle id="441" pos="44.65" speed="7.87"/>
                <vehicle id="340" pos="116.23" speed="6.86"/>
                <vehicle id="451" pos="160.09" speed="7.72"/>
                <vehicle id="579" pos="177.30" speed="6.79"/>
                <vehicle id="638" pos="245.65" speed="6.80"/>
                <vehicle id="633" pos="280.71" speed="6.93"/>
            </lane>
        </edge>
    </timestep>
