<?xml version="1.0"?>
<timestep time="679.00">
        <edge id=":gneJ11_7">
            <lane id=":gneJ11_7_0">
                <vehicle id="585" pos="2.78" speed="3.65"/>
            </lane>
        </edge>
        <edge id=":gneJ11_34">
            <lane id=":gneJ11_34_0">
                <vehicle id="589" pos="11.05" speed="5.80"/>
            </lane>
        </edge>
        <edge id=":gneJ15_17">
            <lane id=":gneJ15_17_0">
                <vehicle id="660" pos="8.01" speed="8.70"/>
            </lane>
        </edge>
        <edge id=":gneJ3_0">
            <lane id=":gneJ3_0_0">
                <vehicle id="463" pos="5.67" speed="8.50"/>
            </lane>
        </edge>
        <edge id=":gneJ30_0">
            <lane id=":gneJ30_0_0">
                <vehicle id="656" pos="2.35" speed="6.87"/>
            </lane>
        </edge>
        <edge id=":gneJ4_3">
            <lane id=":gneJ4_3_0">
                <vehicle id="601" pos="9.16" speed="6.32"/>
            </lane>
        </edge>
        <edge id=":gneJ8_7">
            <lane id=":gneJ8_7_0">
                <vehicle id="556" pos="1.78" speed="1.88"/>
            </lane>
        </edge>
        <edge id="gneE10">
            <lane id="gneE10_0">
                <vehicle id="584" pos="15.93" speed="5.56"/>
                <vehicle id="629" pos="60.42" speed="4.41"/>
                <vehicle id="424" pos="74.37" speed="4.99"/>
                <vehicle id="628" pos="91.00" speed="5.23"/>
                <vehicle id="522" pos="126.83" speed="5.62"/>
                <vehicle id="563" pos="138.86" speed="2.84"/>
            </lane>
        </edge>
        <edge id="gneE11">
            <lane id="gneE11_0">
                <vehicle id="613" pos="7.16" speed="8.02"/>
            </lane>
        </edge>
        <edge id="gneE12">
            <lane id="gneE12_0">
                <vehicle id="678" pos="6.76" speed="1.66"/>
                <vehicle id="592" pos="55.13" speed="13.33"/>
                <vehicle id="603" pos="275.23" speed="13.47"/>
            </lane>
        </edge>
        <edge id="gneE13">
            <lane id="gneE13_0">
                <vehicle id="653" pos="73.75" speed="9.34"/>
                <vehicle id="640" pos="127.07" speed="9.15"/>
                <vehicle id="483" pos="220.29" speed="9.36"/>
                <vehicle id="596" pos="271.08" speed="0.30"/>
                <vehicle id="569" pos="278.68" speed="0.00"/>
                <vehicle id="624" pos="286.18" speed="0.00"/>
                <vehicle id="548" pos="293.68" speed="0.00"/>
            </lane>
        </edge>
        <edge id="gneE14">
            <lane id="gneE14_0">
                <vehicle id="667" pos="103.05" speed="10.11"/>
                <vehicle id="663" pos="130.45" speed="0.41"/>
                <vehicle id="652" pos="138.19" speed="0.00"/>
                <vehicle id="605" pos="146.68" speed="0.99"/>
                <vehicle id="436" pos="158.78" speed="4.05"/>
            </lane>
        </edge>
        <edge id="gneE15">
            <lane id="gneE15_0">
                <vehicle id="567" pos="48.91" speed="8.58"/>
                <vehicle id="632" pos="69.50" speed="8.10"/>
                <vehicle id="598" pos="101.70" speed="8.18"/>
                <vehicle id="587" pos="119.15" speed="8.66"/>
                <vehicle id="502" pos="146.07" speed="8.81"/>
            </lane>
        </edge>
        <edge id="gneE17">
            <lane id="gneE17_0">
                <vehicle id="467" pos="30.92" speed="9.45"/>
                <vehicle id="448" pos="94.23" speed="9.60"/>
                <vehicle id="431" pos="180.24" speed="9.34"/>
            </lane>
        </edge>
        <edge id="gneE18">
            <lane id="gneE18_0">
                <vehicle id="580" pos="68.99" speed="9.41"/>
                <vehicle id="459" pos="94.60" speed="9.01"/>
                <vehicle id="602" pos="186.96" speed="9.50"/>
                <vehicle id="631" pos="218.91" speed="9.87"/>
                <vehicle id="618" pos="243.93" speed="9.25"/>
            </lane>
        </edge>
        <edge id="gneE19">
            <lane id="gneE19_0">
                <vehicle id="396" pos="0.71" speed="5.85"/>
                <vehicle id="515" pos="131.69" speed="11.72"/>
                <vehicle id="657" pos="214.70" speed="3.07"/>
                <vehicle id="655" pos="222.93" speed="0.35"/>
                <vehicle id="643" pos="231.67" speed="1.19"/>
                <vehicle id="405" pos="241.96" speed="2.62"/>
                <vehicle id="614" pos="251.59" speed="1.93"/>
                <vehicle id="478" pos="259.65" speed="0.46"/>
                <vehicle id="470" pos="267.64" speed="0.20"/>
                <vehicle id="325" pos="275.33" speed="0.03"/>
                <vehicle id="582" pos="282.84" speed="0.00"/>
            </lane>
        </edge>
        <edge id="gneE20">
            <lane id="gneE20_0">
                <vehicle id="659" pos="6.78" speed="8.86"/>
                <vehicle id="539" pos="26.56" speed="8.36"/>
                <vehicle id="B4_2" pos="73.25" speed="8.43"/>
                <vehicle id="473" pos="94.12" speed="8.69"/>
                <vehicle id="486" pos="125.77" speed="8.30"/>
                <vehicle id="576" pos="165.06" speed="8.18"/>
                <vehicle id="581" pos="248.25" speed="8.53"/>
            </lane>
        </edge>
        <edge id="gneE23">
            <lane id="gneE23_0">
                <vehicle id="675" pos="6.58" speed="1.48"/>
                <vehicle id="540" pos="22.22" speed="7.88"/>
                <vehicle id="670" pos="62.18" speed="7.74"/>
                <vehicle id="557" pos="118.05" speed="7.16"/>
            </lane>
        </edge>
        <edge id="gneE24">
            <lane id="gneE24_0">
                <vehicle id="672" pos="59.19" speed="11.70"/>
            </lane>
        </edge>
        <edge id="gneE25">
            <lane id="gneE25_0">
                <vehicle id="542" pos="17.63" speed="8.71"/>
                <vehicle id="537" pos="40.56" speed="9.07"/>
                <vehicle id="524" pos="90.88" speed="8.75"/>
                <vehicle id="430" pos="135.08" speed="9.00"/>
                <vehicle id="661" pos="155.10" speed="9.45"/>
                <vehicle id="654" pos="215.51" speed="9.63"/>
                <vehicle id="593" pos="275.46" speed="1.10"/>
                <vehicle id="623" pos="283.29" speed="0.28"/>
                <vehicle id="468" pos="290.83" speed="0.00"/>
            </lane>
        </edge>
        <edge id="gneE26">
            <lane id="gneE26_0">
                <vehicle id="595" pos="8.52" speed="6.02"/>
                <vehicle id="570" pos="61.10" speed="6.50"/>
                <vehicle id="665" pos="86.73" speed="6.47"/>
                <vehicle id="599" pos="103.06" speed="6.46"/>
                <vehicle id="600" pos="124.01" speed="5.71"/>
                <vehicle id="586" pos="150.68" speed="6.46"/>
                <vehicle id="573" pos="220.15" speed="6.13"/>
                <vehicle id="565" pos="237.10" speed="2.99"/>
                <vehicle id="609" pos="245.78" speed="0.04"/>
                <vehicle id="610" pos="253.32" speed="0.01"/>
                <vehicle id="558" pos="260.82" speed="0.00"/>
                <vehicle id="413" pos="268.33" speed="0.00"/>
                <vehicle id="514" pos="275.83" speed="0.00"/>
                <vehicle id="364" pos="283.33" speed="0.00"/>
                <vehicle id="518" pos="290.83" speed="0.00"/>
            </lane>
        </edge>
        <edge id="gneE28">
            <lane id="gneE28_0">
                <vehicle id="546" pos="130.20" speed="8.45"/>
            </lane>
        </edge>
        <edge id="gneE3">
            <lane id="gneE3_0">
                <vehicle id="625" pos="11.28" speed="9.18"/>
                <vehicle id="423" pos="40.05" speed="9.59"/>
                <vehicle id="530" pos="85.22" speed="9.57"/>
            </lane>
        </edge>
        <edge id="gneE30">
            <lane id="gneE30_0">
                <vehicle id="679" pos="5.10" speed="0.00"/>
                <vehicle id="393" pos="15.51" speed="8.53"/>
                <vehicle id="398" pos="44.21" speed="8.73"/>
                <vehicle id="636" pos="123.82" speed="8.82"/>
                <vehicle id="649" pos="240.17" speed="8.38"/>
                <vehicle id="616" pos="291.40" speed="8.08"/>
            </lane>
        </edge>
        <edge id="gneE31">
            <lane id="gneE31_0">
                <vehicle id="541" pos="47.24" speed="8.06"/>
                <vehicle id="664" pos="103.80" speed="8.12"/>
                <vehicle id="594" pos="135.73" speed="8.99"/>
                <vehicle id="606" pos="283.93" speed="8.74"/>
            </lane>
        </edge>
        <edge id="gneE32">
            <lane id="gneE32_0">
                <vehicle id="349" pos="117.91" speed="7.44"/>
                <vehicle id="544" pos="329.27" speed="7.86"/>
            </lane>
        </edge>
        <edge id="gneE38">
            <lane id="gneE38_0">
                <vehicle id="621" pos="249.92" speed="1.15"/>
                <vehicle id="627" pos="258.38" speed="0.64"/>
                <vehicle id="509" pos="267.22" speed="0.91"/>
                <vehicle id="551" pos="275.14" speed="0.36"/>
                <vehicle id="350" pos="282.80" speed="0.13"/>
                <vehicle id="457" pos="290.41" speed="0.06"/>
                <vehicle id="421" pos="297.97" speed="0.01"/>
                <vehicle id="532" pos="305.47" speed="0.00"/>
                <vehicle id="508" pos="312.97" speed="0.00"/>
                <vehicle id="528" pos="320.48" speed="0.00"/>
                <vehicle id="333" pos="327.98" speed="0.00"/>
                <vehicle id="B1_2" pos="335.48" speed="0.00"/>
                <vehicle id="402" pos="342.98" speed="0.00"/>
            </lane>
        </edge>
        <edge id="gneE4">
            <lane id="gneE4_0">
                <vehicle id="512" pos="31.20" speed="9.90"/>
                <vehicle id="646" pos="51.15" speed="9.12"/>
                <vehicle id="575" pos="89.06" speed="9.72"/>
            </lane>
        </edge>
        <edge id="gneE41">
            <lane id="gneE41_0">
                <vehicle id="554" pos="13.77" speed="8.02"/>
                <vehicle id="493" pos="64.54" speed="8.75"/>
                <vehicle id="320" pos="99.02" speed="8.44"/>
            </lane>
        </edge>
        <edge id="gneE43">
            <lane id="gneE43_0">
                <vehicle id="604" pos="4.22" speed="5.93"/>
                <vehicle id="608" pos="23.45" speed="5.98"/>
                <vehicle id="416" pos="81.68" speed="6.18"/>
                <vehicle id="591" pos="132.74" speed="6.34"/>
                <vehicle id="622" pos="170.68" speed="6.99"/>
                <vehicle id="415" pos="192.18" speed="6.64"/>
                <vehicle id="536" pos="239.22" speed="0.00"/>
                <vehicle id="490" pos="246.72" speed="0.00"/>
                <vehicle id="525" pos="254.22" speed="0.00"/>
                <vehicle id="547" pos="261.72" speed="0.00"/>
                <vehicle id="588" pos="269.22" speed="0.00"/>
                <vehicle id="555" pos="276.72" speed="0.00"/>
                <vehicle id="505" pos="284.23" speed="0.00"/>
                <vehicle id="494" pos="291.73" speed="0.00"/>
                <vehicle id="529" pos="299.23" speed="0.00"/>
                <vehicle id="482" pos="306.73" speed="0.00"/>
            </lane>
        </edge>
        <edge id="gneE45">
            <lane id="gneE45_0">
                <vehicle id="626" pos="4.70" speed="7.98"/>
                <vehicle id="516" pos="106.56" speed="8.71"/>
                <vehicle id="535" pos="151.60" speed="8.23"/>
                <vehicle id="504" pos="192.61" speed="8.14"/>
                <vehicle id="642" pos="257.14" speed="8.12"/>
                <vehicle id="615" pos="288.88" speed="8.95"/>
                <vehicle id="641" pos="306.02" speed="3.27"/>
            </lane>
        </edge>
        <edge id="gneE46">
            <lane id="gneE46_0">
                <vehicle id="397" pos="139.31" speed="9.10"/>
            </lane>
        </edge>
        <edge id="gneE47">
            <lane id="gneE47_0">
                <vehicle id="612" pos="179.61" speed="8.64"/>
            </lane>
        </edge>
        <edge id="gneE48">
            <lane id="gneE48_0">
                <vehicle id="620" pos="227.40" speed="6.53"/>
                <vehicle id="637" pos="244.63" speed="0.01"/>
                <vehicle id="630" pos="252.13" speed="0.00"/>
                <vehicle id="619" pos="259.63" speed="0.00"/>
                <vehicle id="590" pos="267.13" speed="0.00"/>
                <vehicle id="597" pos="274.63" speed="0.00"/>
                <vehicle id="568" pos="282.13" speed="0.00"/>
                <vehicle id="566" pos="289.64" speed="0.00"/>
                <vehicle id="538" pos="297.14" speed="0.00"/>
                <vehicle id="337" pos="304.64" speed="0.00"/>
                <vehicle id="533" pos="312.14" speed="0.00"/>
                <vehicle id="503" pos="319.64" speed="0.00"/>
            </lane>
        </edge>
        <edge id="gneE49">
            <lane id="gneE49_0">
                <vehicle id="574" pos="8.23" speed="6.59"/>
                <vehicle id="474" pos="24.40" speed="7.67"/>
                <vehicle id="526" pos="74.53" speed="7.61"/>
                <vehicle id="469" pos="112.14" speed="7.02"/>
                <vehicle id="651" pos="200.76" speed="7.85"/>
                <vehicle id="543" pos="238.76" speed="7.79"/>
            </lane>
        </edge>
        <edge id="gneE5">
            <lane id="gneE5_0">
                <vehicle id="669" pos="53.24" speed="5.08"/>
                <vehicle id="500" pos="66.31" speed="4.87"/>
                <vehicle id="562" pos="83.91" speed="5.98"/>
            </lane>
        </edge>
        <edge id="gneE50">
            <lane id="gneE50_0">
                <vehicle id="464" pos="89.74" speed="5.83"/>
                <vehicle id="531" pos="133.02" speed="4.86"/>
            </lane>
        </edge>
        <edge id="gneE51">
            <lane id="gneE51_0">
                <vehicle id="648" pos="25.28" speed="6.87"/>
                <vehicle id="666" pos="79.11" speed="5.85"/>
                <vehicle id="617" pos="220.94" speed="5.71"/>
                <vehicle id="572" pos="286.02" speed="6.72"/>
                <vehicle id="560" pos="324.60" speed="6.24"/>
            </lane>
        </edge>
        <edge id="gneE52">
            <lane id="gneE52_0">
                <vehicle id="677" pos="9.16" speed="2.71"/>
                <vehicle id="370" pos="114.94" speed="5.98"/>
                <vehicle id="501" pos="146.50" speed="6.52"/>
                <vehicle id="650" pos="182.50" speed="5.90"/>
                <vehicle id="645" pos="212.89" speed="6.01"/>
                <vehicle id="517" pos="230.26" speed="6.34"/>
                <vehicle id="639" pos="250.53" speed="6.73"/>
            </lane>
        </edge>
        <edge id="gneE53">
            <lane id="gneE53_0">
                <vehicle id="671" pos="47.39" speed="6.14"/>
                <vehicle id="647" pos="204.91" speed="6.39"/>
                <vehicle id="523" pos="276.17" speed="6.24"/>
                <vehicle id="392" pos="309.29" speed="6.75"/>
                <vehicle id="487" pos="329.29" speed="6.43"/>
                <vehicle id="583" pos="342.06" speed="3.33"/>
            </lane>
        </edge>
        <edge id="gneE54">
            <lane id="gneE54_0">
                <vehicle id="673" pos="38.27" speed="6.78"/>
                <vehicle id="440" pos="69.63" speed="6.40"/>
            </lane>
        </edge>
        <edge id="gneE55">
            <lane id="gneE55_0">
                <vehicle id="507" pos="27.56" speed="7.29"/>
            </lane>
        </edge>
        <edge id="gneE58">
            <lane id="gneE58_0">
                <vehicle id="676" pos="14.55" speed="5.03"/>
                <vehicle id="559" pos="99.69" speed="7.49"/>
                <vehicle id="498" pos="130.88" speed="7.62"/>
                <vehicle id="658" pos="147.74" speed="7.57"/>
                <vehicle id="635" pos="317.75" speed="7.54"/>
            </lane>
        </edge>
        <edge id="gneE59">
            <lane id="gneE59_0">
                <vehicle id="428" pos="138.30" speed="8.69"/>
                <vehicle id="445" pos="176.64" speed="7.72"/>
            </lane>
        </edge>
        <edge id="gneE6">
            <lane id="gneE6_0">
                <vehicle id="633" pos="22.27" speed="6.99"/>
                <vehicle id="399" pos="74.67" speed="6.71"/>
                <vehicle id="662" pos="116.72" speed="7.38"/>
            </lane>
        </edge>
        <edge id="gneE60">
            <lane id="gneE60_0">
                <vehicle id="458" pos="34.02" speed="5.98"/>
                <vehicle id="577" pos="315.06" speed="0.00"/>
                <vehicle id="611" pos="323.54" speed="0.98"/>
                <vehicle id="564" pos="335.00" speed="3.44"/>
            </lane>
        </edge>
        <edge id="gneE61">
            <lane id="gneE61_0">
                <vehicle id="310" pos="12.76" speed="7.13"/>
                <vehicle id="549" pos="322.72" speed="7.42"/>
            </lane>
        </edge>
        <edge id="gneE7">
            <lane id="gneE7_0">
                <vehicle id="668" pos="82.02" speed="8.79"/>
                <vehicle id="634" pos="119.57" speed="8.61"/>
                <vehicle id="578" pos="142.10" speed="8.37"/>
                <vehicle id="644" pos="285.17" speed="8.90"/>
            </lane>
        </edge>
        <edge id="gneE8">
            <lane id="gneE8_0">
                <vehicle id="674" pos="29.53" speed="6.87"/>
                <vehicle id="441" pos="97.19" speed="7.66"/>
                <vehicle id="340" pos="168.92" speed="7.83"/>
                <vehicle id="451" pos="212.00" speed="7.18"/>
                <vehicle id="579" pos="227.64" speed="6.81"/>
                <vehicle id="638" pos="296.59" speed="7.35"/>
            </lane>
        </edge>
    </timestep>
