<?xml version="1.0"?>
<timestep time="699.00">
        <edge id=":gneJ11_14">
            <lane id=":gneJ11_14_0">
                <vehicle id="597" pos="22.18" speed="10.11"/>
            </lane>
        </edge>
        <edge id=":gneJ11_21">
            <lane id=":gneJ11_21_0">
                <vehicle id="583" pos="2.37" speed="2.47"/>
            </lane>
        </edge>
        <edge id=":gneJ15_6">
            <lane id=":gneJ15_6_0">
                <vehicle id="482" pos="5.18" speed="3.30"/>
            </lane>
        </edge>
        <edge id=":gneJ15_22">
            <lane id=":gneJ15_22_0">
                <vehicle id="606" pos="6.46" speed="8.81"/>
            </lane>
        </edge>
        <edge id=":gneJ28_8">
            <lane id=":gneJ28_8_0">
                <vehicle id="535" pos="4.70" speed="6.20"/>
            </lane>
        </edge>
        <edge id=":gneJ30_3">
            <lane id=":gneJ30_3_0">
                <vehicle id="651" pos="1.67" speed="1.78"/>
            </lane>
        </edge>
        <edge id=":gneJ6_5">
            <lane id=":gneJ6_5_0">
                <vehicle id="578" pos="6.87" speed="7.94"/>
            </lane>
        </edge>
        <edge id=":gneJ8_11">
            <lane id=":gneJ8_11_0">
                <vehicle id="644" pos="2.79" speed="6.00"/>
            </lane>
        </edge>
        <edge id=":gneJ9_3">
            <lane id=":gneJ9_3_0">
                <vehicle id="486" pos="8.19" speed="8.49"/>
            </lane>
        </edge>
        <edge id="gneE1">
            <lane id="gneE1_0">
                <vehicle id="690" pos="37.48" speed="4.09"/>
                <vehicle id="688" pos="50.05" speed="3.74"/>
            </lane>
        </edge>
        <edge id="gneE10">
            <lane id="gneE10_0">
                <vehicle id="699" pos="5.10" speed="0.00"/>
                <vehicle id="661" pos="22.46" speed="4.87"/>
                <vehicle id="684" pos="54.76" speed="5.06"/>
                <vehicle id="587" pos="70.83" speed="4.71"/>
                <vehicle id="584" pos="120.14" speed="4.45"/>
                <vehicle id="629" pos="130.06" speed="1.25"/>
                <vehicle id="424" pos="138.90" speed="0.11"/>
            </lane>
        </edge>
        <edge id="gneE11">
            <lane id="gneE11_0">
                <vehicle id="649" pos="97.31" speed="8.53"/>
                <vehicle id="616" pos="117.40" speed="7.86"/>
            </lane>
        </edge>
        <edge id="gneE12">
            <lane id="gneE12_0">
                <vehicle id="593" pos="137.19" speed="13.03"/>
                <vehicle id="468" pos="215.08" speed="12.89"/>
                <vehicle id="678" pos="242.90" speed="13.54"/>
                <vehicle id="592" pos="300.85" speed="3.19"/>
            </lane>
        </edge>
        <edge id="gneE13">
            <lane id="gneE13_0">
                <vehicle id="633" pos="3.97" speed="6.86"/>
                <vehicle id="625" pos="38.96" speed="9.60"/>
                <vehicle id="653" pos="255.80" speed="3.47"/>
                <vehicle id="640" pos="263.67" speed="0.00"/>
                <vehicle id="483" pos="271.17" speed="0.00"/>
                <vehicle id="596" pos="278.68" speed="0.00"/>
                <vehicle id="569" pos="286.18" speed="0.00"/>
                <vehicle id="624" pos="293.68" speed="0.00"/>
                <vehicle id="548" pos="301.18" speed="0.00"/>
            </lane>
        </edge>
        <edge id="gneE14">
            <lane id="gneE14_0">
                <vehicle id="654" pos="91.94" speed="10.87"/>
                <vehicle id="667" pos="152.42" speed="1.77"/>
                <vehicle id="663" pos="160.59" speed="0.37"/>
            </lane>
        </edge>
        <edge id="gneE15">
            <lane id="gneE15_0">
                <vehicle id="576" pos="44.47" speed="8.40"/>
                <vehicle id="631" pos="92.43" speed="8.30"/>
                <vehicle id="581" pos="127.06" speed="7.95"/>
            </lane>
        </edge>
        <edge id="gneE17">
            <lane id="gneE17_0">
                <vehicle id="693" pos="31.90" speed="9.22"/>
                <vehicle id="467" pos="219.96" speed="8.85"/>
                <vehicle id="448" pos="280.95" speed="8.31"/>
            </lane>
        </edge>
        <edge id="gneE18">
            <lane id="gneE18_0">
                <vehicle id="580" pos="254.75" speed="8.81"/>
                <vehicle id="459" pos="279.82" speed="8.82"/>
            </lane>
        </edge>
        <edge id="gneE19">
            <lane id="gneE19_0">
                <vehicle id="652" pos="26.88" speed="12.17"/>
                <vehicle id="605" pos="48.42" speed="12.62"/>
                <vehicle id="602" pos="103.73" speed="12.25"/>
                <vehicle id="618" pos="180.59" speed="11.40"/>
                <vehicle id="436" pos="199.32" speed="3.72"/>
                <vehicle id="396" pos="207.73" speed="0.12"/>
                <vehicle id="515" pos="215.33" speed="0.00"/>
                <vehicle id="657" pos="222.83" speed="0.00"/>
                <vehicle id="655" pos="230.33" speed="0.00"/>
                <vehicle id="643" pos="237.83" speed="0.00"/>
                <vehicle id="405" pos="245.33" speed="0.00"/>
                <vehicle id="614" pos="252.83" speed="0.00"/>
                <vehicle id="478" pos="260.34" speed="0.00"/>
                <vehicle id="470" pos="267.84" speed="0.00"/>
                <vehicle id="325" pos="275.34" speed="0.00"/>
                <vehicle id="582" pos="282.84" speed="0.00"/>
            </lane>
        </edge>
        <edge id="gneE2">
            <lane id="gneE2_0">
                <vehicle id="431" pos="30.57" speed="10.78"/>
            </lane>
        </edge>
        <edge id="gneE20">
            <lane id="gneE20_0">
                <vehicle id="577" pos="50.96" speed="8.67"/>
                <vehicle id="611" pos="69.64" speed="8.31"/>
                <vehicle id="503" pos="91.52" speed="8.47"/>
                <vehicle id="585" pos="109.66" speed="8.02"/>
                <vehicle id="659" pos="172.79" speed="8.91"/>
                <vehicle id="539" pos="190.35" speed="8.54"/>
                <vehicle id="B4_2" pos="240.49" speed="8.29"/>
                <vehicle id="473" pos="260.96" speed="8.72"/>
            </lane>
        </edge>
        <edge id="gneE23">
            <lane id="gneE23_0">
                <vehicle id="572" pos="46.60" speed="7.40"/>
                <vehicle id="533" pos="95.46" speed="7.78"/>
                <vehicle id="589" pos="128.81" speed="7.94"/>
                <vehicle id="675" pos="147.87" speed="7.82"/>
                <vehicle id="540" pos="167.49" speed="6.97"/>
            </lane>
        </edge>
        <edge id="gneE24">
            <lane id="gneE24_0">
                <vehicle id="528" pos="108.46" speed="11.72"/>
                <vehicle id="514" pos="140.77" speed="11.92"/>
            </lane>
        </edge>
        <edge id="gneE25">
            <lane id="gneE25_0">
                <vehicle id="698" pos="7.20" speed="2.10"/>
                <vehicle id="508" pos="47.98" speed="9.46"/>
                <vehicle id="683" pos="90.64" speed="8.94"/>
                <vehicle id="B1_2" pos="117.00" speed="8.86"/>
                <vehicle id="402" pos="141.54" speed="8.91"/>
                <vehicle id="542" pos="204.05" speed="9.79"/>
                <vehicle id="537" pos="226.58" speed="9.24"/>
                <vehicle id="524" pos="278.77" speed="9.23"/>
            </lane>
        </edge>
        <edge id="gneE26">
            <lane id="gneE26_0">
                <vehicle id="613" pos="11.81" speed="6.30"/>
                <vehicle id="567" pos="35.83" speed="5.78"/>
                <vehicle id="632" pos="55.47" speed="6.43"/>
                <vehicle id="598" pos="76.47" speed="5.77"/>
                <vehicle id="556" pos="116.25" speed="6.41"/>
                <vehicle id="595" pos="135.15" speed="6.74"/>
                <vehicle id="570" pos="190.08" speed="6.64"/>
                <vehicle id="665" pos="211.19" speed="6.99"/>
                <vehicle id="599" pos="228.00" speed="5.73"/>
                <vehicle id="600" pos="246.29" speed="4.72"/>
                <vehicle id="586" pos="258.75" speed="3.76"/>
                <vehicle id="573" pos="267.38" speed="0.49"/>
                <vehicle id="565" pos="275.63" speed="0.27"/>
                <vehicle id="609" pos="283.32" speed="0.16"/>
                <vehicle id="610" pos="290.83" speed="0.00"/>
            </lane>
        </edge>
        <edge id="gneE27">
            <lane id="gneE27_0">
                <vehicle id="670" pos="11.03" speed="5.71"/>
                <vehicle id="681" pos="95.54" speed="5.85"/>
            </lane>
        </edge>
        <edge id="gneE28">
            <lane id="gneE28_0">
                <vehicle id="594" pos="5.99" speed="8.22"/>
                <vehicle id="686" pos="95.91" speed="8.29"/>
            </lane>
        </edge>
        <edge id="gneE30">
            <lane id="gneE30_0">
                <vehicle id="679" pos="157.03" speed="7.71"/>
                <vehicle id="393" pos="182.54" speed="7.72"/>
                <vehicle id="398" pos="212.41" speed="8.67"/>
                <vehicle id="636" pos="288.03" speed="7.98"/>
            </lane>
        </edge>
        <edge id="gneE31">
            <lane id="gneE31_0">
                <vehicle id="628" pos="29.92" speed="7.96"/>
                <vehicle id="522" pos="55.37" speed="8.52"/>
                <vehicle id="541" pos="211.99" speed="8.49"/>
                <vehicle id="664" pos="269.39" speed="8.80"/>
            </lane>
        </edge>
        <edge id="gneE32">
            <lane id="gneE32_0">
                <vehicle id="558" pos="36.65" speed="7.65"/>
                <vehicle id="557" pos="65.30" speed="7.83"/>
                <vehicle id="349" pos="265.35" speed="7.08"/>
            </lane>
        </edge>
        <edge id="gneE38">
            <lane id="gneE38_0">
                <vehicle id="621" pos="271.27" speed="5.48"/>
                <vehicle id="627" pos="286.46" speed="6.40"/>
                <vehicle id="509" pos="300.60" speed="5.42"/>
                <vehicle id="551" pos="311.21" speed="1.41"/>
                <vehicle id="350" pos="319.83" speed="0.61"/>
                <vehicle id="457" pos="327.91" speed="0.06"/>
                <vehicle id="421" pos="335.48" speed="0.01"/>
                <vehicle id="532" pos="342.98" speed="0.00"/>
            </lane>
        </edge>
        <edge id="gneE4">
            <lane id="gneE4_0">
                <vehicle id="603" pos="108.26" speed="9.73"/>
                <vehicle id="662" pos="132.79" speed="8.91"/>
            </lane>
        </edge>
        <edge id="gneE43">
            <lane id="gneE43_0">
                <vehicle id="604" pos="132.66" speed="6.00"/>
                <vehicle id="608" pos="151.52" speed="6.49"/>
                <vehicle id="416" pos="208.63" speed="3.98"/>
                <vehicle id="591" pos="216.72" speed="0.00"/>
                <vehicle id="622" pos="224.22" speed="0.00"/>
                <vehicle id="415" pos="231.72" speed="0.00"/>
                <vehicle id="536" pos="239.22" speed="0.00"/>
                <vehicle id="490" pos="246.72" speed="0.00"/>
                <vehicle id="525" pos="254.22" speed="0.00"/>
                <vehicle id="547" pos="261.72" speed="0.00"/>
                <vehicle id="588" pos="269.22" speed="0.00"/>
                <vehicle id="555" pos="276.73" speed="0.00"/>
                <vehicle id="505" pos="284.23" speed="0.00"/>
                <vehicle id="494" pos="291.73" speed="0.00"/>
                <vehicle id="529" pos="300.38" speed="1.16"/>
            </lane>
        </edge>
        <edge id="gneE45">
            <lane id="gneE45_0">
                <vehicle id="694" pos="29.12" speed="8.03"/>
                <vehicle id="518" pos="126.96" speed="8.88"/>
                <vehicle id="626" pos="170.69" speed="8.56"/>
                <vehicle id="516" pos="275.97" speed="8.25"/>
            </lane>
        </edge>
        <edge id="gneE46">
            <lane id="gneE46_0">
                <vehicle id="504" pos="37.20" speed="9.52"/>
                <vehicle id="680" pos="156.80" speed="9.05"/>
            </lane>
        </edge>
        <edge id="gneE47">
            <lane id="gneE47_0">
                <vehicle id="673" pos="18.57" speed="8.26"/>
                <vehicle id="543" pos="61.15" speed="7.81"/>
                <vehicle id="656" pos="158.30" speed="8.64"/>
            </lane>
        </edge>
        <edge id="gneE48">
            <lane id="gneE48_0">
                <vehicle id="620" pos="263.66" speed="6.31"/>
                <vehicle id="637" pos="276.39" speed="4.79"/>
                <vehicle id="630" pos="291.33" speed="5.93"/>
                <vehicle id="619" pos="306.16" speed="5.98"/>
                <vehicle id="590" pos="318.22" speed="3.79"/>
            </lane>
        </edge>
        <edge id="gneE49">
            <lane id="gneE49_0">
                <vehicle id="689" pos="70.74" speed="7.78"/>
                <vehicle id="564" pos="115.54" speed="7.63"/>
                <vehicle id="574" pos="154.80" speed="7.03"/>
                <vehicle id="474" pos="171.66" speed="7.25"/>
                <vehicle id="526" pos="218.77" speed="7.17"/>
                <vehicle id="469" pos="259.52" speed="7.20"/>
            </lane>
        </edge>
        <edge id="gneE5">
            <lane id="gneE5_0">
                <vehicle id="463" pos="6.62" speed="5.33"/>
                <vehicle id="601" pos="104.87" speed="5.02"/>
            </lane>
        </edge>
        <edge id="gneE50">
            <lane id="gneE50_0">
                <vehicle id="568" pos="17.99" speed="5.43"/>
                <vehicle id="672" pos="35.91" speed="4.84"/>
                <vehicle id="464" pos="199.73" speed="5.35"/>
                <vehicle id="531" pos="237.98" speed="5.50"/>
            </lane>
        </edge>
        <edge id="gneE51">
            <lane id="gneE51_0">
                <vehicle id="642" pos="54.70" speed="6.17"/>
                <vehicle id="615" pos="69.25" speed="6.74"/>
                <vehicle id="641" pos="85.58" speed="6.87"/>
                <vehicle id="612" pos="102.22" speed="6.21"/>
                <vehicle id="648" pos="153.04" speed="5.86"/>
                <vehicle id="666" pos="206.17" speed="6.64"/>
                <vehicle id="617" pos="347.26" speed="6.32"/>
            </lane>
        </edge>
        <edge id="gneE52">
            <lane id="gneE52_0">
                <vehicle id="566" pos="29.48" speed="5.90"/>
                <vehicle id="682" pos="101.89" speed="5.72"/>
                <vehicle id="677" pos="132.31" speed="6.17"/>
                <vehicle id="370" pos="243.99" speed="6.58"/>
                <vehicle id="501" pos="271.56" speed="5.79"/>
                <vehicle id="650" pos="307.76" speed="6.24"/>
                <vehicle id="645" pos="341.39" speed="6.99"/>
            </lane>
        </edge>
        <edge id="gneE53">
            <lane id="gneE53_0">
                <vehicle id="507" pos="26.81" speed="6.99"/>
                <vehicle id="671" pos="176.58" speed="6.61"/>
                <vehicle id="647" pos="313.15" speed="0.00"/>
                <vehicle id="523" pos="320.66" speed="0.00"/>
                <vehicle id="392" pos="328.16" speed="0.00"/>
                <vehicle id="487" pos="335.66" speed="0.00"/>
            </lane>
        </edge>
        <edge id="gneE54">
            <lane id="gneE54_0">
                <vehicle id="517" pos="5.47" speed="6.46"/>
                <vehicle id="639" pos="24.45" speed="6.18"/>
            </lane>
        </edge>
        <edge id="gneE55">
            <lane id="gneE55_0">
                <vehicle id="695" pos="18.83" speed="6.98"/>
            </lane>
        </edge>
        <edge id="gneE56">
            <lane id="gneE56_0">
                <vehicle id="660" pos="28.19" speed="8.54"/>
                <vehicle id="538" pos="65.81" speed="8.38"/>
            </lane>
        </edge>
        <edge id="gneE58">
            <lane id="gneE58_0">
                <vehicle id="696" pos="7.51" speed="2.41"/>
                <vehicle id="692" pos="26.48" speed="7.78"/>
                <vehicle id="646" pos="44.83" speed="7.68"/>
                <vehicle id="575" pos="72.09" speed="7.41"/>
                <vehicle id="676" pos="160.53" speed="7.82"/>
                <vehicle id="559" pos="246.71" speed="7.44"/>
                <vehicle id="498" pos="276.88" speed="6.88"/>
                <vehicle id="658" pos="292.99" speed="7.12"/>
            </lane>
        </edge>
        <edge id="gneE59">
            <lane id="gneE59_0">
                <vehicle id="549" pos="148.31" speed="8.35"/>
                <vehicle id="428" pos="305.94" speed="8.04"/>
            </lane>
        </edge>
        <edge id="gneE6">
            <lane id="gneE6_0">
                <vehicle id="579" pos="62.83" speed="7.11"/>
                <vehicle id="638" pos="132.51" speed="7.48"/>
            </lane>
        </edge>
        <edge id="gneE60">
            <lane id="gneE60_0">
                <vehicle id="697" pos="12.12" speed="4.57"/>
                <vehicle id="691" pos="50.24" speed="6.67"/>
                <vehicle id="687" pos="65.83" speed="6.34"/>
                <vehicle id="685" pos="87.11" speed="6.93"/>
                <vehicle id="635" pos="124.07" speed="6.42"/>
                <vehicle id="458" pos="160.64" speed="6.80"/>
            </lane>
        </edge>
        <edge id="gneE61">
            <lane id="gneE61_0">
                <vehicle id="310" pos="158.42" speed="7.29"/>
            </lane>
        </edge>
        <edge id="gneE7">
            <lane id="gneE7_0">
                <vehicle id="669" pos="12.80" speed="8.42"/>
                <vehicle id="500" pos="34.98" speed="8.92"/>
                <vehicle id="562" pos="62.14" speed="8.30"/>
                <vehicle id="668" pos="250.16" speed="8.89"/>
                <vehicle id="634" pos="287.82" speed="8.69"/>
            </lane>
        </edge>
        <edge id="gneE8">
            <lane id="gneE8_0">
                <vehicle id="563" pos="58.41" speed="7.39"/>
                <vehicle id="674" pos="177.68" speed="7.31"/>
                <vehicle id="441" pos="246.08" speed="7.50"/>
            </lane>
        </edge>
    </timestep>
