<?xml version="1.0"?>
<timestep time="72.00">
        <edge id=":gneJ11_14">
            <lane id=":gneJ11_14_0">
                <vehicle id="21" pos="3.96" speed="5.90"/>
            </lane>
        </edge>
        <edge id=":gneJ11_39">
            <lane id=":gneJ11_39_0">
                <vehicle id="27" pos="16.93" speed="11.33"/>
            </lane>
        </edge>
        <edge id="gneE1">
            <lane id="gneE1_0">
                <vehicle id="50" pos="96.94" speed="4.34"/>
            </lane>
        </edge>
        <edge id="gneE10">
            <lane id="gneE10_0">
                <vehicle id="49" pos="125.66" speed="5.30"/>
            </lane>
        </edge>
        <edge id="gneE11">
            <lane id="gneE11_0">
                <vehicle id="31" pos="27.05" speed="8.55"/>
            </lane>
        </edge>
        <edge id="gneE12">
            <lane id="gneE12_0">
                <vehicle id="6" pos="137.68" speed="13.27"/>
                <vehicle id="1" pos="189.70" speed="13.54"/>
            </lane>
        </edge>
        <edge id="gneE13">
            <lane id="gneE13_0">
                <vehicle id="43" pos="65.14" speed="8.84"/>
                <vehicle id="56" pos="137.15" speed="9.20"/>
                <vehicle id="19" pos="288.14" speed="9.63"/>
            </lane>
        </edge>
        <edge id="gneE15">
            <lane id="gneE15_0">
                <vehicle id="35" pos="9.44" speed="8.96"/>
            </lane>
        </edge>
        <edge id="gneE17">
            <lane id="gneE17_0">
                <vehicle id="69" pos="7.04" speed="1.94"/>
                <vehicle id="2" pos="175.87" speed="9.52"/>
            </lane>
        </edge>
        <edge id="gneE18">
            <lane id="gneE18_0">
                <vehicle id="15" pos="27.42" speed="9.68"/>
                <vehicle id="24" pos="58.97" speed="9.81"/>
                <vehicle id="28" pos="78.84" speed="9.86"/>
            </lane>
        </edge>
        <edge id="gneE19">
            <lane id="gneE19_0">
                <vehicle id="52" pos="0.64" speed="7.48"/>
                <vehicle id="9" pos="140.80" speed="12.66"/>
                <vehicle id="20" pos="182.59" speed="12.29"/>
                <vehicle id="51" pos="235.47" speed="12.81"/>
            </lane>
        </edge>
        <edge id="gneE20">
            <lane id="gneE20_0">
                <vehicle id="38" pos="275.79" speed="8.80"/>
            </lane>
        </edge>
        <edge id="gneE23">
            <lane id="gneE23_0">
                <vehicle id="18" pos="9.56" speed="7.08"/>
                <vehicle id="4" pos="81.22" speed="7.46"/>
                <vehicle id="5" pos="99.37" speed="7.37"/>
            </lane>
        </edge>
        <edge id="gneE24">
            <lane id="gneE24_0">
                <vehicle id="17" pos="5.68" speed="10.80"/>
            </lane>
        </edge>
        <edge id="gneE25">
            <lane id="gneE25_0">
                <vehicle id="61" pos="87.96" speed="9.79"/>
                <vehicle id="53" pos="160.32" speed="9.12"/>
            </lane>
        </edge>
        <edge id="gneE27">
            <lane id="gneE27_0">
                <vehicle id="71" pos="6.54" speed="1.44"/>
            </lane>
        </edge>
        <edge id="gneE28">
            <lane id="gneE28_0">
                <vehicle id="25" pos="87.45" speed="8.19"/>
            </lane>
        </edge>
        <edge id="gneE30">
            <lane id="gneE30_0">
                <vehicle id="65" pos="46.29" speed="7.73"/>
                <vehicle id="42" pos="242.99" speed="8.59"/>
            </lane>
        </edge>
        <edge id="gneE31">
            <lane id="gneE31_0">
                <vehicle id="68" pos="21.77" speed="6.92"/>
                <vehicle id="26" pos="161.89" speed="8.09"/>
                <vehicle id="16" pos="252.34" speed="8.71"/>
            </lane>
        </edge>
        <edge id="gneE32">
            <lane id="gneE32_0">
                <vehicle id="30" pos="305.31" speed="7.32"/>
            </lane>
        </edge>
        <edge id="gneE38">
            <lane id="gneE38_0">
                <vehicle id="0" pos="90.68" speed="8.87"/>
                <vehicle id="37" pos="107.43" speed="7.95"/>
            </lane>
        </edge>
        <edge id="gneE4">
            <lane id="gneE4_0">
                <vehicle id="72" pos="5.10" speed="0.00"/>
            </lane>
        </edge>
        <edge id="gneE41">
            <lane id="gneE41_0">
                <vehicle id="14" pos="76.32" speed="8.24"/>
            </lane>
        </edge>
        <edge id="gneE43">
            <lane id="gneE43_0">
                <vehicle id="34" pos="116.65" speed="6.22"/>
            </lane>
        </edge>
        <edge id="gneE45">
            <lane id="gneE45_0">
                <vehicle id="12" pos="93.66" speed="8.15"/>
            </lane>
        </edge>
        <edge id="gneE48">
            <lane id="gneE48_0">
                <vehicle id="59" pos="75.27" speed="6.83"/>
                <vehicle id="55" pos="94.49" speed="6.10"/>
                <vehicle id="29" pos="111.85" speed="6.39"/>
                <vehicle id="36" pos="223.91" speed="6.96"/>
            </lane>
        </edge>
        <edge id="gneE49">
            <lane id="gneE49_0">
                <vehicle id="63" pos="60.11" speed="6.96"/>
                <vehicle id="54" pos="128.30" speed="6.71"/>
                <vehicle id="39" pos="238.05" speed="7.04"/>
                <vehicle id="8" pos="282.00" speed="6.85"/>
            </lane>
        </edge>
        <edge id="gneE5">
            <lane id="gneE5_0">
                <vehicle id="66" pos="32.56" speed="5.38"/>
                <vehicle id="47" pos="132.87" speed="5.34"/>
            </lane>
        </edge>
        <edge id="gneE51">
            <lane id="gneE51_0">
                <vehicle id="62" pos="62.69" speed="6.85"/>
                <vehicle id="32" pos="249.95" speed="6.73"/>
            </lane>
        </edge>
        <edge id="gneE52">
            <lane id="gneE52_0">
                <vehicle id="23" pos="155.02" speed="6.37"/>
                <vehicle id="10" pos="221.81" speed="6.32"/>
            </lane>
        </edge>
        <edge id="gneE53">
            <lane id="gneE53_0">
                <vehicle id="22" pos="46.60" speed="6.55"/>
                <vehicle id="40" pos="71.42" speed="5.96"/>
                <vehicle id="11" pos="256.26" speed="5.84"/>
            </lane>
        </edge>
        <edge id="gneE54">
            <lane id="gneE54_0">
                <vehicle id="57" pos="93.47" speed="5.75"/>
            </lane>
        </edge>
        <edge id="gneE55">
            <lane id="gneE55_0">
                <vehicle id="70" pos="11.13" speed="4.13"/>
                <vehicle id="58" pos="98.63" speed="7.71"/>
            </lane>
        </edge>
        <edge id="gneE58">
            <lane id="gneE58_0">
                <vehicle id="67" pos="31.05" speed="7.64"/>
                <vehicle id="44" pos="201.24" speed="7.81"/>
                <vehicle id="41" pos="226.74" speed="7.86"/>
            </lane>
        </edge>
        <edge id="gneE59">
            <lane id="gneE59_0">
                <vehicle id="33" pos="316.70" speed="4.14"/>
            </lane>
        </edge>
        <edge id="gneE60">
            <lane id="gneE60_0">
                <vehicle id="60" pos="73.87" speed="6.58"/>
                <vehicle id="13" pos="92.85" speed="6.26"/>
                <vehicle id="48" pos="149.50" speed="5.87"/>
            </lane>
        </edge>
        <edge id="gneE61">
            <lane id="gneE61_0">
                <vehicle id="7" pos="54.14" speed="7.50"/>
                <vehicle id="45" pos="193.30" speed="7.80"/>
            </lane>
        </edge>
        <edge id="gneE8">
            <lane id="gneE8_0">
                <vehicle id="64" pos="53.16" speed="6.98"/>
            </lane>
        </edge>
    </timestep>
