<?xml version="1.0"?>
<timestep time="751.00">
        <edge id=":gneJ11_6">
            <lane id=":gneJ11_6_0">
                <vehicle id="612" pos="4.63" speed="6.51"/>
            </lane>
        </edge>
        <edge id=":gneJ11_7">
            <lane id=":gneJ11_7_0">
                <vehicle id="648" pos="22.38" speed="9.25"/>
            </lane>
        </edge>
        <edge id=":gneJ11_39">
            <lane id=":gneJ11_39_0">
                <vehicle id="470" pos="1.35" speed="1.46"/>
            </lane>
        </edge>
        <edge id=":gneJ28_13">
            <lane id=":gneJ28_13_0">
                <vehicle id="645" pos="12.70" speed="7.11"/>
            </lane>
        </edge>
        <edge id=":gneJ30_2">
            <lane id=":gneJ30_2_0">
                <vehicle id="514" pos="5.05" speed="6.91"/>
            </lane>
        </edge>
        <edge id=":gneJ8_4">
            <lane id=":gneJ8_4_0">
                <vehicle id="727" pos="9.45" speed="7.74"/>
            </lane>
        </edge>
        <edge id=":gneJ9_3">
            <lane id=":gneJ9_3_0">
                <vehicle id="630" pos="5.04" speed="8.75"/>
            </lane>
        </edge>
        <edge id="gneE1">
            <lane id="gneE1_0">
                <vehicle id="730" pos="83.42" speed="4.05"/>
                <vehicle id="729" pos="97.83" speed="4.56"/>
            </lane>
        </edge>
        <edge id="gneE10">
            <lane id="gneE10_0">
                <vehicle id="503" pos="40.35" speed="5.95"/>
                <vehicle id="736" pos="57.34" speed="5.07"/>
                <vehicle id="712" pos="74.43" speed="5.49"/>
                <vehicle id="539" pos="100.70" speed="5.17"/>
            </lane>
        </edge>
        <edge id="gneE11">
            <lane id="gneE11_0">
                <vehicle id="B2_3" pos="6.45" speed="1.35"/>
                <vehicle id="742" pos="65.52" speed="7.90"/>
                <vehicle id="732" pos="134.85" speed="8.60"/>
            </lane>
        </edge>
        <edge id="gneE12">
            <lane id="gneE12_0">
                <vehicle id="577" pos="19.57" speed="10.60"/>
                <vehicle id="611" pos="61.78" speed="13.82"/>
                <vehicle id="716" pos="134.06" speed="13.21"/>
                <vehicle id="714" pos="247.02" speed="13.78"/>
            </lane>
        </edge>
        <edge id="gneE13">
            <lane id="gneE13_0">
                <vehicle id="751" pos="5.10" speed="0.00"/>
                <vehicle id="722" pos="248.17" speed="1.82"/>
                <vehicle id="638" pos="256.17" speed="0.00"/>
                <vehicle id="633" pos="263.67" speed="0.00"/>
                <vehicle id="625" pos="271.17" speed="0.00"/>
                <vehicle id="653" pos="278.68" speed="0.00"/>
                <vehicle id="640" pos="286.18" speed="0.00"/>
                <vehicle id="483" pos="293.68" speed="0.00"/>
                <vehicle id="596" pos="301.18" speed="0.00"/>
            </lane>
        </edge>
        <edge id="gneE14">
            <lane id="gneE14_0">
                <vehicle id="679" pos="158.29" speed="6.83"/>
            </lane>
        </edge>
        <edge id="gneE15">
            <lane id="gneE15_0">
                <vehicle id="619" pos="17.16" speed="7.74"/>
                <vehicle id="603" pos="62.80" speed="8.54"/>
                <vehicle id="701" pos="91.05" speed="7.71"/>
                <vehicle id="583" pos="109.67" speed="8.71"/>
                <vehicle id="597" pos="135.43" speed="8.54"/>
            </lane>
        </edge>
        <edge id="gneE17">
            <lane id="gneE17_0">
                <vehicle id="585" pos="274.50" speed="9.54"/>
            </lane>
        </edge>
        <edge id="gneE18">
            <lane id="gneE18_0">
                <vehicle id="678" pos="234.44" speed="9.79"/>
                <vehicle id="688" pos="255.95" speed="9.85"/>
                <vehicle id="720" pos="277.75" speed="9.97"/>
            </lane>
        </edge>
        <edge id="gneE19">
            <lane id="gneE19_0">
                <vehicle id="524" pos="139.15" speed="0.53"/>
                <vehicle id="733" pos="147.55" speed="0.38"/>
                <vehicle id="721" pos="155.16" speed="0.07"/>
                <vehicle id="667" pos="162.76" speed="0.04"/>
                <vehicle id="663" pos="170.30" speed="0.03"/>
                <vehicle id="652" pos="177.82" speed="0.00"/>
                <vehicle id="605" pos="185.32" speed="0.00"/>
                <vehicle id="602" pos="192.83" speed="0.00"/>
                <vehicle id="618" pos="200.33" speed="0.00"/>
                <vehicle id="436" pos="207.83" speed="0.00"/>
                <vehicle id="396" pos="215.33" speed="0.00"/>
                <vehicle id="515" pos="222.83" speed="0.00"/>
                <vehicle id="657" pos="230.33" speed="0.00"/>
                <vehicle id="655" pos="238.00" speed="0.17"/>
                <vehicle id="643" pos="246.75" speed="1.18"/>
                <vehicle id="405" pos="258.46" speed="3.61"/>
                <vehicle id="614" pos="267.36" speed="0.66"/>
                <vehicle id="478" pos="275.30" speed="0.05"/>
            </lane>
        </edge>
        <edge id="gneE2">
            <lane id="gneE2_0">
                <vehicle id="B4_2" pos="46.03" speed="9.74"/>
            </lane>
        </edge>
        <edge id="gneE20">
            <lane id="gneE20_0">
                <vehicle id="723" pos="42.96" speed="8.11"/>
                <vehicle id="494" pos="67.82" speed="8.03"/>
                <vehicle id="711" pos="114.93" speed="8.75"/>
                <vehicle id="647" pos="144.96" speed="8.46"/>
                <vehicle id="637" pos="269.24" speed="8.89"/>
            </lane>
        </edge>
        <edge id="gneE23">
            <lane id="gneE23_0">
                <vehicle id="741" pos="64.92" speed="6.99"/>
                <vehicle id="713" pos="86.82" speed="6.73"/>
                <vehicle id="523" pos="179.79" speed="7.49"/>
            </lane>
        </edge>
        <edge id="gneE24">
            <lane id="gneE24_0">
                <vehicle id="588" pos="112.48" speed="11.79"/>
                <vehicle id="565" pos="177.77" speed="9.45"/>
            </lane>
        </edge>
        <edge id="gneE25">
            <lane id="gneE25_0">
                <vehicle id="582" pos="7.85" speed="8.88"/>
                <vehicle id="555" pos="107.64" speed="9.16"/>
                <vehicle id="505" pos="131.33" speed="8.93"/>
                <vehicle id="541" pos="217.78" speed="7.33"/>
                <vehicle id="532" pos="230.43" speed="3.78"/>
                <vehicle id="594" pos="238.32" speed="0.00"/>
                <vehicle id="675" pos="245.82" speed="0.00"/>
                <vehicle id="482" pos="253.32" speed="0.00"/>
                <vehicle id="698" pos="260.82" speed="0.00"/>
                <vehicle id="508" pos="268.33" speed="0.00"/>
                <vehicle id="683" pos="275.83" speed="0.00"/>
                <vehicle id="B1_2" pos="283.33" speed="0.00"/>
                <vehicle id="402" pos="290.83" speed="0.00"/>
            </lane>
        </edge>
        <edge id="gneE26">
            <lane id="gneE26_0">
                <vehicle id="737" pos="59.12" speed="6.41"/>
                <vehicle id="636" pos="75.75" speed="6.35"/>
                <vehicle id="659" pos="112.62" speed="6.44"/>
                <vehicle id="580" pos="137.86" speed="1.50"/>
                <vehicle id="569" pos="145.76" speed="0.30"/>
                <vehicle id="649" pos="153.79" speed="0.50"/>
                <vehicle id="631" pos="162.39" speed="0.74"/>
                <vehicle id="703" pos="171.59" speed="1.09"/>
                <vehicle id="548" pos="180.54" speed="1.07"/>
                <vehicle id="644" pos="190.61" speed="2.28"/>
                <vehicle id="613" pos="203.19" speed="4.44"/>
                <vehicle id="567" pos="213.40" speed="2.22"/>
                <vehicle id="632" pos="222.69" speed="0.99"/>
                <vehicle id="598" pos="230.66" speed="0.33"/>
                <vehicle id="556" pos="238.23" speed="0.06"/>
                <vehicle id="595" pos="245.79" speed="0.03"/>
                <vehicle id="570" pos="253.32" speed="0.02"/>
                <vehicle id="665" pos="260.82" speed="0.00"/>
                <vehicle id="599" pos="268.33" speed="0.00"/>
                <vehicle id="600" pos="275.83" speed="0.00"/>
                <vehicle id="586" pos="283.33" speed="0.00"/>
                <vehicle id="573" pos="290.83" speed="0.00"/>
            </lane>
        </edge>
        <edge id="gneE27">
            <lane id="gneE27_0">
                <vehicle id="547" pos="35.81" speed="4.91"/>
                <vehicle id="617" pos="106.41" speed="5.92"/>
                <vehicle id="421" pos="130.14" speed="4.90"/>
            </lane>
        </edge>
        <edge id="gneE28">
            <lane id="gneE28_0">
                <vehicle id="746" pos="10.40" speed="3.95"/>
                <vehicle id="629" pos="35.92" speed="8.05"/>
                <vehicle id="424" pos="52.77" speed="7.88"/>
                <vehicle id="634" pos="110.69" speed="8.73"/>
                <vehicle id="578" pos="132.41" speed="8.63"/>
            </lane>
        </edge>
        <edge id="gneE3">
            <lane id="gneE3_0">
                <vehicle id="704" pos="28.33" speed="9.31"/>
                <vehicle id="486" pos="69.93" speed="9.42"/>
            </lane>
        </edge>
        <edge id="gneE30">
            <lane id="gneE30_0">
                <vehicle id="533" pos="79.77" speed="7.75"/>
                <vehicle id="670" pos="221.04" speed="8.64"/>
            </lane>
        </edge>
        <edge id="gneE31">
            <lane id="gneE31_0">
                <vehicle id="748" pos="6.92" speed="1.82"/>
                <vehicle id="542" pos="27.51" speed="8.80"/>
                <vehicle id="624" pos="54.00" speed="8.12"/>
                <vehicle id="731" pos="82.30" speed="8.70"/>
                <vehicle id="581" pos="110.01" speed="8.16"/>
                <vehicle id="669" pos="133.02" speed="8.71"/>
                <vehicle id="699" pos="161.53" speed="8.79"/>
                <vehicle id="661" pos="183.93" speed="8.77"/>
                <vehicle id="684" pos="208.58" speed="8.68"/>
                <vehicle id="587" pos="233.78" speed="8.41"/>
            </lane>
        </edge>
        <edge id="gneE32">
            <lane id="gneE32_0">
                <vehicle id="735" pos="95.46" speed="6.81"/>
                <vehicle id="609" pos="112.37" speed="7.43"/>
                <vehicle id="589" pos="292.03" speed="7.84"/>
                <vehicle id="706" pos="318.79" speed="7.61"/>
                <vehicle id="702" pos="339.13" speed="7.33"/>
            </lane>
        </edge>
        <edge id="gneE38">
            <lane id="gneE38_0">
                <vehicle id="B1_3" pos="7.64" speed="2.54"/>
                <vehicle id="535" pos="247.42" speed="8.36"/>
                <vehicle id="621" pos="305.47" speed="0.00"/>
                <vehicle id="627" pos="312.97" speed="0.00"/>
                <vehicle id="509" pos="320.48" speed="0.00"/>
                <vehicle id="551" pos="327.98" speed="0.00"/>
                <vehicle id="350" pos="335.48" speed="0.00"/>
                <vehicle id="457" pos="342.98" speed="0.00"/>
            </lane>
        </edge>
        <edge id="gneE4">
            <lane id="gneE4_0">
                <vehicle id="749" pos="6.66" speed="1.56"/>
                <vehicle id="473" pos="22.84" speed="9.42"/>
                <vehicle id="674" pos="117.61" speed="9.34"/>
            </lane>
        </edge>
        <edge id="gneE41">
            <lane id="gneE41_0">
                <vehicle id="529" pos="9.61" speed="7.80"/>
                <vehicle id="558" pos="85.42" speed="8.79"/>
            </lane>
        </edge>
        <edge id="gneE43">
            <lane id="gneE43_0">
                <vehicle id="464" pos="119.85" speed="6.64"/>
                <vehicle id="543" pos="205.53" speed="6.67"/>
                <vehicle id="604" pos="229.96" speed="5.46"/>
                <vehicle id="608" pos="244.10" speed="5.97"/>
                <vehicle id="416" pos="258.32" speed="5.73"/>
                <vehicle id="591" pos="271.87" speed="5.39"/>
                <vehicle id="622" pos="286.60" speed="5.45"/>
                <vehicle id="415" pos="296.85" speed="1.63"/>
                <vehicle id="536" pos="306.73" speed="1.13"/>
            </lane>
        </edge>
        <edge id="gneE45">
            <lane id="gneE45_0">
                <vehicle id="628" pos="6.99" speed="8.50"/>
                <vehicle id="620" pos="30.99" speed="7.82"/>
                <vehicle id="743" pos="57.27" speed="7.72"/>
                <vehicle id="590" pos="130.15" speed="8.69"/>
                <vehicle id="610" pos="193.48" speed="8.12"/>
                <vehicle id="724" pos="212.55" speed="7.91"/>
                <vehicle id="686" pos="278.14" speed="7.87"/>
            </lane>
        </edge>
        <edge id="gneE46">
            <lane id="gneE46_0">
                <vehicle id="540" pos="81.73" speed="9.59"/>
            </lane>
        </edge>
        <edge id="gneE47">
            <lane id="gneE47_0">
                <vehicle id="689" pos="120.77" speed="8.63"/>
                <vehicle id="708" pos="146.36" speed="8.19"/>
                <vehicle id="650" pos="177.73" speed="8.23"/>
            </lane>
        </edge>
        <edge id="gneE48">
            <lane id="gneE48_0">
                <vehicle id="719" pos="45.13" speed="5.98"/>
                <vehicle id="728" pos="143.15" speed="6.14"/>
            </lane>
        </edge>
        <edge id="gneE49">
            <lane id="gneE49_0">
                <vehicle id="325" pos="15.20" speed="7.85"/>
                <vehicle id="664" pos="59.64" speed="6.80"/>
                <vehicle id="528" pos="304.90" speed="7.29"/>
            </lane>
        </edge>
        <edge id="gneE5">
            <lane id="gneE5_0">
                <vehicle id="726" pos="31.12" speed="4.97"/>
                <vehicle id="739" pos="63.61" speed="5.47"/>
                <vehicle id="709" pos="124.31" speed="5.74"/>
            </lane>
        </edge>
        <edge id="gneE50">
            <lane id="gneE50_0">
                <vehicle id="725" pos="1.72" speed="5.16"/>
                <vehicle id="568" pos="290.28" speed="5.21"/>
                <vehicle id="672" pos="311.04" speed="5.18"/>
            </lane>
        </edge>
        <edge id="gneE51">
            <lane id="gneE51_0">
                <vehicle id="639" pos="37.47" speed="7.00"/>
                <vehicle id="738" pos="81.70" speed="6.32"/>
                <vehicle id="694" pos="105.38" speed="6.50"/>
                <vehicle id="518" pos="136.30" speed="6.28"/>
                <vehicle id="651" pos="153.72" speed="5.79"/>
                <vehicle id="673" pos="184.05" speed="6.26"/>
                <vehicle id="656" pos="282.75" speed="5.77"/>
                <vehicle id="642" pos="335.79" speed="0.00"/>
                <vehicle id="615" pos="344.30" speed="1.00"/>
                <vehicle id="641" pos="355.74" speed="3.65"/>
            </lane>
        </edge>
        <edge id="gneE52">
            <lane id="gneE52_0">
                <vehicle id="747" pos="21.49" speed="5.92"/>
            </lane>
        </edge>
        <edge id="gneE53">
            <lane id="gneE53_0">
                <vehicle id="B4_3" pos="6.57" speed="1.47"/>
                <vehicle id="504" pos="91.42" speed="6.03"/>
                <vehicle id="680" pos="169.31" speed="6.67"/>
                <vehicle id="695" pos="224.14" speed="6.74"/>
                <vehicle id="705" pos="293.01" speed="6.68"/>
                <vehicle id="507" pos="335.65" speed="0.01"/>
                <vehicle id="671" pos="343.16" speed="0.00"/>
            </lane>
        </edge>
        <edge id="gneE54">
            <lane id="gneE54_0">
                <vehicle id="566" pos="6.15" speed="6.63"/>
                <vehicle id="740" pos="38.16" speed="6.01"/>
                <vehicle id="734" pos="61.18" speed="5.98"/>
                <vehicle id="682" pos="80.98" speed="5.78"/>
                <vehicle id="677" pos="108.04" speed="6.92"/>
            </lane>
        </edge>
        <edge id="gneE55">
            <lane id="gneE55_0">
                <vehicle id="710" pos="132.57" speed="7.39"/>
            </lane>
        </edge>
        <edge id="gneE58">
            <lane id="gneE58_0">
                <vehicle id="616" pos="7.25" speed="7.54"/>
                <vehicle id="693" pos="61.88" speed="7.16"/>
                <vehicle id="717" pos="102.90" speed="7.36"/>
                <vehicle id="593" pos="130.37" speed="6.75"/>
                <vehicle id="690" pos="181.55" speed="7.78"/>
                <vehicle id="448" pos="292.63" speed="7.05"/>
            </lane>
        </edge>
        <edge id="gneE59">
            <lane id="gneE59_0">
                <vehicle id="700" pos="29.30" speed="7.81"/>
                <vehicle id="715" pos="291.00" speed="8.49"/>
            </lane>
        </edge>
        <edge id="gneE6">
            <lane id="gneE6_0">
                <vehicle id="563" pos="132.35" speed="7.25"/>
            </lane>
        </edge>
        <edge id="gneE60">
            <lane id="gneE60_0">
                <vehicle id="662" pos="18.28" speed="6.75"/>
                <vehicle id="696" pos="56.04" speed="5.96"/>
                <vehicle id="692" pos="71.02" speed="5.88"/>
                <vehicle id="646" pos="88.13" speed="5.87"/>
                <vehicle id="575" pos="109.90" speed="6.10"/>
                <vehicle id="676" pos="190.07" speed="6.54"/>
                <vehicle id="559" pos="265.88" speed="5.82"/>
                <vehicle id="498" pos="286.47" speed="5.84"/>
                <vehicle id="658" pos="298.89" speed="2.16"/>
                <vehicle id="697" pos="307.55" speed="0.00"/>
                <vehicle id="691" pos="315.06" speed="0.00"/>
                <vehicle id="687" pos="322.56" speed="0.00"/>
                <vehicle id="685" pos="330.06" speed="0.00"/>
                <vehicle id="635" pos="337.56" speed="0.00"/>
            </lane>
        </edge>
        <edge id="gneE61">
            <lane id="gneE61_0">
                <vehicle id="745" pos="36.79" speed="6.87"/>
                <vehicle id="666" pos="145.37" speed="7.92"/>
            </lane>
        </edge>
        <edge id="gneE7">
            <lane id="gneE7_0">
                <vehicle id="744" pos="50.25" speed="8.70"/>
                <vehicle id="592" pos="181.15" speed="8.16"/>
                <vehicle id="463" pos="208.05" speed="8.70"/>
            </lane>
        </edge>
        <edge id="gneE8">
            <lane id="gneE8_0">
                <vehicle id="681" pos="43.33" speed="7.15"/>
                <vehicle id="576" pos="67.77" speed="7.75"/>
                <vehicle id="584" pos="217.08" speed="7.65"/>
                <vehicle id="718" pos="238.24" speed="7.71"/>
                <vehicle id="393" pos="274.73" speed="7.86"/>
            </lane>
        </edge>
    </timestep>
