<?xml version="1.0"?>
<timestep time="761.00">
        <edge id=":gneJ11_21">
            <lane id=":gneJ11_21_0">
                <vehicle id="671" pos="2.05" speed="2.15"/>
            </lane>
        </edge>
        <edge id=":gneJ15_12">
            <lane id=":gneJ15_12_0">
                <vehicle id="586" pos="2.85" speed="5.62"/>
            </lane>
        </edge>
        <edge id=":gneJ15_14">
            <lane id=":gneJ15_14_0">
                <vehicle id="573" pos="18.26" speed="7.69"/>
            </lane>
        </edge>
        <edge id=":gneJ28_2">
            <lane id=":gneJ28_2_0">
                <vehicle id="689" pos="3.48" speed="4.31"/>
            </lane>
        </edge>
        <edge id=":gneJ30_0">
            <lane id=":gneJ30_0_0">
                <vehicle id="682" pos="2.45" speed="5.77"/>
            </lane>
        </edge>
        <edge id=":gneJ6_6">
            <lane id=":gneJ6_6_0">
                <vehicle id="670" pos="4.35" speed="8.13"/>
            </lane>
        </edge>
        <edge id=":gneJ8_4">
            <lane id=":gneJ8_4_0">
                <vehicle id="701" pos="9.62" speed="6.19"/>
            </lane>
        </edge>
        <edge id="gneE1">
            <lane id="gneE1_0">
                <vehicle id="730" pos="127.18" speed="4.29"/>
                <vehicle id="729" pos="140.36" speed="4.32"/>
            </lane>
        </edge>
        <edge id="gneE10">
            <lane id="gneE10_0">
                <vehicle id="583" pos="13.24" speed="5.08"/>
                <vehicle id="597" pos="29.01" speed="5.33"/>
                <vehicle id="727" pos="52.97" speed="5.24"/>
                <vehicle id="503" pos="94.71" speed="5.07"/>
                <vehicle id="736" pos="112.22" speed="5.39"/>
                <vehicle id="712" pos="129.61" speed="5.45"/>
            </lane>
        </edge>
        <edge id="gneE11">
            <lane id="gneE11_0">
                <vehicle id="B2_3" pos="79.27" speed="8.45"/>
            </lane>
        </edge>
        <edge id="gneE12">
            <lane id="gneE12_0">
                <vehicle id="742" pos="2.53" speed="8.48"/>
                <vehicle id="577" pos="151.08" speed="12.98"/>
                <vehicle id="611" pos="195.18" speed="12.71"/>
                <vehicle id="716" pos="264.40" speed="13.52"/>
            </lane>
        </edge>
        <edge id="gneE13">
            <lane id="gneE13_0">
                <vehicle id="751" pos="81.02" speed="9.33"/>
                <vehicle id="722" pos="248.67" speed="0.00"/>
                <vehicle id="638" pos="256.17" speed="0.00"/>
                <vehicle id="633" pos="263.67" speed="0.00"/>
                <vehicle id="625" pos="271.18" speed="0.00"/>
                <vehicle id="653" pos="278.68" speed="0.00"/>
                <vehicle id="640" pos="286.18" speed="0.00"/>
                <vehicle id="483" pos="293.68" speed="0.00"/>
                <vehicle id="596" pos="301.18" speed="0.00"/>
            </lane>
        </edge>
        <edge id="gneE14">
            <lane id="gneE14_0">
                <vehicle id="754" pos="56.28" speed="10.92"/>
            </lane>
        </edge>
        <edge id="gneE15">
            <lane id="gneE15_0">
                <vehicle id="720" pos="38.00" speed="8.06"/>
                <vehicle id="637" pos="64.88" speed="7.87"/>
                <vehicle id="619" pos="102.23" speed="8.38"/>
                <vehicle id="603" pos="144.61" speed="8.63"/>
            </lane>
        </edge>
        <edge id="gneE17">
            <lane id="gneE17_0">
                <vehicle id="679" pos="66.48" speed="8.88"/>
                <vehicle id="630" pos="90.65" speed="8.71"/>
            </lane>
        </edge>
        <edge id="gneE18">
            <lane id="gneE18_0">
                <vehicle id="674" pos="37.17" speed="9.40"/>
            </lane>
        </edge>
        <edge id="gneE19">
            <lane id="gneE19_0">
                <vehicle id="678" pos="21.53" speed="12.45"/>
                <vehicle id="688" pos="44.43" speed="12.55"/>
                <vehicle id="524" pos="140.32" speed="0.00"/>
                <vehicle id="733" pos="147.82" speed="0.00"/>
                <vehicle id="721" pos="155.32" speed="0.00"/>
                <vehicle id="667" pos="162.83" speed="0.00"/>
                <vehicle id="663" pos="170.44" speed="0.11"/>
                <vehicle id="652" pos="178.20" speed="0.16"/>
                <vehicle id="605" pos="187.06" speed="1.27"/>
                <vehicle id="602" pos="196.54" speed="1.68"/>
                <vehicle id="618" pos="205.59" speed="1.45"/>
                <vehicle id="436" pos="214.86" speed="1.04"/>
                <vehicle id="396" pos="224.88" speed="2.44"/>
                <vehicle id="515" pos="237.33" speed="3.81"/>
                <vehicle id="657" pos="250.16" speed="4.95"/>
                <vehicle id="655" pos="259.59" speed="1.22"/>
                <vehicle id="643" pos="267.74" speed="0.17"/>
                <vehicle id="405" pos="275.31" speed="0.04"/>
                <vehicle id="614" pos="282.84" speed="0.00"/>
            </lane>
        </edge>
        <edge id="gneE20">
            <lane id="gneE20_0">
                <vehicle id="635" pos="1.69" speed="7.94"/>
                <vehicle id="565" pos="61.62" speed="8.66"/>
                <vehicle id="648" pos="79.07" speed="8.99"/>
                <vehicle id="723" pos="124.85" speed="7.94"/>
                <vehicle id="494" pos="151.34" speed="8.12"/>
                <vehicle id="711" pos="200.57" speed="8.19"/>
                <vehicle id="647" pos="226.58" speed="8.06"/>
            </lane>
        </edge>
        <edge id="gneE23">
            <lane id="gneE23_0">
                <vehicle id="478" pos="35.12" speed="7.13"/>
                <vehicle id="612" pos="68.09" speed="7.42"/>
                <vehicle id="741" pos="138.28" speed="7.11"/>
                <vehicle id="713" pos="161.12" speed="7.72"/>
            </lane>
        </edge>
        <edge id="gneE24">
            <lane id="gneE24_0">
                <vehicle id="457" pos="70.71" speed="12.24"/>
            </lane>
        </edge>
        <edge id="gneE25">
            <lane id="gneE25_0">
                <vehicle id="551" pos="12.87" speed="9.91"/>
                <vehicle id="578" pos="76.11" speed="9.62"/>
                <vehicle id="582" pos="102.74" speed="9.35"/>
                <vehicle id="555" pos="202.89" speed="8.71"/>
                <vehicle id="505" pos="214.96" speed="2.39"/>
                <vehicle id="541" pos="223.32" speed="0.00"/>
                <vehicle id="532" pos="230.82" speed="0.00"/>
                <vehicle id="594" pos="238.32" speed="0.00"/>
                <vehicle id="675" pos="245.82" speed="0.00"/>
                <vehicle id="482" pos="253.32" speed="0.00"/>
                <vehicle id="698" pos="260.83" speed="0.00"/>
                <vehicle id="508" pos="268.33" speed="0.00"/>
                <vehicle id="683" pos="275.83" speed="0.00"/>
                <vehicle id="B1_2" pos="283.33" speed="0.00"/>
                <vehicle id="402" pos="290.83" speed="0.00"/>
            </lane>
        </edge>
        <edge id="gneE26">
            <lane id="gneE26_0">
                <vehicle id="732" pos="50.48" speed="6.88"/>
                <vehicle id="737" pos="120.60" speed="4.52"/>
                <vehicle id="636" pos="130.76" speed="2.45"/>
                <vehicle id="659" pos="141.58" speed="2.07"/>
                <vehicle id="580" pos="151.37" speed="1.48"/>
                <vehicle id="569" pos="160.90" speed="1.03"/>
                <vehicle id="649" pos="169.81" speed="0.75"/>
                <vehicle id="631" pos="177.91" speed="0.20"/>
                <vehicle id="703" pos="185.67" speed="0.09"/>
                <vehicle id="548" pos="193.29" speed="0.09"/>
                <vehicle id="644" pos="200.80" speed="0.01"/>
                <vehicle id="613" pos="208.31" speed="0.01"/>
                <vehicle id="567" pos="215.82" speed="0.00"/>
                <vehicle id="632" pos="223.32" speed="0.00"/>
                <vehicle id="598" pos="230.82" speed="0.00"/>
                <vehicle id="556" pos="238.32" speed="0.00"/>
                <vehicle id="595" pos="245.82" speed="0.00"/>
                <vehicle id="570" pos="253.32" speed="0.00"/>
                <vehicle id="665" pos="260.82" speed="0.00"/>
                <vehicle id="599" pos="269.02" speed="0.69"/>
                <vehicle id="600" pos="279.80" speed="2.72"/>
            </lane>
        </edge>
        <edge id="gneE27">
            <lane id="gneE27_0">
                <vehicle id="547" pos="88.29" speed="5.39"/>
            </lane>
        </edge>
        <edge id="gneE28">
            <lane id="gneE28_0">
                <vehicle id="746" pos="91.97" speed="8.08"/>
                <vehicle id="629" pos="117.10" speed="7.87"/>
                <vehicle id="424" pos="136.14" speed="8.92"/>
            </lane>
        </edge>
        <edge id="gneE3">
            <lane id="gneE3_0">
                <vehicle id="715" pos="7.37" speed="8.23"/>
                <vehicle id="704" pos="121.64" speed="9.04"/>
            </lane>
        </edge>
        <edge id="gneE30">
            <lane id="gneE30_0">
                <vehicle id="617" pos="18.11" speed="8.58"/>
                <vehicle id="421" pos="53.25" speed="8.33"/>
                <vehicle id="533" pos="163.63" speed="8.97"/>
            </lane>
        </edge>
        <edge id="gneE31">
            <lane id="gneE31_0">
                <vehicle id="539" pos="13.66" speed="8.39"/>
                <vehicle id="748" pos="82.23" speed="8.66"/>
                <vehicle id="542" pos="110.33" speed="7.96"/>
                <vehicle id="624" pos="137.95" speed="8.90"/>
                <vehicle id="731" pos="166.87" speed="8.07"/>
                <vehicle id="581" pos="194.06" speed="8.44"/>
                <vehicle id="669" pos="215.06" speed="8.60"/>
                <vehicle id="699" pos="246.70" speed="8.64"/>
                <vehicle id="661" pos="267.65" speed="8.82"/>
                <vehicle id="684" pos="290.34" speed="8.23"/>
            </lane>
        </edge>
        <edge id="gneE32">
            <lane id="gneE32_0">
                <vehicle id="735" pos="170.15" speed="6.99"/>
                <vehicle id="609" pos="185.85" speed="6.85"/>
            </lane>
        </edge>
        <edge id="gneE38">
            <lane id="gneE38_0">
                <vehicle id="B1_3" pos="84.10" speed="7.97"/>
                <vehicle id="535" pos="306.19" speed="4.85"/>
                <vehicle id="621" pos="321.66" speed="7.07"/>
                <vehicle id="627" pos="338.40" speed="8.56"/>
            </lane>
        </edge>
        <edge id="gneE4">
            <lane id="gneE4_0">
                <vehicle id="714" pos="30.32" speed="9.08"/>
                <vehicle id="749" pos="83.08" speed="9.38"/>
                <vehicle id="473" pos="116.83" speed="9.49"/>
            </lane>
        </edge>
        <edge id="gneE41">
            <lane id="gneE41_0">
                <vehicle id="B3_3" pos="7.14" speed="2.04"/>
                <vehicle id="589" pos="21.79" speed="7.99"/>
                <vehicle id="706" pos="52.52" speed="8.73"/>
                <vehicle id="702" pos="74.33" speed="8.45"/>
                <vehicle id="529" pos="91.54" speed="7.79"/>
            </lane>
        </edge>
        <edge id="gneE43">
            <lane id="gneE43_0">
                <vehicle id="558" pos="5.54" speed="6.01"/>
                <vehicle id="464" pos="183.58" speed="6.57"/>
                <vehicle id="543" pos="253.81" speed="0.88"/>
                <vehicle id="604" pos="261.55" speed="0.09"/>
                <vehicle id="608" pos="269.20" speed="0.10"/>
                <vehicle id="416" pos="276.71" speed="0.01"/>
                <vehicle id="591" pos="284.22" speed="0.01"/>
                <vehicle id="622" pos="291.73" speed="0.00"/>
                <vehicle id="415" pos="299.23" speed="0.00"/>
                <vehicle id="536" pos="306.73" speed="0.00"/>
            </lane>
        </edge>
        <edge id="gneE45">
            <lane id="gneE45_0">
                <vehicle id="634" pos="31.31" speed="8.38"/>
                <vehicle id="628" pos="88.55" speed="8.36"/>
                <vehicle id="620" pos="114.81" speed="8.62"/>
                <vehicle id="743" pos="140.21" speed="8.19"/>
                <vehicle id="590" pos="213.66" speed="8.94"/>
                <vehicle id="610" pos="276.27" speed="8.34"/>
                <vehicle id="724" pos="295.05" speed="7.17"/>
                <vehicle id="686" pos="306.73" speed="0.00"/>
            </lane>
        </edge>
        <edge id="gneE46">
            <lane id="gneE46_0">
                <vehicle id="540" pos="176.49" speed="9.83"/>
            </lane>
        </edge>
        <edge id="gneE47">
            <lane id="gneE47_0">
                <vehicle id="677" pos="24.93" speed="7.81"/>
            </lane>
        </edge>
        <edge id="gneE48">
            <lane id="gneE48_0">
                <vehicle id="719" pos="107.13" speed="6.18"/>
                <vehicle id="728" pos="207.04" speed="6.72"/>
            </lane>
        </edge>
        <edge id="gneE49">
            <lane id="gneE49_0">
                <vehicle id="470" pos="41.39" speed="6.72"/>
                <vehicle id="752" pos="62.28" speed="7.56"/>
                <vehicle id="325" pos="89.21" speed="7.71"/>
                <vehicle id="664" pos="131.27" speed="6.75"/>
            </lane>
        </edge>
        <edge id="gneE5">
            <lane id="gneE5_0">
                <vehicle id="726" pos="85.24" speed="5.80"/>
                <vehicle id="739" pos="117.43" speed="5.19"/>
            </lane>
        </edge>
        <edge id="gneE50">
            <lane id="gneE50_0">
                <vehicle id="750" pos="38.81" speed="5.15"/>
                <vehicle id="725" pos="53.34" speed="5.77"/>
                <vehicle id="568" pos="343.57" speed="5.82"/>
                <vehicle id="672" pos="363.96" speed="4.12"/>
            </lane>
        </edge>
        <edge id="gneE51">
            <lane id="gneE51_0">
                <vehicle id="708" pos="5.08" speed="6.15"/>
                <vehicle id="650" pos="30.03" speed="6.02"/>
                <vehicle id="645" pos="62.51" speed="6.60"/>
                <vehicle id="639" pos="99.71" speed="6.14"/>
                <vehicle id="738" pos="146.10" speed="6.31"/>
                <vehicle id="694" pos="169.82" speed="6.46"/>
                <vehicle id="518" pos="200.10" speed="6.81"/>
                <vehicle id="651" pos="219.64" speed="5.80"/>
                <vehicle id="673" pos="247.66" speed="6.23"/>
                <vehicle id="656" pos="342.81" speed="2.23"/>
                <vehicle id="642" pos="350.79" speed="0.04"/>
                <vehicle id="615" pos="358.30" speed="0.00"/>
                <vehicle id="641" pos="365.80" speed="0.00"/>
            </lane>
        </edge>
        <edge id="gneE52">
            <lane id="gneE52_0">
                <vehicle id="588" pos="3.52" speed="5.92"/>
                <vehicle id="747" pos="84.60" speed="6.29"/>
            </lane>
        </edge>
        <edge id="gneE53">
            <lane id="gneE53_0">
                <vehicle id="710" pos="51.06" speed="6.02"/>
                <vehicle id="B4_3" pos="66.13" speed="6.38"/>
                <vehicle id="504" pos="155.65" speed="6.17"/>
                <vehicle id="680" pos="230.45" speed="5.95"/>
                <vehicle id="695" pos="288.61" speed="7.00"/>
                <vehicle id="705" pos="328.15" speed="0.01"/>
                <vehicle id="507" pos="335.66" speed="0.00"/>
            </lane>
        </edge>
        <edge id="gneE54">
            <lane id="gneE54_0">
                <vehicle id="566" pos="70.77" speed="6.65"/>
                <vehicle id="740" pos="100.58" speed="6.08"/>
                <vehicle id="734" pos="122.91" speed="6.23"/>
            </lane>
        </edge>
        <edge id="gneE55">
            <lane id="gneE55_0">
                <vehicle id="514" pos="72.25" speed="7.67"/>
            </lane>
        </edge>
        <edge id="gneE58">
            <lane id="gneE58_0">
                <vehicle id="755" pos="24.73" speed="7.61"/>
                <vehicle id="585" pos="46.11" speed="6.89"/>
                <vehicle id="616" pos="81.33" speed="7.80"/>
                <vehicle id="693" pos="136.91" speed="7.59"/>
                <vehicle id="717" pos="173.21" speed="6.92"/>
                <vehicle id="593" pos="203.98" speed="6.81"/>
                <vehicle id="690" pos="254.53" speed="7.11"/>
            </lane>
        </edge>
        <edge id="gneE59">
            <lane id="gneE59_0">
                <vehicle id="700" pos="110.84" speed="8.55"/>
            </lane>
        </edge>
        <edge id="gneE6">
            <lane id="gneE6_0">
                <vehicle id="718" pos="1.83" speed="7.71"/>
                <vehicle id="393" pos="37.98" speed="7.43"/>
            </lane>
        </edge>
        <edge id="gneE60">
            <lane id="gneE60_0">
                <vehicle id="758" pos="17.00" speed="5.50"/>
                <vehicle id="448" pos="37.81" speed="6.36"/>
                <vehicle id="662" pos="82.70" speed="6.21"/>
                <vehicle id="696" pos="118.65" speed="6.07"/>
                <vehicle id="692" pos="134.66" speed="6.30"/>
                <vehicle id="646" pos="151.57" speed="6.33"/>
                <vehicle id="575" pos="175.30" speed="6.42"/>
                <vehicle id="676" pos="252.44" speed="6.51"/>
                <vehicle id="559" pos="285.05" speed="0.00"/>
                <vehicle id="498" pos="292.55" speed="0.00"/>
                <vehicle id="658" pos="300.05" speed="0.00"/>
                <vehicle id="697" pos="308.62" speed="1.06"/>
                <vehicle id="691" pos="319.39" speed="3.25"/>
                <vehicle id="687" pos="329.02" speed="1.18"/>
                <vehicle id="685" pos="337.27" speed="0.32"/>
            </lane>
        </edge>
        <edge id="gneE61">
            <lane id="gneE61_0">
                <vehicle id="753" pos="51.82" speed="7.86"/>
                <vehicle id="745" pos="108.02" speed="7.17"/>
                <vehicle id="666" pos="218.98" speed="7.19"/>
            </lane>
        </edge>
        <edge id="gneE7">
            <lane id="gneE7_0">
                <vehicle id="756" pos="18.99" speed="6.94"/>
                <vehicle id="709" pos="41.80" speed="8.83"/>
                <vehicle id="744" pos="132.21" speed="8.46"/>
                <vehicle id="592" pos="265.39" speed="8.36"/>
                <vehicle id="463" pos="291.61" speed="7.94"/>
            </lane>
        </edge>
        <edge id="gneE8">
            <lane id="gneE8_0">
                <vehicle id="757" pos="24.61" speed="7.34"/>
                <vehicle id="681" pos="117.68" speed="7.37"/>
                <vehicle id="576" pos="141.63" speed="7.83"/>
                <vehicle id="584" pos="287.93" speed="6.85"/>
            </lane>
        </edge>
    </timestep>
