<?xml version="1.0"?>
<timestep time="765.00">
        <edge id=":gneJ11_10">
            <lane id=":gneJ11_10_0">
                <vehicle id="641" pos="2.43" speed="2.53"/>
            </lane>
        </edge>
        <edge id=":gneJ11_21">
            <lane id=":gneJ11_21_0">
                <vehicle id="671" pos="27.08" speed="8.89"/>
            </lane>
        </edge>
        <edge id=":gneJ15_3">
            <lane id=":gneJ15_3_0">
                <vehicle id="621" pos="4.02" speed="5.46"/>
            </lane>
        </edge>
        <edge id=":gneJ15_6">
            <lane id=":gneJ15_6_0">
                <vehicle id="536" pos="6.99" speed="4.84"/>
            </lane>
        </edge>
        <edge id=":gneJ28_7">
            <lane id=":gneJ28_7_0">
                <vehicle id="686" pos="2.43" speed="2.53"/>
            </lane>
        </edge>
        <edge id=":gneJ30_0">
            <lane id=":gneJ30_0_0">
                <vehicle id="734" pos="9.20" speed="9.11"/>
            </lane>
        </edge>
        <edge id=":gneJ4_1">
            <lane id=":gneJ4_1_0">
                <vehicle id="716" pos="5.81" speed="10.11"/>
            </lane>
        </edge>
        <edge id=":gneJ8_2">
            <lane id=":gneJ8_2_0">
                <vehicle id="402" pos="5.99" speed="4.12"/>
            </lane>
        </edge>
        <edge id="gneE1">
            <lane id="gneE1_0">
                <vehicle id="765" pos="5.10" speed="0.00"/>
                <vehicle id="730" pos="143.73" speed="4.20"/>
            </lane>
        </edge>
        <edge id="gneE10">
            <lane id="gneE10_0">
                <vehicle id="761" pos="7.06" speed="1.96"/>
                <vehicle id="701" pos="19.99" speed="5.00"/>
                <vehicle id="583" pos="35.25" speed="5.35"/>
                <vehicle id="597" pos="50.16" speed="4.79"/>
                <vehicle id="727" pos="75.00" speed="5.89"/>
                <vehicle id="503" pos="115.76" speed="5.04"/>
                <vehicle id="736" pos="132.71" speed="4.80"/>
            </lane>
        </edge>
        <edge id="gneE11">
            <lane id="gneE11_0">
                <vehicle id="760" pos="10.38" speed="3.57"/>
                <vehicle id="670" pos="33.25" speed="8.88"/>
                <vehicle id="B2_3" pos="112.09" speed="7.72"/>
            </lane>
        </edge>
        <edge id="gneE12">
            <lane id="gneE12_0">
                <vehicle id="742" pos="53.14" speed="13.64"/>
                <vehicle id="577" pos="204.39" speed="13.47"/>
                <vehicle id="611" pos="247.47" speed="12.60"/>
            </lane>
        </edge>
        <edge id="gneE13">
            <lane id="gneE13_0">
                <vehicle id="751" pos="117.74" speed="9.06"/>
                <vehicle id="722" pos="248.67" speed="0.00"/>
                <vehicle id="638" pos="256.17" speed="0.00"/>
                <vehicle id="633" pos="263.67" speed="0.00"/>
                <vehicle id="625" pos="271.18" speed="0.00"/>
                <vehicle id="653" pos="279.06" speed="0.39"/>
                <vehicle id="640" pos="288.30" speed="1.57"/>
            </lane>
        </edge>
        <edge id="gneE14">
            <lane id="gneE14_0">
                <vehicle id="754" pos="96.52" speed="10.18"/>
            </lane>
        </edge>
        <edge id="gneE15">
            <lane id="gneE15_0">
                <vehicle id="720" pos="70.76" speed="8.15"/>
                <vehicle id="637" pos="99.94" speed="8.61"/>
                <vehicle id="619" pos="134.50" speed="7.97"/>
            </lane>
        </edge>
        <edge id="gneE17">
            <lane id="gneE17_0">
                <vehicle id="679" pos="103.33" speed="9.00"/>
                <vehicle id="630" pos="126.47" speed="8.83"/>
            </lane>
        </edge>
        <edge id="gneE18">
            <lane id="gneE18_0">
                <vehicle id="674" pos="74.04" speed="8.87"/>
            </lane>
        </edge>
        <edge id="gneE19">
            <lane id="gneE19_0">
                <vehicle id="678" pos="70.01" speed="11.91"/>
                <vehicle id="688" pos="92.08" speed="12.02"/>
                <vehicle id="524" pos="140.36" speed="0.04"/>
                <vehicle id="733" pos="147.95" speed="0.08"/>
                <vehicle id="721" pos="156.14" speed="0.68"/>
                <vehicle id="667" pos="164.64" speed="0.79"/>
                <vehicle id="663" pos="173.60" speed="1.26"/>
                <vehicle id="652" pos="183.79" speed="1.48"/>
                <vehicle id="605" pos="192.02" speed="0.61"/>
                <vehicle id="602" pos="202.25" speed="2.21"/>
                <vehicle id="618" pos="215.86" speed="4.84"/>
                <vehicle id="436" pos="228.77" speed="4.26"/>
                <vehicle id="396" pos="237.07" speed="0.37"/>
                <vehicle id="515" pos="244.98" speed="0.21"/>
                <vehicle id="657" pos="252.76" speed="0.08"/>
                <vehicle id="655" pos="260.31" speed="0.02"/>
                <vehicle id="643" pos="267.83" speed="0.00"/>
                <vehicle id="405" pos="275.34" speed="0.00"/>
                <vehicle id="614" pos="282.84" speed="0.00"/>
            </lane>
        </edge>
        <edge id="gneE20">
            <lane id="gneE20_0">
                <vehicle id="635" pos="33.97" speed="7.70"/>
                <vehicle id="565" pos="94.98" speed="8.90"/>
                <vehicle id="648" pos="113.69" speed="8.76"/>
                <vehicle id="723" pos="158.51" speed="8.28"/>
                <vehicle id="494" pos="185.32" speed="8.82"/>
                <vehicle id="711" pos="234.72" speed="8.47"/>
                <vehicle id="647" pos="260.26" speed="8.09"/>
            </lane>
        </edge>
        <edge id="gneE23">
            <lane id="gneE23_0">
                <vehicle id="478" pos="65.02" speed="7.89"/>
                <vehicle id="612" pos="97.84" speed="6.94"/>
                <vehicle id="741" pos="169.50" speed="7.82"/>
            </lane>
        </edge>
        <edge id="gneE24">
            <lane id="gneE24_0">
                <vehicle id="600" pos="7.96" speed="8.90"/>
                <vehicle id="586" pos="40.49" speed="12.22"/>
                <vehicle id="457" pos="120.10" speed="12.47"/>
            </lane>
        </edge>
        <edge id="gneE25">
            <lane id="gneE25_0">
                <vehicle id="551" pos="50.59" speed="9.63"/>
                <vehicle id="578" pos="113.00" speed="9.22"/>
                <vehicle id="582" pos="140.16" speed="9.75"/>
                <vehicle id="555" pos="208.29" speed="0.11"/>
                <vehicle id="505" pos="215.82" speed="0.01"/>
                <vehicle id="541" pos="223.32" speed="0.00"/>
                <vehicle id="532" pos="230.82" speed="0.00"/>
                <vehicle id="594" pos="238.32" speed="0.00"/>
                <vehicle id="675" pos="245.82" speed="0.00"/>
                <vehicle id="482" pos="253.32" speed="0.00"/>
                <vehicle id="698" pos="260.83" speed="0.00"/>
                <vehicle id="508" pos="268.33" speed="0.00"/>
                <vehicle id="683" pos="275.83" speed="0.00"/>
                <vehicle id="B1_2" pos="284.87" speed="1.54"/>
            </lane>
        </edge>
        <edge id="gneE26">
            <lane id="gneE26_0">
                <vehicle id="596" pos="6.25" speed="6.38"/>
                <vehicle id="732" pos="76.47" speed="6.86"/>
                <vehicle id="737" pos="128.36" speed="1.50"/>
                <vehicle id="636" pos="137.30" speed="1.36"/>
                <vehicle id="659" pos="147.06" speed="1.44"/>
                <vehicle id="580" pos="155.29" speed="0.70"/>
                <vehicle id="569" pos="163.05" speed="0.19"/>
                <vehicle id="649" pos="170.75" speed="0.08"/>
                <vehicle id="631" pos="178.30" speed="0.01"/>
                <vehicle id="703" pos="185.81" speed="0.01"/>
                <vehicle id="548" pos="193.31" speed="0.00"/>
                <vehicle id="644" pos="200.82" speed="0.00"/>
                <vehicle id="613" pos="208.32" speed="0.00"/>
                <vehicle id="567" pos="215.82" speed="0.00"/>
                <vehicle id="632" pos="223.32" speed="0.00"/>
                <vehicle id="598" pos="230.82" speed="0.00"/>
                <vehicle id="556" pos="238.66" speed="0.34"/>
                <vehicle id="595" pos="247.21" speed="1.02"/>
                <vehicle id="570" pos="257.43" speed="2.61"/>
                <vehicle id="665" pos="270.89" speed="4.38"/>
                <vehicle id="599" pos="286.99" speed="6.91"/>
            </lane>
        </edge>
        <edge id="gneE27">
            <lane id="gneE27_0">
                <vehicle id="547" pos="110.51" speed="5.24"/>
            </lane>
        </edge>
        <edge id="gneE28">
            <lane id="gneE28_0">
                <vehicle id="661" pos="4.19" speed="8.43"/>
                <vehicle id="684" pos="26.75" speed="8.24"/>
                <vehicle id="746" pos="124.98" speed="8.68"/>
            </lane>
        </edge>
        <edge id="gneE3">
            <lane id="gneE3_0">
                <vehicle id="715" pos="44.46" speed="9.65"/>
            </lane>
        </edge>
        <edge id="gneE30">
            <lane id="gneE30_0">
                <vehicle id="617" pos="50.49" speed="7.98"/>
                <vehicle id="421" pos="85.57" speed="7.78"/>
                <vehicle id="533" pos="197.40" speed="8.07"/>
            </lane>
        </edge>
        <edge id="gneE31">
            <lane id="gneE31_0">
                <vehicle id="539" pos="46.08" speed="8.43"/>
                <vehicle id="748" pos="116.37" speed="8.53"/>
                <vehicle id="542" pos="143.85" speed="8.18"/>
                <vehicle id="624" pos="170.95" speed="8.57"/>
                <vehicle id="731" pos="201.12" speed="8.86"/>
                <vehicle id="581" pos="227.55" speed="8.22"/>
                <vehicle id="669" pos="247.99" speed="8.69"/>
                <vehicle id="699" pos="279.53" speed="7.88"/>
            </lane>
        </edge>
        <edge id="gneE32">
            <lane id="gneE32_0">
                <vehicle id="573" pos="27.10" speed="7.58"/>
                <vehicle id="735" pos="197.90" speed="7.09"/>
                <vehicle id="609" pos="216.12" speed="7.76"/>
            </lane>
        </edge>
        <edge id="gneE38">
            <lane id="gneE38_0">
                <vehicle id="764" pos="6.84" speed="1.74"/>
                <vehicle id="B1_3" pos="117.73" speed="8.47"/>
                <vehicle id="535" pos="333.01" speed="3.84"/>
            </lane>
        </edge>
        <edge id="gneE4">
            <lane id="gneE4_0">
                <vehicle id="714" pos="67.89" speed="8.99"/>
                <vehicle id="749" pos="121.23" speed="9.72"/>
                <vehicle id="473" pos="152.52" speed="7.97"/>
            </lane>
        </edge>
        <edge id="gneE41">
            <lane id="gneE41_0">
                <vehicle id="B3_3" pos="35.38" speed="8.95"/>
                <vehicle id="589" pos="55.49" speed="8.18"/>
                <vehicle id="706" pos="84.61" speed="7.90"/>
                <vehicle id="702" pos="106.00" speed="8.52"/>
                <vehicle id="529" pos="125.36" speed="8.22"/>
            </lane>
        </edge>
        <edge id="gneE43">
            <lane id="gneE43_0">
                <vehicle id="558" pos="29.86" speed="5.76"/>
                <vehicle id="464" pos="208.21" speed="5.84"/>
                <vehicle id="543" pos="254.19" speed="0.03"/>
                <vehicle id="604" pos="261.72" speed="0.01"/>
                <vehicle id="608" pos="269.22" speed="0.00"/>
                <vehicle id="416" pos="276.72" speed="0.00"/>
                <vehicle id="591" pos="284.23" speed="0.00"/>
                <vehicle id="622" pos="291.73" speed="0.00"/>
                <vehicle id="415" pos="301.44" speed="2.21"/>
            </lane>
        </edge>
        <edge id="gneE45">
            <lane id="gneE45_0">
                <vehicle id="763" pos="9.82" speed="3.09"/>
                <vehicle id="634" pos="64.96" speed="8.21"/>
                <vehicle id="628" pos="123.34" speed="8.96"/>
                <vehicle id="620" pos="148.61" speed="8.51"/>
                <vehicle id="743" pos="174.51" speed="8.78"/>
                <vehicle id="590" pos="247.59" speed="8.13"/>
                <vehicle id="610" pos="291.72" speed="0.01"/>
                <vehicle id="724" pos="299.23" speed="0.00"/>
            </lane>
        </edge>
        <edge id="gneE46">
            <lane id="gneE46_0">
                <vehicle id="672" pos="17.64" speed="9.05"/>
            </lane>
        </edge>
        <edge id="gneE47">
            <lane id="gneE47_0">
                <vehicle id="682" pos="25.68" speed="8.51"/>
                <vehicle id="677" pos="57.97" speed="8.96"/>
            </lane>
        </edge>
        <edge id="gneE48">
            <lane id="gneE48_0">
                <vehicle id="719" pos="133.00" speed="6.16"/>
                <vehicle id="728" pos="232.29" speed="6.35"/>
            </lane>
        </edge>
        <edge id="gneE49">
            <lane id="gneE49_0">
                <vehicle id="762" pos="14.85" speed="5.28"/>
                <vehicle id="470" pos="71.29" speed="7.91"/>
                <vehicle id="752" pos="91.43" speed="6.98"/>
                <vehicle id="325" pos="118.09" speed="6.81"/>
                <vehicle id="664" pos="159.79" speed="7.62"/>
            </lane>
        </edge>
        <edge id="gneE5">
            <lane id="gneE5_0">
                <vehicle id="726" pos="106.50" speed="4.97"/>
                <vehicle id="739" pos="138.87" speed="5.81"/>
            </lane>
        </edge>
        <edge id="gneE50">
            <lane id="gneE50_0">
                <vehicle id="750" pos="61.24" speed="5.70"/>
                <vehicle id="725" pos="74.85" speed="4.80"/>
                <vehicle id="568" pos="363.68" speed="5.14"/>
            </lane>
        </edge>
        <edge id="gneE51">
            <lane id="gneE51_0">
                <vehicle id="689" pos="11.37" speed="5.76"/>
                <vehicle id="708" pos="30.28" speed="6.33"/>
                <vehicle id="650" pos="55.10" speed="6.00"/>
                <vehicle id="645" pos="86.82" speed="6.12"/>
                <vehicle id="639" pos="125.49" speed="5.91"/>
                <vehicle id="738" pos="171.77" speed="6.32"/>
                <vehicle id="694" pos="196.12" speed="6.94"/>
                <vehicle id="518" pos="225.62" speed="6.71"/>
                <vehicle id="651" pos="245.86" speed="6.49"/>
                <vehicle id="673" pos="273.66" speed="6.21"/>
                <vehicle id="656" pos="343.30" speed="0.00"/>
                <vehicle id="642" pos="350.80" speed="0.00"/>
                <vehicle id="615" pos="358.30" speed="0.00"/>
            </lane>
        </edge>
        <edge id="gneE52">
            <lane id="gneE52_0">
                <vehicle id="759" pos="10.91" speed="3.97"/>
                <vehicle id="588" pos="29.60" speed="6.47"/>
                <vehicle id="747" pos="108.95" speed="6.12"/>
            </lane>
        </edge>
        <edge id="gneE53">
            <lane id="gneE53_0">
                <vehicle id="710" pos="75.97" speed="6.27"/>
                <vehicle id="B4_3" pos="91.74" speed="6.47"/>
                <vehicle id="504" pos="180.01" speed="6.47"/>
                <vehicle id="680" pos="255.99" speed="6.39"/>
                <vehicle id="695" pos="313.18" speed="6.63"/>
                <vehicle id="705" pos="337.25" speed="5.03"/>
            </lane>
        </edge>
        <edge id="gneE54">
            <lane id="gneE54_0">
                <vehicle id="566" pos="96.48" speed="6.51"/>
                <vehicle id="740" pos="126.90" speed="6.94"/>
            </lane>
        </edge>
        <edge id="gneE55">
            <lane id="gneE55_0">
                <vehicle id="514" pos="100.80" speed="6.80"/>
            </lane>
        </edge>
        <edge id="gneE58">
            <lane id="gneE58_0">
                <vehicle id="729" pos="4.93" speed="7.55"/>
                <vehicle id="755" pos="53.38" speed="7.13"/>
                <vehicle id="585" pos="74.82" speed="6.71"/>
                <vehicle id="616" pos="109.81" speed="7.52"/>
                <vehicle id="693" pos="166.00" speed="7.12"/>
                <vehicle id="717" pos="201.74" speed="7.00"/>
                <vehicle id="593" pos="232.12" speed="7.59"/>
                <vehicle id="690" pos="283.83" speed="7.85"/>
            </lane>
        </edge>
        <edge id="gneE59">
            <lane id="gneE59_0">
                <vehicle id="700" pos="143.35" speed="8.05"/>
            </lane>
        </edge>
        <edge id="gneE6">
            <lane id="gneE6_0">
                <vehicle id="718" pos="32.33" speed="7.60"/>
                <vehicle id="393" pos="67.27" speed="7.40"/>
            </lane>
        </edge>
        <edge id="gneE60">
            <lane id="gneE60_0">
                <vehicle id="758" pos="42.14" speed="6.09"/>
                <vehicle id="448" pos="63.41" speed="6.48"/>
                <vehicle id="662" pos="108.51" speed="6.57"/>
                <vehicle id="696" pos="143.77" speed="5.62"/>
                <vehicle id="692" pos="159.77" speed="6.52"/>
                <vehicle id="646" pos="177.69" speed="6.35"/>
                <vehicle id="575" pos="200.03" speed="6.78"/>
                <vehicle id="676" pos="275.01" speed="4.92"/>
                <vehicle id="559" pos="287.98" speed="2.44"/>
                <vehicle id="498" pos="296.71" speed="0.89"/>
                <vehicle id="658" pos="306.20" speed="1.31"/>
                <vehicle id="697" pos="314.86" speed="0.60"/>
                <vehicle id="691" pos="322.52" speed="0.07"/>
                <vehicle id="687" pos="330.05" speed="0.02"/>
                <vehicle id="685" pos="337.56" speed="0.00"/>
            </lane>
        </edge>
        <edge id="gneE61">
            <lane id="gneE61_0">
                <vehicle id="753" pos="80.84" speed="7.02"/>
                <vehicle id="745" pos="137.98" speed="7.14"/>
                <vehicle id="666" pos="249.37" speed="7.25"/>
            </lane>
        </edge>
        <edge id="gneE7">
            <lane id="gneE7_0">
                <vehicle id="756" pos="51.79" speed="8.60"/>
                <vehicle id="709" pos="75.24" speed="8.13"/>
                <vehicle id="744" pos="166.42" speed="8.26"/>
                <vehicle id="592" pos="299.57" speed="8.79"/>
            </lane>
        </edge>
        <edge id="gneE8">
            <lane id="gneE8_0">
                <vehicle id="712" pos="6.00" speed="7.58"/>
                <vehicle id="757" pos="54.51" speed="7.63"/>
                <vehicle id="681" pos="147.50" speed="7.48"/>
                <vehicle id="576" pos="171.19" speed="7.53"/>
            </lane>
        </edge>
    </timestep>
