<?xml version="1.0"?>
<timestep time="79.00">
        <edge id=":gneJ11_41">
            <lane id=":gneJ11_41_0">
                <vehicle id="51" pos="12.16" speed="7.79"/>
            </lane>
        </edge>
        <edge id=":gneJ15_16">
            <lane id=":gneJ15_16_0">
                <vehicle id="25" pos="4.17" speed="7.87"/>
            </lane>
        </edge>
        <edge id=":gneJ6_1">
            <lane id=":gneJ6_1_0">
                <vehicle id="42" pos="3.79" speed="3.93"/>
            </lane>
        </edge>
        <edge id="gneE1">
            <lane id="gneE1_0">
                <vehicle id="76" pos="15.84" speed="4.17"/>
                <vehicle id="50" pos="126.89" speed="4.46"/>
            </lane>
        </edge>
        <edge id="gneE10">
            <lane id="gneE10_0">
                <vehicle id="75" pos="21.10" speed="5.04"/>
            </lane>
        </edge>
        <edge id="gneE11">
            <lane id="gneE11_0">
                <vehicle id="31" pos="86.50" speed="8.15"/>
            </lane>
        </edge>
        <edge id="gneE12">
            <lane id="gneE12_0">
                <vehicle id="6" pos="231.84" speed="13.88"/>
                <vehicle id="1" pos="281.49" speed="13.30"/>
            </lane>
        </edge>
        <edge id="gneE13">
            <lane id="gneE13_0">
                <vehicle id="43" pos="130.12" speed="9.52"/>
                <vehicle id="56" pos="204.04" speed="9.43"/>
            </lane>
        </edge>
        <edge id="gneE14">
            <lane id="gneE14_0">
                <vehicle id="19" pos="36.90" speed="10.91"/>
            </lane>
        </edge>
        <edge id="gneE15">
            <lane id="gneE15_0">
                <vehicle id="38" pos="45.38" speed="8.90"/>
                <vehicle id="35" pos="69.72" speed="8.54"/>
            </lane>
        </edge>
        <edge id="gneE17">
            <lane id="gneE17_0">
                <vehicle id="69" pos="60.56" speed="9.81"/>
                <vehicle id="2" pos="241.39" speed="9.75"/>
            </lane>
        </edge>
        <edge id="gneE18">
            <lane id="gneE18_0">
                <vehicle id="78" pos="7.32" speed="2.22"/>
                <vehicle id="33" pos="53.89" speed="9.88"/>
                <vehicle id="15" pos="94.84" speed="9.94"/>
                <vehicle id="24" pos="123.57" speed="8.78"/>
                <vehicle id="28" pos="144.85" speed="9.59"/>
            </lane>
        </edge>
        <edge id="gneE19">
            <lane id="gneE19_0">
                <vehicle id="52" pos="85.28" speed="12.94"/>
                <vehicle id="9" pos="226.36" speed="12.45"/>
                <vehicle id="20" pos="267.94" speed="12.33"/>
            </lane>
        </edge>
        <edge id="gneE20">
            <lane id="gneE20_0">
                <vehicle id="21" pos="33.01" speed="8.12"/>
            </lane>
        </edge>
        <edge id="gneE23">
            <lane id="gneE23_0">
                <vehicle id="18" pos="59.64" speed="7.00"/>
                <vehicle id="4" pos="133.51" speed="7.89"/>
                <vehicle id="5" pos="151.62" speed="7.48"/>
            </lane>
        </edge>
        <edge id="gneE24">
            <lane id="gneE24_0">
                <vehicle id="17" pos="92.63" speed="12.11"/>
            </lane>
        </edge>
        <edge id="gneE25">
            <lane id="gneE25_0">
                <vehicle id="74" pos="29.62" speed="8.37"/>
                <vehicle id="61" pos="154.87" speed="9.30"/>
                <vehicle id="53" pos="225.97" speed="9.14"/>
            </lane>
        </edge>
        <edge id="gneE26">
            <lane id="gneE26_0">
                <vehicle id="77" pos="11.54" speed="3.96"/>
            </lane>
        </edge>
        <edge id="gneE27">
            <lane id="gneE27_0">
                <vehicle id="71" pos="41.92" speed="5.63"/>
            </lane>
        </edge>
        <edge id="gneE28">
            <lane id="gneE28_0">
                <vehicle id="16" pos="15.14" speed="7.88"/>
            </lane>
        </edge>
        <edge id="gneE30">
            <lane id="gneE30_0">
                <vehicle id="65" pos="104.48" speed="8.17"/>
            </lane>
        </edge>
        <edge id="gneE31">
            <lane id="gneE31_0">
                <vehicle id="49" pos="30.38" speed="8.17"/>
                <vehicle id="68" pos="79.74" speed="8.56"/>
                <vehicle id="26" pos="219.98" speed="8.59"/>
            </lane>
        </edge>
        <edge id="gneE38">
            <lane id="gneE38_0">
                <vehicle id="0" pos="147.65" speed="8.30"/>
                <vehicle id="37" pos="166.43" speed="8.97"/>
            </lane>
        </edge>
        <edge id="gneE4">
            <lane id="gneE4_0">
                <vehicle id="72" pos="50.48" speed="8.93"/>
            </lane>
        </edge>
        <edge id="gneE41">
            <lane id="gneE41_0">
                <vehicle id="30" pos="13.13" speed="7.75"/>
                <vehicle id="14" pos="133.78" speed="8.45"/>
            </lane>
        </edge>
        <edge id="gneE43">
            <lane id="gneE43_0">
                <vehicle id="34" pos="159.76" speed="6.02"/>
            </lane>
        </edge>
        <edge id="gneE45">
            <lane id="gneE45_0">
                <vehicle id="12" pos="152.01" speed="7.97"/>
            </lane>
        </edge>
        <edge id="gneE48">
            <lane id="gneE48_0">
                <vehicle id="73" pos="35.82" speed="6.88"/>
                <vehicle id="59" pos="118.93" speed="5.85"/>
                <vehicle id="55" pos="138.88" speed="5.83"/>
                <vehicle id="29" pos="156.31" speed="6.84"/>
                <vehicle id="36" pos="268.95" speed="6.85"/>
            </lane>
        </edge>
        <edge id="gneE49">
            <lane id="gneE49_0">
                <vehicle id="79" pos="5.10" speed="0.00"/>
                <vehicle id="27" pos="43.23" speed="6.97"/>
                <vehicle id="63" pos="111.49" speed="6.76"/>
                <vehicle id="54" pos="178.31" speed="6.90"/>
                <vehicle id="39" pos="287.84" speed="6.89"/>
            </lane>
        </edge>
        <edge id="gneE5">
            <lane id="gneE5_0">
                <vehicle id="66" pos="69.77" speed="5.37"/>
            </lane>
        </edge>
        <edge id="gneE51">
            <lane id="gneE51_0">
                <vehicle id="62" pos="106.57" speed="6.71"/>
                <vehicle id="32" pos="294.67" speed="6.81"/>
            </lane>
        </edge>
        <edge id="gneE52">
            <lane id="gneE52_0">
                <vehicle id="23" pos="200.52" speed="6.09"/>
                <vehicle id="10" pos="268.63" speed="6.85"/>
            </lane>
        </edge>
        <edge id="gneE53">
            <lane id="gneE53_0">
                <vehicle id="58" pos="3.54" speed="6.46"/>
                <vehicle id="22" pos="91.23" speed="5.91"/>
                <vehicle id="40" pos="117.68" speed="6.90"/>
                <vehicle id="11" pos="300.39" speed="5.75"/>
            </lane>
        </edge>
        <edge id="gneE54">
            <lane id="gneE54_0">
                <vehicle id="57" pos="138.36" speed="6.50"/>
            </lane>
        </edge>
        <edge id="gneE55">
            <lane id="gneE55_0">
                <vehicle id="70" pos="59.60" speed="7.43"/>
            </lane>
        </edge>
        <edge id="gneE58">
            <lane id="gneE58_0">
                <vehicle id="67" pos="83.91" speed="7.88"/>
                <vehicle id="44" pos="253.46" speed="7.52"/>
                <vehicle id="41" pos="280.37" speed="7.94"/>
            </lane>
        </edge>
        <edge id="gneE60">
            <lane id="gneE60_0">
                <vehicle id="60" pos="117.96" speed="6.42"/>
                <vehicle id="13" pos="137.57" speed="6.82"/>
                <vehicle id="48" pos="195.17" speed="6.93"/>
            </lane>
        </edge>
        <edge id="gneE61">
            <lane id="gneE61_0">
                <vehicle id="7" pos="107.76" speed="7.90"/>
                <vehicle id="45" pos="244.71" speed="7.74"/>
            </lane>
        </edge>
        <edge id="gneE7">
            <lane id="gneE7_0">
                <vehicle id="47" pos="31.01" speed="8.90"/>
            </lane>
        </edge>
        <edge id="gneE8">
            <lane id="gneE8_0">
                <vehicle id="64" pos="104.39" speed="7.01"/>
            </lane>
        </edge>
    </timestep>
