<?xml version="1.0"?>
<timestep time="804.00">
        <edge id=":gneJ11_7">
            <lane id=":gneJ11_7_0">
                <vehicle id="738" pos="11.08" speed="7.17"/>
            </lane>
        </edge>
        <edge id=":gneJ15_5">
            <lane id=":gneJ15_5_0">
                <vehicle id="604" pos="9.46" speed="6.94"/>
            </lane>
        </edge>
        <edge id=":gneJ15_11">
            <lane id=":gneJ15_11_0">
                <vehicle id="614" pos="4.40" speed="4.39"/>
            </lane>
        </edge>
        <edge id=":gneJ15_16">
            <lane id=":gneJ15_16_0">
                <vehicle id="748" pos="1.49" speed="5.97"/>
            </lane>
        </edge>
        <edge id=":gneJ28_10">
            <lane id=":gneJ28_10_0">
                <vehicle id="735" pos="10.93" speed="9.81"/>
            </lane>
        </edge>
        <edge id=":gneJ3_2">
            <lane id=":gneJ3_2_0">
                <vehicle id="766" pos="13.25" speed="6.62"/>
            </lane>
        </edge>
        <edge id=":gneJ4_1">
            <lane id=":gneJ4_1_0">
                <vehicle id="720" pos="4.73" speed="5.49"/>
            </lane>
        </edge>
        <edge id=":gneJ6_4">
            <lane id=":gneJ6_4_0">
                <vehicle id="739" pos="1.73" speed="8.47"/>
            </lane>
        </edge>
        <edge id=":gneJ8_1">
            <lane id=":gneJ8_1_0">
                <vehicle id="675" pos="1.73" speed="1.84"/>
            </lane>
        </edge>
        <edge id="gneE1">
            <lane id="gneE1_0">
                <vehicle id="782" pos="95.61" speed="4.40"/>
                <vehicle id="775" pos="129.04" speed="4.38"/>
            </lane>
        </edge>
        <edge id="gneE10">
            <lane id="gneE10_0">
                <vehicle id="723" pos="15.61" speed="5.45"/>
                <vehicle id="698" pos="51.17" speed="5.91"/>
                <vehicle id="722" pos="65.68" speed="5.49"/>
                <vehicle id="683" pos="88.03" speed="5.88"/>
            </lane>
        </edge>
        <edge id="gneE11">
            <lane id="gneE11_0">
                <vehicle id="617" pos="50.45" speed="8.26"/>
            </lane>
        </edge>
        <edge id="gneE12">
            <lane id="gneE12_0">
                <vehicle id="482" pos="81.29" speed="12.73"/>
                <vehicle id="773" pos="160.17" speed="13.63"/>
                <vehicle id="B1_2" pos="230.98" speed="13.54"/>
                <vehicle id="760" pos="286.07" speed="9.57"/>
            </lane>
        </edge>
        <edge id="gneE13">
            <lane id="gneE13_0">
                <vehicle id="788" pos="135.14" speed="9.69"/>
                <vehicle id="751" pos="301.18" speed="0.00"/>
            </lane>
        </edge>
        <edge id="gneE14">
            <lane id="gneE14_0">
                <vehicle id="508" pos="114.49" speed="10.58"/>
            </lane>
        </edge>
        <edge id="gneE15">
            <lane id="gneE15_0">
                <vehicle id="671" pos="35.37" speed="8.45"/>
                <vehicle id="635" pos="74.08" speed="8.33"/>
            </lane>
        </edge>
        <edge id="gneE17">
            <lane id="gneE17_0">
                <vehicle id="B2_3" pos="118.56" speed="9.94"/>
                <vehicle id="565" pos="143.69" speed="9.50"/>
                <vehicle id="648" pos="168.00" speed="9.94"/>
                <vehicle id="754" pos="262.28" speed="3.30"/>
                <vehicle id="711" pos="272.28" speed="1.47"/>
                <vehicle id="647" pos="284.08" speed="4.10"/>
            </lane>
        </edge>
        <edge id="gneE18">
            <lane id="gneE18_0">
                <vehicle id="718" pos="28.89" speed="9.69"/>
                <vehicle id="792" pos="98.94" speed="8.86"/>
                <vehicle id="700" pos="163.72" speed="9.27"/>
                <vehicle id="781" pos="191.79" speed="8.95"/>
                <vehicle id="779" pos="221.88" speed="9.32"/>
                <vehicle id="714" pos="255.11" speed="9.11"/>
            </lane>
        </edge>
        <edge id="gneE19">
            <lane id="gneE19_0">
                <vehicle id="674" pos="153.94" speed="4.83"/>
                <vehicle id="402" pos="167.46" speed="4.76"/>
                <vehicle id="678" pos="180.62" speed="3.62"/>
                <vehicle id="688" pos="189.54" speed="0.68"/>
                <vehicle id="524" pos="198.76" speed="1.40"/>
                <vehicle id="733" pos="207.21" speed="0.57"/>
                <vehicle id="721" pos="215.19" speed="0.18"/>
                <vehicle id="667" pos="222.78" speed="0.03"/>
                <vehicle id="663" pos="230.52" speed="0.22"/>
                <vehicle id="652" pos="239.40" speed="1.33"/>
                <vehicle id="605" pos="251.45" speed="3.83"/>
                <vehicle id="602" pos="265.73" speed="6.20"/>
                <vehicle id="618" pos="281.34" speed="5.79"/>
            </lane>
        </edge>
        <edge id="gneE20">
            <lane id="gneE20_0">
                <vehicle id="684" pos="57.00" speed="8.58"/>
                <vehicle id="774" pos="73.62" speed="8.16"/>
                <vehicle id="656" pos="91.44" speed="8.30"/>
                <vehicle id="685" pos="147.44" speed="8.19"/>
                <vehicle id="780" pos="166.90" speed="8.83"/>
                <vehicle id="600" pos="192.26" speed="8.60"/>
                <vehicle id="586" pos="216.82" speed="8.38"/>
                <vehicle id="695" pos="250.77" speed="7.93"/>
            </lane>
        </edge>
        <edge id="gneE23">
            <lane id="gneE23_0">
                <vehicle id="800" pos="7.43" speed="2.33"/>
                <vehicle id="515" pos="25.31" speed="7.09"/>
                <vehicle id="651" pos="60.24" speed="7.28"/>
                <vehicle id="673" pos="78.78" speed="6.85"/>
                <vehicle id="655" pos="123.55" speed="6.89"/>
                <vehicle id="643" pos="157.48" speed="7.34"/>
            </lane>
        </edge>
        <edge id="gneE24">
            <lane id="gneE24_0">
                <vehicle id="731" pos="124.24" speed="12.52"/>
            </lane>
        </edge>
        <edge id="gneE25">
            <lane id="gneE25_0">
                <vehicle id="608" pos="9.14" speed="9.16"/>
                <vehicle id="624" pos="58.73" speed="8.97"/>
                <vehicle id="591" pos="164.34" speed="0.78"/>
                <vehicle id="771" pos="174.20" speed="2.09"/>
                <vehicle id="741" pos="186.33" speed="3.66"/>
                <vehicle id="536" pos="198.48" speed="3.75"/>
                <vehicle id="551" pos="209.53" speed="3.31"/>
                <vehicle id="578" pos="221.41" speed="3.98"/>
                <vehicle id="582" pos="232.65" speed="3.58"/>
                <vehicle id="555" pos="247.10" speed="5.81"/>
                <vehicle id="505" pos="259.41" speed="3.58"/>
                <vehicle id="541" pos="268.14" speed="0.34"/>
                <vehicle id="532" pos="275.79" speed="0.10"/>
                <vehicle id="594" pos="283.32" speed="0.02"/>
            </lane>
        </edge>
        <edge id="gneE26">
            <lane id="gneE26_0">
                <vehicle id="744" pos="8.94" speed="6.76"/>
                <vehicle id="799" pos="23.53" speed="6.30"/>
                <vehicle id="638" pos="88.82" speed="6.58"/>
                <vehicle id="633" pos="108.81" speed="6.03"/>
                <vehicle id="653" pos="136.95" speed="5.64"/>
                <vehicle id="596" pos="147.85" speed="0.24"/>
                <vehicle id="732" pos="155.65" speed="0.22"/>
                <vehicle id="737" pos="163.21" speed="0.06"/>
                <vehicle id="636" pos="170.79" speed="0.03"/>
                <vehicle id="659" pos="178.31" speed="0.00"/>
                <vehicle id="580" pos="185.81" speed="0.00"/>
                <vehicle id="569" pos="193.32" speed="0.00"/>
                <vehicle id="649" pos="200.82" speed="0.00"/>
                <vehicle id="631" pos="208.32" speed="0.00"/>
                <vehicle id="703" pos="215.82" speed="0.00"/>
                <vehicle id="548" pos="223.32" speed="0.00"/>
                <vehicle id="644" pos="230.82" speed="0.00"/>
                <vehicle id="613" pos="238.32" speed="0.00"/>
                <vehicle id="567" pos="245.82" speed="0.00"/>
                <vehicle id="632" pos="254.01" speed="0.69"/>
                <vehicle id="598" pos="264.24" speed="2.68"/>
                <vehicle id="556" pos="274.31" speed="2.12"/>
                <vehicle id="595" pos="283.04" speed="0.61"/>
                <vehicle id="570" pos="290.79" speed="0.14"/>
            </lane>
        </edge>
        <edge id="gneE28">
            <lane id="gneE28_0">
                <vehicle id="736" pos="14.80" speed="8.20"/>
                <vehicle id="795" pos="53.73" speed="8.42"/>
                <vehicle id="539" pos="73.71" speed="8.82"/>
                <vehicle id="786" pos="119.65" speed="7.94"/>
            </lane>
        </edge>
        <edge id="gneE3">
            <lane id="gneE3_0">
                <vehicle id="679" pos="140.31" speed="9.35"/>
            </lane>
        </edge>
        <edge id="gneE30">
            <lane id="gneE30_0">
                <vehicle id="547" pos="268.77" speed="8.33"/>
            </lane>
        </edge>
        <edge id="gneE31">
            <lane id="gneE31_0">
                <vehicle id="761" pos="37.39" speed="8.22"/>
                <vehicle id="756" pos="64.33" speed="8.37"/>
                <vehicle id="709" pos="85.40" speed="8.40"/>
                <vehicle id="701" pos="129.89" speed="8.10"/>
                <vehicle id="503" pos="276.33" speed="7.78"/>
            </lane>
        </edge>
        <edge id="gneE32">
            <lane id="gneE32_0">
                <vehicle id="767" pos="65.14" speed="7.72"/>
                <vehicle id="622" pos="251.95" speed="7.49"/>
                <vehicle id="573" pos="317.58" speed="7.45"/>
            </lane>
        </edge>
        <edge id="gneE38">
            <lane id="gneE38_0">
                <vehicle id="764" pos="324.28" speed="8.82"/>
                <vehicle id="B1_3" pos="342.98" speed="0.00"/>
            </lane>
        </edge>
        <edge id="gneE41">
            <lane id="gneE41_0">
                <vehicle id="793" pos="82.54" speed="8.81"/>
            </lane>
        </edge>
        <edge id="gneE42">
            <lane id="gneE42_0">
                <vehicle id="620" pos="19.02" speed="6.94"/>
            </lane>
        </edge>
        <edge id="gneE43">
            <lane id="gneE43_0">
                <vehicle id="778" pos="38.28" speed="6.60"/>
                <vehicle id="794" pos="60.99" speed="5.92"/>
                <vehicle id="734" pos="82.97" speed="5.81"/>
                <vehicle id="769" pos="217.24" speed="5.85"/>
                <vehicle id="558" pos="277.05" speed="3.88"/>
                <vehicle id="464" pos="287.05" speed="2.15"/>
                <vehicle id="543" pos="300.73" speed="4.18"/>
            </lane>
        </edge>
        <edge id="gneE45">
            <lane id="gneE45_0">
                <vehicle id="665" pos="17.59" speed="8.84"/>
                <vehicle id="705" pos="55.68" speed="8.48"/>
                <vehicle id="790" pos="89.70" speed="8.08"/>
                <vehicle id="669" pos="115.70" speed="8.37"/>
                <vehicle id="699" pos="141.18" speed="8.64"/>
                <vehicle id="661" pos="163.69" speed="8.53"/>
                <vehicle id="612" pos="210.62" speed="7.90"/>
                <vehicle id="599" pos="243.36" speed="7.72"/>
                <vehicle id="621" pos="275.42" speed="8.42"/>
                <vehicle id="763" pos="288.56" speed="4.32"/>
                <vehicle id="634" pos="298.53" speed="1.21"/>
                <vehicle id="628" pos="306.72" speed="0.02"/>
            </lane>
        </edge>
        <edge id="gneE46">
            <lane id="gneE46_0">
                <vehicle id="743" pos="46.59" speed="9.08"/>
                <vehicle id="610" pos="96.73" speed="9.36"/>
            </lane>
        </edge>
        <edge id="gneE47">
            <lane id="gneE47_0">
                <vehicle id="752" pos="53.23" speed="8.76"/>
                <vehicle id="664" pos="128.84" speed="8.59"/>
            </lane>
        </edge>
        <edge id="gneE48">
            <lane id="gneE48_0">
                <vehicle id="798" pos="34.66" speed="5.92"/>
                <vehicle id="686" pos="97.01" speed="6.36"/>
                <vehicle id="776" pos="174.41" speed="5.81"/>
                <vehicle id="740" pos="218.04" speed="6.68"/>
                <vehicle id="719" pos="319.64" speed="0.00"/>
            </lane>
        </edge>
        <edge id="gneE49">
            <lane id="gneE49_0">
                <vehicle id="657" pos="100.05" speed="6.94"/>
                <vehicle id="787" pos="116.23" speed="6.99"/>
                <vehicle id="457" pos="227.23" speed="7.15"/>
                <vehicle id="762" pos="301.09" speed="7.51"/>
            </lane>
        </edge>
        <edge id="gneE5">
            <lane id="gneE5_0">
                <vehicle id="637" pos="25.39" speed="5.08"/>
                <vehicle id="619" pos="42.31" speed="4.85"/>
                <vehicle id="715" pos="139.97" speed="5.70"/>
            </lane>
        </edge>
        <edge id="gneE50">
            <lane id="gneE50_0">
                <vehicle id="728" pos="127.16" speed="5.53"/>
                <vehicle id="750" pos="271.52" speed="5.37"/>
                <vehicle id="725" pos="285.05" speed="4.83"/>
            </lane>
        </edge>
        <edge id="gneE51">
            <lane id="gneE51_0">
                <vehicle id="770" pos="42.08" speed="5.97"/>
                <vehicle id="724" pos="84.09" speed="6.02"/>
                <vehicle id="682" pos="101.46" speed="6.84"/>
                <vehicle id="677" pos="127.00" speed="6.92"/>
                <vehicle id="B3_3" pos="150.92" speed="6.10"/>
                <vehicle id="706" pos="190.45" speed="6.86"/>
                <vehicle id="702" pos="204.84" speed="5.89"/>
                <vehicle id="689" pos="259.74" speed="6.99"/>
                <vehicle id="708" pos="274.99" speed="5.84"/>
                <vehicle id="650" pos="298.60" speed="5.94"/>
                <vehicle id="645" pos="337.04" speed="6.56"/>
                <vehicle id="639" pos="360.68" speed="5.67"/>
            </lane>
        </edge>
        <edge id="gneE52">
            <lane id="gneE52_0">
                <vehicle id="796" pos="48.52" speed="6.86"/>
                <vehicle id="791" pos="79.82" speed="6.10"/>
                <vehicle id="785" pos="118.62" speed="6.43"/>
                <vehicle id="777" pos="169.68" speed="6.72"/>
                <vehicle id="641" pos="226.76" speed="6.34"/>
                <vehicle id="759" pos="255.49" speed="6.79"/>
                <vehicle id="588" pos="272.48" speed="5.85"/>
            </lane>
        </edge>
        <edge id="gneE53">
            <lane id="gneE53_0">
                <vehicle id="514" pos="211.23" speed="6.65"/>
                <vehicle id="710" pos="323.16" speed="6.00"/>
                <vehicle id="B4_3" pos="340.52" speed="6.54"/>
            </lane>
        </edge>
        <edge id="gneE54">
            <lane id="gneE54_0">
                <vehicle id="747" pos="2.30" speed="6.21"/>
                <vehicle id="789" pos="94.79" speed="6.12"/>
            </lane>
        </edge>
        <edge id="gneE58">
            <lane id="gneE58_0">
                <vehicle id="765" pos="27.15" speed="7.37"/>
                <vehicle id="716" pos="138.41" speed="7.90"/>
                <vehicle id="772" pos="213.09" speed="7.06"/>
                <vehicle id="749" pos="234.94" speed="7.41"/>
                <vehicle id="729" pos="289.97" speed="7.91"/>
            </lane>
        </edge>
        <edge id="gneE59">
            <lane id="gneE59_0">
                <vehicle id="753" pos="34.73" speed="8.98"/>
                <vehicle id="745" pos="93.82" speed="8.56"/>
                <vehicle id="784" pos="159.15" speed="8.80"/>
                <vehicle id="666" pos="223.86" speed="8.65"/>
            </lane>
        </edge>
        <edge id="gneE6">
            <lane id="gneE6_0">
                <vehicle id="802" pos="11.32" speed="4.29"/>
                <vehicle id="757" pos="35.31" speed="7.42"/>
                <vehicle id="681" pos="122.38" speed="6.86"/>
                <vehicle id="576" pos="147.63" speed="7.42"/>
            </lane>
        </edge>
        <edge id="gneE60">
            <lane id="gneE60_0">
                <vehicle id="755" pos="12.74" speed="6.89"/>
                <vehicle id="616" pos="62.29" speed="5.85"/>
                <vehicle id="693" pos="107.61" speed="6.31"/>
                <vehicle id="783" pos="122.59" speed="6.77"/>
                <vehicle id="717" pos="139.69" speed="6.67"/>
                <vehicle id="690" pos="213.41" speed="6.31"/>
                <vehicle id="758" pos="239.24" speed="0.52"/>
                <vehicle id="448" pos="247.17" speed="0.35"/>
                <vehicle id="662" pos="254.84" speed="0.09"/>
                <vehicle id="696" pos="262.47" speed="0.06"/>
                <vehicle id="692" pos="270.03" speed="0.02"/>
                <vehicle id="646" pos="277.55" speed="0.00"/>
                <vehicle id="575" pos="285.05" speed="0.00"/>
                <vehicle id="676" pos="292.55" speed="0.00"/>
                <vehicle id="559" pos="300.05" speed="0.00"/>
                <vehicle id="498" pos="307.55" speed="0.00"/>
                <vehicle id="658" pos="315.06" speed="0.00"/>
                <vehicle id="697" pos="322.56" speed="0.00"/>
                <vehicle id="691" pos="330.06" speed="0.00"/>
                <vehicle id="687" pos="337.56" speed="0.00"/>
            </lane>
        </edge>
        <edge id="gneE61">
            <lane id="gneE61_0">
                <vehicle id="694" pos="10.89" speed="6.91"/>
                <vehicle id="680" pos="154.72" speed="7.28"/>
                <vehicle id="642" pos="195.44" speed="7.46"/>
            </lane>
        </edge>
        <edge id="gneE7">
            <lane id="gneE7_0">
                <vehicle id="726" pos="252.17" speed="8.29"/>
            </lane>
        </edge>
        <edge id="gneE8">
            <lane id="gneE8_0">
                <vehicle id="768" pos="15.25" speed="6.79"/>
                <vehicle id="797" pos="47.36" speed="7.66"/>
                <vehicle id="583" pos="131.56" speed="7.36"/>
                <vehicle id="727" pos="181.85" speed="6.94"/>
                <vehicle id="712" pos="287.89" speed="7.11"/>
            </lane>
        </edge>
    </timestep>
