<?xml version="1.0"?>
<timestep time="819.00">
        <edge id=":gneJ15_1">
            <lane id=":gneJ15_1_0">
                <vehicle id="B1_3" pos="5.38" speed="3.87"/>
            </lane>
        </edge>
        <edge id=":gneJ3_1">
            <lane id=":gneJ3_1_0">
                <vehicle id="648" pos="13.15" speed="8.43"/>
            </lane>
        </edge>
        <edge id=":gneJ31_1">
            <lane id=":gneJ31_1_0">
                <vehicle id="759" pos="7.22" speed="6.13"/>
            </lane>
        </edge>
        <edge id=":gneJ9_5">
            <lane id=":gneJ9_5_0">
                <vehicle id="781" pos="4.98" speed="0.04"/>
            </lane>
        </edge>
        <edge id="gneE10">
            <lane id="gneE10_0">
                <vehicle id="635" pos="16.60" speed="5.80"/>
                <vehicle id="751" pos="59.90" speed="5.47"/>
                <vehicle id="723" pos="94.72" speed="5.36"/>
                <vehicle id="698" pos="130.52" speed="6.00"/>
            </lane>
        </edge>
        <edge id="gneE11">
            <lane id="gneE11_0">
                <vehicle id="547" pos="82.79" speed="8.63"/>
                <vehicle id="805" pos="100.11" speed="7.87"/>
                <vehicle id="739" pos="123.85" speed="8.28"/>
            </lane>
        </edge>
        <edge id="gneE12">
            <lane id="gneE12_0">
                <vehicle id="675" pos="165.17" speed="12.62"/>
                <vehicle id="482" pos="280.45" speed="12.84"/>
            </lane>
        </edge>
        <edge id="gneE13">
            <lane id="gneE13_0">
                <vehicle id="788" pos="275.48" speed="9.90"/>
            </lane>
        </edge>
        <edge id="gneE14">
            <lane id="gneE14_0">
                <vehicle id="532" pos="84.96" speed="10.46"/>
                <vehicle id="508" pos="160.69" speed="0.00"/>
            </lane>
        </edge>
        <edge id="gneE15">
            <lane id="gneE15_0">
                <vehicle id="780" pos="5.29" speed="8.74"/>
                <vehicle id="779" pos="37.60" speed="7.72"/>
                <vehicle id="714" pos="70.01" speed="7.83"/>
                <vehicle id="695" pos="88.50" speed="7.85"/>
                <vehicle id="671" pos="159.91" speed="7.81"/>
            </lane>
        </edge>
        <edge id="gneE17">
            <lane id="gneE17_0">
                <vehicle id="600" pos="25.20" speed="8.92"/>
                <vehicle id="586" pos="57.32" speed="9.24"/>
                <vehicle id="B2_3" pos="256.40" speed="9.20"/>
                <vehicle id="565" pos="281.22" speed="6.20"/>
            </lane>
        </edge>
        <edge id="gneE18">
            <lane id="gneE18_0">
                <vehicle id="782" pos="2.90" speed="7.68"/>
                <vehicle id="718" pos="170.58" speed="9.14"/>
                <vehicle id="792" pos="240.23" speed="8.96"/>
                <vehicle id="700" pos="283.66" speed="0.23"/>
            </lane>
        </edge>
        <edge id="gneE19">
            <lane id="gneE19_0">
                <vehicle id="674" pos="190.19" speed="3.29"/>
                <vehicle id="402" pos="203.19" speed="4.77"/>
                <vehicle id="678" pos="216.44" speed="4.12"/>
                <vehicle id="688" pos="227.13" speed="1.65"/>
                <vehicle id="524" pos="236.38" speed="0.87"/>
                <vehicle id="733" pos="244.96" speed="0.40"/>
                <vehicle id="721" pos="252.76" speed="0.15"/>
                <vehicle id="667" pos="260.32" speed="0.04"/>
                <vehicle id="663" pos="267.84" speed="0.00"/>
                <vehicle id="652" pos="275.34" speed="0.00"/>
                <vehicle id="605" pos="282.84" speed="0.00"/>
            </lane>
        </edge>
        <edge id="gneE20">
            <lane id="gneE20_0">
                <vehicle id="645" pos="14.83" speed="7.85"/>
                <vehicle id="639" pos="38.96" speed="8.85"/>
                <vehicle id="731" pos="72.97" speed="8.46"/>
                <vehicle id="738" pos="107.01" speed="7.72"/>
                <vehicle id="684" pos="178.97" speed="7.99"/>
                <vehicle id="774" pos="198.21" speed="8.16"/>
                <vehicle id="656" pos="218.50" speed="8.36"/>
                <vehicle id="685" pos="269.86" speed="8.75"/>
            </lane>
        </edge>
        <edge id="gneE23">
            <lane id="gneE23_0">
                <vehicle id="650" pos="7.77" speed="7.11"/>
                <vehicle id="806" pos="62.82" speed="7.79"/>
                <vehicle id="803" pos="86.67" speed="6.81"/>
                <vehicle id="800" pos="112.81" speed="6.70"/>
                <vehicle id="515" pos="133.99" speed="6.88"/>
                <vehicle id="651" pos="170.96" speed="7.95"/>
            </lane>
        </edge>
        <edge id="gneE24">
            <lane id="gneE24_0">
                <vehicle id="795" pos="35.18" speed="12.11"/>
            </lane>
        </edge>
        <edge id="gneE25">
            <lane id="gneE25_0">
                <vehicle id="810" pos="18.78" speed="6.94"/>
                <vehicle id="655" pos="46.65" speed="9.48"/>
                <vehicle id="807" pos="76.32" speed="9.99"/>
                <vehicle id="614" pos="107.63" speed="9.29"/>
                <vehicle id="748" pos="129.53" speed="9.35"/>
                <vehicle id="608" pos="150.90" speed="9.25"/>
                <vehicle id="624" pos="192.75" speed="4.88"/>
                <vehicle id="591" pos="202.52" speed="1.08"/>
                <vehicle id="771" pos="211.99" speed="1.27"/>
                <vehicle id="741" pos="224.73" speed="4.04"/>
                <vehicle id="536" pos="241.19" speed="6.61"/>
                <vehicle id="551" pos="255.86" speed="4.07"/>
                <vehicle id="578" pos="267.44" speed="2.85"/>
                <vehicle id="582" pos="275.50" speed="0.26"/>
                <vehicle id="555" pos="283.31" speed="0.08"/>
                <vehicle id="505" pos="290.83" speed="0.00"/>
            </lane>
        </edge>
        <edge id="gneE26">
            <lane id="gneE26_0">
                <vehicle id="801" pos="85.75" speed="6.86"/>
                <vehicle id="744" pos="101.45" speed="6.26"/>
                <vehicle id="799" pos="116.01" speed="5.70"/>
                <vehicle id="638" pos="125.81" speed="0.00"/>
                <vehicle id="633" pos="133.31" speed="0.00"/>
                <vehicle id="653" pos="140.82" speed="0.01"/>
                <vehicle id="596" pos="148.40" speed="0.08"/>
                <vehicle id="732" pos="156.25" speed="0.30"/>
                <vehicle id="737" pos="164.48" speed="0.71"/>
                <vehicle id="636" pos="172.83" speed="0.59"/>
                <vehicle id="659" pos="181.95" speed="1.03"/>
                <vehicle id="580" pos="191.01" speed="1.30"/>
                <vehicle id="569" pos="199.89" speed="0.96"/>
                <vehicle id="649" pos="207.98" speed="0.24"/>
                <vehicle id="631" pos="215.72" speed="0.15"/>
                <vehicle id="703" pos="223.29" speed="0.06"/>
                <vehicle id="548" pos="230.80" speed="0.02"/>
                <vehicle id="644" pos="238.32" speed="0.00"/>
                <vehicle id="613" pos="245.82" speed="0.00"/>
                <vehicle id="567" pos="253.32" speed="0.00"/>
                <vehicle id="632" pos="260.82" speed="0.00"/>
                <vehicle id="598" pos="268.33" speed="0.00"/>
                <vehicle id="556" pos="275.83" speed="0.00"/>
                <vehicle id="595" pos="283.33" speed="0.00"/>
                <vehicle id="570" pos="290.83" speed="0.00"/>
            </lane>
        </edge>
        <edge id="gneE27">
            <lane id="gneE27_0">
                <vehicle id="643" pos="52.31" speed="5.64"/>
                <vehicle id="604" pos="71.25" speed="5.09"/>
            </lane>
        </edge>
        <edge id="gneE28">
            <lane id="gneE28_0">
                <vehicle id="736" pos="138.92" speed="7.21"/>
            </lane>
        </edge>
        <edge id="gneE3">
            <lane id="gneE3_0">
                <vehicle id="819" pos="5.10" speed="0.00"/>
                <vehicle id="754" pos="59.18" speed="9.25"/>
                <vehicle id="775" pos="77.74" speed="9.28"/>
            </lane>
        </edge>
        <edge id="gneE31">
            <lane id="gneE31_0">
                <vehicle id="722" pos="4.39" speed="7.85"/>
                <vehicle id="683" pos="36.69" speed="8.66"/>
                <vehicle id="726" pos="63.70" speed="8.09"/>
                <vehicle id="761" pos="163.41" speed="8.52"/>
                <vehicle id="756" pos="192.27" speed="8.94"/>
                <vehicle id="709" pos="209.14" speed="7.94"/>
                <vehicle id="701" pos="255.10" speed="8.95"/>
            </lane>
        </edge>
        <edge id="gneE32">
            <lane id="gneE32_0">
                <vehicle id="786" pos="41.93" speed="7.64"/>
                <vehicle id="809" pos="65.16" speed="7.22"/>
                <vehicle id="767" pos="175.81" speed="7.38"/>
            </lane>
        </edge>
        <edge id="gneE38">
            <lane id="gneE38_0">
                <vehicle id="764" pos="336.51" speed="1.03"/>
            </lane>
        </edge>
        <edge id="gneE4">
            <lane id="gneE4_0">
                <vehicle id="773" pos="23.18" speed="9.33"/>
                <vehicle id="804" pos="69.17" speed="9.20"/>
                <vehicle id="760" pos="105.03" speed="9.59"/>
                <vehicle id="720" pos="134.26" speed="9.29"/>
            </lane>
        </edge>
        <edge id="gneE41">
            <lane id="gneE41_0">
                <vehicle id="622" pos="17.66" speed="8.23"/>
                <vehicle id="813" pos="43.94" speed="8.98"/>
                <vehicle id="573" pos="96.48" speed="8.65"/>
            </lane>
        </edge>
        <edge id="gneE42">
            <lane id="gneE42_0">
                <vehicle id="816" pos="19.55" speed="7.01"/>
                <vehicle id="620" pos="129.58" speed="7.68"/>
            </lane>
        </edge>
        <edge id="gneE43">
            <lane id="gneE43_0">
                <vehicle id="778" pos="133.81" speed="6.51"/>
                <vehicle id="794" pos="156.53" speed="6.73"/>
                <vehicle id="734" pos="178.79" speed="6.52"/>
                <vehicle id="769" pos="306.64" speed="1.00"/>
            </lane>
        </edge>
        <edge id="gneE45">
            <lane id="gneE45_0">
                <vehicle id="818" pos="7.05" speed="1.95"/>
                <vehicle id="665" pos="142.37" speed="8.07"/>
                <vehicle id="705" pos="180.15" speed="8.41"/>
                <vehicle id="790" pos="214.53" speed="8.66"/>
                <vehicle id="669" pos="239.36" speed="8.48"/>
                <vehicle id="699" pos="265.25" speed="7.95"/>
                <vehicle id="661" pos="291.12" speed="8.82"/>
            </lane>
        </edge>
        <edge id="gneE46">
            <lane id="gneE46_0">
                <vehicle id="793" pos="58.74" speed="9.53"/>
                <vehicle id="628" pos="99.52" speed="9.75"/>
                <vehicle id="743" pos="188.09" speed="8.72"/>
            </lane>
        </edge>
        <edge id="gneE47">
            <lane id="gneE47_0">
                <vehicle id="457" pos="9.61" speed="8.30"/>
                <vehicle id="752" pos="178.27" speed="7.74"/>
            </lane>
        </edge>
        <edge id="gneE48">
            <lane id="gneE48_0">
                <vehicle id="789" pos="38.07" speed="6.98"/>
                <vehicle id="798" pos="129.10" speed="6.43"/>
                <vehicle id="686" pos="191.33" speed="6.11"/>
                <vehicle id="776" pos="269.71" speed="6.36"/>
                <vehicle id="740" pos="311.96" speed="4.38"/>
                <vehicle id="719" pos="319.64" speed="0.00"/>
            </lane>
        </edge>
        <edge id="gneE49">
            <lane id="gneE49_0">
                <vehicle id="602" pos="68.51" speed="7.71"/>
                <vehicle id="657" pos="206.52" speed="6.89"/>
                <vehicle id="787" pos="223.13" speed="6.98"/>
            </lane>
        </edge>
        <edge id="gneE5">
            <lane id="gneE5_0">
                <vehicle id="B1_2" pos="42.69" speed="5.42"/>
                <vehicle id="637" pos="105.66" speed="5.13"/>
                <vehicle id="619" pos="123.66" speed="5.61"/>
            </lane>
        </edge>
        <edge id="gneE50">
            <lane id="gneE50_0">
                <vehicle id="728" pos="207.72" speed="5.89"/>
                <vehicle id="750" pos="349.97" speed="5.60"/>
                <vehicle id="725" pos="365.36" speed="4.45"/>
            </lane>
        </edge>
        <edge id="gneE51">
            <lane id="gneE51_0">
                <vehicle id="599" pos="8.68" speed="6.53"/>
                <vehicle id="621" pos="24.80" speed="6.69"/>
                <vehicle id="763" pos="41.27" speed="6.75"/>
                <vehicle id="735" pos="88.97" speed="6.20"/>
                <vehicle id="770" pos="136.99" speed="6.74"/>
                <vehicle id="724" pos="179.27" speed="6.59"/>
                <vehicle id="682" pos="196.75" speed="6.74"/>
                <vehicle id="677" pos="223.34" speed="6.87"/>
                <vehicle id="B3_3" pos="244.88" speed="6.20"/>
                <vehicle id="706" pos="284.26" speed="6.77"/>
                <vehicle id="702" pos="300.95" speed="5.90"/>
                <vehicle id="689" pos="351.38" speed="6.05"/>
                <vehicle id="708" pos="364.42" speed="3.65"/>
            </lane>
        </edge>
        <edge id="gneE52">
            <lane id="gneE52_0">
                <vehicle id="796" pos="144.97" speed="6.63"/>
                <vehicle id="791" pos="173.81" speed="5.85"/>
                <vehicle id="785" pos="212.65" speed="6.78"/>
                <vehicle id="777" pos="261.85" speed="6.08"/>
                <vehicle id="641" pos="319.20" speed="6.92"/>
            </lane>
        </edge>
        <edge id="gneE53">
            <lane id="gneE53_0">
                <vehicle id="814" pos="29.60" speed="6.10"/>
                <vehicle id="514" pos="306.00" speed="6.90"/>
                <vehicle id="710" pos="335.66" speed="0.00"/>
                <vehicle id="B4_3" pos="343.16" speed="0.00"/>
            </lane>
        </edge>
        <edge id="gneE54">
            <lane id="gneE54_0">
                <vehicle id="588" pos="12.79" speed="6.85"/>
                <vehicle id="747" pos="97.97" speed="6.80"/>
            </lane>
        </edge>
        <edge id="gneE55">
            <lane id="gneE55_0">
                <vehicle id="610" pos="24.98" speed="6.96"/>
                <vehicle id="762" pos="86.73" speed="6.89"/>
            </lane>
        </edge>
        <edge id="gneE57">
            <lane id="gneE57_0">
                <vehicle id="811" pos="48.85" speed="6.88"/>
            </lane>
        </edge>
        <edge id="gneE58">
            <lane id="gneE58_0">
                <vehicle id="647" pos="82.76" speed="7.19"/>
                <vehicle id="766" pos="102.42" speed="7.02"/>
                <vehicle id="765" pos="136.79" speed="7.73"/>
                <vehicle id="716" pos="249.41" speed="7.52"/>
            </lane>
        </edge>
        <edge id="gneE59">
            <lane id="gneE59_0">
                <vehicle id="753" pos="158.68" speed="8.89"/>
                <vehicle id="745" pos="218.78" speed="8.08"/>
                <vehicle id="784" pos="284.67" speed="7.74"/>
            </lane>
        </edge>
        <edge id="gneE6">
            <lane id="gneE6_0">
                <vehicle id="812" pos="47.69" speed="7.55"/>
                <vehicle id="712" pos="88.50" speed="7.79"/>
                <vehicle id="802" pos="118.86" speed="7.16"/>
                <vehicle id="757" pos="141.39" speed="6.87"/>
            </lane>
        </edge>
        <edge id="gneE60">
            <lane id="gneE60_0">
                <vehicle id="772" pos="0.49" speed="6.49"/>
                <vehicle id="749" pos="18.42" speed="5.92"/>
                <vehicle id="808" pos="46.64" speed="6.75"/>
                <vehicle id="729" pos="66.07" speed="6.21"/>
                <vehicle id="755" pos="108.41" speed="6.26"/>
                <vehicle id="616" pos="154.91" speed="6.18"/>
                <vehicle id="693" pos="198.63" speed="6.16"/>
                <vehicle id="783" pos="215.02" speed="4.98"/>
                <vehicle id="717" pos="224.96" speed="1.00"/>
                <vehicle id="690" pos="232.54" speed="0.00"/>
                <vehicle id="758" pos="240.05" speed="0.00"/>
                <vehicle id="448" pos="247.55" speed="0.00"/>
                <vehicle id="662" pos="255.05" speed="0.00"/>
                <vehicle id="696" pos="262.55" speed="0.00"/>
                <vehicle id="692" pos="270.05" speed="0.00"/>
                <vehicle id="646" pos="277.55" speed="0.00"/>
                <vehicle id="575" pos="285.05" speed="0.00"/>
                <vehicle id="676" pos="292.55" speed="0.00"/>
                <vehicle id="559" pos="300.05" speed="0.00"/>
                <vehicle id="498" pos="307.56" speed="0.00"/>
                <vehicle id="658" pos="315.06" speed="0.00"/>
                <vehicle id="697" pos="322.56" speed="0.00"/>
                <vehicle id="691" pos="330.06" speed="0.00"/>
                <vehicle id="687" pos="337.56" speed="0.00"/>
            </lane>
        </edge>
        <edge id="gneE61">
            <lane id="gneE61_0">
                <vehicle id="618" pos="97.54" speed="7.36"/>
                <vehicle id="694" pos="119.21" speed="6.82"/>
                <vehicle id="680" pos="265.04" speed="7.38"/>
                <vehicle id="642" pos="306.34" speed="7.05"/>
            </lane>
        </edge>
        <edge id="gneE7">
            <lane id="gneE7_0">
                <vehicle id="815" pos="26.57" speed="8.00"/>
                <vehicle id="715" pos="106.56" speed="8.22"/>
            </lane>
        </edge>
        <edge id="gneE8">
            <lane id="gneE8_0">
                <vehicle id="768" pos="124.57" speed="7.52"/>
                <vehicle id="797" pos="159.31" speed="7.32"/>
                <vehicle id="583" pos="240.60" speed="7.64"/>
                <vehicle id="727" pos="290.03" speed="7.29"/>
            </lane>
        </edge>
    </timestep>
