<?xml version="1.0"?>
<timestep time="82.00">
        <edge id=":gneJ11_41">
            <lane id=":gneJ11_41_0">
                <vehicle id="20" pos="5.97" speed="7.33"/>
            </lane>
        </edge>
        <edge id=":gneJ28_10">
            <lane id=":gneJ28_10_0">
                <vehicle id="14" pos="14.52" speed="10.16"/>
            </lane>
        </edge>
        <edge id=":gneJ4_1">
            <lane id=":gneJ4_1_0">
                <vehicle id="1" pos="5.76" speed="8.29"/>
            </lane>
        </edge>
        <edge id="gneE1">
            <lane id="gneE1_0">
                <vehicle id="76" pos="29.01" speed="4.78"/>
                <vehicle id="50" pos="140.57" speed="3.94"/>
            </lane>
        </edge>
        <edge id="gneE10">
            <lane id="gneE10_0">
                <vehicle id="75" pos="37.37" speed="5.81"/>
            </lane>
        </edge>
        <edge id="gneE11">
            <lane id="gneE11_0">
                <vehicle id="42" pos="15.06" speed="7.71"/>
                <vehicle id="31" pos="111.40" speed="7.72"/>
            </lane>
        </edge>
        <edge id="gneE12">
            <lane id="gneE12_0">
                <vehicle id="6" pos="271.86" speed="13.12"/>
            </lane>
        </edge>
        <edge id="gneE13">
            <lane id="gneE13_0">
                <vehicle id="43" pos="158.00" speed="9.80"/>
                <vehicle id="56" pos="232.80" speed="9.25"/>
            </lane>
        </edge>
        <edge id="gneE14">
            <lane id="gneE14_0">
                <vehicle id="19" pos="68.01" speed="10.66"/>
            </lane>
        </edge>
        <edge id="gneE15">
            <lane id="gneE15_0">
                <vehicle id="80" pos="12.00" speed="4.31"/>
                <vehicle id="38" pos="70.56" speed="7.75"/>
                <vehicle id="35" pos="94.31" speed="8.99"/>
            </lane>
        </edge>
        <edge id="gneE17">
            <lane id="gneE17_0">
                <vehicle id="69" pos="88.45" speed="9.14"/>
                <vehicle id="2" pos="270.03" speed="9.79"/>
            </lane>
        </edge>
        <edge id="gneE18">
            <lane id="gneE18_0">
                <vehicle id="78" pos="26.51" speed="8.21"/>
                <vehicle id="33" pos="80.53" speed="8.95"/>
                <vehicle id="15" pos="122.88" speed="9.52"/>
                <vehicle id="24" pos="151.75" speed="8.80"/>
                <vehicle id="28" pos="173.68" speed="9.51"/>
            </lane>
        </edge>
        <edge id="gneE19">
            <lane id="gneE19_0">
                <vehicle id="52" pos="122.19" speed="12.35"/>
                <vehicle id="9" pos="262.63" speed="11.45"/>
            </lane>
        </edge>
        <edge id="gneE20">
            <lane id="gneE20_0">
                <vehicle id="21" pos="59.07" speed="8.25"/>
            </lane>
        </edge>
        <edge id="gneE23">
            <lane id="gneE23_0">
                <vehicle id="51" pos="12.77" speed="6.86"/>
                <vehicle id="18" pos="80.84" speed="6.95"/>
                <vehicle id="4" pos="155.06" speed="6.92"/>
                <vehicle id="5" pos="172.90" speed="6.72"/>
            </lane>
        </edge>
        <edge id="gneE24">
            <lane id="gneE24_0">
                <vehicle id="17" pos="130.03" speed="12.39"/>
            </lane>
        </edge>
        <edge id="gneE25">
            <lane id="gneE25_0">
                <vehicle id="25" pos="25.19" speed="8.94"/>
                <vehicle id="74" pos="57.35" speed="8.91"/>
                <vehicle id="61" pos="183.83" speed="9.98"/>
                <vehicle id="53" pos="254.93" speed="9.85"/>
            </lane>
        </edge>
        <edge id="gneE26">
            <lane id="gneE26_0">
                <vehicle id="77" pos="28.67" speed="5.80"/>
            </lane>
        </edge>
        <edge id="gneE27">
            <lane id="gneE27_0">
                <vehicle id="71" pos="58.66" speed="5.30"/>
            </lane>
        </edge>
        <edge id="gneE28">
            <lane id="gneE28_0">
                <vehicle id="16" pos="41.07" speed="7.97"/>
            </lane>
        </edge>
        <edge id="gneE30">
            <lane id="gneE30_0">
                <vehicle id="65" pos="129.90" speed="8.61"/>
            </lane>
        </edge>
        <edge id="gneE31">
            <lane id="gneE31_0">
                <vehicle id="49" pos="55.95" speed="8.76"/>
                <vehicle id="68" pos="104.58" speed="7.76"/>
                <vehicle id="26" pos="244.99" speed="8.72"/>
            </lane>
        </edge>
        <edge id="gneE38">
            <lane id="gneE38_0">
                <vehicle id="0" pos="173.24" speed="8.53"/>
                <vehicle id="37" pos="189.80" speed="7.82"/>
            </lane>
        </edge>
        <edge id="gneE4">
            <lane id="gneE4_0">
                <vehicle id="72" pos="77.62" speed="8.86"/>
            </lane>
        </edge>
        <edge id="gneE41">
            <lane id="gneE41_0">
                <vehicle id="30" pos="37.94" speed="8.97"/>
            </lane>
        </edge>
        <edge id="gneE42">
            <lane id="gneE42_0">
                <vehicle id="81" pos="7.68" speed="2.58"/>
            </lane>
        </edge>
        <edge id="gneE43">
            <lane id="gneE43_0">
                <vehicle id="34" pos="179.39" speed="6.76"/>
            </lane>
        </edge>
        <edge id="gneE45">
            <lane id="gneE45_0">
                <vehicle id="12" pos="176.12" speed="8.12"/>
            </lane>
        </edge>
        <edge id="gneE47">
            <lane id="gneE47_0">
                <vehicle id="57" pos="7.68" speed="8.60"/>
            </lane>
        </edge>
        <edge id="gneE48">
            <lane id="gneE48_0">
                <vehicle id="73" pos="55.06" speed="6.45"/>
                <vehicle id="59" pos="139.17" speed="6.82"/>
                <vehicle id="55" pos="157.24" speed="5.75"/>
                <vehicle id="29" pos="173.87" speed="5.90"/>
                <vehicle id="36" pos="287.34" speed="5.96"/>
            </lane>
        </edge>
        <edge id="gneE49">
            <lane id="gneE49_0">
                <vehicle id="79" pos="16.65" speed="5.99"/>
                <vehicle id="27" pos="64.93" speed="7.06"/>
                <vehicle id="63" pos="133.95" speed="7.66"/>
                <vehicle id="54" pos="199.96" speed="7.18"/>
                <vehicle id="39" pos="310.54" speed="7.76"/>
            </lane>
        </edge>
        <edge id="gneE5">
            <lane id="gneE5_0">
                <vehicle id="66" pos="85.89" speed="5.94"/>
            </lane>
        </edge>
        <edge id="gneE51">
            <lane id="gneE51_0">
                <vehicle id="62" pos="125.38" speed="6.94"/>
                <vehicle id="32" pos="314.30" speed="6.12"/>
            </lane>
        </edge>
        <edge id="gneE52">
            <lane id="gneE52_0">
                <vehicle id="23" pos="220.07" speed="6.73"/>
                <vehicle id="10" pos="287.97" speed="6.58"/>
            </lane>
        </edge>
        <edge id="gneE53">
            <lane id="gneE53_0">
                <vehicle id="58" pos="22.60" speed="6.28"/>
                <vehicle id="22" pos="109.74" speed="6.47"/>
                <vehicle id="40" pos="136.90" speed="6.01"/>
                <vehicle id="11" pos="319.68" speed="6.63"/>
            </lane>
        </edge>
        <edge id="gneE55">
            <lane id="gneE55_0">
                <vehicle id="70" pos="82.00" speed="6.98"/>
            </lane>
        </edge>
        <edge id="gneE58">
            <lane id="gneE58_0">
                <vehicle id="67" pos="107.23" speed="7.83"/>
                <vehicle id="44" pos="274.39" speed="6.84"/>
                <vehicle id="41" pos="301.65" speed="7.39"/>
            </lane>
        </edge>
        <edge id="gneE60">
            <lane id="gneE60_0">
                <vehicle id="60" pos="136.39" speed="5.80"/>
                <vehicle id="13" pos="157.61" speed="6.41"/>
                <vehicle id="48" pos="214.53" speed="6.94"/>
            </lane>
        </edge>
        <edge id="gneE61">
            <lane id="gneE61_0">
                <vehicle id="7" pos="130.11" speed="7.18"/>
                <vehicle id="45" pos="266.68" speed="7.09"/>
            </lane>
        </edge>
        <edge id="gneE7">
            <lane id="gneE7_0">
                <vehicle id="82" pos="5.10" speed="0.00"/>
                <vehicle id="47" pos="56.36" speed="8.34"/>
            </lane>
        </edge>
        <edge id="gneE8">
            <lane id="gneE8_0">
                <vehicle id="64" pos="126.50" speed="6.96"/>
            </lane>
        </edge>
    </timestep>
