<?xml version="1.0"?>
<timestep time="844.00">
        <edge id=":gneJ11_9">
            <lane id=":gneJ11_9_0">
                <vehicle id="B3_3" pos="14.91" speed="8.39"/>
            </lane>
        </edge>
        <edge id=":gneJ15_14">
            <lane id=":gneJ15_14_0">
                <vehicle id="598" pos="16.98" speed="8.23"/>
            </lane>
        </edge>
        <edge id=":gneJ3_1">
            <lane id=":gneJ3_1_0">
                <vehicle id="B2_3" pos="19.21" speed="7.46"/>
            </lane>
        </edge>
        <edge id=":gneJ3_3">
            <lane id=":gneJ3_3_0">
                <vehicle id="753" pos="1.83" speed="5.25"/>
            </lane>
        </edge>
        <edge id=":gneJ33_1">
            <lane id=":gneJ33_1_0">
                <vehicle id="765" pos="2.23" speed="6.99"/>
            </lane>
        </edge>
        <edge id=":gneJ5_0">
            <lane id=":gneJ5_0_0">
                <vehicle id="768" pos="6.87" speed="7.58"/>
            </lane>
        </edge>
        <edge id=":gneJ8_4">
            <lane id=":gneJ8_4_0">
                <vehicle id="781" pos="4.73" speed="8.17"/>
            </lane>
        </edge>
        <edge id=":gneJ9_2">
            <lane id=":gneJ9_2_0">
                <vehicle id="731" pos="0.61" speed="8.89"/>
            </lane>
        </edge>
        <edge id=":gneJ9_5">
            <lane id=":gneJ9_5_0">
                <vehicle id="718" pos="4.98" speed="0.01"/>
            </lane>
        </edge>
        <edge id="gneE10">
            <lane id="gneE10_0">
                <vehicle id="685" pos="11.58" speed="4.90"/>
                <vehicle id="780" pos="28.10" speed="5.57"/>
                <vehicle id="695" pos="74.25" speed="5.17"/>
                <vehicle id="788" pos="109.08" speed="5.50"/>
            </lane>
        </edge>
        <edge id="gneE12">
            <lane id="gneE12_0">
                <vehicle id="779" pos="95.71" speed="12.73"/>
                <vehicle id="505" pos="184.75" speed="13.36"/>
                <vehicle id="824" pos="209.17" speed="13.45"/>
                <vehicle id="805" pos="258.71" speed="13.47"/>
                <vehicle id="739" pos="293.77" speed="13.63"/>
            </lane>
        </edge>
        <edge id="gneE13">
            <lane id="gneE13_0">
                <vehicle id="812" pos="31.82" speed="9.95"/>
                <vehicle id="819" pos="59.56" speed="9.26"/>
                <vehicle id="712" pos="89.58" speed="9.09"/>
                <vehicle id="802" pos="174.19" speed="9.63"/>
            </lane>
        </edge>
        <edge id="gneE14">
            <lane id="gneE14_0">
                <vehicle id="555" pos="116.87" speed="10.76"/>
                <vehicle id="532" pos="153.19" speed="0.00"/>
                <vehicle id="508" pos="160.69" speed="0.00"/>
            </lane>
        </edge>
        <edge id="gneE15">
            <lane id="gneE15_0">
                <vehicle id="738" pos="27.69" speed="8.57"/>
                <vehicle id="792" pos="57.83" speed="8.39"/>
                <vehicle id="700" pos="75.50" speed="8.35"/>
                <vehicle id="656" pos="142.31" speed="8.60"/>
            </lane>
        </edge>
        <edge id="gneE17">
            <lane id="gneE17_0">
                <vehicle id="684" pos="108.19" speed="9.73"/>
                <vehicle id="774" pos="132.99" speed="9.52"/>
                <vehicle id="600" pos="258.33" speed="9.25"/>
            </lane>
        </edge>
        <edge id="gneE18">
            <lane id="gneE18_0">
                <vehicle id="745" pos="9.41" speed="6.94"/>
                <vehicle id="757" pos="39.95" speed="9.46"/>
                <vehicle id="773" pos="70.27" speed="9.07"/>
                <vehicle id="831" pos="90.13" speed="8.70"/>
                <vehicle id="804" pos="123.09" speed="9.20"/>
                <vehicle id="825" pos="157.73" speed="9.82"/>
                <vehicle id="784" pos="185.23" speed="9.35"/>
                <vehicle id="782" pos="238.81" speed="9.37"/>
            </lane>
        </edge>
        <edge id="gneE19">
            <lane id="gneE19_0">
                <vehicle id="674" pos="222.53" speed="0.33"/>
                <vehicle id="402" pos="230.27" speed="0.22"/>
                <vehicle id="678" pos="237.81" speed="0.02"/>
                <vehicle id="688" pos="245.33" speed="0.01"/>
                <vehicle id="524" pos="252.83" speed="0.00"/>
                <vehicle id="733" pos="260.34" speed="0.00"/>
                <vehicle id="721" pos="267.84" speed="0.00"/>
                <vehicle id="667" pos="275.34" speed="0.00"/>
                <vehicle id="663" pos="282.84" speed="0.00"/>
            </lane>
        </edge>
        <edge id="gneE20">
            <lane id="gneE20_0">
                <vehicle id="719" pos="31.64" speed="8.70"/>
                <vehicle id="795" pos="80.71" speed="8.82"/>
                <vehicle id="687" pos="97.42" speed="8.61"/>
                <vehicle id="689" pos="156.11" speed="7.97"/>
                <vehicle id="708" pos="177.83" speed="8.85"/>
                <vehicle id="645" pos="222.46" speed="8.12"/>
                <vehicle id="639" pos="249.80" speed="8.72"/>
            </lane>
        </edge>
        <edge id="gneE23">
            <lane id="gneE23_0">
                <vehicle id="691" pos="74.32" speed="7.42"/>
                <vehicle id="830" pos="98.52" speed="6.71"/>
                <vehicle id="605" pos="118.64" speed="7.77"/>
            </lane>
        </edge>
        <edge id="gneE24">
            <lane id="gneE24_0">
                <vehicle id="832" pos="95.70" speed="11.90"/>
                <vehicle id="769" pos="147.07" speed="12.20"/>
            </lane>
        </edge>
        <edge id="gneE25">
            <lane id="gneE25_0">
                <vehicle id="806" pos="63.03" speed="9.32"/>
                <vehicle id="651" pos="156.07" speed="9.14"/>
                <vehicle id="B1_3" pos="170.93" speed="0.10"/>
                <vehicle id="810" pos="178.94" speed="0.47"/>
                <vehicle id="655" pos="188.85" speed="2.30"/>
                <vehicle id="807" pos="200.94" speed="3.66"/>
                <vehicle id="614" pos="210.81" speed="1.60"/>
                <vehicle id="748" pos="219.47" speed="1.11"/>
                <vehicle id="608" pos="229.41" speed="1.51"/>
                <vehicle id="624" pos="237.81" speed="0.47"/>
                <vehicle id="591" pos="245.62" speed="0.27"/>
                <vehicle id="771" pos="253.26" speed="0.04"/>
                <vehicle id="741" pos="260.82" speed="0.02"/>
                <vehicle id="536" pos="268.33" speed="0.00"/>
                <vehicle id="551" pos="275.83" speed="0.00"/>
                <vehicle id="578" pos="283.33" speed="0.00"/>
                <vehicle id="582" pos="290.83" speed="0.00"/>
            </lane>
        </edge>
        <edge id="gneE26">
            <lane id="gneE26_0">
                <vehicle id="834" pos="61.64" speed="6.79"/>
                <vehicle id="801" pos="110.78" speed="0.02"/>
                <vehicle id="744" pos="118.30" speed="0.00"/>
                <vehicle id="799" pos="125.81" speed="0.00"/>
                <vehicle id="638" pos="133.31" speed="0.00"/>
                <vehicle id="633" pos="140.81" speed="0.00"/>
                <vehicle id="653" pos="148.31" speed="0.00"/>
                <vehicle id="596" pos="155.81" speed="0.00"/>
                <vehicle id="732" pos="163.31" speed="0.00"/>
                <vehicle id="737" pos="170.82" speed="0.01"/>
                <vehicle id="636" pos="178.59" speed="0.25"/>
                <vehicle id="659" pos="186.61" speed="0.51"/>
                <vehicle id="580" pos="195.44" speed="1.04"/>
                <vehicle id="569" pos="207.40" speed="3.88"/>
                <vehicle id="649" pos="218.61" speed="2.40"/>
                <vehicle id="631" pos="227.94" speed="0.95"/>
                <vehicle id="703" pos="237.16" speed="0.91"/>
                <vehicle id="548" pos="245.28" speed="0.32"/>
                <vehicle id="644" pos="253.71" speed="0.88"/>
                <vehicle id="613" pos="263.88" speed="2.43"/>
                <vehicle id="567" pos="275.61" speed="3.08"/>
                <vehicle id="632" pos="288.85" speed="4.59"/>
            </lane>
        </edge>
        <edge id="gneE28">
            <lane id="gneE28_0">
                <vehicle id="836" pos="26.31" speed="8.28"/>
                <vehicle id="835" pos="52.14" speed="7.90"/>
                <vehicle id="761" pos="76.60" speed="7.92"/>
                <vehicle id="709" pos="123.36" speed="8.00"/>
            </lane>
        </edge>
        <edge id="gneE30">
            <lane id="gneE30_0">
                <vehicle id="841" pos="16.77" speed="5.81"/>
                <vehicle id="643" pos="59.98" speed="8.09"/>
                <vehicle id="833" pos="86.07" speed="8.95"/>
            </lane>
        </edge>
        <edge id="gneE31">
            <lane id="gneE31_0">
                <vehicle id="715" pos="5.24" speed="8.04"/>
                <vehicle id="751" pos="71.78" speed="8.49"/>
                <vehicle id="723" pos="129.58" speed="8.10"/>
                <vehicle id="722" pos="213.41" speed="8.86"/>
                <vehicle id="683" pos="245.43" speed="8.97"/>
                <vehicle id="726" pos="271.50" speed="8.92"/>
            </lane>
        </edge>
        <edge id="gneE32">
            <lane id="gneE32_0">
                <vehicle id="595" pos="75.14" speed="6.96"/>
                <vehicle id="570" pos="92.03" speed="7.60"/>
                <vehicle id="786" pos="225.65" speed="7.85"/>
                <vehicle id="809" pos="247.89" speed="6.71"/>
            </lane>
        </edge>
        <edge id="gneE38">
            <lane id="gneE38_0">
                <vehicle id="840" pos="26.30" speed="8.63"/>
                <vehicle id="816" pos="53.94" speed="7.96"/>
                <vehicle id="764" pos="342.98" speed="0.00"/>
            </lane>
        </edge>
        <edge id="gneE4">
            <lane id="gneE4_0">
                <vehicle id="842" pos="7.05" speed="1.95"/>
                <vehicle id="828" pos="125.53" speed="8.75"/>
            </lane>
        </edge>
        <edge id="gneE41">
            <lane id="gneE41_0">
                <vehicle id="767" pos="15.07" speed="8.80"/>
            </lane>
        </edge>
        <edge id="gneE42">
            <lane id="gneE42_0">
                <vehicle id="669" pos="72.76" speed="7.89"/>
                <vehicle id="725" pos="127.15" speed="7.32"/>
            </lane>
        </edge>
        <edge id="gneE43">
            <lane id="gneE43_0">
                <vehicle id="813" pos="70.57" speed="6.88"/>
                <vehicle id="750" pos="90.11" speed="6.51"/>
                <vehicle id="752" pos="134.37" speed="6.27"/>
                <vehicle id="778" pos="290.41" speed="2.73"/>
                <vehicle id="794" pos="299.21" speed="0.23"/>
                <vehicle id="734" pos="306.73" speed="0.01"/>
            </lane>
        </edge>
        <edge id="gneE45">
            <lane id="gneE45_0">
                <vehicle id="556" pos="12.80" speed="8.84"/>
                <vehicle id="803" pos="80.89" speed="8.30"/>
                <vehicle id="800" pos="112.53" speed="7.87"/>
                <vehicle id="818" pos="210.03" speed="8.56"/>
                <vehicle id="665" pos="306.73" speed="0.00"/>
            </lane>
        </edge>
        <edge id="gneE46">
            <lane id="gneE46_0">
                <vehicle id="705" pos="43.02" speed="9.61"/>
                <vehicle id="790" pos="72.52" speed="9.03"/>
                <vehicle id="699" pos="116.31" speed="8.92"/>
            </lane>
        </edge>
        <edge id="gneE47">
            <lane id="gneE47_0">
                <vehicle id="657" pos="24.56" speed="8.52"/>
            </lane>
        </edge>
        <edge id="gneE48">
            <lane id="gneE48_0">
                <vehicle id="759" pos="0.20" speed="6.07"/>
                <vehicle id="747" pos="44.39" speed="6.79"/>
                <vehicle id="793" pos="63.45" speed="6.18"/>
                <vehicle id="628" pos="89.51" speed="6.64"/>
                <vehicle id="743" pos="149.99" speed="6.76"/>
                <vehicle id="789" pos="197.25" speed="6.91"/>
                <vehicle id="798" pos="291.29" speed="6.90"/>
                <vehicle id="686" pos="311.93" speed="1.29"/>
                <vehicle id="776" pos="319.62" speed="0.03"/>
            </lane>
        </edge>
        <edge id="gneE49">
            <lane id="gneE49_0">
                <vehicle id="697" pos="12.57" speed="6.46"/>
                <vehicle id="837" pos="29.92" speed="7.28"/>
                <vehicle id="811" pos="54.35" speed="6.97"/>
                <vehicle id="702" pos="84.74" speed="6.99"/>
                <vehicle id="602" pos="256.73" speed="7.65"/>
            </lane>
        </edge>
        <edge id="gneE5">
            <lane id="gneE5_0">
                <vehicle id="675" pos="50.90" speed="4.85"/>
                <vehicle id="754" pos="65.63" speed="5.82"/>
                <vehicle id="775" pos="79.92" speed="5.43"/>
                <vehicle id="820" pos="125.17" speed="5.23"/>
            </lane>
        </edge>
        <edge id="gneE50">
            <lane id="gneE50_0">
                <vehicle id="839" pos="7.69" speed="2.59"/>
                <vehicle id="740" pos="21.01" speed="5.55"/>
                <vehicle id="728" pos="344.51" speed="5.30"/>
            </lane>
        </edge>
        <edge id="gneE51">
            <lane id="gneE51_0">
                <vehicle id="823" pos="5.19" speed="6.40"/>
                <vehicle id="599" pos="165.07" speed="6.43"/>
                <vehicle id="621" pos="181.95" speed="5.91"/>
                <vehicle id="763" pos="199.42" speed="6.15"/>
                <vehicle id="735" pos="250.69" speed="6.21"/>
                <vehicle id="770" pos="299.63" speed="6.38"/>
                <vehicle id="724" pos="336.34" speed="5.06"/>
                <vehicle id="682" pos="350.15" speed="4.22"/>
                <vehicle id="677" pos="362.88" speed="4.99"/>
            </lane>
        </edge>
        <edge id="gneE52">
            <lane id="gneE52_0">
                <vehicle id="706" pos="5.19" speed="5.76"/>
                <vehicle id="796" pos="305.70" speed="6.99"/>
                <vehicle id="791" pos="334.91" speed="6.45"/>
            </lane>
        </edge>
        <edge id="gneE53">
            <lane id="gneE53_0">
                <vehicle id="610" pos="54.98" speed="6.56"/>
                <vehicle id="826" pos="88.22" speed="6.45"/>
                <vehicle id="762" pos="106.71" speed="6.56"/>
                <vehicle id="814" pos="189.26" speed="6.27"/>
                <vehicle id="514" pos="328.16" speed="0.00"/>
                <vehicle id="710" pos="335.66" speed="0.00"/>
                <vehicle id="B4_3" pos="343.16" speed="0.00"/>
            </lane>
        </edge>
        <edge id="gneE54">
            <lane id="gneE54_0">
                <vehicle id="785" pos="18.11" speed="6.65"/>
                <vehicle id="777" pos="69.13" speed="5.71"/>
                <vehicle id="817" pos="136.62" speed="6.67"/>
            </lane>
        </edge>
        <edge id="gneE55">
            <lane id="gneE55_0">
                <vehicle id="787" pos="79.16" speed="6.77"/>
            </lane>
        </edge>
        <edge id="gneE58">
            <lane id="gneE58_0">
                <vehicle id="760" pos="124.12" speed="7.10"/>
                <vehicle id="720" pos="147.08" speed="7.62"/>
                <vehicle id="647" pos="266.72" speed="6.71"/>
                <vehicle id="766" pos="286.94" speed="7.42"/>
            </lane>
        </edge>
        <edge id="gneE59">
            <lane id="gneE59_0">
                <vehicle id="829" pos="87.97" speed="7.75"/>
                <vehicle id="680" pos="115.65" speed="8.89"/>
                <vehicle id="827" pos="134.67" speed="8.72"/>
                <vehicle id="642" pos="171.25" speed="7.78"/>
            </lane>
        </edge>
        <edge id="gneE6">
            <lane id="gneE6_0">
                <vehicle id="797" pos="31.78" speed="6.89"/>
            </lane>
        </edge>
        <edge id="gneE60">
            <lane id="gneE60_0">
                <vehicle id="716" pos="97.24" speed="5.86"/>
                <vehicle id="822" pos="137.86" speed="6.91"/>
                <vehicle id="772" pos="157.30" speed="6.68"/>
                <vehicle id="749" pos="171.62" speed="4.62"/>
                <vehicle id="808" pos="180.03" speed="0.01"/>
                <vehicle id="729" pos="187.54" speed="0.00"/>
                <vehicle id="755" pos="195.04" speed="0.00"/>
                <vehicle id="616" pos="202.54" speed="0.00"/>
                <vehicle id="693" pos="210.04" speed="0.00"/>
                <vehicle id="783" pos="217.54" speed="0.00"/>
                <vehicle id="717" pos="225.07" speed="0.02"/>
                <vehicle id="690" pos="232.90" speed="0.33"/>
                <vehicle id="758" pos="241.21" speed="0.65"/>
                <vehicle id="448" pos="251.84" speed="3.04"/>
                <vehicle id="662" pos="264.48" speed="4.61"/>
                <vehicle id="696" pos="273.95" speed="1.29"/>
                <vehicle id="692" pos="284.02" speed="2.20"/>
                <vehicle id="646" pos="293.64" speed="1.73"/>
                <vehicle id="575" pos="305.30" speed="3.60"/>
                <vehicle id="676" pos="314.26" speed="1.28"/>
                <vehicle id="559" pos="322.42" speed="0.55"/>
                <vehicle id="498" pos="330.04" speed="0.03"/>
                <vehicle id="658" pos="337.56" speed="0.00"/>
            </lane>
        </edge>
        <edge id="gneE61">
            <lane id="gneE61_0">
                <vehicle id="736" pos="14.29" speed="7.99"/>
                <vehicle id="821" pos="166.14" speed="6.72"/>
                <vehicle id="618" pos="283.58" speed="7.64"/>
                <vehicle id="694" pos="305.62" speed="7.88"/>
            </lane>
        </edge>
        <edge id="gneE7">
            <lane id="gneE7_0">
                <vehicle id="637" pos="134.36" speed="8.10"/>
                <vehicle id="619" pos="165.31" speed="7.87"/>
                <vehicle id="815" pos="234.65" speed="8.39"/>
            </lane>
        </edge>
        <edge id="gneE8">
            <lane id="gneE8_0">
                <vehicle id="698" pos="159.78" speed="6.77"/>
            </lane>
        </edge>
    </timestep>
