<?xml version="1.0"?>
<timestep time="854.00">
        <edge id=":gneJ11_43">
            <lane id=":gneJ11_43_0">
                <vehicle id="832" pos="16.39" speed="10.02"/>
            </lane>
        </edge>
        <edge id=":gneJ11_21">
            <lane id=":gneJ11_21_0">
                <vehicle id="B4_3" pos="5.20" speed="3.48"/>
            </lane>
        </edge>
        <edge id=":gneJ15_11">
            <lane id=":gneJ15_11_0">
                <vehicle id="605" pos="3.22" speed="4.56"/>
            </lane>
        </edge>
        <edge id=":gneJ15_22">
            <lane id=":gneJ15_22_0">
                <vehicle id="761" pos="15.36" speed="9.90"/>
            </lane>
        </edge>
        <edge id=":gneJ18_0">
            <lane id=":gneJ18_0_0">
                <vehicle id="669" pos="2.60" speed="7.48"/>
            </lane>
        </edge>
        <edge id="gneE1">
            <lane id="gneE1_0">
                <vehicle id="845" pos="42.37" speed="3.99"/>
            </lane>
        </edge>
        <edge id="gneE10">
            <lane id="gneE10_0">
                <vehicle id="838" pos="17.65" speed="5.20"/>
                <vehicle id="656" pos="34.17" speed="5.14"/>
                <vehicle id="781" pos="49.74" speed="5.88"/>
                <vehicle id="685" pos="64.90" speed="5.99"/>
                <vehicle id="780" pos="80.15" speed="4.83"/>
                <vehicle id="695" pos="128.34" speed="5.42"/>
                <vehicle id="788" pos="138.94" speed="0.00"/>
            </lane>
        </edge>
        <edge id="gneE12">
            <lane id="gneE12_0">
                <vehicle id="582" pos="31.87" speed="11.23"/>
                <vehicle id="847" pos="60.85" speed="12.78"/>
                <vehicle id="779" pos="229.57" speed="13.51"/>
                <vehicle id="505" pos="296.74" speed="5.33"/>
            </lane>
        </edge>
        <edge id="gneE13">
            <lane id="gneE13_0">
                <vehicle id="812" pos="126.11" speed="9.83"/>
                <vehicle id="819" pos="152.07" speed="9.68"/>
                <vehicle id="712" pos="180.46" speed="8.74"/>
                <vehicle id="802" pos="269.46" speed="9.86"/>
            </lane>
        </edge>
        <edge id="gneE14">
            <lane id="gneE14_0">
                <vehicle id="555" pos="145.69" speed="0.00"/>
                <vehicle id="532" pos="153.19" speed="0.00"/>
                <vehicle id="508" pos="160.69" speed="0.00"/>
            </lane>
        </edge>
        <edge id="gneE15">
            <lane id="gneE15_0">
                <vehicle id="718" pos="1.60" speed="4.50"/>
                <vehicle id="645" pos="20.11" speed="8.79"/>
                <vehicle id="731" pos="78.07" speed="8.03"/>
                <vehicle id="738" pos="110.15" speed="7.85"/>
                <vehicle id="792" pos="139.50" speed="7.68"/>
                <vehicle id="700" pos="156.99" speed="7.99"/>
            </lane>
        </edge>
        <edge id="gneE17">
            <lane id="gneE17_0">
                <vehicle id="639" pos="46.40" speed="9.47"/>
                <vehicle id="684" pos="201.18" speed="9.49"/>
                <vehicle id="774" pos="226.97" speed="9.60"/>
            </lane>
        </edge>
        <edge id="gneE18">
            <lane id="gneE18_0">
                <vehicle id="828" pos="35.77" speed="9.31"/>
                <vehicle id="753" pos="84.50" speed="9.21"/>
                <vehicle id="745" pos="103.81" speed="9.01"/>
                <vehicle id="757" pos="134.71" speed="9.66"/>
                <vehicle id="773" pos="164.05" speed="8.88"/>
                <vehicle id="831" pos="185.00" speed="9.73"/>
                <vehicle id="804" pos="216.53" speed="9.76"/>
                <vehicle id="825" pos="251.67" speed="9.11"/>
                <vehicle id="784" pos="274.19" speed="5.55"/>
                <vehicle id="782" pos="285.74" speed="1.92"/>
            </lane>
        </edge>
        <edge id="gneE19">
            <lane id="gneE19_0">
                <vehicle id="674" pos="222.83" speed="0.00"/>
                <vehicle id="402" pos="230.33" speed="0.00"/>
                <vehicle id="678" pos="237.83" speed="0.00"/>
                <vehicle id="688" pos="245.33" speed="0.00"/>
                <vehicle id="524" pos="252.83" speed="0.00"/>
                <vehicle id="733" pos="260.34" speed="0.00"/>
                <vehicle id="721" pos="267.84" speed="0.00"/>
                <vehicle id="667" pos="275.34" speed="0.00"/>
                <vehicle id="663" pos="282.84" speed="0.00"/>
            </lane>
        </edge>
        <edge id="gneE2">
            <lane id="gneE2_0">
                <vehicle id="B2_3" pos="102.30" speed="10.88"/>
            </lane>
        </edge>
        <edge id="gneE20">
            <lane id="gneE20_0">
                <vehicle id="658" pos="3.46" speed="8.36"/>
                <vehicle id="769" pos="44.35" speed="8.20"/>
                <vehicle id="719" pos="115.03" speed="8.08"/>
                <vehicle id="795" pos="162.73" speed="7.91"/>
                <vehicle id="687" pos="179.55" speed="8.38"/>
                <vehicle id="689" pos="238.41" speed="8.87"/>
                <vehicle id="708" pos="259.68" speed="8.47"/>
            </lane>
        </edge>
        <edge id="gneE23">
            <lane id="gneE23_0">
                <vehicle id="776" pos="27.38" speed="7.83"/>
                <vehicle id="691" pos="147.13" speed="7.18"/>
                <vehicle id="830" pos="173.46" speed="7.94"/>
            </lane>
        </edge>
        <edge id="gneE24">
            <lane id="gneE24_0">
                <vehicle id="567" pos="10.93" speed="8.37"/>
                <vehicle id="632" pos="40.58" speed="12.33"/>
                <vehicle id="709" pos="80.92" speed="12.89"/>
            </lane>
        </edge>
        <edge id="gneE25">
            <lane id="gneE25_0">
                <vehicle id="806" pos="156.29" speed="9.84"/>
                <vehicle id="651" pos="176.99" speed="1.20"/>
                <vehicle id="B1_3" pos="184.98" speed="0.35"/>
                <vehicle id="810" pos="192.89" speed="0.33"/>
                <vehicle id="655" pos="200.62" speed="0.11"/>
                <vehicle id="807" pos="208.25" speed="0.06"/>
                <vehicle id="614" pos="215.80" speed="0.02"/>
                <vehicle id="748" pos="223.31" speed="0.01"/>
                <vehicle id="608" pos="230.82" speed="0.00"/>
                <vehicle id="624" pos="238.32" speed="0.00"/>
                <vehicle id="591" pos="245.82" speed="0.00"/>
                <vehicle id="771" pos="253.61" speed="0.29"/>
                <vehicle id="741" pos="263.04" speed="1.71"/>
                <vehicle id="536" pos="275.11" speed="3.49"/>
                <vehicle id="551" pos="289.70" speed="5.56"/>
            </lane>
        </edge>
        <edge id="gneE26">
            <lane id="gneE26_0">
                <vehicle id="850" pos="23.90" speed="6.22"/>
                <vehicle id="834" pos="103.33" speed="0.02"/>
                <vehicle id="801" pos="110.89" speed="0.05"/>
                <vehicle id="744" pos="118.62" speed="0.18"/>
                <vehicle id="799" pos="127.05" speed="0.91"/>
                <vehicle id="638" pos="135.66" speed="1.03"/>
                <vehicle id="633" pos="146.30" speed="2.47"/>
                <vehicle id="653" pos="156.57" speed="1.61"/>
                <vehicle id="596" pos="167.51" speed="2.93"/>
                <vehicle id="732" pos="176.27" speed="0.59"/>
                <vehicle id="737" pos="184.22" speed="0.36"/>
                <vehicle id="636" pos="193.97" speed="2.09"/>
                <vehicle id="659" pos="204.77" speed="3.28"/>
                <vehicle id="580" pos="214.59" speed="1.50"/>
                <vehicle id="569" pos="226.12" speed="3.18"/>
                <vehicle id="649" pos="236.15" speed="1.47"/>
                <vehicle id="631" pos="244.97" speed="0.25"/>
                <vehicle id="703" pos="253.52" speed="0.92"/>
                <vehicle id="548" pos="263.25" speed="1.69"/>
                <vehicle id="644" pos="274.93" speed="3.48"/>
                <vehicle id="613" pos="289.01" speed="5.02"/>
            </lane>
        </edge>
        <edge id="gneE28">
            <lane id="gneE28_0">
                <vehicle id="722" pos="1.38" speed="8.93"/>
                <vehicle id="683" pos="32.71" speed="8.27"/>
                <vehicle id="726" pos="59.27" speed="7.77"/>
                <vehicle id="836" pos="110.42" speed="8.45"/>
                <vehicle id="835" pos="136.34" speed="8.28"/>
            </lane>
        </edge>
        <edge id="gneE30">
            <lane id="gneE30_0">
                <vehicle id="849" pos="14.61" speed="5.03"/>
                <vehicle id="848" pos="42.07" speed="8.64"/>
                <vehicle id="841" pos="98.63" speed="8.18"/>
                <vehicle id="643" pos="144.48" speed="8.74"/>
                <vehicle id="833" pos="169.90" speed="8.18"/>
            </lane>
        </edge>
        <edge id="gneE31">
            <lane id="gneE31_0">
                <vehicle id="815" pos="4.92" speed="7.91"/>
                <vehicle id="715" pos="88.61" speed="8.90"/>
                <vehicle id="751" pos="153.36" speed="8.04"/>
                <vehicle id="723" pos="216.60" speed="8.86"/>
            </lane>
        </edge>
        <edge id="gneE32">
            <lane id="gneE32_0">
                <vehicle id="844" pos="43.44" speed="7.49"/>
                <vehicle id="598" pos="69.40" speed="7.99"/>
                <vehicle id="595" pos="147.93" speed="7.58"/>
                <vehicle id="570" pos="165.73" speed="6.74"/>
                <vehicle id="786" pos="298.32" speed="7.00"/>
                <vehicle id="809" pos="319.02" speed="7.35"/>
            </lane>
        </edge>
        <edge id="gneE38">
            <lane id="gneE38_0">
                <vehicle id="840" pos="111.90" speed="8.83"/>
                <vehicle id="816" pos="137.72" speed="8.76"/>
                <vehicle id="764" pos="342.98" speed="0.00"/>
            </lane>
        </edge>
        <edge id="gneE4">
            <lane id="gneE4_0">
                <vehicle id="851" pos="18.35" speed="6.36"/>
                <vehicle id="805" pos="40.92" speed="8.83"/>
                <vehicle id="842" pos="90.41" speed="9.42"/>
            </lane>
        </edge>
        <edge id="gneE41">
            <lane id="gneE41_0">
                <vehicle id="846" pos="58.64" speed="8.63"/>
                <vehicle id="767" pos="96.52" speed="8.30"/>
            </lane>
        </edge>
        <edge id="gneE42">
            <lane id="gneE42_0">
                <vehicle id="728" pos="29.97" speed="7.61"/>
            </lane>
        </edge>
        <edge id="gneE43">
            <lane id="gneE43_0">
                <vehicle id="813" pos="134.35" speed="5.93"/>
                <vehicle id="750" pos="153.90" speed="6.66"/>
                <vehicle id="752" pos="198.00" speed="6.51"/>
                <vehicle id="778" pos="291.73" speed="0.00"/>
                <vehicle id="794" pos="299.23" speed="0.00"/>
                <vehicle id="734" pos="306.73" speed="0.00"/>
            </lane>
        </edge>
        <edge id="gneE45">
            <lane id="gneE45_0">
                <vehicle id="556" pos="96.13" speed="8.77"/>
                <vehicle id="803" pos="163.28" speed="8.02"/>
                <vehicle id="800" pos="195.15" speed="7.82"/>
                <vehicle id="818" pos="293.96" speed="8.04"/>
            </lane>
        </edge>
        <edge id="gneE46">
            <lane id="gneE46_0">
                <vehicle id="705" pos="136.67" speed="8.73"/>
                <vehicle id="790" pos="168.16" speed="9.91"/>
            </lane>
        </edge>
        <edge id="gneE47">
            <lane id="gneE47_0">
                <vehicle id="657" pos="107.06" speed="8.29"/>
            </lane>
        </edge>
        <edge id="gneE48">
            <lane id="gneE48_0">
                <vehicle id="817" pos="44.01" speed="6.56"/>
                <vehicle id="759" pos="64.90" speed="6.82"/>
                <vehicle id="747" pos="107.82" speed="5.71"/>
                <vehicle id="793" pos="128.13" speed="6.91"/>
                <vehicle id="628" pos="152.89" speed="5.92"/>
                <vehicle id="743" pos="213.12" speed="6.52"/>
                <vehicle id="789" pos="260.11" speed="6.66"/>
                <vehicle id="798" pos="319.48" speed="0.80"/>
            </lane>
        </edge>
        <edge id="gneE49">
            <lane id="gneE49_0">
                <vehicle id="697" pos="86.27" speed="7.94"/>
                <vehicle id="837" pos="101.74" speed="6.97"/>
                <vehicle id="811" pos="127.68" speed="7.26"/>
                <vehicle id="702" pos="160.04" speed="7.29"/>
                <vehicle id="602" pos="319.13" speed="0.73"/>
            </lane>
        </edge>
        <edge id="gneE5">
            <lane id="gneE5_0">
                <vehicle id="824" pos="4.52" speed="5.53"/>
                <vehicle id="675" pos="103.06" speed="5.23"/>
                <vehicle id="754" pos="119.03" speed="4.98"/>
                <vehicle id="775" pos="134.68" speed="4.89"/>
            </lane>
        </edge>
        <edge id="gneE50">
            <lane id="gneE50_0">
                <vehicle id="839" pos="59.22" speed="5.48"/>
                <vehicle id="740" pos="77.39" speed="5.17"/>
            </lane>
        </edge>
        <edge id="gneE51">
            <lane id="gneE51_0">
                <vehicle id="665" pos="47.48" speed="6.27"/>
                <vehicle id="823" pos="68.89" speed="6.84"/>
                <vehicle id="599" pos="230.26" speed="6.77"/>
                <vehicle id="621" pos="244.33" speed="5.91"/>
                <vehicle id="763" pos="262.92" speed="6.87"/>
                <vehicle id="735" pos="316.36" speed="6.98"/>
                <vehicle id="770" pos="350.49" speed="0.48"/>
                <vehicle id="724" pos="358.28" speed="0.02"/>
                <vehicle id="682" pos="365.80" speed="0.00"/>
            </lane>
        </edge>
        <edge id="gneE52">
            <lane id="gneE52_0">
                <vehicle id="706" pos="67.30" speed="5.98"/>
            </lane>
        </edge>
        <edge id="gneE53">
            <lane id="gneE53_0">
                <vehicle id="787" pos="4.72" speed="6.63"/>
                <vehicle id="610" pos="119.90" speed="6.33"/>
                <vehicle id="826" pos="152.08" speed="5.72"/>
                <vehicle id="762" pos="169.03" speed="6.33"/>
                <vehicle id="814" pos="253.13" speed="6.78"/>
                <vehicle id="514" pos="328.16" speed="0.00"/>
                <vehicle id="710" pos="337.32" speed="1.66"/>
            </lane>
        </edge>
        <edge id="gneE54">
            <lane id="gneE54_0">
                <vehicle id="796" pos="18.80" speed="6.17"/>
                <vehicle id="791" pos="44.34" speed="6.04"/>
                <vehicle id="785" pos="83.59" speed="6.55"/>
                <vehicle id="777" pos="134.78" speed="6.11"/>
            </lane>
        </edge>
        <edge id="gneE55">
            <lane id="gneE55_0">
                <vehicle id="699" pos="2.25" speed="6.73"/>
            </lane>
        </edge>
        <edge id="gneE56">
            <lane id="gneE56_0">
                <vehicle id="B3_3" pos="79.36" speed="9.00"/>
            </lane>
        </edge>
        <edge id="gneE58">
            <lane id="gneE58_0">
                <vehicle id="760" pos="196.32" speed="6.75"/>
                <vehicle id="720" pos="220.77" speed="7.13"/>
            </lane>
        </edge>
        <edge id="gneE59">
            <lane id="gneE59_0">
                <vehicle id="618" pos="17.86" speed="8.99"/>
                <vehicle id="694" pos="45.66" speed="8.82"/>
                <vehicle id="829" pos="172.01" speed="8.12"/>
                <vehicle id="680" pos="198.52" speed="7.74"/>
                <vehicle id="827" pos="216.68" speed="7.88"/>
                <vehicle id="642" pos="252.28" speed="8.50"/>
            </lane>
        </edge>
        <edge id="gneE6">
            <lane id="gneE6_0">
                <vehicle id="843" pos="52.35" speed="7.33"/>
                <vehicle id="768" pos="73.24" speed="7.98"/>
                <vehicle id="797" pos="102.23" speed="6.89"/>
            </lane>
        </edge>
        <edge id="gneE60">
            <lane id="gneE60_0">
                <vehicle id="647" pos="15.46" speed="6.38"/>
                <vehicle id="766" pos="30.01" speed="6.33"/>
                <vehicle id="765" pos="58.77" speed="6.25"/>
                <vehicle id="716" pos="149.94" speed="0.09"/>
                <vehicle id="822" pos="157.55" speed="0.02"/>
                <vehicle id="772" pos="165.19" speed="0.12"/>
                <vehicle id="749" pos="173.14" speed="0.39"/>
                <vehicle id="808" pos="181.94" speed="1.03"/>
                <vehicle id="729" pos="192.58" speed="3.05"/>
                <vehicle id="755" pos="203.26" speed="2.58"/>
                <vehicle id="616" pos="212.81" speed="1.82"/>
                <vehicle id="693" pos="224.03" speed="3.09"/>
                <vehicle id="783" pos="233.37" speed="0.78"/>
                <vehicle id="717" pos="242.68" speed="1.21"/>
                <vehicle id="690" pos="252.65" speed="1.42"/>
                <vehicle id="758" pos="261.07" speed="0.89"/>
                <vehicle id="448" pos="269.71" speed="0.78"/>
                <vehicle id="662" pos="277.47" speed="0.18"/>
                <vehicle id="696" pos="285.02" speed="0.03"/>
                <vehicle id="692" pos="292.55" speed="0.02"/>
                <vehicle id="646" pos="300.05" speed="0.00"/>
                <vehicle id="575" pos="307.84" speed="0.28"/>
                <vehicle id="676" pos="317.76" speed="2.34"/>
                <vehicle id="559" pos="329.55" speed="4.12"/>
            </lane>
        </edge>
        <edge id="gneE61">
            <lane id="gneE61_0">
                <vehicle id="853" pos="6.92" speed="1.82"/>
                <vehicle id="677" pos="46.13" speed="7.04"/>
                <vehicle id="736" pos="87.30" speed="7.45"/>
                <vehicle id="821" pos="240.56" speed="7.50"/>
            </lane>
        </edge>
        <edge id="gneE7">
            <lane id="gneE7_0">
                <vehicle id="854" pos="5.10" speed="0.00"/>
                <vehicle id="820" pos="43.09" speed="8.82"/>
                <vehicle id="637" pos="216.85" speed="7.93"/>
                <vehicle id="619" pos="248.51" speed="7.86"/>
            </lane>
        </edge>
        <edge id="gneE8">
            <lane id="gneE8_0">
                <vehicle id="698" pos="232.88" speed="7.02"/>
            </lane>
        </edge>
    </timestep>
