<?xml version="1.0"?>
<timestep time="87.00">
        <edge id=":gneJ11_4">
            <lane id=":gneJ11_4_0">
                <vehicle id="17" pos="1.35" speed="7.62"/>
            </lane>
        </edge>
        <edge id=":gneJ15_11">
            <lane id=":gneJ15_11_0">
                <vehicle id="4" pos="3.99" speed="5.04"/>
            </lane>
        </edge>
        <edge id="gneE1">
            <lane id="gneE1_0">
                <vehicle id="76" pos="50.91" speed="4.81"/>
            </lane>
        </edge>
        <edge id="gneE10">
            <lane id="gneE10_0">
                <vehicle id="75" pos="64.42" speed="4.97"/>
            </lane>
        </edge>
        <edge id="gneE11">
            <lane id="gneE11_0">
                <vehicle id="42" pos="56.07" speed="8.32"/>
            </lane>
        </edge>
        <edge id="gneE13">
            <lane id="gneE13_0">
                <vehicle id="43" pos="204.48" speed="8.91"/>
                <vehicle id="56" pos="279.31" speed="9.09"/>
            </lane>
        </edge>
        <edge id="gneE14">
            <lane id="gneE14_0">
                <vehicle id="31" pos="5.95" speed="10.92"/>
                <vehicle id="19" pos="119.61" speed="10.62"/>
            </lane>
        </edge>
        <edge id="gneE15">
            <lane id="gneE15_0">
                <vehicle id="80" pos="53.72" speed="8.68"/>
                <vehicle id="38" pos="111.48" speed="8.33"/>
                <vehicle id="35" pos="136.90" speed="7.75"/>
            </lane>
        </edge>
        <edge id="gneE17">
            <lane id="gneE17_0">
                <vehicle id="69" pos="134.72" speed="9.00"/>
            </lane>
        </edge>
        <edge id="gneE18">
            <lane id="gneE18_0">
                <vehicle id="50" pos="10.44" speed="9.50"/>
                <vehicle id="78" pos="72.99" speed="8.78"/>
                <vehicle id="33" pos="127.61" speed="8.86"/>
                <vehicle id="15" pos="169.06" speed="8.80"/>
                <vehicle id="24" pos="199.58" speed="9.96"/>
                <vehicle id="28" pos="221.12" speed="9.73"/>
            </lane>
        </edge>
        <edge id="gneE19">
            <lane id="gneE19_0">
                <vehicle id="52" pos="183.82" speed="12.55"/>
            </lane>
        </edge>
        <edge id="gneE20">
            <lane id="gneE20_0">
                <vehicle id="21" pos="101.24" speed="8.95"/>
            </lane>
        </edge>
        <edge id="gneE23">
            <lane id="gneE23_0">
                <vehicle id="20" pos="22.82" speed="7.58"/>
                <vehicle id="51" pos="48.32" speed="7.79"/>
                <vehicle id="18" pos="117.62" speed="7.60"/>
            </lane>
        </edge>
        <edge id="gneE25">
            <lane id="gneE25_0">
                <vehicle id="5" pos="16.23" speed="9.03"/>
                <vehicle id="25" pos="71.39" speed="9.15"/>
                <vehicle id="74" pos="104.21" speed="9.60"/>
                <vehicle id="61" pos="230.27" speed="9.33"/>
                <vehicle id="53" pos="290.41" speed="2.18"/>
            </lane>
        </edge>
        <edge id="gneE26">
            <lane id="gneE26_0">
                <vehicle id="77" pos="60.29" speed="6.11"/>
            </lane>
        </edge>
        <edge id="gneE27">
            <lane id="gneE27_0">
                <vehicle id="71" pos="84.99" speed="5.02"/>
            </lane>
        </edge>
        <edge id="gneE28">
            <lane id="gneE28_0">
                <vehicle id="16" pos="82.88" speed="8.30"/>
            </lane>
        </edge>
        <edge id="gneE3">
            <lane id="gneE3_0">
                <vehicle id="2" pos="11.82" speed="9.83"/>
            </lane>
        </edge>
        <edge id="gneE30">
            <lane id="gneE30_0">
                <vehicle id="65" pos="172.66" speed="7.80"/>
            </lane>
        </edge>
        <edge id="gneE31">
            <lane id="gneE31_0">
                <vehicle id="49" pos="96.92" speed="8.32"/>
                <vehicle id="68" pos="146.11" speed="8.90"/>
                <vehicle id="26" pos="286.82" speed="8.11"/>
            </lane>
        </edge>
        <edge id="gneE38">
            <lane id="gneE38_0">
                <vehicle id="0" pos="213.31" speed="7.75"/>
                <vehicle id="37" pos="231.24" speed="8.78"/>
            </lane>
        </edge>
        <edge id="gneE4">
            <lane id="gneE4_0">
                <vehicle id="6" pos="4.07" speed="8.91"/>
                <vehicle id="1" pos="42.07" speed="9.41"/>
                <vehicle id="72" pos="123.08" speed="8.78"/>
            </lane>
        </edge>
        <edge id="gneE41">
            <lane id="gneE41_0">
                <vehicle id="30" pos="81.12" speed="8.75"/>
            </lane>
        </edge>
        <edge id="gneE42">
            <lane id="gneE42_0">
                <vehicle id="81" pos="39.82" speed="7.25"/>
            </lane>
        </edge>
        <edge id="gneE43">
            <lane id="gneE43_0">
                <vehicle id="34" pos="209.26" speed="6.32"/>
            </lane>
        </edge>
        <edge id="gneE45">
            <lane id="gneE45_0">
                <vehicle id="12" pos="218.31" speed="8.06"/>
            </lane>
        </edge>
        <edge id="gneE47">
            <lane id="gneE47_0">
                <vehicle id="39" pos="18.98" speed="8.36"/>
                <vehicle id="57" pos="48.52" speed="8.79"/>
            </lane>
        </edge>
        <edge id="gneE48">
            <lane id="gneE48_0">
                <vehicle id="84" pos="17.29" speed="6.07"/>
                <vehicle id="73" pos="87.33" speed="6.76"/>
                <vehicle id="59" pos="171.76" speed="6.68"/>
                <vehicle id="55" pos="189.53" speed="6.06"/>
                <vehicle id="29" pos="206.46" speed="6.43"/>
                <vehicle id="36" pos="318.68" speed="5.33"/>
            </lane>
        </edge>
        <edge id="gneE49">
            <lane id="gneE49_0">
                <vehicle id="79" pos="51.61" speed="7.09"/>
                <vehicle id="27" pos="101.20" speed="7.49"/>
                <vehicle id="63" pos="169.63" speed="6.74"/>
                <vehicle id="54" pos="236.59" speed="6.91"/>
            </lane>
        </edge>
        <edge id="gneE5">
            <lane id="gneE5_0">
                <vehicle id="66" pos="111.76" speed="5.11"/>
            </lane>
        </edge>
        <edge id="gneE51">
            <lane id="gneE51_0">
                <vehicle id="14" pos="31.03" speed="6.42"/>
                <vehicle id="62" pos="157.72" speed="5.76"/>
                <vehicle id="32" pos="345.85" speed="5.76"/>
            </lane>
        </edge>
        <edge id="gneE52">
            <lane id="gneE52_0">
                <vehicle id="23" pos="253.35" speed="7.00"/>
                <vehicle id="10" pos="320.32" speed="6.83"/>
            </lane>
        </edge>
        <edge id="gneE53">
            <lane id="gneE53_0">
                <vehicle id="87" pos="5.10" speed="0.00"/>
                <vehicle id="58" pos="53.47" speed="5.81"/>
                <vehicle id="22" pos="141.90" speed="6.20"/>
                <vehicle id="40" pos="169.06" speed="6.67"/>
                <vehicle id="11" pos="343.12" speed="0.62"/>
            </lane>
        </edge>
        <edge id="gneE55">
            <lane id="gneE55_0">
                <vehicle id="70" pos="117.13" speed="6.88"/>
            </lane>
        </edge>
        <edge id="gneE58">
            <lane id="gneE58_0">
                <vehicle id="83" pos="22.38" speed="7.06"/>
                <vehicle id="67" pos="145.63" speed="7.61"/>
                <vehicle id="44" pos="312.01" speed="7.07"/>
            </lane>
        </edge>
        <edge id="gneE60">
            <lane id="gneE60_0">
                <vehicle id="41" pos="12.53" speed="6.14"/>
                <vehicle id="60" pos="167.36" speed="6.14"/>
                <vehicle id="13" pos="189.12" speed="6.03"/>
                <vehicle id="48" pos="246.10" speed="6.02"/>
            </lane>
        </edge>
        <edge id="gneE61">
            <lane id="gneE61_0">
                <vehicle id="9" pos="10.11" speed="7.73"/>
                <vehicle id="7" pos="167.36" speed="7.86"/>
                <vehicle id="45" pos="304.74" speed="7.98"/>
            </lane>
        </edge>
        <edge id="gneE7">
            <lane id="gneE7_0">
                <vehicle id="82" pos="30.34" speed="8.24"/>
                <vehicle id="47" pos="97.62" speed="7.82"/>
            </lane>
        </edge>
        <edge id="gneE8">
            <lane id="gneE8_0">
                <vehicle id="64" pos="162.38" speed="7.04"/>
            </lane>
        </edge>
    </timestep>
