<?xml version="1.0"?>
<timestep time="872.00">
        <edge id=":gneJ11_1">
            <lane id=":gneJ11_1_0">
                <vehicle id="835" pos="6.55" speed="7.41"/>
            </lane>
        </edge>
        <edge id=":gneJ11_39">
            <lane id=":gneJ11_39_0">
                <vehicle id="663" pos="16.25" speed="6.60"/>
            </lane>
        </edge>
        <edge id=":gneJ15_17">
            <lane id=":gneJ15_17_0">
                <vehicle id="683" pos="10.44" speed="4.69"/>
            </lane>
        </edge>
        <edge id=":gneJ28_6">
            <lane id=":gneJ28_6_0">
                <vehicle id="803" pos="4.29" speed="8.04"/>
            </lane>
        </edge>
        <edge id=":gneJ3_13">
            <lane id=":gneJ3_13_0">
                <vehicle id="851" pos="12.35" speed="7.51"/>
            </lane>
        </edge>
        <edge id=":gneJ6_0">
            <lane id=":gneJ6_0_0">
                <vehicle id="643" pos="0.26" speed="7.98"/>
            </lane>
        </edge>
        <edge id=":gneJ8_5">
            <lane id=":gneJ8_5_0">
                <vehicle id="645" pos="4.05" speed="5.06"/>
            </lane>
        </edge>
        <edge id="gneE1">
            <lane id="gneE1_0">
                <vehicle id="845" pos="118.03" speed="3.73"/>
            </lane>
        </edge>
        <edge id="gneE10">
            <lane id="gneE10_0">
                <vehicle id="741" pos="12.77" speed="4.74"/>
                <vehicle id="802" pos="27.33" speed="5.41"/>
                <vehicle id="738" pos="55.93" speed="5.60"/>
                <vehicle id="838" pos="113.67" speed="4.80"/>
                <vehicle id="656" pos="128.51" speed="5.70"/>
            </lane>
        </edge>
        <edge id="gneE11">
            <lane id="gneE11_0">
                <vehicle id="833" pos="16.39" speed="8.61"/>
            </lane>
        </edge>
        <edge id="gneE12">
            <lane id="gneE12_0">
                <vehicle id="866" pos="35.10" speed="10.26"/>
                <vehicle id="551" pos="77.08" speed="13.31"/>
                <vehicle id="792" pos="160.88" speed="13.36"/>
                <vehicle id="700" pos="207.66" speed="13.71"/>
                <vehicle id="582" pos="269.14" speed="12.67"/>
                <vehicle id="847" pos="294.29" speed="9.07"/>
            </lane>
        </edge>
        <edge id="gneE13">
            <lane id="gneE13_0">
                <vehicle id="843" pos="38.95" speed="9.91"/>
                <vehicle id="812" pos="290.70" speed="5.43"/>
                <vehicle id="819" pos="301.07" speed="0.91"/>
            </lane>
        </edge>
        <edge id="gneE14">
            <lane id="gneE14_0">
                <vehicle id="536" pos="46.59" speed="10.32"/>
                <vehicle id="555" pos="145.69" speed="0.00"/>
                <vehicle id="532" pos="153.19" speed="0.00"/>
                <vehicle id="508" pos="160.69" speed="0.00"/>
            </lane>
        </edge>
        <edge id="gneE15">
            <lane id="gneE15_0">
                <vehicle id="825" pos="1.16" speed="3.87"/>
                <vehicle id="795" pos="24.60" speed="8.44"/>
                <vehicle id="687" pos="44.65" speed="8.68"/>
                <vehicle id="784" pos="76.32" speed="8.43"/>
                <vehicle id="718" pos="150.30" speed="7.87"/>
            </lane>
        </edge>
        <edge id="gneE17">
            <lane id="gneE17_0">
                <vehicle id="689" pos="108.12" speed="9.85"/>
                <vehicle id="708" pos="133.67" speed="9.68"/>
                <vehicle id="639" pos="215.52" speed="8.96"/>
            </lane>
        </edge>
        <edge id="gneE18">
            <lane id="gneE18_0">
                <vehicle id="805" pos="27.80" speed="9.78"/>
                <vehicle id="842" pos="86.15" speed="9.29"/>
                <vehicle id="828" pos="204.46" speed="9.14"/>
                <vehicle id="753" pos="242.89" speed="3.87"/>
                <vehicle id="745" pos="253.15" speed="1.28"/>
                <vehicle id="757" pos="261.16" speed="0.30"/>
                <vehicle id="773" pos="268.81" speed="0.03"/>
                <vehicle id="831" pos="276.32" speed="0.00"/>
                <vehicle id="804" pos="285.47" speed="1.66"/>
            </lane>
        </edge>
        <edge id="gneE19">
            <lane id="gneE19_0">
                <vehicle id="782" pos="193.79" speed="11.95"/>
                <vehicle id="674" pos="222.83" speed="0.00"/>
                <vehicle id="402" pos="230.33" speed="0.00"/>
                <vehicle id="678" pos="237.83" speed="0.00"/>
                <vehicle id="688" pos="245.33" speed="0.00"/>
                <vehicle id="524" pos="252.84" speed="0.00"/>
                <vehicle id="733" pos="261.02" speed="0.68"/>
                <vehicle id="721" pos="270.69" speed="2.03"/>
                <vehicle id="667" pos="282.31" speed="3.50"/>
            </lane>
        </edge>
        <edge id="gneE20">
            <lane id="gneE20_0">
                <vehicle id="567" pos="17.29" speed="8.98"/>
                <vehicle id="646" pos="49.88" speed="8.28"/>
                <vehicle id="676" pos="83.81" speed="7.81"/>
                <vehicle id="710" pos="103.79" speed="8.51"/>
                <vehicle id="B4_3" pos="121.19" speed="8.01"/>
                <vehicle id="658" pos="152.29" speed="8.05"/>
                <vehicle id="769" pos="194.45" speed="8.46"/>
                <vehicle id="719" pos="262.43" speed="8.06"/>
            </lane>
        </edge>
        <edge id="gneE23">
            <lane id="gneE23_0">
                <vehicle id="872" pos="5.10" speed="0.00"/>
                <vehicle id="776" pos="161.09" speed="7.74"/>
            </lane>
        </edge>
        <edge id="gneE24">
            <lane id="gneE24_0">
                <vehicle id="726" pos="16.59" speed="8.12"/>
                <vehicle id="865" pos="34.63" speed="10.07"/>
                <vehicle id="764" pos="76.75" speed="12.04"/>
            </lane>
        </edge>
        <edge id="gneE25">
            <lane id="gneE25_0">
                <vehicle id="830" pos="106.03" speed="9.47"/>
                <vehicle id="605" pos="127.65" speed="9.15"/>
                <vehicle id="855" pos="147.96" speed="8.88"/>
                <vehicle id="806" pos="181.44" speed="2.03"/>
                <vehicle id="651" pos="190.82" speed="1.48"/>
                <vehicle id="B1_3" pos="199.41" speed="0.44"/>
                <vehicle id="810" pos="207.43" speed="0.46"/>
                <vehicle id="655" pos="215.55" speed="0.40"/>
                <vehicle id="807" pos="223.27" speed="0.11"/>
                <vehicle id="614" pos="231.29" speed="0.46"/>
                <vehicle id="748" pos="241.02" speed="2.07"/>
                <vehicle id="608" pos="254.38" speed="4.49"/>
                <vehicle id="624" pos="267.51" speed="4.71"/>
                <vehicle id="591" pos="283.62" speed="7.37"/>
            </lane>
        </edge>
        <edge id="gneE26">
            <lane id="gneE26_0">
                <vehicle id="850" pos="119.30" speed="1.20"/>
                <vehicle id="834" pos="130.57" speed="2.69"/>
                <vehicle id="801" pos="140.55" speed="2.32"/>
                <vehicle id="744" pos="149.39" speed="0.97"/>
                <vehicle id="799" pos="161.62" speed="4.03"/>
                <vehicle id="638" pos="173.30" speed="3.88"/>
                <vehicle id="633" pos="183.02" speed="1.65"/>
                <vehicle id="653" pos="192.29" speed="1.64"/>
                <vehicle id="596" pos="199.93" speed="0.14"/>
                <vehicle id="732" pos="208.02" speed="0.52"/>
                <vehicle id="737" pos="215.68" speed="0.06"/>
                <vehicle id="636" pos="223.27" speed="0.08"/>
                <vehicle id="659" pos="230.81" speed="0.03"/>
                <vehicle id="580" pos="238.32" speed="0.01"/>
                <vehicle id="569" pos="245.82" speed="0.00"/>
                <vehicle id="649" pos="253.32" speed="0.00"/>
                <vehicle id="631" pos="260.82" speed="0.00"/>
                <vehicle id="703" pos="268.33" speed="0.00"/>
                <vehicle id="548" pos="275.83" speed="0.00"/>
                <vehicle id="644" pos="283.33" speed="0.00"/>
                <vehicle id="613" pos="290.83" speed="0.00"/>
            </lane>
        </edge>
        <edge id="gneE27">
            <lane id="gneE27_0">
                <vehicle id="870" pos="9.99" speed="3.26"/>
            </lane>
        </edge>
        <edge id="gneE28">
            <lane id="gneE28_0">
                <vehicle id="751" pos="9.60" speed="8.72"/>
                <vehicle id="723" pos="69.00" speed="8.40"/>
                <vehicle id="722" pos="140.24" speed="5.07"/>
            </lane>
        </edge>
        <edge id="gneE3">
            <lane id="gneE3_0">
                <vehicle id="869" pos="15.22" speed="5.21"/>
                <vehicle id="684" pos="55.49" speed="9.93"/>
                <vehicle id="774" pos="88.01" speed="9.52"/>
                <vehicle id="857" pos="125.77" speed="9.01"/>
            </lane>
        </edge>
        <edge id="gneE30">
            <lane id="gneE30_0">
                <vehicle id="849" pos="165.63" speed="7.76"/>
                <vehicle id="848" pos="193.12" speed="8.48"/>
                <vehicle id="841" pos="251.40" speed="8.92"/>
            </lane>
        </edge>
        <edge id="gneE31">
            <lane id="gneE31_0">
                <vehicle id="781" pos="5.98" speed="8.25"/>
                <vehicle id="685" pos="28.79" speed="8.50"/>
                <vehicle id="780" pos="52.19" speed="8.07"/>
                <vehicle id="695" pos="108.26" speed="8.08"/>
                <vehicle id="788" pos="128.46" speed="7.86"/>
                <vehicle id="815" pos="157.25" speed="8.44"/>
                <vehicle id="715" pos="240.96" speed="8.17"/>
            </lane>
        </edge>
        <edge id="gneE32">
            <lane id="gneE32_0">
                <vehicle id="871" pos="7.35" speed="2.25"/>
                <vehicle id="836" pos="86.96" speed="7.78"/>
                <vehicle id="761" pos="130.40" speed="7.98"/>
                <vehicle id="844" pos="172.90" speed="7.03"/>
                <vehicle id="598" pos="203.06" speed="7.99"/>
                <vehicle id="595" pos="278.87" speed="7.08"/>
                <vehicle id="570" pos="295.99" speed="6.96"/>
            </lane>
        </edge>
        <edge id="gneE38">
            <lane id="gneE38_0">
                <vehicle id="669" pos="141.51" speed="8.68"/>
                <vehicle id="840" pos="264.21" speed="8.64"/>
                <vehicle id="816" pos="292.01" speed="8.57"/>
            </lane>
        </edge>
        <edge id="gneE4">
            <lane id="gneE4_0">
                <vehicle id="864" pos="17.03" speed="5.96"/>
                <vehicle id="768" pos="49.06" speed="9.85"/>
                <vehicle id="862" pos="67.53" speed="9.79"/>
                <vehicle id="797" pos="96.01" speed="9.44"/>
            </lane>
        </edge>
        <edge id="gneE41">
            <lane id="gneE41_0">
                <vehicle id="809" pos="119.12" speed="9.00"/>
            </lane>
        </edge>
        <edge id="gneE43">
            <lane id="gneE43_0">
                <vehicle id="657" pos="18.96" speed="6.77"/>
                <vehicle id="863" pos="48.27" speed="5.98"/>
                <vehicle id="767" pos="67.85" speed="6.58"/>
                <vehicle id="813" pos="248.21" speed="6.96"/>
                <vehicle id="750" pos="267.53" speed="6.87"/>
                <vehicle id="752" pos="284.23" speed="0.00"/>
                <vehicle id="778" pos="291.73" speed="0.00"/>
                <vehicle id="794" pos="299.23" speed="0.00"/>
                <vehicle id="734" pos="306.73" speed="0.00"/>
            </lane>
        </edge>
        <edge id="gneE45">
            <lane id="gneE45_0">
                <vehicle id="691" pos="69.42" speed="8.03"/>
                <vehicle id="556" pos="246.40" speed="8.96"/>
            </lane>
        </edge>
        <edge id="gneE47">
            <lane id="gneE47_0">
                <vehicle id="785" pos="60.38" speed="8.19"/>
            </lane>
        </edge>
        <edge id="gneE48">
            <lane id="gneE48_0">
                <vehicle id="791" pos="4.68" speed="6.16"/>
                <vehicle id="858" pos="33.07" speed="5.91"/>
                <vehicle id="777" pos="51.66" speed="5.71"/>
                <vehicle id="705" pos="69.73" speed="6.34"/>
                <vehicle id="790" pos="92.81" speed="5.98"/>
                <vehicle id="817" pos="158.73" speed="6.40"/>
                <vehicle id="759" pos="179.96" speed="6.81"/>
                <vehicle id="747" pos="224.19" speed="6.69"/>
                <vehicle id="793" pos="241.82" speed="5.76"/>
                <vehicle id="628" pos="268.54" speed="6.92"/>
                <vehicle id="743" pos="304.64" speed="0.00"/>
                <vehicle id="789" pos="312.14" speed="0.00"/>
                <vehicle id="798" pos="319.64" speed="0.00"/>
            </lane>
        </edge>
        <edge id="gneE49">
            <lane id="gneE49_0">
                <vehicle id="832" pos="128.61" speed="7.00"/>
                <vehicle id="697" pos="217.78" speed="7.12"/>
                <vehicle id="837" pos="236.11" speed="7.87"/>
                <vehicle id="811" pos="258.22" speed="6.75"/>
                <vehicle id="702" pos="294.12" speed="7.05"/>
            </lane>
        </edge>
        <edge id="gneE5">
            <lane id="gneE5_0">
                <vehicle id="779" pos="57.15" speed="5.40"/>
                <vehicle id="505" pos="84.09" speed="5.83"/>
                <vehicle id="824" pos="100.94" speed="4.75"/>
            </lane>
        </edge>
        <edge id="gneE50">
            <lane id="gneE50_0">
                <vehicle id="861" pos="60.97" speed="5.98"/>
                <vehicle id="839" pos="155.86" speed="5.25"/>
                <vehicle id="740" pos="172.61" speed="5.90"/>
            </lane>
        </edge>
        <edge id="gneE51">
            <lane id="gneE51_0">
                <vehicle id="800" pos="20.36" speed="5.71"/>
                <vehicle id="846" pos="35.34" speed="6.38"/>
                <vehicle id="856" pos="79.96" speed="6.94"/>
                <vehicle id="818" pos="96.68" speed="6.81"/>
                <vehicle id="665" pos="160.84" speed="5.86"/>
                <vehicle id="823" pos="183.70" speed="6.42"/>
                <vehicle id="599" pos="320.79" speed="0.05"/>
                <vehicle id="621" pos="328.29" speed="0.00"/>
                <vehicle id="763" pos="335.79" speed="0.00"/>
                <vehicle id="735" pos="343.30" speed="0.00"/>
                <vehicle id="770" pos="350.80" speed="0.00"/>
                <vehicle id="724" pos="358.30" speed="0.00"/>
                <vehicle id="682" pos="365.80" speed="0.00"/>
            </lane>
        </edge>
        <edge id="gneE52">
            <lane id="gneE52_0">
                <vehicle id="706" pos="181.01" speed="6.27"/>
            </lane>
        </edge>
        <edge id="gneE53">
            <lane id="gneE53_0">
                <vehicle id="852" pos="101.02" speed="6.98"/>
                <vehicle id="787" pos="117.84" speed="6.74"/>
                <vehicle id="610" pos="231.16" speed="6.31"/>
                <vehicle id="826" pos="267.98" speed="6.03"/>
                <vehicle id="762" pos="283.51" speed="6.95"/>
                <vehicle id="814" pos="343.16" speed="0.01"/>
            </lane>
        </edge>
        <edge id="gneE54">
            <lane id="gneE54_0">
                <vehicle id="859" pos="83.15" speed="6.98"/>
                <vehicle id="796" pos="133.53" speed="6.84"/>
            </lane>
        </edge>
        <edge id="gneE55">
            <lane id="gneE55_0">
                <vehicle id="867" pos="28.58" speed="7.53"/>
                <vehicle id="602" pos="116.02" speed="7.48"/>
                <vehicle id="699" pos="133.43" speed="7.53"/>
            </lane>
        </edge>
        <edge id="gneE56">
            <lane id="gneE56_0">
                <vehicle id="632" pos="41.53" speed="8.35"/>
                <vehicle id="709" pos="66.09" speed="7.88"/>
            </lane>
        </edge>
        <edge id="gneE59">
            <lane id="gneE59_0">
                <vehicle id="821" pos="40.94" speed="8.53"/>
                <vehicle id="618" pos="169.90" speed="8.65"/>
                <vehicle id="694" pos="196.60" speed="8.54"/>
                <vehicle id="829" pos="302.69" speed="0.53"/>
                <vehicle id="680" pos="310.22" speed="0.01"/>
                <vehicle id="827" pos="317.73" speed="0.00"/>
            </lane>
        </edge>
        <edge id="gneE6">
            <lane id="gneE6_0">
                <vehicle id="698" pos="53.64" speed="7.11"/>
            </lane>
        </edge>
        <edge id="gneE60">
            <lane id="gneE60_0">
                <vehicle id="720" pos="26.94" speed="6.96"/>
                <vehicle id="647" pos="130.30" speed="5.91"/>
                <vehicle id="766" pos="146.14" speed="5.94"/>
                <vehicle id="765" pos="163.48" speed="0.60"/>
                <vehicle id="716" pos="171.66" speed="0.37"/>
                <vehicle id="822" pos="179.56" speed="0.21"/>
                <vehicle id="772" pos="187.52" speed="0.32"/>
                <vehicle id="749" pos="195.62" speed="0.59"/>
                <vehicle id="808" pos="204.74" speed="1.22"/>
                <vehicle id="729" pos="216.34" speed="3.37"/>
                <vehicle id="755" pos="230.74" speed="5.87"/>
                <vehicle id="616" pos="244.50" speed="4.98"/>
                <vehicle id="693" pos="258.89" speed="5.97"/>
                <vehicle id="783" pos="272.08" speed="4.90"/>
                <vehicle id="717" pos="285.46" speed="4.69"/>
                <vehicle id="690" pos="298.12" speed="4.13"/>
                <vehicle id="758" pos="306.79" speed="0.48"/>
                <vehicle id="448" pos="314.84" speed="0.28"/>
                <vehicle id="662" pos="322.48" speed="0.08"/>
                <vehicle id="696" pos="330.06" speed="0.01"/>
                <vehicle id="692" pos="337.56" speed="0.00"/>
            </lane>
        </edge>
        <edge id="gneE61">
            <lane id="gneE61_0">
                <vehicle id="868" pos="17.07" speed="5.78"/>
                <vehicle id="853" pos="135.48" speed="6.97"/>
                <vehicle id="677" pos="178.34" speed="7.61"/>
                <vehicle id="736" pos="219.64" speed="7.87"/>
            </lane>
        </edge>
        <edge id="gneE7">
            <lane id="gneE7_0">
                <vehicle id="754" pos="99.88" speed="7.98"/>
                <vehicle id="775" pos="124.64" speed="7.83"/>
                <vehicle id="854" pos="144.82" speed="8.50"/>
                <vehicle id="820" pos="194.75" speed="8.74"/>
            </lane>
        </edge>
        <edge id="gneE8">
            <lane id="gneE8_0">
                <vehicle id="860" pos="81.83" speed="6.71"/>
            </lane>
        </edge>
    </timestep>
