<?xml version="1.0"?>
<timestep time="874.00">
        <edge id=":gneJ11_7">
            <lane id=":gneJ11_7_0">
                <vehicle id="682" pos="1.73" speed="1.83"/>
            </lane>
        </edge>
        <edge id=":gneJ15_19">
            <lane id=":gneJ15_19_0">
                <vehicle id="722" pos="4.11" speed="0.23"/>
            </lane>
        </edge>
        <edge id=":gneJ3_4">
            <lane id=":gneJ3_4_0">
                <vehicle id="827" pos="1.28" speed="1.38"/>
            </lane>
        </edge>
        <edge id=":gneJ30_1">
            <lane id=":gneJ30_1_0">
                <vehicle id="796" pos="2.21" speed="5.53"/>
            </lane>
        </edge>
        <edge id=":gneJ4_0">
            <lane id=":gneJ4_0_0">
                <vehicle id="847" pos="5.02" speed="7.04"/>
            </lane>
        </edge>
        <edge id=":gneJ8_4">
            <lane id=":gneJ8_4_0">
                <vehicle id="718" pos="1.91" speed="6.93"/>
            </lane>
        </edge>
        <edge id=":gneJ9_4">
            <lane id=":gneJ9_4_0">
                <vehicle id="804" pos="9.16" speed="6.22"/>
            </lane>
        </edge>
        <edge id="gneE1">
            <lane id="gneE1_0">
                <vehicle id="845" pos="126.93" speed="4.66"/>
            </lane>
        </edge>
        <edge id="gneE10">
            <lane id="gneE10_0">
                <vehicle id="741" pos="22.73" speed="4.96"/>
                <vehicle id="802" pos="37.54" speed="5.36"/>
                <vehicle id="738" pos="66.73" speed="5.90"/>
                <vehicle id="838" pos="124.48" speed="5.67"/>
                <vehicle id="656" pos="138.51" speed="4.66"/>
            </lane>
        </edge>
        <edge id="gneE11">
            <lane id="gneE11_0">
                <vehicle id="833" pos="34.11" speed="8.78"/>
            </lane>
        </edge>
        <edge id="gneE12">
            <lane id="gneE12_0">
                <vehicle id="645" pos="9.36" speed="9.16"/>
                <vehicle id="866" pos="60.60" speed="13.52"/>
                <vehicle id="551" pos="103.98" speed="13.47"/>
                <vehicle id="792" pos="186.22" speed="12.67"/>
                <vehicle id="700" pos="234.10" speed="13.08"/>
                <vehicle id="582" pos="287.68" speed="7.66"/>
            </lane>
        </edge>
        <edge id="gneE13">
            <lane id="gneE13_0">
                <vehicle id="843" pos="57.73" speed="8.98"/>
                <vehicle id="812" pos="293.49" speed="0.70"/>
                <vehicle id="819" pos="301.18" speed="0.02"/>
            </lane>
        </edge>
        <edge id="gneE14">
            <lane id="gneE14_0">
                <vehicle id="536" pos="67.63" speed="10.77"/>
                <vehicle id="555" pos="145.69" speed="0.00"/>
                <vehicle id="532" pos="153.19" speed="0.00"/>
                <vehicle id="508" pos="160.69" speed="0.00"/>
            </lane>
        </edge>
        <edge id="gneE15">
            <lane id="gneE15_0">
                <vehicle id="825" pos="15.98" speed="8.71"/>
                <vehicle id="795" pos="41.20" speed="7.92"/>
                <vehicle id="687" pos="60.75" speed="7.75"/>
                <vehicle id="784" pos="92.40" speed="7.73"/>
            </lane>
        </edge>
        <edge id="gneE17">
            <lane id="gneE17_0">
                <vehicle id="689" pos="126.69" speed="9.49"/>
                <vehicle id="708" pos="153.18" speed="9.90"/>
                <vehicle id="639" pos="233.68" speed="9.09"/>
            </lane>
        </edge>
        <edge id="gneE18">
            <lane id="gneE18_0">
                <vehicle id="851" pos="15.99" speed="8.88"/>
                <vehicle id="805" pos="46.30" speed="9.00"/>
                <vehicle id="842" pos="104.41" speed="8.87"/>
                <vehicle id="828" pos="223.35" speed="9.39"/>
                <vehicle id="753" pos="245.38" speed="0.81"/>
                <vehicle id="745" pos="253.66" speed="0.12"/>
                <vehicle id="757" pos="261.30" speed="0.04"/>
                <vehicle id="773" pos="269.42" speed="0.61"/>
                <vehicle id="831" pos="280.36" speed="2.88"/>
            </lane>
        </edge>
        <edge id="gneE19">
            <lane id="gneE19_0">
                <vehicle id="782" pos="212.59" speed="7.15"/>
                <vehicle id="674" pos="222.83" speed="0.00"/>
                <vehicle id="402" pos="230.33" speed="0.00"/>
                <vehicle id="678" pos="237.83" speed="0.00"/>
                <vehicle id="688" pos="245.70" speed="0.36"/>
                <vehicle id="524" pos="255.16" speed="1.80"/>
                <vehicle id="733" pos="265.50" speed="2.69"/>
                <vehicle id="721" pos="275.14" speed="1.56"/>
                <vehicle id="667" pos="282.78" speed="0.12"/>
            </lane>
        </edge>
        <edge id="gneE20">
            <lane id="gneE20_0">
                <vehicle id="567" pos="34.96" speed="8.81"/>
                <vehicle id="646" pos="65.95" speed="8.16"/>
                <vehicle id="676" pos="100.69" speed="8.25"/>
                <vehicle id="710" pos="120.59" speed="8.49"/>
                <vehicle id="B4_3" pos="138.35" speed="8.63"/>
                <vehicle id="658" pos="169.41" speed="8.58"/>
                <vehicle id="769" pos="211.56" speed="8.14"/>
                <vehicle id="719" pos="279.07" speed="8.25"/>
            </lane>
        </edge>
        <edge id="gneE23">
            <lane id="gneE23_0">
                <vehicle id="872" pos="9.95" speed="3.32"/>
                <vehicle id="776" pos="175.67" speed="6.78"/>
            </lane>
        </edge>
        <edge id="gneE24">
            <lane id="gneE24_0">
                <vehicle id="683" pos="13.04" speed="8.26"/>
                <vehicle id="726" pos="38.13" speed="11.59"/>
                <vehicle id="865" pos="58.95" speed="12.57"/>
                <vehicle id="764" pos="102.38" speed="12.70"/>
            </lane>
        </edge>
        <edge id="gneE25">
            <lane id="gneE25_0">
                <vehicle id="830" pos="124.32" speed="9.46"/>
                <vehicle id="605" pos="145.75" speed="8.80"/>
                <vehicle id="855" pos="165.99" speed="9.28"/>
                <vehicle id="806" pos="183.73" speed="0.77"/>
                <vehicle id="651" pos="192.23" speed="0.38"/>
                <vehicle id="B1_3" pos="200.40" speed="0.61"/>
                <vehicle id="810" pos="208.26" speed="0.32"/>
                <vehicle id="655" pos="216.15" speed="0.38"/>
                <vehicle id="807" pos="225.36" speed="1.70"/>
                <vehicle id="614" pos="237.45" speed="4.19"/>
                <vehicle id="748" pos="250.72" speed="5.72"/>
                <vehicle id="608" pos="266.66" speed="7.30"/>
                <vehicle id="624" pos="280.59" speed="5.87"/>
                <vehicle id="591" pos="290.69" speed="1.74"/>
            </lane>
        </edge>
        <edge id="gneE26">
            <lane id="gneE26_0">
                <vehicle id="850" pos="125.07" speed="2.62"/>
                <vehicle id="834" pos="133.81" speed="1.01"/>
                <vehicle id="801" pos="144.86" speed="3.26"/>
                <vehicle id="744" pos="157.18" speed="4.46"/>
                <vehicle id="799" pos="167.39" speed="2.36"/>
                <vehicle id="638" pos="176.51" speed="1.00"/>
                <vehicle id="633" pos="184.53" speed="0.49"/>
                <vehicle id="653" pos="192.63" speed="0.21"/>
                <vehicle id="596" pos="200.53" speed="0.29"/>
                <vehicle id="732" pos="208.22" speed="0.04"/>
                <vehicle id="737" pos="215.76" speed="0.04"/>
                <vehicle id="636" pos="223.31" speed="0.02"/>
                <vehicle id="659" pos="230.82" speed="0.01"/>
                <vehicle id="580" pos="238.32" speed="0.00"/>
                <vehicle id="569" pos="245.82" speed="0.00"/>
                <vehicle id="649" pos="253.32" speed="0.00"/>
                <vehicle id="631" pos="260.82" speed="0.00"/>
                <vehicle id="703" pos="268.33" speed="0.00"/>
                <vehicle id="548" pos="275.83" speed="0.00"/>
                <vehicle id="644" pos="283.33" speed="0.00"/>
                <vehicle id="613" pos="290.83" speed="0.00"/>
            </lane>
        </edge>
        <edge id="gneE27">
            <lane id="gneE27_0">
                <vehicle id="870" pos="20.31" speed="5.50"/>
            </lane>
        </edge>
        <edge id="gneE28">
            <lane id="gneE28_0">
                <vehicle id="751" pos="26.78" speed="8.97"/>
                <vehicle id="723" pos="84.89" speed="8.06"/>
            </lane>
        </edge>
        <edge id="gneE3">
            <lane id="gneE3_0">
                <vehicle id="869" pos="31.64" speed="9.27"/>
                <vehicle id="684" pos="74.88" speed="9.66"/>
                <vehicle id="774" pos="106.92" speed="9.48"/>
                <vehicle id="857" pos="144.48" speed="9.74"/>
            </lane>
        </edge>
        <edge id="gneE30">
            <lane id="gneE30_0">
                <vehicle id="849" pos="182.10" speed="7.91"/>
                <vehicle id="848" pos="209.50" speed="7.79"/>
                <vehicle id="841" pos="267.02" speed="7.89"/>
            </lane>
        </edge>
        <edge id="gneE31">
            <lane id="gneE31_0">
                <vehicle id="781" pos="22.77" speed="8.09"/>
                <vehicle id="685" pos="45.66" speed="8.58"/>
                <vehicle id="780" pos="69.02" speed="8.83"/>
                <vehicle id="695" pos="124.48" speed="8.19"/>
                <vehicle id="788" pos="144.76" speed="7.79"/>
                <vehicle id="815" pos="173.23" speed="7.87"/>
                <vehicle id="715" pos="257.37" speed="8.14"/>
            </lane>
        </edge>
        <edge id="gneE32">
            <lane id="gneE32_0">
                <vehicle id="871" pos="17.86" speed="6.39"/>
                <vehicle id="836" pos="102.43" speed="7.76"/>
                <vehicle id="761" pos="145.41" speed="7.12"/>
                <vehicle id="844" pos="188.17" speed="7.83"/>
                <vehicle id="598" pos="217.87" speed="7.01"/>
                <vehicle id="595" pos="293.35" speed="7.38"/>
                <vehicle id="570" pos="310.50" speed="7.52"/>
            </lane>
        </edge>
        <edge id="gneE38">
            <lane id="gneE38_0">
                <vehicle id="669" pos="158.26" speed="8.41"/>
                <vehicle id="840" pos="280.91" speed="8.75"/>
                <vehicle id="816" pos="309.33" speed="8.92"/>
            </lane>
        </edge>
        <edge id="gneE4">
            <lane id="gneE4_0">
                <vehicle id="864" pos="34.09" speed="8.90"/>
                <vehicle id="768" pos="67.02" speed="8.90"/>
                <vehicle id="862" pos="86.04" speed="9.13"/>
                <vehicle id="797" pos="114.29" speed="9.33"/>
            </lane>
        </edge>
        <edge id="gneE41">
            <lane id="gneE41_0">
                <vehicle id="809" pos="134.87" speed="7.93"/>
            </lane>
        </edge>
        <edge id="gneE43">
            <lane id="gneE43_0">
                <vehicle id="657" pos="32.11" speed="6.50"/>
                <vehicle id="863" pos="60.88" speed="6.83"/>
                <vehicle id="767" pos="80.04" speed="5.71"/>
                <vehicle id="813" pos="261.42" speed="6.97"/>
                <vehicle id="750" pos="276.35" speed="2.23"/>
                <vehicle id="752" pos="284.23" speed="0.00"/>
                <vehicle id="778" pos="291.73" speed="0.00"/>
                <vehicle id="794" pos="299.23" speed="0.00"/>
                <vehicle id="734" pos="306.73" speed="0.00"/>
            </lane>
        </edge>
        <edge id="gneE45">
            <lane id="gneE45_0">
                <vehicle id="691" pos="86.92" speed="8.70"/>
                <vehicle id="556" pos="262.93" speed="8.36"/>
            </lane>
        </edge>
        <edge id="gneE47">
            <lane id="gneE47_0">
                <vehicle id="785" pos="77.14" speed="8.16"/>
            </lane>
        </edge>
        <edge id="gneE48">
            <lane id="gneE48_0">
                <vehicle id="791" pos="18.33" speed="6.79"/>
                <vehicle id="858" pos="44.85" speed="5.77"/>
                <vehicle id="777" pos="64.16" speed="6.74"/>
                <vehicle id="705" pos="82.39" speed="6.72"/>
                <vehicle id="790" pos="105.64" speed="6.95"/>
                <vehicle id="817" pos="170.60" speed="5.71"/>
                <vehicle id="759" pos="193.14" speed="6.76"/>
                <vehicle id="747" pos="236.97" speed="6.28"/>
                <vehicle id="793" pos="255.02" speed="6.80"/>
                <vehicle id="628" pos="280.45" speed="6.14"/>
                <vehicle id="743" pos="304.64" speed="0.00"/>
                <vehicle id="789" pos="312.14" speed="0.00"/>
                <vehicle id="798" pos="319.64" speed="0.00"/>
            </lane>
        </edge>
        <edge id="gneE49">
            <lane id="gneE49_0">
                <vehicle id="663" pos="1.92" speed="7.70"/>
                <vehicle id="832" pos="143.01" speed="7.42"/>
                <vehicle id="697" pos="232.06" speed="7.23"/>
                <vehicle id="837" pos="251.03" speed="7.07"/>
                <vehicle id="811" pos="272.57" speed="6.97"/>
                <vehicle id="702" pos="307.98" speed="6.99"/>
            </lane>
        </edge>
        <edge id="gneE5">
            <lane id="gneE5_0">
                <vehicle id="779" pos="67.57" speed="5.23"/>
                <vehicle id="505" pos="95.28" speed="5.25"/>
                <vehicle id="824" pos="111.58" speed="5.75"/>
            </lane>
        </edge>
        <edge id="gneE50">
            <lane id="gneE50_0">
                <vehicle id="861" pos="71.23" speed="4.72"/>
                <vehicle id="839" pos="166.56" speed="5.01"/>
                <vehicle id="740" pos="183.51" speed="5.57"/>
            </lane>
        </edge>
        <edge id="gneE51">
            <lane id="gneE51_0">
                <vehicle id="803" pos="8.74" speed="6.61"/>
                <vehicle id="800" pos="32.45" speed="5.93"/>
                <vehicle id="846" pos="47.88" speed="5.75"/>
                <vehicle id="856" pos="92.38" speed="6.40"/>
                <vehicle id="818" pos="108.89" speed="6.09"/>
                <vehicle id="665" pos="172.91" speed="6.14"/>
                <vehicle id="823" pos="197.25" speed="6.95"/>
                <vehicle id="599" pos="320.79" speed="0.00"/>
                <vehicle id="621" pos="328.29" speed="0.00"/>
                <vehicle id="763" pos="335.79" speed="0.00"/>
                <vehicle id="735" pos="343.30" speed="0.00"/>
                <vehicle id="770" pos="350.80" speed="0.00"/>
                <vehicle id="724" pos="358.30" speed="0.00"/>
            </lane>
        </edge>
        <edge id="gneE52">
            <lane id="gneE52_0">
                <vehicle id="706" pos="194.46" speed="6.78"/>
            </lane>
        </edge>
        <edge id="gneE53">
            <lane id="gneE53_0">
                <vehicle id="852" pos="113.36" speed="6.04"/>
                <vehicle id="787" pos="130.86" speed="6.48"/>
                <vehicle id="610" pos="243.39" speed="6.09"/>
                <vehicle id="826" pos="281.96" speed="6.98"/>
                <vehicle id="762" pos="296.73" speed="6.50"/>
                <vehicle id="814" pos="343.16" speed="0.00"/>
            </lane>
        </edge>
        <edge id="gneE54">
            <lane id="gneE54_0">
                <vehicle id="859" pos="95.34" speed="5.97"/>
            </lane>
        </edge>
        <edge id="gneE55">
            <lane id="gneE55_0">
                <vehicle id="874" pos="5.10" speed="0.00"/>
                <vehicle id="867" pos="43.22" speed="7.72"/>
                <vehicle id="602" pos="130.65" speed="7.91"/>
            </lane>
        </edge>
        <edge id="gneE56">
            <lane id="gneE56_0">
                <vehicle id="632" pos="58.65" speed="8.18"/>
                <vehicle id="709" pos="82.11" speed="7.91"/>
            </lane>
        </edge>
        <edge id="gneE59">
            <lane id="gneE59_0">
                <vehicle id="821" pos="58.51" speed="8.68"/>
                <vehicle id="618" pos="185.67" speed="7.85"/>
                <vehicle id="694" pos="213.84" speed="8.56"/>
                <vehicle id="829" pos="302.72" speed="0.01"/>
                <vehicle id="680" pos="310.23" speed="0.00"/>
            </lane>
        </edge>
        <edge id="gneE6">
            <lane id="gneE6_0">
                <vehicle id="698" pos="68.21" speed="6.99"/>
            </lane>
        </edge>
        <edge id="gneE60">
            <lane id="gneE60_0">
                <vehicle id="720" pos="39.07" speed="6.07"/>
                <vehicle id="647" pos="143.13" speed="6.38"/>
                <vehicle id="766" pos="155.67" speed="3.22"/>
                <vehicle id="765" pos="164.26" speed="0.29"/>
                <vehicle id="716" pos="172.17" speed="0.16"/>
                <vehicle id="822" pos="180.26" speed="0.46"/>
                <vehicle id="772" pos="189.03" speed="1.08"/>
                <vehicle id="749" pos="199.59" speed="2.44"/>
                <vehicle id="808" pos="211.94" speed="4.37"/>
                <vehicle id="729" pos="227.22" speed="5.02"/>
                <vehicle id="755" pos="242.16" speed="6.29"/>
                <vehicle id="616" pos="254.71" speed="4.25"/>
                <vehicle id="693" pos="268.08" speed="4.38"/>
                <vehicle id="783" pos="281.21" speed="4.84"/>
                <vehicle id="717" pos="291.16" speed="1.44"/>
                <vehicle id="690" pos="299.40" speed="0.58"/>
                <vehicle id="758" pos="307.45" speed="0.33"/>
                <vehicle id="448" pos="315.02" speed="0.04"/>
                <vehicle id="662" pos="322.56" speed="0.02"/>
                <vehicle id="696" pos="330.06" speed="0.00"/>
                <vehicle id="692" pos="337.56" speed="0.00"/>
            </lane>
        </edge>
        <edge id="gneE61">
            <lane id="gneE61_0">
                <vehicle id="835" pos="6.05" speed="7.85"/>
                <vehicle id="868" pos="32.36" speed="7.79"/>
                <vehicle id="853" pos="150.39" speed="7.45"/>
                <vehicle id="677" pos="192.89" speed="7.37"/>
                <vehicle id="736" pos="235.18" speed="7.55"/>
            </lane>
        </edge>
        <edge id="gneE7">
            <lane id="gneE7_0">
                <vehicle id="754" pos="116.70" speed="8.20"/>
                <vehicle id="775" pos="141.58" speed="8.06"/>
                <vehicle id="854" pos="162.07" speed="8.52"/>
                <vehicle id="820" pos="212.25" speed="8.80"/>
            </lane>
        </edge>
        <edge id="gneE8">
            <lane id="gneE8_0">
                <vehicle id="643" pos="5.57" speed="6.82"/>
                <vehicle id="860" pos="96.46" speed="7.45"/>
            </lane>
        </edge>
    </timestep>
