<?xml version="1.0"?>
<timestep time="883.00">
        <edge id=":gneJ11_34">
            <lane id=":gneJ11_34_0">
                <vehicle id="692" pos="9.69" speed="5.02"/>
            </lane>
        </edge>
        <edge id=":gneJ15_22">
            <lane id=":gneJ15_22_0">
                <vehicle id="723" pos="9.09" speed="5.28"/>
            </lane>
        </edge>
        <edge id=":gneJ3_13">
            <lane id=":gneJ3_13_0">
                <vehicle id="862" pos="5.30" speed="8.48"/>
            </lane>
        </edge>
        <edge id=":gneJ8_4">
            <lane id=":gneJ8_4_0">
                <vehicle id="784" pos="9.85" speed="9.21"/>
            </lane>
        </edge>
        <edge id=":gneJ9_3">
            <lane id=":gneJ9_3_0">
                <vehicle id="769" pos="5.82" speed="8.92"/>
            </lane>
        </edge>
        <edge id=":gneJ9_5">
            <lane id=":gneJ9_5_0">
                <vehicle id="757" pos="4.96" speed="0.03"/>
            </lane>
        </edge>
        <edge id="gneE10">
            <lane id="gneE10_0">
                <vehicle id="819" pos="27.71" speed="4.63"/>
                <vehicle id="718" pos="42.20" speed="5.24"/>
                <vehicle id="741" pos="69.27" speed="5.24"/>
                <vehicle id="802" pos="83.08" speed="4.95"/>
                <vehicle id="738" pos="114.11" speed="5.60"/>
            </lane>
        </edge>
        <edge id="gneE11">
            <lane id="gneE11_0">
                <vehicle id="841" pos="34.13" speed="7.91"/>
                <vehicle id="833" pos="107.87" speed="8.29"/>
            </lane>
        </edge>
        <edge id="gneE12">
            <lane id="gneE12_0">
                <vehicle id="645" pos="126.10" speed="13.50"/>
                <vehicle id="866" pos="180.04" speed="13.16"/>
                <vehicle id="551" pos="224.51" speed="13.68"/>
                <vehicle id="792" pos="297.67" speed="7.57"/>
            </lane>
        </edge>
        <edge id="gneE13">
            <lane id="gneE13_0">
                <vehicle id="774" pos="34.30" speed="8.86"/>
                <vehicle id="857" pos="67.23" speed="8.79"/>
                <vehicle id="843" pos="142.84" speed="9.01"/>
                <vehicle id="812" pos="301.18" speed="0.00"/>
            </lane>
        </edge>
        <edge id="gneE14">
            <lane id="gneE14_0">
                <vehicle id="878" pos="13.57" speed="4.27"/>
                <vehicle id="877" pos="43.02" speed="10.43"/>
                <vehicle id="536" pos="138.15" speed="0.36"/>
                <vehicle id="555" pos="145.69" speed="0.00"/>
                <vehicle id="532" pos="153.19" speed="0.00"/>
                <vehicle id="508" pos="160.69" speed="0.00"/>
            </lane>
        </edge>
        <edge id="gneE15">
            <lane id="gneE15_0">
                <vehicle id="876" pos="5.10" speed="0.00"/>
                <vehicle id="773" pos="31.17" speed="8.08"/>
                <vehicle id="831" pos="49.51" speed="7.79"/>
                <vehicle id="719" pos="67.10" speed="7.90"/>
                <vehicle id="825" pos="90.84" speed="8.10"/>
                <vehicle id="795" pos="117.72" speed="8.51"/>
                <vehicle id="687" pos="136.23" speed="8.52"/>
            </lane>
        </edge>
        <edge id="gneE17">
            <lane id="gneE17_0">
                <vehicle id="689" pos="212.15" speed="9.98"/>
                <vehicle id="708" pos="236.45" speed="9.92"/>
                <vehicle id="639" pos="286.22" speed="0.04"/>
            </lane>
        </edge>
        <edge id="gneE18">
            <lane id="gneE18_0">
                <vehicle id="851" pos="99.12" speed="9.87"/>
                <vehicle id="805" pos="130.26" speed="9.64"/>
                <vehicle id="842" pos="187.43" speed="9.00"/>
                <vehicle id="828" pos="257.13" speed="5.20"/>
                <vehicle id="753" pos="271.74" speed="5.66"/>
                <vehicle id="745" pos="283.28" speed="1.93"/>
            </lane>
        </edge>
        <edge id="gneE19">
            <lane id="gneE19_0">
                <vehicle id="804" pos="104.61" speed="12.78"/>
                <vehicle id="782" pos="221.40" speed="0.64"/>
                <vehicle id="674" pos="229.83" speed="0.70"/>
                <vehicle id="402" pos="237.66" speed="0.26"/>
                <vehicle id="678" pos="245.31" speed="0.02"/>
                <vehicle id="688" pos="252.83" speed="0.01"/>
                <vehicle id="524" pos="260.33" speed="0.00"/>
                <vehicle id="733" pos="267.84" speed="0.00"/>
                <vehicle id="721" pos="275.34" speed="0.00"/>
                <vehicle id="667" pos="282.84" speed="0.00"/>
            </lane>
        </edge>
        <edge id="gneE20">
            <lane id="gneE20_0">
                <vehicle id="764" pos="8.71" speed="8.80"/>
                <vehicle id="682" pos="41.38" speed="8.05"/>
                <vehicle id="567" pos="110.20" speed="7.99"/>
                <vehicle id="646" pos="141.10" speed="8.21"/>
                <vehicle id="676" pos="174.69" speed="7.86"/>
                <vehicle id="710" pos="193.60" speed="8.53"/>
                <vehicle id="B4_3" pos="210.93" speed="7.89"/>
                <vehicle id="658" pos="247.61" speed="8.91"/>
            </lane>
        </edge>
        <edge id="gneE23">
            <lane id="gneE23_0">
                <vehicle id="872" pos="72.04" speed="6.95"/>
            </lane>
        </edge>
        <edge id="gneE24">
            <lane id="gneE24_0">
                <vehicle id="734" pos="1.10" speed="8.71"/>
                <vehicle id="683" pos="121.59" speed="12.15"/>
                <vehicle id="726" pos="148.53" speed="12.50"/>
                <vehicle id="865" pos="169.75" speed="12.79"/>
            </lane>
        </edge>
        <edge id="gneE25">
            <lane id="gneE25_0">
                <vehicle id="830" pos="163.94" speed="0.69"/>
                <vehicle id="605" pos="174.41" speed="2.57"/>
                <vehicle id="855" pos="188.25" speed="5.16"/>
                <vehicle id="806" pos="203.55" speed="6.54"/>
                <vehicle id="651" pos="217.94" speed="4.30"/>
                <vehicle id="B1_3" pos="227.49" speed="1.55"/>
                <vehicle id="810" pos="236.75" speed="1.28"/>
                <vehicle id="655" pos="245.09" speed="0.61"/>
                <vehicle id="807" pos="253.11" speed="0.27"/>
                <vehicle id="614" pos="260.79" speed="0.06"/>
                <vehicle id="748" pos="268.32" speed="0.01"/>
                <vehicle id="608" pos="275.83" speed="0.00"/>
                <vehicle id="624" pos="283.33" speed="0.00"/>
                <vehicle id="591" pos="290.83" speed="0.00"/>
            </lane>
        </edge>
        <edge id="gneE26">
            <lane id="gneE26_0">
                <vehicle id="850" pos="139.45" speed="0.40"/>
                <vehicle id="834" pos="147.51" speed="0.36"/>
                <vehicle id="801" pos="155.55" speed="0.28"/>
                <vehicle id="744" pos="163.16" speed="0.09"/>
                <vehicle id="799" pos="170.76" speed="0.05"/>
                <vehicle id="638" pos="178.29" speed="0.02"/>
                <vehicle id="633" pos="185.81" speed="0.01"/>
                <vehicle id="653" pos="193.31" speed="0.00"/>
                <vehicle id="596" pos="200.82" speed="0.00"/>
                <vehicle id="732" pos="208.32" speed="0.00"/>
                <vehicle id="737" pos="215.82" speed="0.00"/>
                <vehicle id="636" pos="223.32" speed="0.00"/>
                <vehicle id="659" pos="230.82" speed="0.00"/>
                <vehicle id="580" pos="238.32" speed="0.00"/>
                <vehicle id="569" pos="245.82" speed="0.00"/>
                <vehicle id="649" pos="253.98" speed="0.65"/>
                <vehicle id="631" pos="263.47" speed="1.98"/>
                <vehicle id="703" pos="276.09" speed="4.21"/>
                <vehicle id="548" pos="289.26" speed="3.65"/>
            </lane>
        </edge>
        <edge id="gneE27">
            <lane id="gneE27_0">
                <vehicle id="776" pos="30.46" speed="5.04"/>
                <vehicle id="870" pos="66.48" speed="5.92"/>
            </lane>
        </edge>
        <edge id="gneE28">
            <lane id="gneE28_0">
                <vehicle id="715" pos="36.22" speed="8.34"/>
                <vehicle id="751" pos="100.49" speed="7.75"/>
            </lane>
        </edge>
        <edge id="gneE3">
            <lane id="gneE3_0">
                <vehicle id="845" pos="25.61" speed="9.06"/>
                <vehicle id="827" pos="54.42" speed="9.20"/>
                <vehicle id="869" pos="114.81" speed="9.08"/>
            </lane>
        </edge>
        <edge id="gneE30">
            <lane id="gneE30_0">
                <vehicle id="849" pos="259.06" speed="8.62"/>
                <vehicle id="848" pos="285.36" speed="8.40"/>
            </lane>
        </edge>
        <edge id="gneE31">
            <lane id="gneE31_0">
                <vehicle id="883" pos="5.10" speed="0.00"/>
                <vehicle id="781" pos="97.37" speed="7.96"/>
                <vehicle id="685" pos="121.41" speed="8.43"/>
                <vehicle id="780" pos="143.00" speed="7.80"/>
                <vehicle id="695" pos="197.82" speed="7.80"/>
                <vehicle id="788" pos="219.12" speed="7.78"/>
                <vehicle id="815" pos="248.45" speed="8.14"/>
            </lane>
        </edge>
        <edge id="gneE32">
            <lane id="gneE32_0">
                <vehicle id="722" pos="9.00" speed="6.19"/>
                <vehicle id="879" pos="26.02" speed="7.41"/>
                <vehicle id="871" pos="84.56" speed="7.79"/>
                <vehicle id="836" pos="170.04" speed="7.93"/>
                <vehicle id="761" pos="213.27" speed="7.68"/>
                <vehicle id="844" pos="252.83" speed="7.62"/>
                <vehicle id="598" pos="285.19" speed="6.82"/>
            </lane>
        </edge>
        <edge id="gneE38">
            <lane id="gneE38_0">
                <vehicle id="875" pos="59.12" speed="8.97"/>
                <vehicle id="669" pos="235.01" speed="8.99"/>
                <vehicle id="840" pos="335.44" speed="0.41"/>
                <vehicle id="816" pos="342.98" speed="0.01"/>
            </lane>
        </edge>
        <edge id="gneE4">
            <lane id="gneE4_0">
                <vehicle id="582" pos="51.16" speed="9.35"/>
                <vehicle id="864" pos="117.89" speed="9.01"/>
                <vehicle id="768" pos="145.25" speed="6.84"/>
            </lane>
        </edge>
        <edge id="gneE41">
            <lane id="gneE41_0">
                <vehicle id="595" pos="15.78" speed="8.93"/>
            </lane>
        </edge>
        <edge id="gneE43">
            <lane id="gneE43_0">
                <vehicle id="657" pos="90.28" speed="6.86"/>
                <vehicle id="863" pos="117.12" speed="6.17"/>
                <vehicle id="767" pos="137.54" speed="6.34"/>
                <vehicle id="813" pos="269.22" speed="0.00"/>
                <vehicle id="750" pos="276.72" speed="0.00"/>
                <vehicle id="752" pos="285.80" speed="1.57"/>
                <vehicle id="778" pos="296.33" speed="3.02"/>
                <vehicle id="794" pos="306.66" speed="1.59"/>
            </lane>
        </edge>
        <edge id="gneE45">
            <lane id="gneE45_0">
                <vehicle id="613" pos="14.25" speed="7.98"/>
                <vehicle id="691" pos="163.33" speed="8.25"/>
            </lane>
        </edge>
        <edge id="gneE46">
            <lane id="gneE46_0">
                <vehicle id="556" pos="19.20" speed="8.98"/>
            </lane>
        </edge>
        <edge id="gneE47">
            <lane id="gneE47_0">
                <vehicle id="859" pos="1.82" speed="7.95"/>
                <vehicle id="785" pos="151.22" speed="8.51"/>
            </lane>
        </edge>
        <edge id="gneE48">
            <lane id="gneE48_0">
                <vehicle id="796" pos="49.40" speed="6.01"/>
                <vehicle id="791" pos="74.86" speed="6.04"/>
                <vehicle id="858" pos="103.41" speed="6.04"/>
                <vehicle id="777" pos="121.15" speed="6.03"/>
                <vehicle id="705" pos="139.90" speed="5.89"/>
                <vehicle id="790" pos="161.23" speed="6.42"/>
                <vehicle id="817" pos="230.02" speed="6.91"/>
                <vehicle id="759" pos="247.75" speed="6.16"/>
                <vehicle id="747" pos="289.10" speed="3.46"/>
                <vehicle id="793" pos="296.88" speed="0.26"/>
                <vehicle id="628" pos="304.58" speed="0.15"/>
                <vehicle id="743" pos="312.12" speed="0.02"/>
                <vehicle id="789" pos="319.64" speed="0.00"/>
            </lane>
        </edge>
        <edge id="gneE49">
            <lane id="gneE49_0">
                <vehicle id="663" pos="68.49" speed="7.83"/>
                <vehicle id="832" pos="207.22" speed="7.19"/>
                <vehicle id="697" pos="297.11" speed="6.74"/>
                <vehicle id="837" pos="311.40" speed="3.87"/>
                <vehicle id="811" pos="319.64" speed="0.01"/>
            </lane>
        </edge>
        <edge id="gneE5">
            <lane id="gneE5_0">
                <vehicle id="847" pos="48.52" speed="5.89"/>
                <vehicle id="779" pos="115.23" speed="4.83"/>
                <vehicle id="505" pos="143.14" speed="4.93"/>
            </lane>
        </edge>
        <edge id="gneE50">
            <lane id="gneE50_0">
                <vehicle id="861" pos="118.32" speed="5.02"/>
                <vehicle id="839" pos="215.04" speed="5.25"/>
                <vehicle id="740" pos="230.67" speed="4.98"/>
            </lane>
        </edge>
        <edge id="gneE51">
            <lane id="gneE51_0">
                <vehicle id="809" pos="36.47" speed="5.98"/>
                <vehicle id="803" pos="64.26" speed="6.23"/>
                <vehicle id="800" pos="91.17" speed="6.95"/>
                <vehicle id="846" pos="106.71" speed="6.01"/>
                <vehicle id="856" pos="147.92" speed="5.80"/>
                <vehicle id="818" pos="164.41" speed="5.99"/>
                <vehicle id="665" pos="230.61" speed="6.59"/>
                <vehicle id="823" pos="254.09" speed="6.16"/>
                <vehicle id="599" pos="331.80" speed="4.93"/>
                <vehicle id="621" pos="341.03" speed="0.95"/>
                <vehicle id="763" pos="350.29" speed="1.09"/>
                <vehicle id="735" pos="358.20" speed="0.13"/>
                <vehicle id="770" pos="365.80" speed="0.00"/>
            </lane>
        </edge>
        <edge id="gneE52">
            <lane id="gneE52_0">
                <vehicle id="724" pos="12.07" speed="6.48"/>
                <vehicle id="706" pos="253.04" speed="6.88"/>
            </lane>
        </edge>
        <edge id="gneE53">
            <lane id="gneE53_0">
                <vehicle id="881" pos="11.52" speed="4.01"/>
                <vehicle id="852" pos="170.21" speed="6.43"/>
                <vehicle id="787" pos="189.46" speed="6.34"/>
                <vehicle id="610" pos="303.09" speed="6.88"/>
                <vehicle id="826" pos="327.56" speed="0.38"/>
                <vehicle id="762" pos="335.59" speed="0.18"/>
                <vehicle id="814" pos="343.16" speed="0.00"/>
            </lane>
        </edge>
        <edge id="gneE54">
            <lane id="gneE54_0">
                <vehicle id="882" pos="7.20" speed="2.10"/>
            </lane>
        </edge>
        <edge id="gneE55">
            <lane id="gneE55_0">
                <vehicle id="874" pos="57.19" speed="7.11"/>
                <vehicle id="867" pos="109.33" speed="7.29"/>
            </lane>
        </edge>
        <edge id="gneE56">
            <lane id="gneE56_0">
                <vehicle id="632" pos="134.29" speed="8.02"/>
                <vehicle id="709" pos="158.35" speed="8.40"/>
            </lane>
        </edge>
        <edge id="gneE57">
            <lane id="gneE57_0">
                <vehicle id="880" pos="18.40" speed="6.11"/>
            </lane>
        </edge>
        <edge id="gneE58">
            <lane id="gneE58_0">
                <vehicle id="797" pos="1.13" speed="7.26"/>
            </lane>
        </edge>
        <edge id="gneE59">
            <lane id="gneE59_0">
                <vehicle id="821" pos="134.76" speed="8.13"/>
                <vehicle id="618" pos="260.37" speed="8.79"/>
                <vehicle id="694" pos="291.10" speed="8.60"/>
                <vehicle id="829" pos="317.72" speed="0.04"/>
            </lane>
        </edge>
        <edge id="gneE6">
            <lane id="gneE6_0">
                <vehicle id="698" pos="135.08" speed="7.79"/>
            </lane>
        </edge>
        <edge id="gneE60">
            <lane id="gneE60_0">
                <vehicle id="720" pos="96.76" speed="6.95"/>
                <vehicle id="647" pos="164.13" speed="5.55"/>
                <vehicle id="766" pos="176.39" speed="3.71"/>
                <vehicle id="765" pos="189.10" speed="3.89"/>
                <vehicle id="716" pos="202.23" speed="4.18"/>
                <vehicle id="822" pos="215.45" speed="3.89"/>
                <vehicle id="772" pos="227.56" speed="3.84"/>
                <vehicle id="749" pos="237.03" speed="1.82"/>
                <vehicle id="808" pos="245.70" speed="1.03"/>
                <vehicle id="729" pos="254.57" speed="0.97"/>
                <vehicle id="755" pos="262.50" speed="0.13"/>
                <vehicle id="616" pos="270.04" speed="0.02"/>
                <vehicle id="693" pos="277.54" speed="0.00"/>
                <vehicle id="783" pos="285.05" speed="0.00"/>
                <vehicle id="717" pos="292.55" speed="0.00"/>
                <vehicle id="690" pos="300.05" speed="0.00"/>
                <vehicle id="758" pos="307.55" speed="0.00"/>
                <vehicle id="448" pos="315.06" speed="0.00"/>
                <vehicle id="662" pos="323.44" speed="0.88"/>
                <vehicle id="696" pos="334.24" speed="3.16"/>
            </lane>
        </edge>
        <edge id="gneE61">
            <lane id="gneE61_0">
                <vehicle id="798" pos="23.58" speed="7.04"/>
                <vehicle id="873" pos="52.80" speed="7.39"/>
                <vehicle id="835" pos="69.95" speed="7.06"/>
                <vehicle id="868" pos="97.59" speed="6.88"/>
                <vehicle id="853" pos="216.13" speed="6.73"/>
                <vehicle id="677" pos="259.05" speed="6.91"/>
                <vehicle id="736" pos="301.56" speed="6.94"/>
            </lane>
        </edge>
        <edge id="gneE7">
            <lane id="gneE7_0">
                <vehicle id="824" pos="12.41" speed="7.85"/>
                <vehicle id="754" pos="193.52" speed="7.79"/>
                <vehicle id="775" pos="216.98" speed="8.29"/>
                <vehicle id="854" pos="237.28" speed="8.89"/>
                <vehicle id="820" pos="289.80" speed="8.86"/>
            </lane>
        </edge>
        <edge id="gneE8">
            <lane id="gneE8_0">
                <vehicle id="838" pos="0.81" speed="5.91"/>
                <vehicle id="656" pos="53.09" speed="7.34"/>
                <vehicle id="643" pos="71.98" speed="7.43"/>
                <vehicle id="860" pos="162.39" speed="7.96"/>
            </lane>
        </edge>
    </timestep>
