<?xml version="1.0"?>
<timestep time="89.00">
        <edge id=":gneJ11_43">
            <lane id=":gneJ11_43_0">
                <vehicle id="17" pos="17.27" speed="11.43"/>
            </lane>
        </edge>
        <edge id=":gneJ11_13">
            <lane id=":gneJ11_13_0">
                <vehicle id="36" pos="13.20" speed="8.40"/>
            </lane>
        </edge>
        <edge id="gneE1">
            <lane id="gneE1_0">
                <vehicle id="76" pos="59.68" speed="4.76"/>
            </lane>
        </edge>
        <edge id="gneE10">
            <lane id="gneE10_0">
                <vehicle id="75" pos="76.03" speed="5.92"/>
            </lane>
        </edge>
        <edge id="gneE11">
            <lane id="gneE11_0">
                <vehicle id="42" pos="72.91" speed="8.96"/>
            </lane>
        </edge>
        <edge id="gneE13">
            <lane id="gneE13_0">
                <vehicle id="43" pos="223.21" speed="8.86"/>
                <vehicle id="56" pos="296.57" speed="8.56"/>
            </lane>
        </edge>
        <edge id="gneE14">
            <lane id="gneE14_0">
                <vehicle id="31" pos="25.60" speed="9.95"/>
                <vehicle id="19" pos="140.50" speed="10.00"/>
            </lane>
        </edge>
        <edge id="gneE15">
            <lane id="gneE15_0">
                <vehicle id="80" pos="69.45" speed="7.83"/>
                <vehicle id="38" pos="127.60" speed="8.34"/>
                <vehicle id="35" pos="153.31" speed="8.35"/>
            </lane>
        </edge>
        <edge id="gneE17">
            <lane id="gneE17_0">
                <vehicle id="69" pos="153.12" speed="8.82"/>
            </lane>
        </edge>
        <edge id="gneE18">
            <lane id="gneE18_0">
                <vehicle id="50" pos="28.80" speed="9.25"/>
                <vehicle id="78" pos="92.06" speed="9.72"/>
                <vehicle id="33" pos="145.33" speed="8.91"/>
                <vehicle id="15" pos="187.71" speed="9.65"/>
                <vehicle id="24" pos="218.30" speed="10.00"/>
                <vehicle id="28" pos="239.22" speed="8.83"/>
            </lane>
        </edge>
        <edge id="gneE19">
            <lane id="gneE19_0">
                <vehicle id="52" pos="207.57" speed="11.75"/>
            </lane>
        </edge>
        <edge id="gneE20">
            <lane id="gneE20_0">
                <vehicle id="21" pos="117.95" speed="7.96"/>
            </lane>
        </edge>
        <edge id="gneE23">
            <lane id="gneE23_0">
                <vehicle id="20" pos="36.70" speed="6.98"/>
                <vehicle id="51" pos="63.43" speed="7.46"/>
                <vehicle id="18" pos="131.71" speed="6.79"/>
            </lane>
        </edge>
        <edge id="gneE25">
            <lane id="gneE25_0">
                <vehicle id="4" pos="9.43" speed="8.73"/>
                <vehicle id="5" pos="35.76" speed="9.56"/>
                <vehicle id="25" pos="90.25" speed="8.87"/>
                <vehicle id="74" pos="122.24" speed="9.17"/>
                <vehicle id="61" pos="249.29" speed="9.37"/>
                <vehicle id="53" pos="290.81" speed="0.03"/>
            </lane>
        </edge>
        <edge id="gneE26">
            <lane id="gneE26_0">
                <vehicle id="77" pos="73.02" speed="6.69"/>
            </lane>
        </edge>
        <edge id="gneE27">
            <lane id="gneE27_0">
                <vehicle id="71" pos="96.09" speed="5.55"/>
            </lane>
        </edge>
        <edge id="gneE28">
            <lane id="gneE28_0">
                <vehicle id="26" pos="8.28" speed="8.83"/>
                <vehicle id="16" pos="100.41" speed="8.96"/>
            </lane>
        </edge>
        <edge id="gneE3">
            <lane id="gneE3_0">
                <vehicle id="2" pos="31.66" speed="9.86"/>
            </lane>
        </edge>
        <edge id="gneE30">
            <lane id="gneE30_0">
                <vehicle id="65" pos="189.60" speed="8.11"/>
            </lane>
        </edge>
        <edge id="gneE31">
            <lane id="gneE31_0">
                <vehicle id="49" pos="113.99" speed="8.90"/>
                <vehicle id="68" pos="162.65" speed="8.04"/>
            </lane>
        </edge>
        <edge id="gneE32">
            <lane id="gneE32_0">
                <vehicle id="89" pos="5.10" speed="0.00"/>
            </lane>
        </edge>
        <edge id="gneE38">
            <lane id="gneE38_0">
                <vehicle id="0" pos="229.99" speed="8.63"/>
                <vehicle id="37" pos="248.10" speed="8.94"/>
            </lane>
        </edge>
        <edge id="gneE4">
            <lane id="gneE4_0">
                <vehicle id="6" pos="22.38" speed="8.86"/>
                <vehicle id="1" pos="60.51" speed="9.70"/>
                <vehicle id="72" pos="141.33" speed="9.21"/>
            </lane>
        </edge>
        <edge id="gneE41">
            <lane id="gneE41_0">
                <vehicle id="30" pos="98.11" speed="8.88"/>
            </lane>
        </edge>
        <edge id="gneE42">
            <lane id="gneE42_0">
                <vehicle id="81" pos="55.07" speed="7.69"/>
            </lane>
        </edge>
        <edge id="gneE43">
            <lane id="gneE43_0">
                <vehicle id="34" pos="221.61" speed="6.25"/>
            </lane>
        </edge>
        <edge id="gneE45">
            <lane id="gneE45_0">
                <vehicle id="88" pos="7.27" speed="2.17"/>
                <vehicle id="12" pos="234.79" speed="7.99"/>
            </lane>
        </edge>
        <edge id="gneE47">
            <lane id="gneE47_0">
                <vehicle id="39" pos="36.15" speed="8.56"/>
                <vehicle id="57" pos="65.82" speed="8.45"/>
            </lane>
        </edge>
        <edge id="gneE48">
            <lane id="gneE48_0">
                <vehicle id="84" pos="29.12" speed="6.01"/>
                <vehicle id="73" pos="99.65" speed="6.05"/>
                <vehicle id="59" pos="184.31" speed="5.79"/>
                <vehicle id="55" pos="202.38" speed="6.89"/>
                <vehicle id="29" pos="218.34" speed="5.99"/>
            </lane>
        </edge>
        <edge id="gneE49">
            <lane id="gneE49_0">
                <vehicle id="79" pos="66.46" speed="7.92"/>
                <vehicle id="27" pos="116.64" speed="7.57"/>
                <vehicle id="63" pos="185.02" speed="7.80"/>
                <vehicle id="54" pos="250.77" speed="7.31"/>
            </lane>
        </edge>
        <edge id="gneE5">
            <lane id="gneE5_0">
                <vehicle id="66" pos="122.95" speed="5.92"/>
            </lane>
        </edge>
        <edge id="gneE51">
            <lane id="gneE51_0">
                <vehicle id="14" pos="44.29" speed="6.57"/>
                <vehicle id="62" pos="170.50" speed="6.47"/>
                <vehicle id="32" pos="358.97" speed="6.82"/>
            </lane>
        </edge>
        <edge id="gneE52">
            <lane id="gneE52_0">
                <vehicle id="23" pos="266.29" speed="6.34"/>
                <vehicle id="10" pos="332.95" speed="6.89"/>
            </lane>
        </edge>
        <edge id="gneE53">
            <lane id="gneE53_0">
                <vehicle id="87" pos="11.80" speed="4.11"/>
                <vehicle id="58" pos="65.82" speed="6.47"/>
                <vehicle id="22" pos="154.59" speed="6.88"/>
                <vehicle id="40" pos="181.32" speed="6.17"/>
                <vehicle id="11" pos="343.15" speed="0.01"/>
            </lane>
        </edge>
        <edge id="gneE55">
            <lane id="gneE55_0">
                <vehicle id="70" pos="131.71" speed="7.42"/>
            </lane>
        </edge>
        <edge id="gneE58">
            <lane id="gneE58_0">
                <vehicle id="83" pos="37.02" speed="7.19"/>
                <vehicle id="67" pos="161.19" speed="7.68"/>
            </lane>
        </edge>
        <edge id="gneE60">
            <lane id="gneE60_0">
                <vehicle id="44" pos="2.07" speed="5.93"/>
                <vehicle id="41" pos="26.15" speed="6.98"/>
                <vehicle id="60" pos="180.42" speed="6.72"/>
                <vehicle id="13" pos="201.82" speed="6.24"/>
                <vehicle id="48" pos="259.02" speed="6.94"/>
            </lane>
        </edge>
        <edge id="gneE61">
            <lane id="gneE61_0">
                <vehicle id="85" pos="7.50" speed="2.40"/>
                <vehicle id="9" pos="23.83" speed="6.71"/>
                <vehicle id="7" pos="182.37" speed="7.39"/>
                <vehicle id="45" pos="318.59" speed="7.13"/>
            </lane>
        </edge>
        <edge id="gneE7">
            <lane id="gneE7_0">
                <vehicle id="82" pos="46.42" speed="7.75"/>
                <vehicle id="47" pos="114.64" speed="8.39"/>
            </lane>
        </edge>
        <edge id="gneE8">
            <lane id="gneE8_0">
                <vehicle id="64" pos="177.95" speed="7.83"/>
            </lane>
        </edge>
    </timestep>
