<?xml version="1.0"?>
<timestep time="896.00">
        <edge id=":gneJ11_7">
            <lane id=":gneJ11_7_0">
                <vehicle id="770" pos="19.44" speed="8.19"/>
            </lane>
        </edge>
        <edge id=":gneJ11_13">
            <lane id=":gneJ11_13_0">
                <vehicle id="743" pos="2.56" speed="5.30"/>
            </lane>
        </edge>
        <edge id=":gneJ11_15">
            <lane id=":gneJ11_15_0">
                <vehicle id="789" pos="18.75" speed="7.69"/>
            </lane>
        </edge>
        <edge id=":gneJ15_3">
            <lane id=":gneJ15_3_0">
                <vehicle id="840" pos="22.53" speed="9.17"/>
            </lane>
        </edge>
        <edge id=":gneJ15_17">
            <lane id=":gneJ15_17_0">
                <vehicle id="715" pos="3.61" speed="7.94"/>
            </lane>
        </edge>
        <edge id=":gneJ3_12">
            <lane id=":gneJ3_12_0">
                <vehicle id="582" pos="6.29" speed="7.04"/>
            </lane>
        </edge>
        <edge id=":gneJ8_8">
            <lane id=":gneJ8_8_0">
                <vehicle id="812" pos="6.57" speed="4.51"/>
            </lane>
        </edge>
        <edge id=":gneJ8_9">
            <lane id=":gneJ8_9_0">
                <vehicle id="841" pos="3.54" speed="8.14"/>
            </lane>
        </edge>
        <edge id=":gneJ9_5">
            <lane id=":gneJ9_5_0">
                <vehicle id="753" pos="4.98" speed="0.01"/>
            </lane>
        </edge>
        <edge id="gneE10">
            <lane id="gneE10_0">
                <vehicle id="825" pos="18.70" speed="5.26"/>
                <vehicle id="591" pos="52.89" speed="4.70"/>
                <vehicle id="784" pos="69.38" speed="5.68"/>
                <vehicle id="819" pos="94.79" speed="5.39"/>
                <vehicle id="718" pos="111.96" speed="5.85"/>
                <vehicle id="741" pos="123.87" speed="0.17"/>
                <vehicle id="802" pos="131.44" speed="0.00"/>
                <vehicle id="738" pos="138.94" speed="0.00"/>
            </lane>
        </edge>
        <edge id="gneE11">
            <lane id="gneE11_0">
                <vehicle id="775" pos="18.97" speed="7.75"/>
                <vehicle id="849" pos="47.98" speed="8.00"/>
                <vehicle id="848" pos="65.17" speed="8.38"/>
                <vehicle id="820" pos="92.20" speed="8.74"/>
            </lane>
        </edge>
        <edge id="gneE12">
            <lane id="gneE12_0">
                <vehicle id="687" pos="65.74" speed="12.86"/>
                <vehicle id="833" pos="112.73" speed="12.60"/>
                <vehicle id="645" pos="292.06" speed="8.39"/>
            </lane>
        </edge>
        <edge id="gneE13">
            <lane id="gneE13_0">
                <vehicle id="827" pos="16.28" speed="9.95"/>
                <vehicle id="869" pos="74.96" speed="9.39"/>
                <vehicle id="774" pos="156.14" speed="9.07"/>
                <vehicle id="857" pos="187.57" speed="9.20"/>
                <vehicle id="843" pos="265.26" speed="8.78"/>
            </lane>
        </edge>
        <edge id="gneE14">
            <lane id="gneE14_0">
                <vehicle id="878" pos="122.93" speed="0.74"/>
                <vehicle id="877" pos="130.68" speed="0.03"/>
                <vehicle id="536" pos="138.19" speed="0.00"/>
                <vehicle id="555" pos="145.69" speed="0.00"/>
                <vehicle id="532" pos="153.19" speed="0.00"/>
                <vehicle id="508" pos="160.69" speed="0.00"/>
            </lane>
        </edge>
        <edge id="gneE15">
            <lane id="gneE15_0">
                <vehicle id="710" pos="14.99" speed="8.35"/>
                <vehicle id="745" pos="52.57" speed="8.99"/>
                <vehicle id="757" pos="81.24" speed="8.39"/>
                <vehicle id="876" pos="103.26" speed="8.59"/>
                <vehicle id="773" pos="138.77" speed="8.38"/>
                <vehicle id="831" pos="157.29" speed="8.62"/>
            </lane>
        </edge>
        <edge id="gneE17">
            <lane id="gneE17_0">
                <vehicle id="B4_3" pos="30.68" speed="8.90"/>
                <vehicle id="658" pos="70.88" speed="9.38"/>
                <vehicle id="769" pos="119.25" speed="9.38"/>
                <vehicle id="689" pos="271.24" speed="0.00"/>
                <vehicle id="708" pos="278.74" speed="0.00"/>
                <vehicle id="639" pos="286.24" speed="0.00"/>
            </lane>
        </edge>
        <edge id="gneE18">
            <lane id="gneE18_0">
                <vehicle id="694" pos="6.57" speed="8.47"/>
                <vehicle id="864" pos="57.32" speed="8.79"/>
                <vehicle id="862" pos="114.35" speed="9.83"/>
                <vehicle id="851" pos="219.17" speed="8.98"/>
                <vehicle id="805" pos="252.32" speed="9.60"/>
                <vehicle id="842" pos="276.14" speed="0.18"/>
                <vehicle id="828" pos="283.80" speed="0.06"/>
            </lane>
        </edge>
        <edge id="gneE19">
            <lane id="gneE19_0">
                <vehicle id="804" pos="215.33" speed="0.00"/>
                <vehicle id="782" pos="222.83" speed="0.00"/>
                <vehicle id="674" pos="230.33" speed="0.00"/>
                <vehicle id="402" pos="237.83" speed="0.00"/>
                <vehicle id="678" pos="245.33" speed="0.00"/>
                <vehicle id="688" pos="252.83" speed="0.00"/>
                <vehicle id="524" pos="260.34" speed="0.00"/>
                <vehicle id="733" pos="267.84" speed="0.00"/>
                <vehicle id="721" pos="275.34" speed="0.00"/>
                <vehicle id="667" pos="282.84" speed="0.00"/>
            </lane>
        </edge>
        <edge id="gneE2">
            <lane id="gneE2_0">
                <vehicle id="768" pos="108.78" speed="10.13"/>
            </lane>
        </edge>
        <edge id="gneE20">
            <lane id="gneE20_0">
                <vehicle id="696" pos="46.40" speed="8.35"/>
                <vehicle id="764" pos="117.51" speed="7.84"/>
                <vehicle id="682" pos="148.11" speed="8.11"/>
                <vehicle id="567" pos="222.42" speed="8.80"/>
                <vehicle id="646" pos="250.84" speed="7.81"/>
                <vehicle id="676" pos="282.25" speed="8.85"/>
            </lane>
        </edge>
        <edge id="gneE23">
            <lane id="gneE23_0">
                <vehicle id="692" pos="83.23" speed="7.27"/>
                <vehicle id="872" pos="167.23" speed="7.96"/>
            </lane>
        </edge>
        <edge id="gneE24">
            <lane id="gneE24_0">
                <vehicle id="884" pos="47.01" speed="11.77"/>
                <vehicle id="703" pos="102.80" speed="12.09"/>
                <vehicle id="548" pos="125.83" speed="11.79"/>
                <vehicle id="734" pos="158.70" speed="12.51"/>
            </lane>
        </edge>
        <edge id="gneE25">
            <lane id="gneE25_0">
                <vehicle id="886" pos="55.59" speed="9.58"/>
                <vehicle id="816" pos="81.53" speed="9.45"/>
                <vehicle id="830" pos="193.22" speed="0.09"/>
                <vehicle id="605" pos="200.79" speed="0.05"/>
                <vehicle id="855" pos="208.37" speed="0.08"/>
                <vehicle id="806" pos="216.38" speed="0.49"/>
                <vehicle id="651" pos="225.10" speed="0.94"/>
                <vehicle id="B1_3" pos="234.74" speed="1.72"/>
                <vehicle id="810" pos="244.01" speed="0.69"/>
                <vehicle id="655" pos="252.75" speed="0.60"/>
                <vehicle id="807" pos="260.71" speed="0.10"/>
                <vehicle id="614" pos="268.31" speed="0.08"/>
                <vehicle id="748" pos="275.82" speed="0.01"/>
                <vehicle id="608" pos="283.33" speed="0.00"/>
                <vehicle id="624" pos="290.83" speed="0.00"/>
            </lane>
        </edge>
        <edge id="gneE26">
            <lane id="gneE26_0">
                <vehicle id="719" pos="6.66" speed="6.50"/>
                <vehicle id="795" pos="41.91" speed="6.38"/>
                <vehicle id="850" pos="140.81" speed="0.00"/>
                <vehicle id="834" pos="148.31" speed="0.00"/>
                <vehicle id="801" pos="155.82" speed="0.01"/>
                <vehicle id="744" pos="163.36" speed="0.04"/>
                <vehicle id="799" pos="171.54" speed="0.66"/>
                <vehicle id="638" pos="180.90" speed="1.85"/>
                <vehicle id="633" pos="192.76" speed="3.90"/>
                <vehicle id="653" pos="203.69" speed="2.74"/>
                <vehicle id="596" pos="216.81" speed="4.87"/>
                <vehicle id="732" pos="230.98" speed="4.95"/>
                <vehicle id="737" pos="242.80" speed="4.08"/>
                <vehicle id="636" pos="252.80" speed="1.02"/>
                <vehicle id="659" pos="263.05" speed="2.42"/>
                <vehicle id="580" pos="273.90" speed="3.00"/>
                <vehicle id="569" pos="282.73" speed="1.02"/>
                <vehicle id="649" pos="290.83" speed="0.10"/>
            </lane>
        </edge>
        <edge id="gneE27">
            <lane id="gneE27_0">
                <vehicle id="895" pos="7.67" speed="2.57"/>
                <vehicle id="776" pos="99.17" speed="4.71"/>
                <vehicle id="870" pos="136.39" speed="5.62"/>
            </lane>
        </edge>
        <edge id="gneE28">
            <lane id="gneE28_0">
                <vehicle id="888" pos="6.66" speed="1.56"/>
                <vehicle id="788" pos="34.38" speed="8.81"/>
                <vehicle id="815" pos="60.70" speed="8.10"/>
            </lane>
        </edge>
        <edge id="gneE3">
            <lane id="gneE3_0">
                <vehicle id="829" pos="19.50" speed="9.77"/>
                <vehicle id="845" pos="146.63" speed="9.25"/>
            </lane>
        </edge>
        <edge id="gneE31">
            <lane id="gneE31_0">
                <vehicle id="854" pos="30.99" speed="8.06"/>
                <vehicle id="883" pos="103.21" speed="8.11"/>
                <vehicle id="781" pos="205.52" speed="7.72"/>
                <vehicle id="685" pos="231.27" speed="8.98"/>
                <vehicle id="780" pos="250.03" speed="8.19"/>
            </lane>
        </edge>
        <edge id="gneE32">
            <lane id="gneE32_0">
                <vehicle id="631" pos="11.64" speed="7.74"/>
                <vehicle id="723" pos="87.61" speed="7.41"/>
                <vehicle id="722" pos="103.77" speed="6.66"/>
                <vehicle id="879" pos="120.60" speed="7.96"/>
                <vehicle id="871" pos="179.54" speed="7.93"/>
                <vehicle id="836" pos="265.18" speed="7.26"/>
                <vehicle id="761" pos="311.83" speed="7.77"/>
            </lane>
        </edge>
        <edge id="gneE38">
            <lane id="gneE38_0">
                <vehicle id="875" pos="169.18" speed="8.88"/>
                <vehicle id="669" pos="341.69" speed="8.12"/>
            </lane>
        </edge>
        <edge id="gneE41">
            <lane id="gneE41_0">
                <vehicle id="844" pos="1.86" speed="7.11"/>
                <vehicle id="598" pos="40.12" speed="8.08"/>
                <vehicle id="595" pos="122.57" speed="8.16"/>
            </lane>
        </edge>
        <edge id="gneE43">
            <lane id="gneE43_0">
                <vehicle id="894" pos="11.54" speed="4.21"/>
                <vehicle id="657" pos="172.74" speed="6.53"/>
                <vehicle id="863" pos="201.41" speed="6.84"/>
                <vehicle id="767" pos="217.77" speed="5.91"/>
                <vehicle id="813" pos="276.72" speed="0.00"/>
                <vehicle id="750" pos="284.23" speed="0.00"/>
                <vehicle id="752" pos="291.73" speed="0.00"/>
                <vehicle id="778" pos="299.23" speed="0.00"/>
                <vehicle id="794" pos="306.73" speed="0.00"/>
            </lane>
        </edge>
        <edge id="gneE45">
            <lane id="gneE45_0">
                <vehicle id="751" pos="47.31" speed="8.08"/>
                <vehicle id="613" pos="124.09" speed="7.98"/>
                <vehicle id="691" pos="272.19" speed="7.84"/>
            </lane>
        </edge>
        <edge id="gneE46">
            <lane id="gneE46_0">
                <vehicle id="556" pos="139.43" speed="9.27"/>
            </lane>
        </edge>
        <edge id="gneE47">
            <lane id="gneE47_0">
                <vehicle id="837" pos="64.14" speed="7.75"/>
                <vehicle id="811" pos="83.58" speed="8.55"/>
                <vehicle id="859" pos="112.63" speed="8.75"/>
            </lane>
        </edge>
        <edge id="gneE48">
            <lane id="gneE48_0">
                <vehicle id="796" pos="132.11" speed="6.35"/>
                <vehicle id="791" pos="155.38" speed="7.00"/>
                <vehicle id="858" pos="184.91" speed="6.78"/>
                <vehicle id="777" pos="201.19" speed="6.38"/>
                <vehicle id="705" pos="223.01" speed="6.77"/>
                <vehicle id="790" pos="242.09" speed="6.91"/>
                <vehicle id="817" pos="274.63" speed="0.01"/>
                <vehicle id="759" pos="282.13" speed="0.00"/>
                <vehicle id="747" pos="289.63" speed="0.00"/>
                <vehicle id="793" pos="297.91" speed="0.77"/>
                <vehicle id="628" pos="307.58" speed="2.16"/>
            </lane>
        </edge>
        <edge id="gneE49">
            <lane id="gneE49_0">
                <vehicle id="683" pos="26.33" speed="7.70"/>
                <vehicle id="663" pos="163.99" speed="6.92"/>
                <vehicle id="832" pos="303.51" speed="6.97"/>
            </lane>
        </edge>
        <edge id="gneE5">
            <lane id="gneE5_0">
                <vehicle id="866" pos="3.16" speed="4.06"/>
                <vehicle id="885" pos="16.06" speed="4.40"/>
                <vehicle id="551" pos="30.51" speed="5.41"/>
                <vehicle id="792" pos="65.69" speed="5.37"/>
                <vehicle id="847" pos="117.24" speed="5.36"/>
            </lane>
        </edge>
        <edge id="gneE50">
            <lane id="gneE50_0">
                <vehicle id="861" pos="187.03" speed="5.77"/>
                <vehicle id="839" pos="283.14" speed="5.00"/>
                <vehicle id="740" pos="299.02" speed="4.96"/>
            </lane>
        </edge>
        <edge id="gneE51">
            <lane id="gneE51_0">
                <vehicle id="891" pos="29.54" speed="6.64"/>
                <vehicle id="809" pos="120.78" speed="6.22"/>
                <vehicle id="803" pos="148.55" speed="6.60"/>
                <vehicle id="800" pos="171.18" speed="6.78"/>
                <vehicle id="846" pos="188.74" speed="5.79"/>
                <vehicle id="856" pos="231.69" speed="6.65"/>
                <vehicle id="818" pos="245.82" speed="5.74"/>
                <vehicle id="665" pos="314.45" speed="6.33"/>
                <vehicle id="823" pos="328.22" speed="0.31"/>
                <vehicle id="599" pos="335.79" speed="0.00"/>
                <vehicle id="621" pos="343.66" speed="0.37"/>
                <vehicle id="763" pos="352.88" speed="1.48"/>
                <vehicle id="735" pos="365.19" speed="3.76"/>
            </lane>
        </edge>
        <edge id="gneE52">
            <lane id="gneE52_0">
                <vehicle id="726" pos="43.13" speed="6.74"/>
                <vehicle id="724" pos="95.97" speed="6.90"/>
                <vehicle id="706" pos="335.35" speed="6.37"/>
            </lane>
        </edge>
        <edge id="gneE53">
            <lane id="gneE53_0">
                <vehicle id="874" pos="6.66" speed="6.15"/>
                <vehicle id="867" pos="49.49" speed="6.43"/>
                <vehicle id="881" pos="93.41" speed="6.30"/>
                <vehicle id="852" pos="253.70" speed="6.97"/>
                <vehicle id="787" pos="270.40" speed="6.61"/>
                <vehicle id="610" pos="320.66" speed="0.00"/>
                <vehicle id="826" pos="328.16" speed="0.00"/>
                <vehicle id="762" pos="335.66" speed="0.00"/>
                <vehicle id="814" pos="343.16" speed="0.00"/>
            </lane>
        </edge>
        <edge id="gneE54">
            <lane id="gneE54_0">
                <vehicle id="893" pos="17.41" speed="6.41"/>
                <vehicle id="882" pos="87.98" speed="6.82"/>
            </lane>
        </edge>
        <edge id="gneE55">
            <lane id="gneE55_0">
                <vehicle id="892" pos="27.35" speed="7.93"/>
                <vehicle id="697" pos="44.85" speed="7.69"/>
            </lane>
        </edge>
        <edge id="gneE56">
            <lane id="gneE56_0">
                <vehicle id="662" pos="40.64" speed="8.13"/>
            </lane>
        </edge>
        <edge id="gneE57">
            <lane id="gneE57_0">
                <vehicle id="880" pos="111.83" speed="7.32"/>
            </lane>
        </edge>
        <edge id="gneE58">
            <lane id="gneE58_0">
                <vehicle id="890" pos="36.28" speed="7.57"/>
                <vehicle id="797" pos="98.42" speed="7.88"/>
            </lane>
        </edge>
        <edge id="gneE59">
            <lane id="gneE59_0">
                <vehicle id="677" pos="16.05" speed="8.36"/>
                <vehicle id="736" pos="64.28" speed="7.95"/>
                <vehicle id="821" pos="241.44" speed="8.41"/>
                <vehicle id="618" pos="313.55" speed="4.89"/>
            </lane>
        </edge>
        <edge id="gneE6">
            <lane id="gneE6_0">
                <vehicle id="889" pos="42.65" speed="7.08"/>
            </lane>
        </edge>
        <edge id="gneE60">
            <lane id="gneE60_0">
                <vehicle id="887" pos="54.66" speed="5.92"/>
                <vehicle id="720" pos="179.08" speed="6.68"/>
                <vehicle id="647" pos="194.80" speed="0.16"/>
                <vehicle id="766" pos="202.47" speed="0.09"/>
                <vehicle id="765" pos="210.02" speed="0.03"/>
                <vehicle id="716" pos="217.54" speed="0.01"/>
                <vehicle id="822" pos="225.06" speed="0.02"/>
                <vehicle id="772" pos="232.69" speed="0.11"/>
                <vehicle id="749" pos="240.97" speed="0.70"/>
                <vehicle id="808" pos="250.17" speed="1.69"/>
                <vehicle id="729" pos="258.93" speed="1.06"/>
                <vehicle id="755" pos="267.98" speed="0.56"/>
                <vehicle id="616" pos="277.17" speed="1.17"/>
                <vehicle id="693" pos="287.12" speed="1.73"/>
                <vehicle id="783" pos="300.13" speed="4.37"/>
                <vehicle id="717" pos="316.01" speed="6.72"/>
                <vehicle id="690" pos="328.27" speed="3.22"/>
                <vehicle id="758" pos="337.47" speed="0.47"/>
            </lane>
        </edge>
        <edge id="gneE61">
            <lane id="gneE61_0">
                <vehicle id="865" pos="70.83" speed="6.70"/>
                <vehicle id="798" pos="121.97" speed="7.96"/>
                <vehicle id="873" pos="146.81" speed="6.94"/>
                <vehicle id="835" pos="165.33" speed="7.21"/>
                <vehicle id="868" pos="194.03" speed="7.05"/>
                <vehicle id="853" pos="312.67" speed="7.91"/>
            </lane>
        </edge>
        <edge id="gneE7">
            <lane id="gneE7_0">
                <vehicle id="779" pos="50.60" speed="8.36"/>
                <vehicle id="505" pos="97.98" speed="8.42"/>
                <vehicle id="824" pos="122.30" speed="8.22"/>
                <vehicle id="754" pos="301.93" speed="8.04"/>
            </lane>
        </edge>
        <edge id="gneE8">
            <lane id="gneE8_0">
                <vehicle id="838" pos="96.16" speed="7.66"/>
                <vehicle id="656" pos="147.26" speed="6.77"/>
                <vehicle id="643" pos="167.91" speed="6.85"/>
                <vehicle id="860" pos="257.78" speed="7.10"/>
            </lane>
        </edge>
    </timestep>
