<?xml version="1.0"?>
<timestep time="923.00">
        <edge id=":gneJ11_5">
            <lane id=":gneJ11_5_0">
                <vehicle id="815" pos="4.26" speed="3.80"/>
            </lane>
        </edge>
        <edge id=":gneJ11_32">
            <lane id=":gneJ11_32_0">
                <vehicle id="690" pos="5.22" speed="5.88"/>
            </lane>
        </edge>
        <edge id=":gneJ11_34">
            <lane id=":gneJ11_34_0">
                <vehicle id="758" pos="21.43" speed="7.11"/>
            </lane>
        </edge>
        <edge id=":gneJ18_0">
            <lane id=":gneJ18_0_0">
                <vehicle id="902" pos="0.23" speed="6.79"/>
            </lane>
        </edge>
        <edge id=":gneJ28_0">
            <lane id=":gneJ28_0_0">
                <vehicle id="832" pos="2.08" speed="8.24"/>
            </lane>
        </edge>
        <edge id=":gneJ6_2">
            <lane id=":gneJ6_2_0">
                <vehicle id="825" pos="1.74" speed="5.25"/>
            </lane>
        </edge>
        <edge id=":gneJ8_4">
            <lane id=":gneJ8_4_0">
                <vehicle id="828" pos="8.08" speed="5.24"/>
            </lane>
        </edge>
        <edge id="gneE10">
            <lane id="gneE10_0">
                <vehicle id="753" pos="13.27" speed="5.19"/>
                <vehicle id="917" pos="29.99" speed="5.95"/>
                <vehicle id="745" pos="66.97" speed="5.95"/>
                <vehicle id="757" pos="83.76" speed="5.99"/>
                <vehicle id="876" pos="103.03" speed="5.34"/>
                <vehicle id="773" pos="116.88" speed="2.79"/>
                <vehicle id="812" pos="127.08" speed="2.48"/>
            </lane>
        </edge>
        <edge id="gneE12">
            <lane id="gneE12_0">
                <vehicle id="915" pos="14.98" speed="5.44"/>
                <vehicle id="676" pos="58.03" speed="12.79"/>
                <vehicle id="710" pos="100.10" speed="13.81"/>
                <vehicle id="849" pos="197.07" speed="12.89"/>
                <vehicle id="848" pos="222.90" speed="13.85"/>
                <vehicle id="820" pos="270.31" speed="12.88"/>
                <vehicle id="831" pos="299.36" speed="4.67"/>
            </lane>
        </edge>
        <edge id="gneE13">
            <lane id="gneE13_0">
                <vehicle id="889" pos="92.64" speed="9.77"/>
                <vehicle id="829" pos="111.59" speed="9.86"/>
                <vehicle id="905" pos="153.65" speed="9.92"/>
                <vehicle id="845" pos="240.09" speed="9.70"/>
                <vehicle id="827" pos="266.62" speed="7.89"/>
                <vehicle id="869" pos="278.68" speed="0.00"/>
                <vehicle id="774" pos="286.18" speed="0.00"/>
                <vehicle id="857" pos="293.68" speed="0.00"/>
                <vehicle id="843" pos="301.18" speed="0.00"/>
            </lane>
        </edge>
        <edge id="gneE14">
            <lane id="gneE14_0">
                <vehicle id="775" pos="113.45" speed="4.80"/>
                <vehicle id="899" pos="123.12" speed="0.21"/>
                <vehicle id="878" pos="130.68" speed="0.02"/>
                <vehicle id="877" pos="138.19" speed="0.00"/>
                <vehicle id="536" pos="145.69" speed="0.00"/>
                <vehicle id="555" pos="153.19" speed="0.00"/>
                <vehicle id="532" pos="160.69" speed="0.00"/>
            </lane>
        </edge>
        <edge id="gneE15">
            <lane id="gneE15_0">
                <vehicle id="864" pos="6.84" speed="8.08"/>
                <vehicle id="851" pos="117.68" speed="8.97"/>
                <vehicle id="805" pos="136.31" speed="8.18"/>
                <vehicle id="842" pos="154.59" speed="4.88"/>
            </lane>
        </edge>
        <edge id="gneE17">
            <lane id="gneE17_0">
                <vehicle id="764" pos="58.74" speed="9.75"/>
                <vehicle id="682" pos="92.63" speed="9.26"/>
                <vehicle id="B4_3" pos="282.23" speed="7.09"/>
            </lane>
        </edge>
        <edge id="gneE18">
            <lane id="gneE18_0">
                <vehicle id="910" pos="109.94" speed="9.90"/>
                <vehicle id="694" pos="260.11" speed="9.13"/>
            </lane>
        </edge>
        <edge id="gneE19">
            <lane id="gneE19_0">
                <vehicle id="508" pos="134.77" speed="12.45"/>
                <vehicle id="904" pos="199.31" speed="9.99"/>
                <vehicle id="804" pos="215.33" speed="0.00"/>
                <vehicle id="782" pos="222.83" speed="0.00"/>
                <vehicle id="674" pos="230.33" speed="0.00"/>
                <vehicle id="402" pos="237.83" speed="0.00"/>
                <vehicle id="678" pos="245.33" speed="0.00"/>
                <vehicle id="688" pos="252.84" speed="0.00"/>
                <vehicle id="524" pos="260.34" speed="0.00"/>
                <vehicle id="733" pos="267.84" speed="0.00"/>
                <vehicle id="721" pos="275.34" speed="0.00"/>
                <vehicle id="667" pos="282.84" speed="0.00"/>
            </lane>
        </edge>
        <edge id="gneE2">
            <lane id="gneE2_0">
                <vehicle id="769" pos="67.75" speed="10.00"/>
            </lane>
        </edge>
        <edge id="gneE20">
            <lane id="gneE20_0">
                <vehicle id="569" pos="23.23" speed="8.20"/>
                <vehicle id="703" pos="149.34" speed="8.08"/>
                <vehicle id="814" pos="167.84" speed="8.61"/>
                <vehicle id="770" pos="220.23" speed="8.86"/>
                <vehicle id="696" pos="273.76" speed="8.44"/>
            </lane>
        </edge>
        <edge id="gneE23">
            <lane id="gneE23_0">
                <vehicle id="880" pos="131.79" speed="7.87"/>
                <vehicle id="743" pos="182.35" speed="6.97"/>
            </lane>
        </edge>
        <edge id="gneE24">
            <lane id="gneE24_0">
                <vehicle id="636" pos="7.64" speed="9.03"/>
                <vehicle id="580" pos="59.24" speed="12.51"/>
                <vehicle id="888" pos="109.62" speed="11.83"/>
                <vehicle id="788" pos="165.70" speed="12.38"/>
            </lane>
        </edge>
        <edge id="gneE25">
            <lane id="gneE25_0">
                <vehicle id="920" pos="15.92" speed="5.31"/>
                <vehicle id="872" pos="170.76" speed="0.37"/>
                <vehicle id="898" pos="178.31" speed="0.00"/>
                <vehicle id="886" pos="185.81" speed="0.00"/>
                <vehicle id="816" pos="193.32" speed="0.00"/>
                <vehicle id="830" pos="200.82" speed="0.00"/>
                <vehicle id="605" pos="208.32" speed="0.00"/>
                <vehicle id="855" pos="215.82" speed="0.00"/>
                <vehicle id="806" pos="223.32" speed="0.00"/>
                <vehicle id="651" pos="230.82" speed="0.00"/>
                <vehicle id="B1_3" pos="238.32" speed="0.00"/>
                <vehicle id="810" pos="245.82" speed="0.00"/>
                <vehicle id="655" pos="253.32" speed="0.00"/>
                <vehicle id="807" pos="260.83" speed="0.00"/>
                <vehicle id="614" pos="268.33" speed="0.00"/>
                <vehicle id="748" pos="275.83" speed="0.00"/>
                <vehicle id="608" pos="283.33" speed="0.00"/>
                <vehicle id="624" pos="290.83" speed="0.00"/>
            </lane>
        </edge>
        <edge id="gneE26">
            <lane id="gneE26_0">
                <vehicle id="719" pos="174.12" speed="3.38"/>
                <vehicle id="795" pos="183.76" speed="1.10"/>
                <vehicle id="850" pos="192.23" speed="0.50"/>
                <vehicle id="834" pos="200.15" speed="0.37"/>
                <vehicle id="801" pos="208.18" speed="0.23"/>
                <vehicle id="744" pos="215.77" speed="0.05"/>
                <vehicle id="799" pos="223.32" speed="0.01"/>
                <vehicle id="638" pos="230.82" speed="0.00"/>
                <vehicle id="633" pos="238.49" speed="0.17"/>
                <vehicle id="653" pos="247.35" speed="1.25"/>
                <vehicle id="596" pos="257.43" speed="2.19"/>
                <vehicle id="732" pos="270.40" speed="4.65"/>
                <vehicle id="737" pos="285.96" speed="6.67"/>
            </lane>
        </edge>
        <edge id="gneE27">
            <lane id="gneE27_0">
                <vehicle id="913" pos="51.80" speed="5.74"/>
            </lane>
        </edge>
        <edge id="gneE28">
            <lane id="gneE28_0">
                <vehicle id="883" pos="32.51" speed="8.46"/>
                <vehicle id="907" pos="80.39" speed="8.07"/>
                <vehicle id="906" pos="105.94" speed="8.94"/>
                <vehicle id="781" pos="136.25" speed="7.70"/>
            </lane>
        </edge>
        <edge id="gneE3">
            <lane id="gneE3_0">
                <vehicle id="658" pos="20.27" speed="8.79"/>
                <vehicle id="821" pos="150.60" speed="9.84"/>
            </lane>
        </edge>
        <edge id="gneE30">
            <lane id="gneE30_0">
                <vehicle id="895" pos="2.80" speed="7.30"/>
                <vehicle id="919" pos="27.13" speed="8.53"/>
                <vehicle id="776" pos="151.51" speed="8.15"/>
                <vehicle id="870" pos="208.06" speed="7.99"/>
            </lane>
        </edge>
        <edge id="gneE31">
            <lane id="gneE31_0">
                <vehicle id="824" pos="35.57" speed="8.27"/>
                <vehicle id="819" pos="105.21" speed="7.93"/>
                <vehicle id="741" pos="149.70" speed="8.00"/>
                <vehicle id="802" pos="170.11" speed="8.22"/>
                <vehicle id="738" pos="188.15" speed="8.43"/>
                <vehicle id="754" pos="213.98" speed="8.62"/>
                <vehicle id="854" pos="255.65" speed="8.85"/>
            </lane>
        </edge>
        <edge id="gneE32">
            <lane id="gneE32_0">
                <vehicle id="896" pos="184.12" speed="7.57"/>
                <vehicle id="631" pos="210.68" speed="7.75"/>
                <vehicle id="723" pos="281.40" speed="7.25"/>
                <vehicle id="722" pos="300.37" speed="6.83"/>
                <vehicle id="879" pos="319.96" speed="7.17"/>
            </lane>
        </edge>
        <edge id="gneE38">
            <lane id="gneE38_0">
                <vehicle id="911" pos="91.70" speed="8.12"/>
                <vehicle id="875" pos="342.98" speed="0.00"/>
            </lane>
        </edge>
        <edge id="gneE41">
            <lane id="gneE41_0">
                <vehicle id="871" pos="34.16" speed="7.73"/>
                <vehicle id="836" pos="135.48" speed="8.40"/>
            </lane>
        </edge>
        <edge id="gneE43">
            <lane id="gneE43_0">
                <vehicle id="837" pos="22.71" speed="6.37"/>
                <vehicle id="894" pos="181.10" speed="6.08"/>
                <vehicle id="657" pos="254.22" speed="0.00"/>
                <vehicle id="863" pos="261.72" speed="0.00"/>
                <vehicle id="767" pos="269.22" speed="0.00"/>
                <vehicle id="813" pos="276.73" speed="0.00"/>
                <vehicle id="750" pos="284.23" speed="0.00"/>
                <vehicle id="752" pos="291.73" speed="0.00"/>
                <vehicle id="778" pos="299.23" speed="0.00"/>
                <vehicle id="794" pos="306.73" speed="0.00"/>
            </lane>
        </edge>
        <edge id="gneE45">
            <lane id="gneE45_0">
                <vehicle id="780" pos="12.05" speed="7.88"/>
                <vehicle id="692" pos="89.54" speed="7.94"/>
                <vehicle id="840" pos="222.89" speed="8.71"/>
                <vehicle id="751" pos="272.18" speed="8.68"/>
            </lane>
        </edge>
        <edge id="gneE46">
            <lane id="gneE46_0">
                <vehicle id="903" pos="0.17" speed="9.98"/>
                <vehicle id="740" pos="119.86" speed="9.18"/>
            </lane>
        </edge>
        <edge id="gneE47">
            <lane id="gneE47_0">
                <vehicle id="918" pos="20.99" speed="7.03"/>
                <vehicle id="893" pos="50.39" speed="7.72"/>
            </lane>
        </edge>
        <edge id="gneE48">
            <lane id="gneE48_0">
                <vehicle id="897" pos="19.41" speed="6.20"/>
                <vehicle id="882" pos="99.85" speed="5.84"/>
                <vehicle id="796" pos="252.12" speed="0.01"/>
                <vehicle id="791" pos="259.63" speed="0.00"/>
                <vehicle id="858" pos="267.13" speed="0.00"/>
                <vehicle id="777" pos="274.63" speed="0.00"/>
                <vehicle id="705" pos="282.13" speed="0.00"/>
                <vehicle id="790" pos="289.63" speed="0.00"/>
                <vehicle id="817" pos="297.14" speed="0.00"/>
                <vehicle id="759" pos="304.64" speed="0.00"/>
                <vehicle id="747" pos="312.14" speed="0.00"/>
                <vehicle id="793" pos="319.64" speed="0.00"/>
            </lane>
        </edge>
        <edge id="gneE49">
            <lane id="gneE49_0">
                <vehicle id="715" pos="51.12" speed="7.38"/>
                <vehicle id="884" pos="95.90" speed="7.84"/>
                <vehicle id="683" pos="226.06" speed="7.72"/>
            </lane>
        </edge>
        <edge id="gneE5">
            <lane id="gneE5_0">
                <vehicle id="841" pos="10.55" speed="5.78"/>
                <vehicle id="687" pos="41.81" speed="5.31"/>
                <vehicle id="833" pos="59.08" speed="5.41"/>
                <vehicle id="645" pos="129.50" speed="4.91"/>
                <vehicle id="866" pos="146.06" speed="5.90"/>
            </lane>
        </edge>
        <edge id="gneE50">
            <lane id="gneE50_0">
                <vehicle id="649" pos="21.43" speed="4.90"/>
                <vehicle id="916" pos="38.16" speed="5.27"/>
                <vehicle id="861" pos="335.11" speed="5.30"/>
                <vehicle id="839" pos="365.80" speed="0.00"/>
            </lane>
        </edge>
        <edge id="gneE51">
            <lane id="gneE51_0">
                <vehicle id="811" pos="33.46" speed="6.70"/>
                <vehicle id="844" pos="53.51" speed="6.14"/>
                <vehicle id="859" pos="94.67" speed="6.32"/>
                <vehicle id="901" pos="119.47" speed="6.19"/>
                <vehicle id="691" pos="136.02" speed="6.50"/>
                <vehicle id="891" pos="199.60" speed="6.26"/>
                <vehicle id="809" pos="283.13" speed="0.61"/>
                <vehicle id="803" pos="290.79" speed="0.00"/>
                <vehicle id="800" pos="298.29" speed="0.00"/>
                <vehicle id="846" pos="305.79" speed="0.00"/>
                <vehicle id="856" pos="313.29" speed="0.00"/>
                <vehicle id="818" pos="320.79" speed="0.00"/>
                <vehicle id="665" pos="328.29" speed="0.00"/>
                <vehicle id="823" pos="335.79" speed="0.00"/>
                <vehicle id="599" pos="343.30" speed="0.00"/>
                <vehicle id="621" pos="350.80" speed="0.00"/>
                <vehicle id="763" pos="358.30" speed="0.00"/>
                <vehicle id="735" pos="365.80" speed="0.00"/>
            </lane>
        </edge>
        <edge id="gneE52">
            <lane id="gneE52_0">
                <vehicle id="922" pos="7.40" speed="2.30"/>
                <vehicle id="909" pos="75.22" speed="6.69"/>
                <vehicle id="908" pos="93.21" speed="6.21"/>
                <vehicle id="726" pos="214.79" speed="6.12"/>
                <vehicle id="724" pos="268.04" speed="6.34"/>
            </lane>
        </edge>
        <edge id="gneE53">
            <lane id="gneE53_0">
                <vehicle id="892" pos="66.20" speed="6.09"/>
                <vehicle id="874" pos="177.53" speed="6.79"/>
                <vehicle id="867" pos="220.58" speed="5.79"/>
                <vehicle id="881" pos="262.11" speed="6.35"/>
                <vehicle id="852" pos="320.66" speed="0.00"/>
                <vehicle id="787" pos="328.16" speed="0.00"/>
                <vehicle id="610" pos="335.66" speed="0.00"/>
                <vehicle id="826" pos="343.16" speed="0.00"/>
            </lane>
        </edge>
        <edge id="gneE54">
            <lane id="gneE54_0">
                <vehicle id="921" pos="10.82" speed="3.86"/>
            </lane>
        </edge>
        <edge id="gneE55">
            <lane id="gneE55_0">
                <vehicle id="914" pos="64.45" speed="7.20"/>
            </lane>
        </edge>
        <edge id="gneE57">
            <lane id="gneE57_0">
                <vehicle id="923" pos="5.10" speed="0.00"/>
            </lane>
        </edge>
        <edge id="gneE58">
            <lane id="gneE58_0">
                <vehicle id="912" pos="78.11" speed="7.40"/>
                <vehicle id="900" pos="122.33" speed="7.83"/>
                <vehicle id="708" pos="140.60" speed="7.64"/>
                <vehicle id="639" pos="156.20" speed="6.93"/>
                <vehicle id="582" pos="191.89" speed="7.49"/>
                <vehicle id="890" pos="236.60" speed="7.72"/>
                <vehicle id="797" pos="299.54" speed="7.80"/>
            </lane>
        </edge>
        <edge id="gneE59">
            <lane id="gneE59_0">
                <vehicle id="873" pos="2.98" speed="7.90"/>
                <vehicle id="835" pos="26.49" speed="8.24"/>
                <vehicle id="868" pos="59.95" speed="8.31"/>
                <vehicle id="853" pos="194.25" speed="8.52"/>
                <vehicle id="677" pos="237.91" speed="7.89"/>
                <vehicle id="736" pos="292.53" speed="7.91"/>
            </lane>
        </edge>
        <edge id="gneE6">
            <lane id="gneE6_0">
                <vehicle id="656" pos="34.57" speed="7.05"/>
                <vehicle id="860" pos="148.15" speed="6.72"/>
            </lane>
        </edge>
        <edge id="gneE60">
            <lane id="gneE60_0">
                <vehicle id="887" pos="209.58" speed="0.17"/>
                <vehicle id="720" pos="217.33" speed="0.12"/>
                <vehicle id="647" pos="225.01" speed="0.06"/>
                <vehicle id="766" pos="232.53" speed="0.01"/>
                <vehicle id="765" pos="240.04" speed="0.01"/>
                <vehicle id="716" pos="247.55" speed="0.00"/>
                <vehicle id="822" pos="255.05" speed="0.00"/>
                <vehicle id="772" pos="262.55" speed="0.00"/>
                <vehicle id="749" pos="270.05" speed="0.00"/>
                <vehicle id="808" pos="277.55" speed="0.00"/>
                <vehicle id="729" pos="285.05" speed="0.00"/>
                <vehicle id="755" pos="292.55" speed="0.00"/>
                <vehicle id="616" pos="300.05" speed="0.00"/>
                <vehicle id="693" pos="307.55" speed="0.00"/>
                <vehicle id="783" pos="316.51" speed="1.45"/>
                <vehicle id="717" pos="327.53" speed="3.52"/>
            </lane>
        </edge>
        <edge id="gneE61">
            <lane id="gneE61_0">
                <vehicle id="762" pos="88.01" speed="7.83"/>
                <vehicle id="548" pos="129.49" speed="6.75"/>
                <vehicle id="789" pos="192.28" speed="7.20"/>
                <vehicle id="865" pos="269.99" speed="7.15"/>
                <vehicle id="798" pos="320.29" speed="6.73"/>
            </lane>
        </edge>
        <edge id="gneE7">
            <lane id="gneE7_0">
                <vehicle id="885" pos="14.64" speed="8.40"/>
                <vehicle id="792" pos="93.77" speed="8.70"/>
                <vehicle id="847" pos="174.01" speed="8.21"/>
                <vehicle id="779" pos="276.22" speed="8.35"/>
            </lane>
        </edge>
        <edge id="gneE8">
            <lane id="gneE8_0">
                <vehicle id="591" pos="7.93" speed="7.63"/>
                <vehicle id="838" pos="292.42" speed="7.60"/>
            </lane>
        </edge>
    </timestep>
