<?xml version="1.0"?>
<timestep time="947.00">
        <edge id=":gneJ11_3">
            <lane id=":gneJ11_3_0">
                <vehicle id="906" pos="5.33" speed="0.14"/>
            </lane>
        </edge>
        <edge id=":gneJ11_24">
            <lane id=":gneJ11_24_0">
                <vehicle id="923" pos="9.64" speed="8.89"/>
            </lane>
        </edge>
        <edge id=":gneJ15_4">
            <lane id=":gneJ15_4_0">
                <vehicle id="752" pos="4.16" speed="5.78"/>
            </lane>
        </edge>
        <edge id=":gneJ28_8">
            <lane id=":gneJ28_8_0">
                <vehicle id="751" pos="1.67" speed="1.77"/>
            </lane>
        </edge>
        <edge id=":gneJ4_0">
            <lane id=":gneJ4_0_0">
                <vehicle id="915" pos="4.52" speed="7.50"/>
            </lane>
        </edge>
        <edge id="gneE10">
            <lane id="gneE10_0">
                <vehicle id="946" pos="6.82" speed="1.72"/>
                <vehicle id="864" pos="22.44" speed="5.32"/>
                <vehicle id="857" pos="48.72" speed="5.70"/>
                <vehicle id="843" pos="65.40" speed="5.63"/>
                <vehicle id="842" pos="110.59" speed="5.54"/>
                <vehicle id="828" pos="124.26" speed="4.83"/>
                <vehicle id="753" pos="138.06" speed="5.03"/>
            </lane>
        </edge>
        <edge id="gneE11">
            <lane id="gneE11_0">
                <vehicle id="776" pos="41.07" speed="7.98"/>
                <vehicle id="935" pos="76.30" speed="7.71"/>
                <vehicle id="870" pos="98.30" speed="8.47"/>
            </lane>
        </edge>
        <edge id="gneE12">
            <lane id="gneE12_0">
                <vehicle id="614" pos="84.38" speed="12.78"/>
                <vehicle id="851" pos="184.36" speed="13.79"/>
                <vehicle id="624" pos="214.91" speed="12.72"/>
            </lane>
        </edge>
        <edge id="gneE13">
            <lane id="gneE13_0">
                <vehicle id="860" pos="186.97" speed="9.66"/>
                <vehicle id="821" pos="214.73" speed="9.83"/>
                <vehicle id="889" pos="261.07" speed="1.24"/>
                <vehicle id="829" pos="270.12" speed="0.56"/>
                <vehicle id="905" pos="278.34" speed="0.30"/>
                <vehicle id="845" pos="286.16" speed="0.20"/>
                <vehicle id="827" pos="293.68" speed="0.01"/>
                <vehicle id="869" pos="301.18" speed="0.00"/>
            </lane>
        </edge>
        <edge id="gneE14">
            <lane id="gneE14_0">
                <vehicle id="779" pos="25.50" speed="10.47"/>
                <vehicle id="936" pos="66.49" speed="10.67"/>
                <vehicle id="748" pos="102.87" speed="9.83"/>
                <vehicle id="608" pos="124.02" speed="10.61"/>
            </lane>
        </edge>
        <edge id="gneE15">
            <lane id="gneE15_0">
                <vehicle id="910" pos="23.47" speed="7.74"/>
                <vehicle id="703" pos="63.54" speed="8.65"/>
                <vehicle id="814" pos="82.10" speed="8.99"/>
                <vehicle id="770" pos="133.09" speed="8.92"/>
                <vehicle id="927" pos="157.60" speed="4.71"/>
            </lane>
        </edge>
        <edge id="gneE17">
            <lane id="gneE17_0">
                <vehicle id="945" pos="10.53" speed="3.66"/>
                <vehicle id="899" pos="81.75" speed="8.72"/>
                <vehicle id="877" pos="136.75" speed="8.77"/>
                <vehicle id="764" pos="277.77" speed="4.11"/>
                <vehicle id="682" pos="286.22" speed="0.09"/>
            </lane>
        </edge>
        <edge id="gneE18">
            <lane id="gneE18_0">
                <vehicle id="820" pos="0.57" speed="9.75"/>
            </lane>
        </edge>
        <edge id="gneE19">
            <lane id="gneE19_0">
                <vehicle id="944" pos="15.16" speed="5.57"/>
                <vehicle id="878" pos="137.76" speed="11.70"/>
                <vehicle id="532" pos="198.63" speed="0.69"/>
                <vehicle id="508" pos="206.98" speed="0.57"/>
                <vehicle id="904" pos="214.97" speed="0.24"/>
                <vehicle id="804" pos="222.63" speed="0.12"/>
                <vehicle id="782" pos="230.28" speed="0.09"/>
                <vehicle id="674" pos="237.81" speed="0.02"/>
                <vehicle id="402" pos="245.33" speed="0.01"/>
                <vehicle id="678" pos="252.83" speed="0.00"/>
                <vehicle id="688" pos="260.34" speed="0.00"/>
                <vehicle id="524" pos="267.84" speed="0.00"/>
                <vehicle id="733" pos="275.34" speed="0.00"/>
                <vehicle id="721" pos="282.84" speed="0.00"/>
            </lane>
        </edge>
        <edge id="gneE20">
            <lane id="gneE20_0">
                <vehicle id="934" pos="67.93" speed="8.27"/>
                <vehicle id="580" pos="101.48" speed="8.18"/>
                <vehicle id="888" pos="137.91" speed="8.02"/>
                <vehicle id="569" pos="223.25" speed="8.68"/>
            </lane>
        </edge>
        <edge id="gneE23">
            <lane id="gneE23_0">
                <vehicle id="717" pos="51.20" speed="7.70"/>
                <vehicle id="937" pos="69.25" speed="7.00"/>
                <vehicle id="667" pos="108.19" speed="7.55"/>
                <vehicle id="826" pos="130.30" speed="7.88"/>
                <vehicle id="758" pos="177.34" speed="7.49"/>
            </lane>
        </edge>
        <edge id="gneE24">
            <lane id="gneE24_0">
                <vehicle id="794" pos="35.16" speed="11.80"/>
                <vehicle id="875" pos="67.62" speed="12.45"/>
                <vehicle id="883" pos="123.26" speed="12.54"/>
            </lane>
        </edge>
        <edge id="gneE25">
            <lane id="gneE25_0">
                <vehicle id="947" pos="5.10" speed="0.00"/>
                <vehicle id="920" pos="163.59" speed="0.18"/>
                <vehicle id="872" pos="172.10" speed="0.99"/>
                <vehicle id="898" pos="181.52" speed="1.53"/>
                <vehicle id="886" pos="190.29" speed="1.14"/>
                <vehicle id="816" pos="200.70" speed="2.75"/>
                <vehicle id="830" pos="212.16" speed="3.65"/>
                <vehicle id="605" pos="226.41" speed="5.15"/>
                <vehicle id="855" pos="239.33" speed="4.43"/>
                <vehicle id="806" pos="248.87" speed="1.58"/>
                <vehicle id="651" pos="258.74" speed="1.22"/>
                <vehicle id="B1_3" pos="267.93" speed="0.78"/>
                <vehicle id="810" pos="275.79" speed="0.05"/>
                <vehicle id="655" pos="283.32" speed="0.02"/>
                <vehicle id="807" pos="290.83" speed="0.00"/>
            </lane>
        </edge>
        <edge id="gneE26">
            <lane id="gneE26_0">
                <vehicle id="696" pos="12.43" speed="6.80"/>
                <vehicle id="939" pos="47.81" speed="6.38"/>
                <vehicle id="931" pos="98.41" speed="6.88"/>
                <vehicle id="719" pos="208.28" speed="0.04"/>
                <vehicle id="795" pos="215.80" speed="0.02"/>
                <vehicle id="850" pos="223.63" speed="0.32"/>
                <vehicle id="834" pos="231.57" speed="0.43"/>
                <vehicle id="801" pos="240.54" speed="1.27"/>
                <vehicle id="744" pos="249.73" speed="1.53"/>
                <vehicle id="799" pos="259.78" speed="1.78"/>
                <vehicle id="638" pos="267.88" speed="0.20"/>
                <vehicle id="633" pos="275.72" speed="0.18"/>
                <vehicle id="653" pos="283.33" speed="0.00"/>
                <vehicle id="596" pos="290.83" speed="0.00"/>
            </lane>
        </edge>
        <edge id="gneE27">
            <lane id="gneE27_0">
                <vehicle id="778" pos="4.54" speed="5.49"/>
                <vehicle id="732" pos="36.75" speed="5.75"/>
                <vehicle id="880" pos="78.44" speed="5.05"/>
                <vehicle id="924" pos="101.46" speed="5.65"/>
                <vehicle id="743" pos="114.96" speed="5.24"/>
            </lane>
        </edge>
        <edge id="gneE28">
            <lane id="gneE28_0">
                <vehicle id="819" pos="10.39" speed="8.38"/>
                <vehicle id="802" pos="73.07" speed="8.38"/>
                <vehicle id="754" pos="119.99" speed="8.19"/>
            </lane>
        </edge>
        <edge id="gneE3">
            <lane id="gneE3_0">
                <vehicle id="942" pos="30.98" speed="8.48"/>
                <vehicle id="853" pos="62.52" speed="9.78"/>
            </lane>
        </edge>
        <edge id="gneE30">
            <lane id="gneE30_0">
                <vehicle id="913" pos="47.90" speed="7.72"/>
                <vehicle id="938" pos="66.37" speed="8.06"/>
                <vehicle id="895" pos="204.55" speed="8.61"/>
                <vehicle id="919" pos="227.83" speed="7.90"/>
            </lane>
        </edge>
        <edge id="gneE31">
            <lane id="gneE31_0">
                <vehicle id="917" pos="13.12" speed="8.60"/>
                <vehicle id="745" pos="34.39" speed="8.96"/>
                <vehicle id="847" pos="60.52" speed="8.47"/>
                <vehicle id="757" pos="97.56" speed="7.94"/>
                <vehicle id="876" pos="123.13" speed="8.60"/>
                <vehicle id="812" pos="172.38" speed="8.06"/>
                <vehicle id="825" pos="195.36" speed="8.73"/>
                <vehicle id="824" pos="237.31" speed="8.46"/>
            </lane>
        </edge>
        <edge id="gneE32">
            <lane id="gneE32_0">
                <vehicle id="781" pos="141.10" speed="7.74"/>
            </lane>
        </edge>
        <edge id="gneE38">
            <lane id="gneE38_0">
                <vehicle id="832" pos="16.12" speed="8.43"/>
                <vehicle id="902" pos="191.27" speed="8.69"/>
                <vehicle id="911" pos="292.16" speed="7.86"/>
            </lane>
        </edge>
        <edge id="gneE4">
            <lane id="gneE4_0">
                <vehicle id="838" pos="1.23" speed="9.73"/>
                <vehicle id="676" pos="32.42" speed="9.44"/>
            </lane>
        </edge>
        <edge id="gneE41">
            <lane id="gneE41_0">
                <vehicle id="896" pos="14.15" speed="7.76"/>
                <vehicle id="631" pos="48.63" speed="8.94"/>
            </lane>
        </edge>
        <edge id="gneE42">
            <lane id="gneE42_0">
                <vehicle id="918" pos="13.97" speed="7.28"/>
                <vehicle id="893" pos="37.02" speed="7.39"/>
                <vehicle id="861" pos="110.07" speed="6.96"/>
            </lane>
        </edge>
        <edge id="gneE43">
            <lane id="gneE43_0">
                <vehicle id="839" pos="100.04" speed="5.92"/>
                <vehicle id="836" pos="134.17" speed="6.98"/>
                <vehicle id="837" pos="174.60" speed="5.72"/>
                <vehicle id="894" pos="246.72" speed="0.00"/>
                <vehicle id="657" pos="254.22" speed="0.00"/>
                <vehicle id="863" pos="262.00" speed="0.28"/>
                <vehicle id="767" pos="270.93" speed="1.36"/>
                <vehicle id="813" pos="282.31" speed="3.52"/>
                <vehicle id="750" pos="296.15" speed="5.28"/>
            </lane>
        </edge>
        <edge id="gneE45">
            <lane id="gneE45_0">
                <vehicle id="907" pos="99.21" speed="7.94"/>
                <vehicle id="780" pos="211.65" speed="8.23"/>
                <vehicle id="692" pos="287.47" speed="6.36"/>
                <vehicle id="840" pos="299.23" speed="0.00"/>
            </lane>
        </edge>
        <edge id="gneE46">
            <lane id="gneE46_0">
                <vehicle id="879" pos="11.76" speed="8.91"/>
                <vehicle id="871" pos="85.72" speed="8.84"/>
            </lane>
        </edge>
        <edge id="gneE47">
            <lane id="gneE47_0">
                <vehicle id="921" pos="18.10" speed="8.55"/>
                <vehicle id="930" pos="129.61" speed="8.56"/>
                <vehicle id="925" pos="173.26" speed="8.10"/>
            </lane>
        </edge>
        <edge id="gneE48">
            <lane id="gneE48_0">
                <vehicle id="903" pos="14.51" speed="6.03"/>
                <vehicle id="897" pos="172.83" speed="6.48"/>
                <vehicle id="882" pos="244.55" speed="0.62"/>
                <vehicle id="796" pos="252.13" speed="0.00"/>
                <vehicle id="791" pos="259.63" speed="0.00"/>
                <vehicle id="858" pos="267.13" speed="0.00"/>
                <vehicle id="777" pos="274.63" speed="0.00"/>
                <vehicle id="705" pos="282.13" speed="0.00"/>
                <vehicle id="790" pos="289.64" speed="0.00"/>
                <vehicle id="817" pos="297.14" speed="0.00"/>
                <vehicle id="759" pos="304.64" speed="0.00"/>
                <vehicle id="747" pos="312.14" speed="0.00"/>
                <vehicle id="793" pos="319.64" speed="0.00"/>
            </lane>
        </edge>
        <edge id="gneE49">
            <lane id="gneE49_0">
                <vehicle id="690" pos="157.60" speed="7.37"/>
                <vehicle id="715" pos="231.66" speed="7.91"/>
                <vehicle id="884" pos="271.13" speed="7.26"/>
            </lane>
        </edge>
        <edge id="gneE5">
            <lane id="gneE5_0">
                <vehicle id="710" pos="38.38" speed="5.44"/>
                <vehicle id="849" pos="70.59" speed="4.70"/>
                <vehicle id="848" pos="84.89" speed="5.03"/>
                <vehicle id="831" pos="123.35" speed="5.91"/>
                <vehicle id="841" pos="139.46" speed="4.83"/>
            </lane>
        </edge>
        <edge id="gneE50">
            <lane id="gneE50_0">
                <vehicle id="929" pos="93.78" speed="5.27"/>
                <vehicle id="815" pos="111.98" speed="4.71"/>
                <vehicle id="649" pos="150.58" speed="5.76"/>
                <vehicle id="916" pos="167.89" speed="5.17"/>
            </lane>
        </edge>
        <edge id="gneE51">
            <lane id="gneE51_0">
                <vehicle id="811" pos="186.55" speed="6.06"/>
                <vehicle id="844" pos="205.90" speed="6.21"/>
                <vehicle id="859" pos="249.71" speed="5.62"/>
                <vehicle id="901" pos="260.56" speed="0.53"/>
                <vehicle id="691" pos="268.28" speed="0.01"/>
                <vehicle id="891" pos="275.79" speed="0.00"/>
                <vehicle id="809" pos="283.29" speed="0.00"/>
                <vehicle id="803" pos="290.79" speed="0.00"/>
                <vehicle id="800" pos="298.29" speed="0.00"/>
                <vehicle id="846" pos="305.79" speed="0.00"/>
                <vehicle id="856" pos="313.29" speed="0.00"/>
                <vehicle id="818" pos="320.79" speed="0.00"/>
                <vehicle id="665" pos="328.29" speed="0.00"/>
                <vehicle id="823" pos="335.80" speed="0.00"/>
                <vehicle id="599" pos="343.30" speed="0.00"/>
                <vehicle id="621" pos="350.80" speed="0.00"/>
                <vehicle id="763" pos="358.30" speed="0.00"/>
                <vehicle id="735" pos="365.80" speed="0.00"/>
            </lane>
        </edge>
        <edge id="gneE52">
            <lane id="gneE52_0">
                <vehicle id="941" pos="36.10" speed="6.95"/>
                <vehicle id="926" pos="132.85" speed="5.93"/>
                <vehicle id="922" pos="158.37" speed="5.99"/>
                <vehicle id="909" pos="227.73" speed="6.36"/>
                <vehicle id="908" pos="244.19" speed="6.33"/>
            </lane>
        </edge>
        <edge id="gneE53">
            <lane id="gneE53_0">
                <vehicle id="914" pos="84.23" speed="6.45"/>
                <vehicle id="892" pos="214.70" speed="5.92"/>
                <vehicle id="874" pos="313.14" speed="0.13"/>
                <vehicle id="867" pos="320.66" speed="0.00"/>
                <vehicle id="881" pos="328.16" speed="0.00"/>
                <vehicle id="852" pos="335.66" speed="0.00"/>
                <vehicle id="787" pos="343.16" speed="0.00"/>
            </lane>
        </edge>
        <edge id="gneE54">
            <lane id="gneE54_0">
                <vehicle id="726" pos="12.30" speed="6.65"/>
                <vehicle id="724" pos="70.11" speed="6.87"/>
                <vehicle id="928" pos="119.45" speed="6.34"/>
            </lane>
        </edge>
        <edge id="gneE55">
            <lane id="gneE55_0">
                <vehicle id="683" pos="75.38" speed="7.22"/>
            </lane>
        </edge>
        <edge id="gneE56">
            <lane id="gneE56_0">
                <vehicle id="636" pos="56.26" speed="8.72"/>
            </lane>
        </edge>
        <edge id="gneE58">
            <lane id="gneE58_0">
                <vehicle id="912" pos="255.23" speed="6.79"/>
                <vehicle id="900" pos="297.22" speed="6.90"/>
                <vehicle id="708" pos="314.44" speed="7.09"/>
            </lane>
        </edge>
        <edge id="gneE59">
            <lane id="gneE59_0">
                <vehicle id="943" pos="26.60" speed="8.46"/>
                <vehicle id="932" pos="100.48" speed="8.63"/>
                <vehicle id="865" pos="121.48" speed="7.75"/>
                <vehicle id="798" pos="177.51" speed="7.76"/>
                <vehicle id="873" pos="203.35" speed="8.76"/>
                <vehicle id="835" pos="224.59" speed="8.66"/>
                <vehicle id="868" pos="256.71" speed="8.16"/>
            </lane>
        </edge>
        <edge id="gneE60">
            <lane id="gneE60_0">
                <vehicle id="940" pos="23.16" speed="5.17"/>
                <vehicle id="582" pos="39.11" speed="6.66"/>
                <vehicle id="890" pos="77.68" speed="6.87"/>
                <vehicle id="797" pos="132.92" speed="6.48"/>
                <vehicle id="887" pos="223.60" speed="0.72"/>
                <vehicle id="720" pos="232.03" speed="0.43"/>
                <vehicle id="647" pos="239.87" speed="0.11"/>
                <vehicle id="766" pos="247.52" speed="0.13"/>
                <vehicle id="765" pos="255.42" speed="0.35"/>
                <vehicle id="716" pos="264.00" speed="0.90"/>
                <vehicle id="822" pos="273.68" speed="1.93"/>
                <vehicle id="772" pos="283.44" speed="1.73"/>
                <vehicle id="749" pos="291.87" speed="0.51"/>
                <vehicle id="808" pos="299.89" speed="0.41"/>
                <vehicle id="729" pos="307.46" speed="0.05"/>
                <vehicle id="755" pos="315.05" speed="0.04"/>
                <vehicle id="616" pos="322.55" speed="0.00"/>
                <vehicle id="693" pos="330.06" speed="0.00"/>
                <vehicle id="783" pos="337.56" speed="0.00"/>
            </lane>
        </edge>
        <edge id="gneE61">
            <lane id="gneE61_0">
                <vehicle id="737" pos="36.32" speed="7.81"/>
                <vehicle id="788" pos="147.57" speed="7.08"/>
                <vehicle id="762" pos="263.21" speed="7.38"/>
                <vehicle id="548" pos="305.87" speed="7.90"/>
            </lane>
        </edge>
        <edge id="gneE7">
            <lane id="gneE7_0">
                <vehicle id="833" pos="56.62" speed="8.50"/>
                <vehicle id="645" pos="166.67" speed="8.38"/>
                <vehicle id="866" pos="195.75" speed="8.20"/>
                <vehicle id="885" pos="213.12" speed="7.84"/>
                <vehicle id="792" pos="292.99" speed="7.98"/>
            </lane>
        </edge>
        <edge id="gneE8">
            <lane id="gneE8_0">
                <vehicle id="933" pos="90.27" speed="6.76"/>
                <vehicle id="773" pos="125.80" speed="6.70"/>
                <vehicle id="591" pos="187.40" speed="7.74"/>
            </lane>
        </edge>
    </timestep>
