<?xml version="1.0"?>
<timestep time="950.00">
        <edge id=":gneJ11_42">
            <lane id=":gneJ11_42_0">
                <vehicle id="906" pos="12.21" speed="6.38"/>
            </lane>
        </edge>
        <edge id=":gneJ11_7">
            <lane id=":gneJ11_7_0">
                <vehicle id="735" pos="1.35" speed="1.45"/>
            </lane>
        </edge>
        <edge id=":gneJ15_17">
            <lane id=":gneJ15_17_0">
                <vehicle id="754" pos="3.99" speed="8.39"/>
            </lane>
        </edge>
        <edge id=":gneJ3_2">
            <lane id=":gneJ3_2_0">
                <vehicle id="682" pos="11.20" speed="5.37"/>
            </lane>
        </edge>
        <edge id=":gneJ33_1">
            <lane id=":gneJ33_1_0">
                <vehicle id="900" pos="1.31" speed="7.90"/>
            </lane>
        </edge>
        <edge id=":gneJ6_2">
            <lane id=":gneJ6_2_0">
                <vehicle id="828" pos="0.87" speed="5.29"/>
            </lane>
        </edge>
        <edge id="gneE10">
            <lane id="gneE10_0">
                <vehicle id="927" pos="4.22" speed="5.43"/>
                <vehicle id="946" pos="20.48" speed="4.73"/>
                <vehicle id="864" pos="38.84" speed="5.47"/>
                <vehicle id="857" pos="64.43" speed="5.93"/>
                <vehicle id="843" pos="81.42" speed="4.78"/>
                <vehicle id="842" pos="125.79" speed="4.41"/>
            </lane>
        </edge>
        <edge id="gneE11">
            <lane id="gneE11_0">
                <vehicle id="776" pos="66.12" speed="8.59"/>
                <vehicle id="935" pos="101.54" speed="8.80"/>
                <vehicle id="870" pos="122.98" speed="7.92"/>
            </lane>
        </edge>
        <edge id="gneE12">
            <lane id="gneE12_0">
                <vehicle id="614" pos="123.94" speed="12.92"/>
                <vehicle id="851" pos="223.71" speed="13.62"/>
                <vehicle id="624" pos="255.35" speed="13.32"/>
            </lane>
        </edge>
        <edge id="gneE13">
            <lane id="gneE13_0">
                <vehicle id="860" pos="214.67" speed="8.88"/>
                <vehicle id="821" pos="242.07" speed="9.00"/>
                <vehicle id="889" pos="263.41" speed="0.27"/>
                <vehicle id="829" pos="271.14" speed="0.09"/>
                <vehicle id="905" pos="278.67" speed="0.00"/>
                <vehicle id="845" pos="286.18" speed="0.00"/>
                <vehicle id="827" pos="293.68" speed="0.00"/>
                <vehicle id="869" pos="301.18" speed="0.00"/>
            </lane>
        </edge>
        <edge id="gneE14">
            <lane id="gneE14_0">
                <vehicle id="779" pos="56.82" speed="10.56"/>
                <vehicle id="936" pos="96.80" speed="10.19"/>
                <vehicle id="748" pos="133.94" speed="9.84"/>
                <vehicle id="608" pos="154.07" speed="9.16"/>
            </lane>
        </edge>
        <edge id="gneE15">
            <lane id="gneE15_0">
                <vehicle id="948" pos="10.20" speed="3.80"/>
                <vehicle id="910" pos="47.20" speed="7.73"/>
                <vehicle id="703" pos="88.55" speed="8.16"/>
                <vehicle id="814" pos="107.03" speed="8.03"/>
                <vehicle id="770" pos="158.06" speed="8.17"/>
            </lane>
        </edge>
        <edge id="gneE17">
            <lane id="gneE17_0">
                <vehicle id="945" pos="34.12" speed="9.14"/>
                <vehicle id="899" pos="110.81" speed="9.98"/>
                <vehicle id="877" pos="164.04" speed="8.83"/>
                <vehicle id="764" pos="284.77" speed="4.21"/>
            </lane>
        </edge>
        <edge id="gneE18">
            <lane id="gneE18_0">
                <vehicle id="820" pos="28.73" speed="9.87"/>
            </lane>
        </edge>
        <edge id="gneE19">
            <lane id="gneE19_0">
                <vehicle id="944" pos="44.66" speed="12.06"/>
                <vehicle id="878" pos="174.77" speed="12.82"/>
                <vehicle id="532" pos="199.90" speed="0.30"/>
                <vehicle id="508" pos="207.71" speed="0.23"/>
                <vehicle id="904" pos="215.27" speed="0.04"/>
                <vehicle id="804" pos="222.81" speed="0.01"/>
                <vehicle id="782" pos="230.33" speed="0.01"/>
                <vehicle id="674" pos="237.83" speed="0.00"/>
                <vehicle id="402" pos="245.33" speed="0.00"/>
                <vehicle id="678" pos="252.83" speed="0.00"/>
                <vehicle id="688" pos="260.34" speed="0.00"/>
                <vehicle id="524" pos="267.84" speed="0.00"/>
                <vehicle id="733" pos="275.34" speed="0.00"/>
                <vehicle id="721" pos="282.84" speed="0.00"/>
            </lane>
        </edge>
        <edge id="gneE20">
            <lane id="gneE20_0">
                <vehicle id="934" pos="93.28" speed="8.66"/>
                <vehicle id="580" pos="126.97" speed="8.97"/>
                <vehicle id="888" pos="162.34" speed="8.13"/>
                <vehicle id="569" pos="249.54" speed="8.69"/>
            </lane>
        </edge>
        <edge id="gneE23">
            <lane id="gneE23_0">
                <vehicle id="717" pos="73.17" speed="7.34"/>
                <vehicle id="937" pos="91.71" speed="7.21"/>
                <vehicle id="667" pos="131.04" speed="7.36"/>
                <vehicle id="826" pos="152.69" speed="7.91"/>
            </lane>
        </edge>
        <edge id="gneE24">
            <lane id="gneE24_0">
                <vehicle id="794" pos="72.29" speed="12.70"/>
                <vehicle id="875" pos="105.32" speed="12.32"/>
                <vehicle id="883" pos="160.03" speed="11.76"/>
            </lane>
        </edge>
        <edge id="gneE25">
            <lane id="gneE25_0">
                <vehicle id="947" pos="16.22" speed="6.04"/>
                <vehicle id="920" pos="166.31" speed="0.49"/>
                <vehicle id="872" pos="175.69" speed="1.58"/>
                <vehicle id="898" pos="187.18" speed="2.86"/>
                <vehicle id="886" pos="200.26" speed="4.74"/>
                <vehicle id="816" pos="214.82" speed="5.33"/>
                <vehicle id="830" pos="225.21" speed="2.28"/>
                <vehicle id="605" pos="234.67" speed="0.85"/>
                <vehicle id="855" pos="243.80" speed="1.24"/>
                <vehicle id="806" pos="252.55" speed="0.48"/>
                <vehicle id="651" pos="260.68" speed="0.20"/>
                <vehicle id="B1_3" pos="268.32" speed="0.07"/>
                <vehicle id="810" pos="275.82" speed="0.00"/>
                <vehicle id="655" pos="283.33" speed="0.00"/>
                <vehicle id="807" pos="290.83" speed="0.00"/>
            </lane>
        </edge>
        <edge id="gneE26">
            <lane id="gneE26_0">
                <vehicle id="696" pos="31.36" speed="6.16"/>
                <vehicle id="939" pos="66.76" speed="6.09"/>
                <vehicle id="931" pos="117.48" speed="6.64"/>
                <vehicle id="719" pos="208.86" speed="0.40"/>
                <vehicle id="795" pos="216.92" speed="0.55"/>
                <vehicle id="850" pos="226.20" speed="1.32"/>
                <vehicle id="834" pos="235.95" speed="2.10"/>
                <vehicle id="801" pos="244.96" speed="1.43"/>
                <vehicle id="744" pos="252.92" speed="0.44"/>
                <vehicle id="799" pos="260.70" speed="0.22"/>
                <vehicle id="638" pos="268.29" speed="0.05"/>
                <vehicle id="633" pos="275.83" speed="0.01"/>
                <vehicle id="653" pos="283.33" speed="0.00"/>
                <vehicle id="596" pos="290.83" speed="0.00"/>
            </lane>
        </edge>
        <edge id="gneE27">
            <lane id="gneE27_0">
                <vehicle id="778" pos="21.70" speed="5.91"/>
                <vehicle id="732" pos="52.61" speed="5.64"/>
                <vehicle id="880" pos="94.87" speed="5.06"/>
                <vehicle id="924" pos="117.05" speed="5.87"/>
                <vehicle id="743" pos="131.11" speed="5.90"/>
            </lane>
        </edge>
        <edge id="gneE28">
            <lane id="gneE28_0">
                <vehicle id="819" pos="34.86" speed="7.70"/>
                <vehicle id="802" pos="98.31" speed="8.89"/>
            </lane>
        </edge>
        <edge id="gneE3">
            <lane id="gneE3_0">
                <vehicle id="942" pos="58.11" speed="8.71"/>
                <vehicle id="853" pos="90.11" speed="9.46"/>
            </lane>
        </edge>
        <edge id="gneE30">
            <lane id="gneE30_0">
                <vehicle id="913" pos="72.43" speed="8.13"/>
                <vehicle id="938" pos="90.56" speed="8.22"/>
                <vehicle id="895" pos="230.22" speed="8.76"/>
                <vehicle id="919" pos="251.45" speed="7.95"/>
            </lane>
        </edge>
        <edge id="gneE31">
            <lane id="gneE31_0">
                <vehicle id="753" pos="14.44" speed="8.07"/>
                <vehicle id="917" pos="38.45" speed="7.86"/>
                <vehicle id="745" pos="59.81" speed="8.32"/>
                <vehicle id="847" pos="85.50" speed="8.03"/>
                <vehicle id="757" pos="122.74" speed="8.73"/>
                <vehicle id="876" pos="147.50" speed="7.74"/>
                <vehicle id="812" pos="195.87" speed="7.97"/>
                <vehicle id="825" pos="220.89" speed="8.79"/>
                <vehicle id="824" pos="261.45" speed="7.74"/>
            </lane>
        </edge>
        <edge id="gneE32">
            <lane id="gneE32_0">
                <vehicle id="752" pos="16.53" speed="7.32"/>
                <vehicle id="781" pos="164.15" speed="7.33"/>
            </lane>
        </edge>
        <edge id="gneE38">
            <lane id="gneE38_0">
                <vehicle id="832" pos="41.27" speed="8.31"/>
                <vehicle id="902" pos="216.55" speed="8.94"/>
                <vehicle id="911" pos="317.07" speed="8.36"/>
            </lane>
        </edge>
        <edge id="gneE4">
            <lane id="gneE4_0">
                <vehicle id="838" pos="29.25" speed="9.56"/>
                <vehicle id="676" pos="60.56" speed="9.63"/>
            </lane>
        </edge>
        <edge id="gneE41">
            <lane id="gneE41_0">
                <vehicle id="950" pos="5.10" speed="0.00"/>
                <vehicle id="896" pos="38.81" speed="7.87"/>
                <vehicle id="631" pos="73.50" speed="8.25"/>
            </lane>
        </edge>
        <edge id="gneE42">
            <lane id="gneE42_0">
                <vehicle id="751" pos="1.87" speed="7.88"/>
                <vehicle id="918" pos="35.19" speed="6.84"/>
                <vehicle id="893" pos="59.76" speed="7.72"/>
                <vehicle id="861" pos="132.30" speed="7.82"/>
            </lane>
        </edge>
        <edge id="gneE43">
            <lane id="gneE43_0">
                <vehicle id="839" pos="119.67" speed="6.14"/>
                <vehicle id="836" pos="152.46" speed="5.79"/>
                <vehicle id="837" pos="193.28" speed="5.97"/>
                <vehicle id="894" pos="247.38" speed="0.45"/>
                <vehicle id="657" pos="258.18" speed="3.13"/>
                <vehicle id="863" pos="270.10" speed="3.79"/>
                <vehicle id="767" pos="283.56" speed="5.19"/>
                <vehicle id="813" pos="297.77" speed="5.35"/>
                <vehicle id="750" pos="306.62" speed="0.30"/>
            </lane>
        </edge>
        <edge id="gneE45">
            <lane id="gneE45_0">
                <vehicle id="758" pos="0.19" speed="8.62"/>
                <vehicle id="907" pos="124.41" speed="8.18"/>
                <vehicle id="780" pos="236.72" speed="8.82"/>
                <vehicle id="692" pos="296.13" speed="3.12"/>
                <vehicle id="840" pos="305.66" speed="1.31"/>
            </lane>
        </edge>
        <edge id="gneE46">
            <lane id="gneE46_0">
                <vehicle id="879" pos="40.35" speed="8.72"/>
                <vehicle id="871" pos="112.85" speed="9.04"/>
            </lane>
        </edge>
        <edge id="gneE47">
            <lane id="gneE47_0">
                <vehicle id="921" pos="42.88" speed="8.88"/>
                <vehicle id="930" pos="154.85" speed="8.21"/>
                <vehicle id="925" pos="192.75" speed="4.16"/>
            </lane>
        </edge>
        <edge id="gneE48">
            <lane id="gneE48_0">
                <vehicle id="903" pos="34.35" speed="6.82"/>
                <vehicle id="897" pos="191.47" speed="6.14"/>
                <vehicle id="882" pos="244.63" speed="0.01"/>
                <vehicle id="796" pos="252.13" speed="0.00"/>
                <vehicle id="791" pos="259.63" speed="0.00"/>
                <vehicle id="858" pos="267.13" speed="0.00"/>
                <vehicle id="777" pos="274.63" speed="0.00"/>
                <vehicle id="705" pos="282.13" speed="0.00"/>
                <vehicle id="790" pos="289.64" speed="0.00"/>
                <vehicle id="817" pos="297.14" speed="0.00"/>
                <vehicle id="759" pos="304.64" speed="0.00"/>
                <vehicle id="747" pos="312.14" speed="0.00"/>
                <vehicle id="793" pos="319.64" speed="0.00"/>
            </lane>
        </edge>
        <edge id="gneE49">
            <lane id="gneE49_0">
                <vehicle id="949" pos="7.55" speed="2.45"/>
                <vehicle id="690" pos="179.33" speed="7.44"/>
                <vehicle id="715" pos="254.29" speed="7.49"/>
                <vehicle id="884" pos="293.12" speed="7.33"/>
            </lane>
        </edge>
        <edge id="gneE5">
            <lane id="gneE5_0">
                <vehicle id="915" pos="14.54" speed="5.56"/>
                <vehicle id="710" pos="54.46" speed="5.59"/>
                <vehicle id="849" pos="86.08" speed="4.96"/>
                <vehicle id="848" pos="100.20" speed="5.20"/>
                <vehicle id="831" pos="139.70" speed="4.99"/>
            </lane>
        </edge>
        <edge id="gneE50">
            <lane id="gneE50_0">
                <vehicle id="929" pos="109.50" speed="5.48"/>
                <vehicle id="815" pos="127.87" speed="4.93"/>
                <vehicle id="649" pos="166.43" speed="4.77"/>
                <vehicle id="916" pos="185.09" speed="5.73"/>
            </lane>
        </edge>
        <edge id="gneE51">
            <lane id="gneE51_0">
                <vehicle id="811" pos="205.36" speed="6.13"/>
                <vehicle id="844" pos="225.90" speed="6.09"/>
                <vehicle id="859" pos="253.17" speed="0.30"/>
                <vehicle id="901" pos="260.78" speed="0.01"/>
                <vehicle id="691" pos="268.29" speed="0.00"/>
                <vehicle id="891" pos="275.79" speed="0.00"/>
                <vehicle id="809" pos="283.29" speed="0.00"/>
                <vehicle id="803" pos="290.79" speed="0.00"/>
                <vehicle id="800" pos="298.29" speed="0.00"/>
                <vehicle id="846" pos="305.79" speed="0.00"/>
                <vehicle id="856" pos="313.29" speed="0.00"/>
                <vehicle id="818" pos="320.79" speed="0.00"/>
                <vehicle id="665" pos="328.29" speed="0.00"/>
                <vehicle id="823" pos="335.80" speed="0.00"/>
                <vehicle id="599" pos="343.30" speed="0.00"/>
                <vehicle id="621" pos="350.80" speed="0.00"/>
                <vehicle id="763" pos="358.30" speed="0.00"/>
            </lane>
        </edge>
        <edge id="gneE52">
            <lane id="gneE52_0">
                <vehicle id="923" pos="15.31" speed="6.69"/>
                <vehicle id="941" pos="55.47" speed="6.96"/>
                <vehicle id="926" pos="150.83" speed="5.73"/>
                <vehicle id="922" pos="177.41" speed="6.07"/>
                <vehicle id="909" pos="246.84" speed="6.52"/>
                <vehicle id="908" pos="262.93" speed="5.84"/>
            </lane>
        </edge>
        <edge id="gneE53">
            <lane id="gneE53_0">
                <vehicle id="914" pos="102.84" speed="6.61"/>
                <vehicle id="892" pos="233.39" speed="5.79"/>
                <vehicle id="874" pos="313.15" speed="0.00"/>
                <vehicle id="867" pos="320.66" speed="0.00"/>
                <vehicle id="881" pos="328.16" speed="0.00"/>
                <vehicle id="852" pos="335.66" speed="0.00"/>
                <vehicle id="787" pos="343.16" speed="0.00"/>
            </lane>
        </edge>
        <edge id="gneE54">
            <lane id="gneE54_0">
                <vehicle id="726" pos="31.43" speed="6.30"/>
                <vehicle id="724" pos="89.48" speed="6.27"/>
                <vehicle id="928" pos="138.26" speed="6.30"/>
            </lane>
        </edge>
        <edge id="gneE55">
            <lane id="gneE55_0">
                <vehicle id="683" pos="97.92" speed="6.97"/>
            </lane>
        </edge>
        <edge id="gneE56">
            <lane id="gneE56_0">
                <vehicle id="636" pos="80.90" speed="8.49"/>
            </lane>
        </edge>
        <edge id="gneE58">
            <lane id="gneE58_0">
                <vehicle id="912" pos="276.44" speed="7.24"/>
            </lane>
        </edge>
        <edge id="gneE59">
            <lane id="gneE59_0">
                <vehicle id="943" pos="51.52" speed="8.93"/>
                <vehicle id="932" pos="125.97" speed="8.03"/>
                <vehicle id="865" pos="146.80" speed="8.25"/>
                <vehicle id="798" pos="202.34" speed="8.08"/>
                <vehicle id="873" pos="229.41" speed="8.99"/>
                <vehicle id="835" pos="249.15" speed="8.57"/>
                <vehicle id="868" pos="281.96" speed="8.68"/>
            </lane>
        </edge>
        <edge id="gneE60">
            <lane id="gneE60_0">
                <vehicle id="940" pos="40.86" speed="6.08"/>
                <vehicle id="582" pos="58.35" speed="6.24"/>
                <vehicle id="890" pos="96.56" speed="5.81"/>
                <vehicle id="797" pos="152.23" speed="6.58"/>
                <vehicle id="887" pos="224.86" speed="0.36"/>
                <vehicle id="720" pos="232.53" speed="0.10"/>
                <vehicle id="647" pos="240.72" speed="0.60"/>
                <vehicle id="766" pos="249.32" speed="0.85"/>
                <vehicle id="765" pos="259.08" speed="1.48"/>
                <vehicle id="716" pos="268.54" speed="1.39"/>
                <vehicle id="822" pos="276.75" speed="0.41"/>
                <vehicle id="772" pos="284.81" speed="0.28"/>
                <vehicle id="749" pos="292.44" speed="0.12"/>
                <vehicle id="808" pos="300.03" speed="0.02"/>
                <vehicle id="729" pos="307.55" speed="0.01"/>
                <vehicle id="755" pos="315.06" speed="0.00"/>
                <vehicle id="616" pos="322.56" speed="0.00"/>
                <vehicle id="693" pos="330.06" speed="0.00"/>
                <vehicle id="783" pos="337.56" speed="0.00"/>
            </lane>
        </edge>
        <edge id="gneE61">
            <lane id="gneE61_0">
                <vehicle id="737" pos="58.15" speed="7.30"/>
                <vehicle id="788" pos="169.55" speed="6.92"/>
                <vehicle id="762" pos="285.00" speed="6.88"/>
                <vehicle id="548" pos="328.54" speed="7.04"/>
            </lane>
        </edge>
        <edge id="gneE7">
            <lane id="gneE7_0">
                <vehicle id="841" pos="6.24" speed="7.64"/>
                <vehicle id="833" pos="81.33" speed="8.35"/>
                <vehicle id="645" pos="192.07" speed="8.96"/>
                <vehicle id="866" pos="219.28" speed="7.73"/>
                <vehicle id="885" pos="237.23" speed="8.20"/>
            </lane>
        </edge>
        <edge id="gneE8">
            <lane id="gneE8_0">
                <vehicle id="933" pos="111.91" speed="7.34"/>
                <vehicle id="773" pos="146.88" speed="6.74"/>
                <vehicle id="591" pos="209.69" speed="7.29"/>
            </lane>
        </edge>
    </timestep>
