<?xml version="1.0"?>
<timestep time="957.00">
        <edge id=":gneJ11_6">
            <lane id=":gneJ11_6_0">
                <vehicle id="621" pos="7.46" speed="5.70"/>
            </lane>
        </edge>
        <edge id=":gneJ15_18">
            <lane id=":gneJ15_18_0">
                <vehicle id="802" pos="4.35" speed="0.32"/>
            </lane>
        </edge>
        <edge id=":gneJ28_12">
            <lane id=":gneJ28_12_0">
                <vehicle id="930" pos="14.36" speed="7.85"/>
            </lane>
        </edge>
        <edge id=":gneJ31_0">
            <lane id=":gneJ31_0_0">
                <vehicle id="683" pos="2.48" speed="4.54"/>
            </lane>
        </edge>
        <edge id=":gneJ4_3">
            <lane id=":gneJ4_3_0">
                <vehicle id="853" pos="0.81" speed="9.26"/>
            </lane>
        </edge>
        <edge id=":gneJ8_4">
            <lane id=":gneJ8_4_0">
                <vehicle id="814" pos="4.25" speed="8.01"/>
            </lane>
        </edge>
        <edge id=":gneJ8_11">
            <lane id=":gneJ8_11_0">
                <vehicle id="935" pos="5.09" speed="1.02"/>
            </lane>
        </edge>
        <edge id=":gneJ9_1">
            <lane id=":gneJ9_1_0">
                <vehicle id="936" pos="6.31" speed="10.68"/>
            </lane>
        </edge>
        <edge id="gneE1">
            <lane id="gneE1_0">
                <vehicle id="952" pos="25.02" speed="4.17"/>
            </lane>
        </edge>
        <edge id="gneE10">
            <lane id="gneE10_0">
                <vehicle id="770" pos="27.59" speed="5.31"/>
                <vehicle id="927" pos="41.57" speed="5.06"/>
                <vehicle id="946" pos="57.30" speed="5.87"/>
                <vehicle id="864" pos="76.30" speed="5.91"/>
                <vehicle id="857" pos="101.34" speed="4.73"/>
                <vehicle id="843" pos="119.75" speed="5.48"/>
            </lane>
        </edge>
        <edge id="gneE11">
            <lane id="gneE11_0">
                <vehicle id="919" pos="1.64" speed="7.80"/>
                <vehicle id="776" pos="124.93" speed="8.99"/>
            </lane>
        </edge>
        <edge id="gneE12">
            <lane id="gneE12_0">
                <vehicle id="614" pos="215.97" speed="13.47"/>
            </lane>
        </edge>
        <edge id="gneE13">
            <lane id="gneE13_0">
                <vehicle id="860" pos="248.67" speed="0.01"/>
                <vehicle id="821" pos="256.17" speed="0.00"/>
                <vehicle id="889" pos="263.67" speed="0.00"/>
                <vehicle id="829" pos="271.17" speed="0.00"/>
                <vehicle id="905" pos="278.68" speed="0.00"/>
                <vehicle id="845" pos="286.18" speed="0.00"/>
                <vehicle id="827" pos="293.68" speed="0.00"/>
                <vehicle id="869" pos="301.18" speed="0.00"/>
            </lane>
        </edge>
        <edge id="gneE14">
            <lane id="gneE14_0">
                <vehicle id="870" pos="37.16" speed="10.10"/>
                <vehicle id="779" pos="127.94" speed="10.28"/>
            </lane>
        </edge>
        <edge id="gneE15">
            <lane id="gneE15_0">
                <vehicle id="951" pos="37.43" speed="7.74"/>
                <vehicle id="948" pos="65.89" speed="8.87"/>
                <vehicle id="910" pos="106.55" speed="8.55"/>
                <vehicle id="703" pos="147.33" speed="8.71"/>
            </lane>
        </edge>
        <edge id="gneE17">
            <lane id="gneE17_0">
                <vehicle id="945" pos="98.84" speed="8.97"/>
                <vehicle id="899" pos="175.69" speed="9.51"/>
                <vehicle id="877" pos="230.30" speed="8.79"/>
            </lane>
        </edge>
        <edge id="gneE18">
            <lane id="gneE18_0">
                <vehicle id="820" pos="93.83" speed="9.18"/>
            </lane>
        </edge>
        <edge id="gneE19">
            <lane id="gneE19_0">
                <vehicle id="748" pos="30.59" speed="12.72"/>
                <vehicle id="608" pos="54.69" speed="11.87"/>
                <vehicle id="944" pos="130.16" speed="11.96"/>
                <vehicle id="878" pos="192.80" speed="0.03"/>
                <vehicle id="532" pos="200.32" speed="0.01"/>
                <vehicle id="508" pos="207.83" speed="0.00"/>
                <vehicle id="904" pos="215.33" speed="0.00"/>
                <vehicle id="804" pos="222.83" speed="0.00"/>
                <vehicle id="782" pos="230.33" speed="0.00"/>
                <vehicle id="674" pos="237.83" speed="0.00"/>
                <vehicle id="402" pos="245.85" speed="0.51"/>
                <vehicle id="678" pos="255.67" speed="2.12"/>
                <vehicle id="688" pos="268.29" speed="4.58"/>
            </lane>
        </edge>
        <edge id="gneE20">
            <lane id="gneE20_0">
                <vehicle id="883" pos="3.98" speed="8.27"/>
                <vehicle id="735" pos="24.79" speed="8.82"/>
                <vehicle id="934" pos="151.33" speed="8.37"/>
                <vehicle id="580" pos="184.01" speed="8.90"/>
                <vehicle id="888" pos="219.46" speed="7.72"/>
            </lane>
        </edge>
        <edge id="gneE23">
            <lane id="gneE23_0">
                <vehicle id="721" pos="12.34" speed="7.67"/>
                <vehicle id="717" pos="122.92" speed="7.20"/>
                <vehicle id="937" pos="143.53" speed="7.28"/>
                <vehicle id="667" pos="181.48" speed="7.07"/>
            </lane>
        </edge>
        <edge id="gneE24">
            <lane id="gneE24_0">
                <vehicle id="754" pos="75.57" speed="12.08"/>
                <vehicle id="794" pos="158.09" speed="12.52"/>
                <vehicle id="875" pos="184.85" speed="8.60"/>
            </lane>
        </edge>
        <edge id="gneE25">
            <lane id="gneE25_0">
                <vehicle id="947" pos="79.91" speed="8.99"/>
                <vehicle id="920" pos="187.73" speed="1.07"/>
                <vehicle id="872" pos="197.09" speed="1.78"/>
                <vehicle id="898" pos="206.27" speed="1.53"/>
                <vehicle id="886" pos="214.63" speed="0.81"/>
                <vehicle id="816" pos="222.88" speed="0.45"/>
                <vehicle id="830" pos="230.76" speed="0.19"/>
                <vehicle id="605" pos="238.30" speed="0.03"/>
                <vehicle id="855" pos="245.82" speed="0.01"/>
                <vehicle id="806" pos="253.32" speed="0.00"/>
                <vehicle id="651" pos="260.82" speed="0.00"/>
                <vehicle id="B1_3" pos="268.33" speed="0.00"/>
                <vehicle id="810" pos="275.83" speed="0.00"/>
                <vehicle id="655" pos="283.33" speed="0.00"/>
                <vehicle id="807" pos="290.83" speed="0.00"/>
            </lane>
        </edge>
        <edge id="gneE26">
            <lane id="gneE26_0">
                <vehicle id="696" pos="77.51" speed="6.31"/>
                <vehicle id="939" pos="111.43" speed="6.93"/>
                <vehicle id="931" pos="161.78" speed="5.89"/>
                <vehicle id="719" pos="215.17" speed="0.59"/>
                <vehicle id="795" pos="223.19" speed="0.39"/>
                <vehicle id="850" pos="230.76" speed="0.05"/>
                <vehicle id="834" pos="238.31" speed="0.02"/>
                <vehicle id="801" pos="245.82" speed="0.01"/>
                <vehicle id="744" pos="253.32" speed="0.00"/>
                <vehicle id="799" pos="260.82" speed="0.00"/>
                <vehicle id="638" pos="268.33" speed="0.00"/>
                <vehicle id="633" pos="275.83" speed="0.00"/>
                <vehicle id="653" pos="283.33" speed="0.00"/>
                <vehicle id="596" pos="290.83" speed="0.00"/>
            </lane>
        </edge>
        <edge id="gneE27">
            <lane id="gneE27_0">
                <vehicle id="826" pos="4.40" speed="4.84"/>
                <vehicle id="778" pos="60.63" speed="5.70"/>
                <vehicle id="732" pos="89.20" speed="4.81"/>
                <vehicle id="880" pos="134.01" speed="5.08"/>
            </lane>
        </edge>
        <edge id="gneE28">
            <lane id="gneE28_0">
                <vehicle id="824" pos="24.89" speed="8.96"/>
                <vehicle id="819" pos="92.39" speed="7.81"/>
            </lane>
        </edge>
        <edge id="gneE3">
            <lane id="gneE3_0">
                <vehicle id="868" pos="9.06" speed="9.83"/>
                <vehicle id="942" pos="123.36" speed="9.09"/>
            </lane>
        </edge>
        <edge id="gneE30">
            <lane id="gneE30_0">
                <vehicle id="924" pos="12.35" speed="8.57"/>
                <vehicle id="913" pos="131.22" speed="8.45"/>
                <vehicle id="938" pos="149.14" speed="8.05"/>
                <vehicle id="895" pos="288.85" speed="5.98"/>
            </lane>
        </edge>
        <edge id="gneE31">
            <lane id="gneE31_0">
                <vehicle id="842" pos="31.05" speed="8.15"/>
                <vehicle id="828" pos="53.44" speed="8.43"/>
                <vehicle id="753" pos="73.19" speed="8.44"/>
                <vehicle id="917" pos="94.64" speed="8.07"/>
                <vehicle id="745" pos="116.93" speed="7.86"/>
                <vehicle id="847" pos="144.96" speed="8.90"/>
                <vehicle id="757" pos="182.19" speed="8.84"/>
                <vehicle id="876" pos="205.42" speed="8.33"/>
                <vehicle id="812" pos="255.58" speed="7.79"/>
                <vehicle id="825" pos="278.62" speed="8.84"/>
            </lane>
        </edge>
        <edge id="gneE32">
            <lane id="gneE32_0">
                <vehicle id="752" pos="68.27" speed="7.58"/>
                <vehicle id="781" pos="215.45" speed="6.98"/>
            </lane>
        </edge>
        <edge id="gneE38">
            <lane id="gneE38_0">
                <vehicle id="861" pos="31.98" speed="8.10"/>
                <vehicle id="832" pos="101.19" speed="8.72"/>
                <vehicle id="902" pos="273.71" speed="7.83"/>
                <vehicle id="911" pos="342.97" speed="0.01"/>
            </lane>
        </edge>
        <edge id="gneE4">
            <lane id="gneE4_0">
                <vehicle id="838" pos="94.31" speed="8.87"/>
                <vehicle id="676" pos="127.96" speed="9.40"/>
            </lane>
        </edge>
        <edge id="gneE41">
            <lane id="gneE41_0">
                <vehicle id="950" pos="50.34" speed="8.89"/>
                <vehicle id="896" pos="96.04" speed="7.99"/>
                <vehicle id="631" pos="132.82" speed="8.70"/>
            </lane>
        </edge>
        <edge id="gneE42">
            <lane id="gneE42_0">
                <vehicle id="925" pos="37.13" speed="7.50"/>
                <vehicle id="751" pos="54.78" speed="7.84"/>
                <vehicle id="918" pos="87.29" speed="7.85"/>
                <vehicle id="893" pos="112.36" speed="7.27"/>
            </lane>
        </edge>
        <edge id="gneE43">
            <lane id="gneE43_0">
                <vehicle id="839" pos="162.65" speed="6.33"/>
                <vehicle id="836" pos="198.44" speed="6.49"/>
                <vehicle id="837" pos="238.87" speed="6.15"/>
                <vehicle id="894" pos="268.65" speed="0.37"/>
                <vehicle id="657" pos="276.67" speed="0.26"/>
                <vehicle id="863" pos="284.20" speed="0.03"/>
                <vehicle id="767" pos="291.73" speed="0.01"/>
                <vehicle id="813" pos="299.23" speed="0.00"/>
                <vehicle id="750" pos="306.73" speed="0.00"/>
            </lane>
        </edge>
        <edge id="gneE45">
            <lane id="gneE45_0">
                <vehicle id="758" pos="58.44" speed="7.79"/>
                <vehicle id="907" pos="183.95" speed="8.09"/>
                <vehicle id="780" pos="291.35" speed="3.88"/>
                <vehicle id="692" pos="299.23" speed="0.01"/>
                <vehicle id="840" pos="306.73" speed="0.00"/>
            </lane>
        </edge>
        <edge id="gneE46">
            <lane id="gneE46_0">
                <vehicle id="879" pos="104.81" speed="9.63"/>
                <vehicle id="871" pos="178.42" speed="9.27"/>
            </lane>
        </edge>
        <edge id="gneE47">
            <lane id="gneE47_0">
                <vehicle id="928" pos="42.14" speed="7.84"/>
                <vehicle id="921" pos="100.34" speed="8.03"/>
            </lane>
        </edge>
        <edge id="gneE48">
            <lane id="gneE48_0">
                <vehicle id="903" pos="80.95" speed="6.58"/>
                <vehicle id="897" pos="234.47" speed="5.65"/>
                <vehicle id="882" pos="244.63" speed="0.00"/>
                <vehicle id="796" pos="252.13" speed="0.00"/>
                <vehicle id="791" pos="259.63" speed="0.00"/>
                <vehicle id="858" pos="267.13" speed="0.00"/>
                <vehicle id="777" pos="274.63" speed="0.00"/>
                <vehicle id="705" pos="282.13" speed="0.00"/>
                <vehicle id="790" pos="289.64" speed="0.00"/>
                <vehicle id="817" pos="297.14" speed="0.00"/>
                <vehicle id="759" pos="304.64" speed="0.00"/>
                <vehicle id="747" pos="312.14" speed="0.00"/>
                <vehicle id="793" pos="319.64" speed="0.00"/>
            </lane>
        </edge>
        <edge id="gneE49">
            <lane id="gneE49_0">
                <vehicle id="783" pos="14.76" speed="7.05"/>
                <vehicle id="949" pos="54.56" speed="6.73"/>
                <vehicle id="690" pos="229.24" speed="7.75"/>
                <vehicle id="715" pos="304.41" speed="6.84"/>
            </lane>
        </edge>
        <edge id="gneE5">
            <lane id="gneE5_0">
                <vehicle id="624" pos="10.49" speed="5.18"/>
                <vehicle id="915" pos="51.25" speed="5.57"/>
                <vehicle id="710" pos="89.39" speed="4.75"/>
                <vehicle id="849" pos="124.08" speed="5.65"/>
                <vehicle id="848" pos="138.82" speed="4.84"/>
            </lane>
        </edge>
        <edge id="gneE50">
            <lane id="gneE50_0">
                <vehicle id="929" pos="147.11" speed="5.69"/>
                <vehicle id="815" pos="165.17" speed="5.37"/>
                <vehicle id="649" pos="203.12" speed="5.14"/>
                <vehicle id="916" pos="222.87" speed="5.25"/>
            </lane>
        </edge>
        <edge id="gneE51">
            <lane id="gneE51_0">
                <vehicle id="811" pos="237.96" speed="0.38"/>
                <vehicle id="844" pos="245.78" speed="0.01"/>
                <vehicle id="859" pos="253.28" speed="0.00"/>
                <vehicle id="901" pos="260.78" speed="0.00"/>
                <vehicle id="691" pos="268.29" speed="0.00"/>
                <vehicle id="891" pos="275.79" speed="0.00"/>
                <vehicle id="809" pos="283.29" speed="0.00"/>
                <vehicle id="803" pos="290.79" speed="0.00"/>
                <vehicle id="800" pos="298.29" speed="0.00"/>
                <vehicle id="846" pos="305.79" speed="0.00"/>
                <vehicle id="856" pos="313.64" speed="0.34"/>
                <vehicle id="818" pos="322.23" speed="0.93"/>
                <vehicle id="665" pos="334.05" speed="3.70"/>
                <vehicle id="823" pos="346.27" speed="4.48"/>
                <vehicle id="599" pos="359.41" speed="4.30"/>
            </lane>
        </edge>
        <edge id="gneE52">
            <lane id="gneE52_0">
                <vehicle id="906" pos="37.45" speed="5.91"/>
                <vehicle id="923" pos="58.89" speed="6.80"/>
                <vehicle id="941" pos="101.41" speed="6.89"/>
                <vehicle id="926" pos="196.75" speed="6.49"/>
                <vehicle id="922" pos="222.77" speed="6.75"/>
                <vehicle id="909" pos="289.96" speed="5.84"/>
                <vehicle id="908" pos="308.06" speed="6.53"/>
            </lane>
        </edge>
        <edge id="gneE53">
            <lane id="gneE53_0">
                <vehicle id="955" pos="10.95" speed="4.03"/>
                <vehicle id="914" pos="147.20" speed="6.08"/>
                <vehicle id="892" pos="279.49" speed="5.73"/>
                <vehicle id="874" pos="313.15" speed="0.00"/>
                <vehicle id="867" pos="320.66" speed="0.00"/>
                <vehicle id="881" pos="328.16" speed="0.00"/>
                <vehicle id="852" pos="335.66" speed="0.00"/>
                <vehicle id="787" pos="343.16" speed="0.00"/>
            </lane>
        </edge>
        <edge id="gneE54">
            <lane id="gneE54_0">
                <vehicle id="954" pos="6.43" speed="1.33"/>
                <vehicle id="953" pos="22.97" speed="5.89"/>
                <vehicle id="726" pos="75.70" speed="6.08"/>
                <vehicle id="724" pos="133.79" speed="6.81"/>
            </lane>
        </edge>
        <edge id="gneE55">
            <lane id="gneE55_0">
                <vehicle id="884" pos="21.58" speed="7.94"/>
            </lane>
        </edge>
        <edge id="gneE56">
            <lane id="gneE56_0">
                <vehicle id="636" pos="139.77" speed="8.78"/>
            </lane>
        </edge>
        <edge id="gneE58">
            <lane id="gneE58_0">
                <vehicle id="682" pos="39.67" speed="7.33"/>
            </lane>
        </edge>
        <edge id="gneE59">
            <lane id="gneE59_0">
                <vehicle id="548" pos="46.96" speed="8.60"/>
                <vehicle id="943" pos="111.58" speed="8.90"/>
                <vehicle id="932" pos="185.74" speed="8.31"/>
                <vehicle id="865" pos="203.08" speed="8.03"/>
                <vehicle id="798" pos="260.46" speed="8.15"/>
                <vehicle id="873" pos="288.16" speed="7.99"/>
                <vehicle id="835" pos="307.43" speed="8.46"/>
            </lane>
        </edge>
        <edge id="gneE60">
            <lane id="gneE60_0">
                <vehicle id="912" pos="3.16" speed="6.22"/>
                <vehicle id="900" pos="41.95" speed="6.97"/>
                <vehicle id="940" pos="85.77" speed="6.24"/>
                <vehicle id="582" pos="101.99" speed="6.44"/>
                <vehicle id="890" pos="141.09" speed="6.18"/>
                <vehicle id="797" pos="197.80" speed="6.85"/>
                <vehicle id="887" pos="230.50" speed="0.96"/>
                <vehicle id="720" pos="239.26" speed="0.95"/>
                <vehicle id="647" pos="247.28" speed="0.28"/>
                <vehicle id="766" pos="254.93" speed="0.15"/>
                <vehicle id="765" pos="262.51" speed="0.06"/>
                <vehicle id="716" pos="270.04" speed="0.01"/>
                <vehicle id="822" pos="277.55" speed="0.00"/>
                <vehicle id="772" pos="285.05" speed="0.00"/>
                <vehicle id="749" pos="292.79" speed="0.24"/>
                <vehicle id="808" pos="302.12" speed="1.77"/>
                <vehicle id="729" pos="312.33" speed="1.88"/>
                <vehicle id="755" pos="321.34" speed="0.89"/>
                <vehicle id="616" pos="329.76" speed="0.67"/>
                <vehicle id="693" pos="337.55" speed="0.02"/>
            </lane>
        </edge>
        <edge id="gneE61">
            <lane id="gneE61_0">
                <vehicle id="733" pos="7.50" speed="6.72"/>
                <vehicle id="737" pos="110.48" speed="7.37"/>
                <vehicle id="788" pos="221.35" speed="6.99"/>
                <vehicle id="762" pos="336.32" speed="7.98"/>
            </lane>
        </edge>
        <edge id="gneE7">
            <lane id="gneE7_0">
                <vehicle id="831" pos="37.98" speed="8.71"/>
                <vehicle id="841" pos="66.15" speed="8.69"/>
                <vehicle id="833" pos="138.45" speed="8.71"/>
                <vehicle id="645" pos="249.88" speed="7.85"/>
                <vehicle id="866" pos="278.22" speed="8.76"/>
                <vehicle id="885" pos="296.55" speed="8.18"/>
            </lane>
        </edge>
        <edge id="gneE8">
            <lane id="gneE8_0">
                <vehicle id="956" pos="6.54" speed="1.44"/>
                <vehicle id="933" pos="165.01" speed="7.26"/>
                <vehicle id="773" pos="198.42" speed="7.39"/>
                <vehicle id="591" pos="261.13" speed="7.64"/>
            </lane>
        </edge>
    </timestep>
