<?xml version="1.0"?>
<timestep time="96.00">
        <edge id=":gneJ11_20">
            <lane id=":gneJ11_20_0">
                <vehicle id="11" pos="13.68" speed="6.80"/>
            </lane>
        </edge>
        <edge id=":gneJ28_10">
            <lane id=":gneJ28_10_0">
                <vehicle id="30" pos="12.23" speed="10.05"/>
            </lane>
        </edge>
        <edge id="gneE1">
            <lane id="gneE1_0">
                <vehicle id="76" pos="90.08" speed="3.89"/>
            </lane>
        </edge>
        <edge id="gneE10">
            <lane id="gneE10_0">
                <vehicle id="75" pos="111.81" speed="5.15"/>
            </lane>
        </edge>
        <edge id="gneE11">
            <lane id="gneE11_0">
                <vehicle id="42" pos="129.92" speed="7.91"/>
            </lane>
        </edge>
        <edge id="gneE12">
            <lane id="gneE12_0">
                <vehicle id="92" pos="26.10" speed="8.67"/>
            </lane>
        </edge>
        <edge id="gneE13">
            <lane id="gneE13_0">
                <vehicle id="43" pos="286.94" speed="9.66"/>
            </lane>
        </edge>
        <edge id="gneE14">
            <lane id="gneE14_0">
                <vehicle id="53" pos="7.83" speed="7.15"/>
                <vehicle id="56" pos="49.83" speed="10.23"/>
                <vehicle id="31" pos="98.71" speed="10.52"/>
            </lane>
        </edge>
        <edge id="gneE15">
            <lane id="gneE15_0">
                <vehicle id="80" pos="128.44" speed="8.05"/>
            </lane>
        </edge>
        <edge id="gneE17">
            <lane id="gneE17_0">
                <vehicle id="69" pos="219.13" speed="9.81"/>
            </lane>
        </edge>
        <edge id="gneE18">
            <lane id="gneE18_0">
                <vehicle id="72" pos="27.44" speed="8.97"/>
                <vehicle id="50" pos="93.58" speed="9.87"/>
                <vehicle id="78" pos="157.20" speed="9.59"/>
                <vehicle id="33" pos="212.49" speed="9.44"/>
                <vehicle id="15" pos="252.05" speed="9.04"/>
                <vehicle id="24" pos="283.33" speed="9.54"/>
            </lane>
        </edge>
        <edge id="gneE19">
            <lane id="gneE19_0">
                <vehicle id="28" pos="10.94" speed="12.40"/>
                <vehicle id="19" pos="42.66" speed="12.24"/>
                <vehicle id="52" pos="281.42" speed="5.34"/>
            </lane>
        </edge>
        <edge id="gneE20">
            <lane id="gneE20_0">
                <vehicle id="21" pos="175.95" speed="8.65"/>
            </lane>
        </edge>
        <edge id="gneE23">
            <lane id="gneE23_0">
                <vehicle id="91" pos="24.01" speed="7.64"/>
                <vehicle id="36" pos="48.41" speed="7.31"/>
                <vehicle id="20" pos="86.25" speed="7.95"/>
                <vehicle id="51" pos="116.23" speed="7.21"/>
                <vehicle id="18" pos="183.09" speed="7.68"/>
            </lane>
        </edge>
        <edge id="gneE25">
            <lane id="gneE25_0">
                <vehicle id="16" pos="10.45" speed="9.20"/>
                <vehicle id="86" pos="39.89" speed="8.85"/>
                <vehicle id="4" pos="76.23" speed="9.37"/>
                <vehicle id="5" pos="102.56" speed="9.64"/>
                <vehicle id="25" pos="155.86" speed="8.99"/>
                <vehicle id="74" pos="186.88" speed="9.23"/>
                <vehicle id="61" pos="290.77" speed="1.38"/>
            </lane>
        </edge>
        <edge id="gneE26">
            <lane id="gneE26_0">
                <vehicle id="90" pos="5.10" speed="0.00"/>
                <vehicle id="38" pos="13.95" speed="5.88"/>
                <vehicle id="35" pos="31.53" speed="6.00"/>
                <vehicle id="77" pos="117.63" speed="5.90"/>
            </lane>
        </edge>
        <edge id="gneE27">
            <lane id="gneE27_0">
                <vehicle id="71" pos="132.79" speed="4.89"/>
            </lane>
        </edge>
        <edge id="gneE28">
            <lane id="gneE28_0">
                <vehicle id="26" pos="65.92" speed="8.13"/>
            </lane>
        </edge>
        <edge id="gneE3">
            <lane id="gneE3_0">
                <vehicle id="94" pos="10.23" speed="3.33"/>
                <vehicle id="2" pos="95.94" speed="9.09"/>
            </lane>
        </edge>
        <edge id="gneE30">
            <lane id="gneE30_0">
                <vehicle id="65" pos="248.95" speed="8.02"/>
            </lane>
        </edge>
        <edge id="gneE31">
            <lane id="gneE31_0">
                <vehicle id="96" pos="5.10" speed="0.00"/>
                <vehicle id="49" pos="170.59" speed="8.03"/>
                <vehicle id="68" pos="220.87" speed="8.34"/>
            </lane>
        </edge>
        <edge id="gneE32">
            <lane id="gneE32_0">
                <vehicle id="89" pos="48.48" speed="7.59"/>
            </lane>
        </edge>
        <edge id="gneE38">
            <lane id="gneE38_0">
                <vehicle id="0" pos="287.15" speed="7.93"/>
                <vehicle id="37" pos="306.40" speed="8.77"/>
            </lane>
        </edge>
        <edge id="gneE4">
            <lane id="gneE4_0">
                <vehicle id="6" pos="89.96" speed="9.78"/>
                <vehicle id="1" pos="125.53" speed="9.48"/>
            </lane>
        </edge>
        <edge id="gneE42">
            <lane id="gneE42_0">
                <vehicle id="81" pos="106.85" speed="7.81"/>
            </lane>
        </edge>
        <edge id="gneE43">
            <lane id="gneE43_0">
                <vehicle id="34" pos="266.01" speed="6.37"/>
            </lane>
        </edge>
        <edge id="gneE45">
            <lane id="gneE45_0">
                <vehicle id="88" pos="60.99" speed="8.88"/>
                <vehicle id="12" pos="294.81" speed="7.71"/>
            </lane>
        </edge>
        <edge id="gneE47">
            <lane id="gneE47_0">
                <vehicle id="39" pos="94.91" speed="8.76"/>
                <vehicle id="57" pos="125.31" speed="8.82"/>
            </lane>
        </edge>
        <edge id="gneE48">
            <lane id="gneE48_0">
                <vehicle id="84" pos="72.74" speed="5.93"/>
                <vehicle id="73" pos="144.54" speed="6.71"/>
                <vehicle id="59" pos="230.80" speed="6.89"/>
                <vehicle id="55" pos="247.38" speed="6.27"/>
                <vehicle id="29" pos="262.49" speed="6.07"/>
            </lane>
        </edge>
        <edge id="gneE49">
            <lane id="gneE49_0">
                <vehicle id="17" pos="52.08" speed="7.79"/>
                <vehicle id="79" pos="118.43" speed="7.86"/>
                <vehicle id="27" pos="167.72" speed="7.83"/>
                <vehicle id="63" pos="236.29" speed="6.76"/>
                <vehicle id="54" pos="301.91" speed="6.86"/>
            </lane>
        </edge>
        <edge id="gneE5">
            <lane id="gneE5_0">
                <vehicle id="93" pos="17.13" speed="5.52"/>
            </lane>
        </edge>
        <edge id="gneE51">
            <lane id="gneE51_0">
                <vehicle id="14" pos="90.60" speed="6.67"/>
                <vehicle id="62" pos="214.50" speed="6.52"/>
            </lane>
        </edge>
        <edge id="gneE52">
            <lane id="gneE52_0">
                <vehicle id="23" pos="310.72" speed="5.93"/>
            </lane>
        </edge>
        <edge id="gneE53">
            <lane id="gneE53_0">
                <vehicle id="70" pos="32.29" speed="6.88"/>
                <vehicle id="87" pos="58.11" speed="6.71"/>
                <vehicle id="58" pos="108.76" speed="6.13"/>
                <vehicle id="22" pos="199.20" speed="6.22"/>
                <vehicle id="40" pos="227.30" speed="6.10"/>
            </lane>
        </edge>
        <edge id="gneE58">
            <lane id="gneE58_0">
                <vehicle id="83" pos="88.56" speed="7.67"/>
                <vehicle id="67" pos="212.65" speed="6.99"/>
            </lane>
        </edge>
        <edge id="gneE59">
            <lane id="gneE59_0">
                <vehicle id="95" pos="6.95" speed="1.85"/>
                <vehicle id="45" pos="33.42" speed="8.01"/>
            </lane>
        </edge>
        <edge id="gneE60">
            <lane id="gneE60_0">
                <vehicle id="44" pos="46.03" speed="6.82"/>
                <vehicle id="41" pos="70.91" speed="6.00"/>
                <vehicle id="60" pos="224.44" speed="6.99"/>
                <vehicle id="13" pos="245.76" speed="5.79"/>
                <vehicle id="48" pos="302.53" speed="6.39"/>
            </lane>
        </edge>
        <edge id="gneE61">
            <lane id="gneE61_0">
                <vehicle id="32" pos="19.57" speed="7.82"/>
                <vehicle id="85" pos="54.32" speed="6.93"/>
                <vehicle id="9" pos="75.02" speed="7.52"/>
                <vehicle id="7" pos="233.36" speed="7.91"/>
            </lane>
        </edge>
        <edge id="gneE7">
            <lane id="gneE7_0">
                <vehicle id="66" pos="13.96" speed="8.45"/>
                <vehicle id="82" pos="106.10" speed="8.34"/>
                <vehicle id="47" pos="173.83" speed="7.96"/>
            </lane>
        </edge>
        <edge id="gneE8">
            <lane id="gneE8_0">
                <vehicle id="64" pos="230.03" speed="7.52"/>
            </lane>
        </edge>
    </timestep>
