<?xml version="1.0"?>
<timestep time="970.00">
        <edge id=":gneJ11_13">
            <lane id=":gneJ11_13_0">
                <vehicle id="747" pos="12.72" speed="6.06"/>
            </lane>
        </edge>
        <edge id=":gneJ11_21">
            <lane id=":gneJ11_21_0">
                <vehicle id="787" pos="1.85" speed="1.95"/>
            </lane>
        </edge>
        <edge id=":gneJ11_37">
            <lane id=":gneJ11_37_0">
                <vehicle id="674" pos="8.30" speed="4.27"/>
            </lane>
        </edge>
        <edge id=":gneJ15_7">
            <lane id=":gneJ15_7_0">
                <vehicle id="750" pos="6.39" speed="4.37"/>
            </lane>
        </edge>
        <edge id=":gneJ3_0">
            <lane id=":gneJ3_0_0">
                <vehicle id="899" pos="5.54" speed="7.73"/>
            </lane>
        </edge>
        <edge id=":gneJ8_12">
            <lane id=":gneJ8_12_0">
                <vehicle id="948" pos="4.13" speed="8.27"/>
            </lane>
        </edge>
        <edge id=":gneJ9_0">
            <lane id=":gneJ9_0_0">
                <vehicle id="870" pos="4.61" speed="7.84"/>
            </lane>
        </edge>
        <edge id="gneE1">
            <lane id="gneE1_0">
                <vehicle id="952" pos="81.24" speed="3.85"/>
            </lane>
        </edge>
        <edge id="gneE10">
            <lane id="gneE10_0">
                <vehicle id="869" pos="9.47" speed="5.37"/>
                <vehicle id="963" pos="35.38" speed="5.60"/>
                <vehicle id="703" pos="48.62" speed="4.84"/>
                <vehicle id="814" pos="63.38" speed="4.82"/>
                <vehicle id="770" pos="95.82" speed="5.81"/>
                <vehicle id="927" pos="109.83" speed="5.05"/>
                <vehicle id="946" pos="124.79" speed="4.83"/>
            </lane>
        </edge>
        <edge id="gneE11">
            <lane id="gneE11_0">
                <vehicle id="895" pos="58.07" speed="8.60"/>
                <vehicle id="919" pos="109.24" speed="7.82"/>
            </lane>
        </edge>
        <edge id="gneE12">
            <lane id="gneE12_0">
                <vehicle id="910" pos="64.30" speed="13.26"/>
                <vehicle id="959" pos="112.49" speed="12.81"/>
            </lane>
        </edge>
        <edge id="gneE13">
            <lane id="gneE13_0">
                <vehicle id="860" pos="248.67" speed="0.00"/>
                <vehicle id="821" pos="256.17" speed="0.00"/>
                <vehicle id="889" pos="263.67" speed="0.00"/>
                <vehicle id="829" pos="271.47" speed="0.30"/>
                <vehicle id="905" pos="280.58" speed="1.48"/>
                <vehicle id="845" pos="292.63" speed="3.78"/>
                <vehicle id="827" pos="301.16" speed="0.19"/>
            </lane>
        </edge>
        <edge id="gneE14">
            <lane id="gneE14_0">
                <vehicle id="966" pos="21.31" speed="6.81"/>
                <vehicle id="776" pos="104.44" speed="10.70"/>
            </lane>
        </edge>
        <edge id="gneE15">
            <lane id="gneE15_0">
                <vehicle id="951" pos="145.91" speed="7.97"/>
            </lane>
        </edge>
        <edge id="gneE17">
            <lane id="gneE17_0">
                <vehicle id="888" pos="39.30" speed="8.89"/>
                <vehicle id="779" pos="81.59" speed="8.70"/>
                <vehicle id="945" pos="219.53" speed="9.05"/>
            </lane>
        </edge>
        <edge id="gneE18">
            <lane id="gneE18_0">
                <vehicle id="820" pos="215.59" speed="9.62"/>
            </lane>
        </edge>
        <edge id="gneE19">
            <lane id="gneE19_0">
                <vehicle id="967" pos="17.28" speed="6.14"/>
                <vehicle id="936" pos="156.06" speed="9.36"/>
                <vehicle id="748" pos="171.98" speed="3.42"/>
                <vehicle id="608" pos="183.56" speed="3.43"/>
                <vehicle id="944" pos="196.24" speed="4.86"/>
                <vehicle id="878" pos="215.13" speed="7.25"/>
                <vehicle id="532" pos="232.68" speed="8.08"/>
                <vehicle id="508" pos="246.89" speed="4.71"/>
                <vehicle id="904" pos="258.30" speed="2.67"/>
                <vehicle id="804" pos="268.16" speed="1.65"/>
                <vehicle id="782" pos="279.18" speed="2.83"/>
            </lane>
        </edge>
        <edge id="gneE20">
            <lane id="gneE20_0">
                <vehicle id="793" pos="24.38" speed="8.89"/>
                <vehicle id="794" pos="72.67" speed="8.32"/>
                <vehicle id="875" pos="94.02" speed="8.25"/>
                <vehicle id="883" pos="110.47" speed="7.85"/>
                <vehicle id="735" pos="132.31" speed="8.40"/>
                <vehicle id="934" pos="258.52" speed="8.28"/>
            </lane>
        </edge>
        <edge id="gneE23">
            <lane id="gneE23_0">
                <vehicle id="665" pos="37.28" speed="7.57"/>
                <vehicle id="823" pos="58.63" speed="7.03"/>
                <vehicle id="621" pos="88.97" speed="7.93"/>
                <vehicle id="721" pos="106.92" speed="7.75"/>
            </lane>
        </edge>
        <edge id="gneE24">
            <lane id="gneE24_0">
                <vehicle id="960" pos="98.57" speed="12.79"/>
            </lane>
        </edge>
        <edge id="gneE25">
            <lane id="gneE25_0">
                <vehicle id="947" pos="185.60" speed="0.46"/>
                <vehicle id="920" pos="193.31" speed="0.00"/>
                <vehicle id="872" pos="200.82" speed="0.00"/>
                <vehicle id="898" pos="208.32" speed="0.00"/>
                <vehicle id="886" pos="215.82" speed="0.00"/>
                <vehicle id="816" pos="223.32" speed="0.00"/>
                <vehicle id="830" pos="230.82" speed="0.00"/>
                <vehicle id="605" pos="238.32" speed="0.00"/>
                <vehicle id="855" pos="245.82" speed="0.00"/>
                <vehicle id="806" pos="253.32" speed="0.00"/>
                <vehicle id="651" pos="260.82" speed="0.00"/>
                <vehicle id="B1_3" pos="268.33" speed="0.00"/>
                <vehicle id="810" pos="275.83" speed="0.00"/>
                <vehicle id="655" pos="283.33" speed="0.00"/>
                <vehicle id="807" pos="290.83" speed="0.00"/>
            </lane>
        </edge>
        <edge id="gneE26">
            <lane id="gneE26_0">
                <vehicle id="970" pos="5.10" speed="0.00"/>
                <vehicle id="935" pos="43.32" speed="6.30"/>
                <vehicle id="696" pos="160.54" speed="6.70"/>
                <vehicle id="939" pos="194.85" speed="6.27"/>
                <vehicle id="931" pos="208.32" speed="0.00"/>
                <vehicle id="719" pos="215.82" speed="0.00"/>
                <vehicle id="795" pos="223.32" speed="0.00"/>
                <vehicle id="850" pos="230.82" speed="0.00"/>
                <vehicle id="834" pos="238.32" speed="0.00"/>
                <vehicle id="801" pos="245.82" speed="0.00"/>
                <vehicle id="744" pos="253.32" speed="0.00"/>
                <vehicle id="799" pos="260.82" speed="0.00"/>
                <vehicle id="638" pos="268.33" speed="0.00"/>
                <vehicle id="633" pos="275.83" speed="0.00"/>
                <vehicle id="653" pos="283.33" speed="0.00"/>
                <vehicle id="596" pos="290.83" speed="0.00"/>
            </lane>
        </edge>
        <edge id="gneE27">
            <lane id="gneE27_0">
                <vehicle id="968" pos="10.19" speed="3.73"/>
                <vehicle id="937" pos="30.72" speed="4.74"/>
                <vehicle id="826" pos="77.50" speed="5.50"/>
                <vehicle id="778" pos="129.28" speed="5.57"/>
            </lane>
        </edge>
        <edge id="gneE28">
            <lane id="gneE28_0">
                <vehicle id="965" pos="34.76" speed="8.40"/>
                <vehicle id="812" pos="68.73" speed="8.85"/>
                <vehicle id="825" pos="91.38" speed="8.38"/>
                <vehicle id="824" pos="133.96" speed="8.95"/>
            </lane>
        </edge>
        <edge id="gneE3">
            <lane id="gneE3_0">
                <vehicle id="964" pos="16.07" speed="5.42"/>
                <vehicle id="877" pos="46.48" speed="9.45"/>
                <vehicle id="868" pos="128.66" speed="9.16"/>
            </lane>
        </edge>
        <edge id="gneE30">
            <lane id="gneE30_0">
                <vehicle id="732" pos="12.27" speed="8.86"/>
                <vehicle id="880" pos="86.80" speed="8.61"/>
                <vehicle id="924" pos="120.01" speed="8.50"/>
                <vehicle id="913" pos="238.00" speed="7.40"/>
                <vehicle id="938" pos="256.59" speed="9.00"/>
            </lane>
        </edge>
        <edge id="gneE31">
            <lane id="gneE31_0">
                <vehicle id="864" pos="4.37" speed="7.26"/>
                <vehicle id="857" pos="28.39" speed="8.72"/>
                <vehicle id="843" pos="47.40" speed="8.31"/>
                <vehicle id="866" pos="75.81" speed="8.31"/>
                <vehicle id="885" pos="95.04" speed="7.72"/>
                <vehicle id="842" pos="138.51" speed="7.94"/>
                <vehicle id="828" pos="163.52" speed="8.59"/>
                <vehicle id="753" pos="182.14" speed="8.33"/>
                <vehicle id="917" pos="200.71" speed="8.59"/>
                <vehicle id="745" pos="226.00" speed="8.88"/>
                <vehicle id="847" pos="254.24" speed="8.73"/>
                <vehicle id="757" pos="292.56" speed="8.98"/>
            </lane>
        </edge>
        <edge id="gneE32">
            <lane id="gneE32_0">
                <vehicle id="819" pos="3.38" speed="7.29"/>
                <vehicle id="752" pos="161.77" speed="6.95"/>
                <vehicle id="781" pos="313.20" speed="7.95"/>
            </lane>
        </edge>
        <edge id="gneE38">
            <lane id="gneE38_0">
                <vehicle id="918" pos="29.78" speed="8.85"/>
                <vehicle id="893" pos="58.92" speed="9.00"/>
                <vehicle id="861" pos="141.51" speed="8.45"/>
                <vehicle id="832" pos="208.36" speed="7.74"/>
                <vehicle id="902" pos="335.48" speed="0.00"/>
                <vehicle id="911" pos="342.98" speed="0.00"/>
            </lane>
        </edge>
        <edge id="gneE4">
            <lane id="gneE4_0">
                <vehicle id="614" pos="44.22" speed="9.94"/>
            </lane>
        </edge>
        <edge id="gneE42">
            <lane id="gneE42_0">
                <vehicle id="921" pos="2.08" speed="7.97"/>
                <vehicle id="840" pos="67.54" speed="6.73"/>
                <vehicle id="925" pos="133.26" speed="7.56"/>
            </lane>
        </edge>
        <edge id="gneE43">
            <lane id="gneE43_0">
                <vehicle id="930" pos="81.83" speed="6.18"/>
                <vehicle id="839" pos="244.89" speed="6.31"/>
                <vehicle id="836" pos="254.22" speed="0.01"/>
                <vehicle id="837" pos="261.72" speed="0.00"/>
                <vehicle id="894" pos="269.22" speed="0.00"/>
                <vehicle id="657" pos="276.72" speed="0.00"/>
                <vehicle id="863" pos="284.23" speed="0.00"/>
                <vehicle id="767" pos="291.73" speed="0.00"/>
                <vehicle id="813" pos="300.37" speed="1.14"/>
            </lane>
        </edge>
        <edge id="gneE45">
            <lane id="gneE45_0">
                <vehicle id="802" pos="15.67" speed="7.74"/>
                <vehicle id="667" pos="89.16" speed="8.44"/>
                <vehicle id="758" pos="166.28" speed="8.91"/>
                <vehicle id="907" pos="291.61" speed="7.71"/>
            </lane>
        </edge>
        <edge id="gneE46">
            <lane id="gneE46_0">
                <vehicle id="950" pos="2.72" speed="9.21"/>
            </lane>
        </edge>
        <edge id="gneE47">
            <lane id="gneE47_0">
                <vehicle id="962" pos="56.01" speed="8.65"/>
                <vehicle id="928" pos="148.79" speed="8.04"/>
            </lane>
        </edge>
        <edge id="gneE48">
            <lane id="gneE48_0">
                <vehicle id="879" pos="16.45" speed="6.86"/>
                <vehicle id="871" pos="70.14" speed="6.27"/>
                <vehicle id="903" pos="163.81" speed="6.52"/>
                <vehicle id="897" pos="237.13" speed="0.00"/>
                <vehicle id="882" pos="244.63" speed="0.00"/>
                <vehicle id="796" pos="252.13" speed="0.00"/>
                <vehicle id="791" pos="259.63" speed="0.00"/>
                <vehicle id="858" pos="267.41" speed="0.27"/>
                <vehicle id="777" pos="277.09" speed="2.03"/>
                <vehicle id="705" pos="286.06" speed="1.34"/>
                <vehicle id="790" pos="295.95" speed="1.43"/>
                <vehicle id="817" pos="306.17" speed="2.68"/>
                <vehicle id="759" pos="317.54" speed="3.73"/>
            </lane>
        </edge>
        <edge id="gneE49">
            <lane id="gneE49_0">
                <vehicle id="783" pos="110.62" speed="7.73"/>
                <vehicle id="949" pos="149.42" speed="7.06"/>
            </lane>
        </edge>
        <edge id="gneE5">
            <lane id="gneE5_0">
                <vehicle id="942" pos="46.07" speed="5.31"/>
                <vehicle id="853" pos="63.89" speed="5.80"/>
                <vehicle id="624" pos="79.39" speed="5.18"/>
                <vehicle id="915" pos="120.03" speed="4.83"/>
            </lane>
        </edge>
        <edge id="gneE50">
            <lane id="gneE50_0">
                <vehicle id="929" pos="218.09" speed="5.70"/>
                <vehicle id="815" pos="234.60" speed="5.16"/>
                <vehicle id="649" pos="272.78" speed="5.18"/>
                <vehicle id="916" pos="291.52" speed="5.59"/>
            </lane>
        </edge>
        <edge id="gneE51">
            <lane id="gneE51_0">
                <vehicle id="780" pos="14.81" speed="5.75"/>
                <vehicle id="896" pos="37.10" speed="6.76"/>
                <vehicle id="811" pos="239.26" speed="0.67"/>
                <vehicle id="844" pos="249.47" speed="2.70"/>
                <vehicle id="859" pos="262.29" speed="4.61"/>
                <vehicle id="901" pos="274.76" speed="4.74"/>
                <vehicle id="691" pos="286.60" speed="3.82"/>
                <vehicle id="891" pos="301.89" speed="6.06"/>
                <vehicle id="809" pos="316.56" speed="5.92"/>
                <vehicle id="803" pos="331.10" speed="5.51"/>
                <vehicle id="800" pos="341.26" speed="1.15"/>
                <vehicle id="846" pos="350.28" speed="0.45"/>
                <vehicle id="856" pos="358.26" speed="0.18"/>
                <vehicle id="818" pos="365.79" speed="0.02"/>
            </lane>
        </edge>
        <edge id="gneE52">
            <lane id="gneE52_0">
                <vehicle id="969" pos="6.43" speed="1.33"/>
                <vehicle id="688" pos="44.68" speed="6.42"/>
                <vehicle id="906" pos="120.40" speed="6.29"/>
                <vehicle id="923" pos="140.04" speed="6.32"/>
                <vehicle id="941" pos="183.75" speed="6.11"/>
                <vehicle id="926" pos="278.99" speed="6.96"/>
                <vehicle id="922" pos="303.35" speed="5.75"/>
            </lane>
        </edge>
        <edge id="gneE53">
            <lane id="gneE53_0">
                <vehicle id="683" pos="74.53" speed="6.50"/>
                <vehicle id="955" pos="90.55" speed="6.16"/>
                <vehicle id="914" pos="230.21" speed="6.60"/>
                <vehicle id="892" pos="305.65" speed="0.00"/>
                <vehicle id="874" pos="313.16" speed="0.00"/>
                <vehicle id="867" pos="320.66" speed="0.00"/>
                <vehicle id="881" pos="328.16" speed="0.00"/>
                <vehicle id="852" pos="335.66" speed="0.00"/>
            </lane>
        </edge>
        <edge id="gneE54">
            <lane id="gneE54_0">
                <vehicle id="909" pos="19.55" speed="6.08"/>
                <vehicle id="908" pos="37.36" speed="6.32"/>
                <vehicle id="954" pos="85.12" speed="6.39"/>
                <vehicle id="953" pos="106.52" speed="6.35"/>
            </lane>
        </edge>
        <edge id="gneE55">
            <lane id="gneE55_0">
                <vehicle id="958" pos="65.92" speed="7.45"/>
                <vehicle id="884" pos="115.85" speed="6.80"/>
            </lane>
        </edge>
        <edge id="gneE58">
            <lane id="gneE58_0">
                <vehicle id="682" pos="135.83" speed="7.95"/>
            </lane>
        </edge>
        <edge id="gneE59">
            <lane id="gneE59_0">
                <vehicle id="957" pos="86.18" speed="8.89"/>
                <vehicle id="762" pos="104.26" speed="7.72"/>
                <vehicle id="548" pos="155.80" speed="8.83"/>
                <vehicle id="943" pos="220.44" speed="8.89"/>
                <vehicle id="932" pos="291.23" speed="6.40"/>
                <vehicle id="865" pos="301.62" speed="1.61"/>
                <vehicle id="798" pos="310.23" speed="0.00"/>
                <vehicle id="873" pos="317.73" speed="0.00"/>
            </lane>
        </edge>
        <edge id="gneE6">
            <lane id="gneE6_0">
                <vehicle id="591" pos="46.90" speed="7.25"/>
            </lane>
        </edge>
        <edge id="gneE60">
            <lane id="gneE60_0">
                <vehicle id="912" pos="84.88" speed="6.66"/>
                <vehicle id="900" pos="126.65" speed="6.94"/>
                <vehicle id="940" pos="166.49" speed="6.51"/>
                <vehicle id="582" pos="185.74" speed="6.37"/>
                <vehicle id="890" pos="217.98" speed="2.12"/>
                <vehicle id="797" pos="227.38" speed="0.89"/>
                <vehicle id="887" pos="236.12" speed="0.88"/>
                <vehicle id="720" pos="245.59" speed="1.33"/>
                <vehicle id="647" pos="254.01" speed="0.59"/>
                <vehicle id="766" pos="262.05" speed="0.29"/>
                <vehicle id="765" pos="269.98" speed="0.28"/>
                <vehicle id="716" pos="277.52" speed="0.02"/>
                <vehicle id="822" pos="285.04" speed="0.01"/>
                <vehicle id="772" pos="292.55" speed="0.00"/>
                <vehicle id="749" pos="300.05" speed="0.00"/>
                <vehicle id="808" pos="307.55" speed="0.00"/>
                <vehicle id="729" pos="315.06" speed="0.00"/>
                <vehicle id="755" pos="322.56" speed="0.00"/>
                <vehicle id="616" pos="330.06" speed="0.00"/>
                <vehicle id="693" pos="337.56" speed="0.00"/>
            </lane>
        </edge>
        <edge id="gneE61">
            <lane id="gneE61_0">
                <vehicle id="754" pos="6.16" speed="7.00"/>
                <vehicle id="733" pos="103.40" speed="7.71"/>
                <vehicle id="737" pos="208.63" speed="7.96"/>
                <vehicle id="788" pos="316.65" speed="7.67"/>
            </lane>
        </edge>
        <edge id="gneE7">
            <lane id="gneE7_0">
                <vehicle id="961" pos="58.25" speed="8.00"/>
                <vehicle id="848" pos="90.30" speed="8.15"/>
                <vehicle id="831" pos="146.32" speed="7.87"/>
                <vehicle id="841" pos="174.33" speed="8.07"/>
                <vehicle id="833" pos="249.37" speed="8.75"/>
            </lane>
        </edge>
        <edge id="gneE8">
            <lane id="gneE8_0">
                <vehicle id="956" pos="95.92" speed="6.88"/>
                <vehicle id="933" pos="264.16" speed="7.29"/>
                <vehicle id="773" pos="294.20" speed="7.52"/>
            </lane>
        </edge>
    </timestep>
