<?xml version="1.0"?>
<timestep time="990.00">
        <edge id=":gneJ11_43">
            <lane id=":gneJ11_43_0">
                <vehicle id="750" pos="14.61" speed="8.87"/>
            </lane>
        </edge>
        <edge id=":gneJ15_2">
            <lane id=":gneJ15_2_0">
                <vehicle id="911" pos="1.31" speed="1.42"/>
            </lane>
        </edge>
        <edge id=":gneJ18_0">
            <lane id=":gneJ18_0_0">
                <vehicle id="921" pos="3.25" speed="7.25"/>
            </lane>
        </edge>
        <edge id=":gneJ28_8">
            <lane id=":gneJ28_8_0">
                <vehicle id="758" pos="9.23" speed="5.51"/>
            </lane>
        </edge>
        <edge id=":gneJ30_0">
            <lane id=":gneJ30_0_0">
                <vehicle id="909" pos="3.10" speed="6.61"/>
            </lane>
        </edge>
        <edge id=":gneJ8_1">
            <lane id=":gneJ8_1_0">
                <vehicle id="B1_3" pos="6.24" speed="7.49"/>
            </lane>
        </edge>
        <edge id="gneE10">
            <lane id="gneE10_0">
                <vehicle id="869" pos="115.07" speed="2.25"/>
                <vehicle id="963" pos="125.39" speed="1.70"/>
                <vehicle id="703" pos="137.51" speed="4.25"/>
            </lane>
        </edge>
        <edge id="gneE11">
            <lane id="gneE11_0">
                <vehicle id="831" pos="5.89" speed="8.77"/>
                <vehicle id="913" pos="97.20" speed="7.54"/>
                <vehicle id="938" pos="114.82" speed="8.23"/>
            </lane>
        </edge>
        <edge id="gneE12">
            <lane id="gneE12_0">
                <vehicle id="810" pos="22.46" speed="11.52"/>
                <vehicle id="655" pos="46.32" speed="13.83"/>
                <vehicle id="807" pos="120.88" speed="13.09"/>
                <vehicle id="951" pos="152.72" speed="13.82"/>
                <vehicle id="919" pos="205.12" speed="13.22"/>
                <vehicle id="948" pos="261.44" speed="13.19"/>
                <vehicle id="910" pos="293.68" speed="0.04"/>
                <vehicle id="959" pos="301.18" speed="0.00"/>
            </lane>
        </edge>
        <edge id="gneE13">
            <lane id="gneE13_0">
                <vehicle id="868" pos="155.35" speed="8.87"/>
                <vehicle id="860" pos="256.17" speed="0.00"/>
                <vehicle id="821" pos="263.67" speed="0.00"/>
                <vehicle id="889" pos="271.17" speed="0.00"/>
                <vehicle id="829" pos="278.68" speed="0.00"/>
                <vehicle id="905" pos="286.18" speed="0.00"/>
                <vehicle id="845" pos="293.68" speed="0.00"/>
                <vehicle id="827" pos="301.18" speed="0.00"/>
            </lane>
        </edge>
        <edge id="gneE14">
            <lane id="gneE14_0">
                <vehicle id="988" pos="11.33" speed="4.07"/>
            </lane>
        </edge>
        <edge id="gneE15">
            <lane id="gneE15_0">
                <vehicle id="735" pos="9.29" speed="8.06"/>
                <vehicle id="934" pos="137.10" speed="8.01"/>
            </lane>
        </edge>
        <edge id="gneE17">
            <lane id="gneE17_0">
                <vehicle id="989" pos="6.57" speed="1.47"/>
                <vehicle id="870" pos="186.10" speed="9.60"/>
                <vehicle id="888" pos="225.97" speed="8.94"/>
                <vehicle id="779" pos="268.15" speed="9.17"/>
            </lane>
        </edge>
        <edge id="gneE18">
            <lane id="gneE18_0">
                <vehicle id="614" pos="2.44" speed="6.41"/>
                <vehicle id="952" pos="30.55" speed="9.99"/>
                <vehicle id="798" pos="125.75" speed="9.88"/>
            </lane>
        </edge>
        <edge id="gneE19">
            <lane id="gneE19_0">
                <vehicle id="966" pos="49.19" speed="12.52"/>
                <vehicle id="967" pos="215.27" speed="0.23"/>
                <vehicle id="936" pos="223.00" speed="0.21"/>
                <vehicle id="748" pos="231.88" speed="1.25"/>
                <vehicle id="608" pos="241.66" speed="2.22"/>
                <vehicle id="944" pos="251.53" speed="1.67"/>
                <vehicle id="878" pos="260.11" speed="0.48"/>
                <vehicle id="532" pos="267.81" speed="0.12"/>
                <vehicle id="508" pos="275.33" speed="0.01"/>
                <vehicle id="904" pos="282.84" speed="0.00"/>
            </lane>
        </edge>
        <edge id="gneE20">
            <lane id="gneE20_0">
                <vehicle id="818" pos="43.49" speed="7.95"/>
                <vehicle id="881" pos="93.04" speed="8.70"/>
                <vehicle id="787" pos="130.66" speed="8.10"/>
                <vehicle id="793" pos="192.87" speed="8.91"/>
                <vehicle id="794" pos="237.64" speed="8.59"/>
                <vehicle id="875" pos="259.73" speed="7.84"/>
                <vehicle id="883" pos="277.07" speed="8.02"/>
            </lane>
        </edge>
        <edge id="gneE23">
            <lane id="gneE23_0">
                <vehicle id="856" pos="37.48" speed="7.56"/>
                <vehicle id="852" pos="108.00" speed="7.76"/>
                <vehicle id="759" pos="126.26" speed="7.93"/>
                <vehicle id="747" pos="142.04" speed="7.57"/>
            </lane>
        </edge>
        <edge id="gneE24">
            <lane id="gneE24_0">
                <vehicle id="757" pos="19.36" speed="12.03"/>
                <vehicle id="812" pos="121.06" speed="12.87"/>
                <vehicle id="825" pos="142.28" speed="12.15"/>
                <vehicle id="971" pos="164.73" speed="12.45"/>
            </lane>
        </edge>
        <edge id="gneE25">
            <lane id="gneE25_0">
                <vehicle id="721" pos="75.44" speed="9.91"/>
                <vehicle id="824" pos="172.71" speed="9.46"/>
                <vehicle id="947" pos="185.81" speed="0.00"/>
                <vehicle id="920" pos="193.32" speed="0.00"/>
                <vehicle id="872" pos="200.96" speed="0.14"/>
                <vehicle id="898" pos="208.97" speed="0.47"/>
                <vehicle id="886" pos="217.16" speed="0.62"/>
                <vehicle id="816" pos="227.75" speed="2.49"/>
                <vehicle id="830" pos="236.89" speed="0.66"/>
                <vehicle id="605" pos="245.48" speed="0.63"/>
                <vehicle id="855" pos="255.66" speed="2.45"/>
                <vehicle id="806" pos="267.57" speed="4.13"/>
                <vehicle id="651" pos="281.54" speed="5.39"/>
            </lane>
        </edge>
        <edge id="gneE26">
            <lane id="gneE26_0">
                <vehicle id="982" pos="29.71" speed="6.03"/>
                <vehicle id="895" pos="48.76" speed="5.89"/>
                <vehicle id="970" pos="127.29" speed="6.47"/>
                <vehicle id="935" pos="171.78" speed="5.75"/>
                <vehicle id="696" pos="197.85" speed="1.47"/>
                <vehicle id="939" pos="207.02" speed="0.89"/>
                <vehicle id="931" pos="215.22" speed="0.50"/>
                <vehicle id="719" pos="223.10" speed="0.17"/>
                <vehicle id="795" pos="230.71" speed="0.04"/>
                <vehicle id="850" pos="238.30" speed="0.05"/>
                <vehicle id="834" pos="245.82" speed="0.00"/>
                <vehicle id="801" pos="253.32" speed="0.00"/>
                <vehicle id="744" pos="260.82" speed="0.00"/>
                <vehicle id="799" pos="268.33" speed="0.00"/>
                <vehicle id="638" pos="275.83" speed="0.00"/>
                <vehicle id="633" pos="283.33" speed="0.00"/>
                <vehicle id="653" pos="290.83" speed="0.00"/>
            </lane>
        </edge>
        <edge id="gneE27">
            <lane id="gneE27_0">
                <vehicle id="981" pos="45.68" speed="5.60"/>
                <vehicle id="978" pos="64.18" speed="5.18"/>
                <vehicle id="968" pos="116.65" speed="4.96"/>
                <vehicle id="937" pos="134.59" speed="5.75"/>
            </lane>
        </edge>
        <edge id="gneE28">
            <lane id="gneE28_0">
                <vehicle id="842" pos="7.88" speed="7.76"/>
                <vehicle id="828" pos="30.54" speed="8.65"/>
                <vehicle id="753" pos="48.76" speed="7.75"/>
                <vehicle id="917" pos="72.09" speed="8.27"/>
                <vehicle id="745" pos="96.53" speed="8.57"/>
                <vehicle id="847" pos="123.94" speed="8.75"/>
            </lane>
        </edge>
        <edge id="gneE3">
            <lane id="gneE3_0">
                <vehicle id="945" pos="103.22" speed="9.09"/>
                <vehicle id="873" pos="140.24" speed="9.84"/>
            </lane>
        </edge>
        <edge id="gneE30">
            <lane id="gneE30_0">
                <vehicle id="826" pos="59.59" speed="8.07"/>
                <vehicle id="778" pos="126.58" speed="8.20"/>
                <vehicle id="972" pos="145.64" speed="8.86"/>
                <vehicle id="732" pos="179.83" speed="8.61"/>
                <vehicle id="880" pos="251.35" speed="8.22"/>
                <vehicle id="924" pos="286.92" speed="8.84"/>
            </lane>
        </edge>
        <edge id="gneE31">
            <lane id="gneE31_0">
                <vehicle id="814" pos="6.12" speed="5.16"/>
                <vehicle id="841" pos="27.63" speed="7.84"/>
                <vehicle id="927" pos="110.52" speed="8.00"/>
                <vehicle id="946" pos="137.45" speed="7.91"/>
                <vehicle id="864" pos="168.68" speed="8.84"/>
                <vehicle id="857" pos="193.86" speed="8.44"/>
                <vehicle id="843" pos="213.73" speed="8.65"/>
                <vehicle id="866" pos="244.84" speed="7.86"/>
                <vehicle id="885" pos="262.62" speed="8.46"/>
            </lane>
        </edge>
        <edge id="gneE32">
            <lane id="gneE32_0">
                <vehicle id="596" pos="105.78" speed="6.99"/>
                <vehicle id="819" pos="152.16" speed="7.27"/>
                <vehicle id="752" pos="308.73" speed="7.37"/>
            </lane>
        </edge>
        <edge id="gneE38">
            <lane id="gneE38_0">
                <vehicle id="925" pos="141.78" speed="8.18"/>
                <vehicle id="918" pos="196.45" speed="8.79"/>
                <vehicle id="893" pos="223.81" speed="7.73"/>
                <vehicle id="861" pos="305.45" speed="8.93"/>
                <vehicle id="832" pos="327.98" speed="0.00"/>
                <vehicle id="902" pos="335.48" speed="0.00"/>
            </lane>
        </edge>
        <edge id="gneE41">
            <lane id="gneE41_0">
                <vehicle id="781" pos="130.97" speed="8.02"/>
            </lane>
        </edge>
        <edge id="gneE42">
            <lane id="gneE42_0">
                <vehicle id="962" pos="14.58" speed="7.95"/>
                <vehicle id="928" pos="95.57" speed="7.81"/>
            </lane>
        </edge>
        <edge id="gneE43">
            <lane id="gneE43_0">
                <vehicle id="916" pos="17.01" speed="6.50"/>
                <vehicle id="930" pos="210.58" speed="6.54"/>
                <vehicle id="839" pos="254.22" speed="0.00"/>
                <vehicle id="836" pos="261.72" speed="0.00"/>
                <vehicle id="837" pos="269.22" speed="0.00"/>
                <vehicle id="894" pos="276.72" speed="0.00"/>
                <vehicle id="657" pos="284.23" speed="0.00"/>
                <vehicle id="863" pos="291.73" speed="0.00"/>
                <vehicle id="767" pos="299.23" speed="0.00"/>
                <vehicle id="813" pos="306.73" speed="0.00"/>
            </lane>
        </edge>
        <edge id="gneE45">
            <lane id="gneE45_0">
                <vehicle id="823" pos="8.18" speed="8.66"/>
                <vehicle id="965" pos="41.15" speed="8.68"/>
                <vehicle id="802" pos="180.09" speed="8.73"/>
                <vehicle id="667" pos="255.72" speed="7.82"/>
            </lane>
        </edge>
        <edge id="gneE46">
            <lane id="gneE46_0">
                <vehicle id="907" pos="148.60" speed="9.98"/>
                <vehicle id="950" pos="189.39" speed="9.98"/>
            </lane>
        </edge>
        <edge id="gneE47">
            <lane id="gneE47_0">
                <vehicle id="908" pos="21.47" speed="8.19"/>
                <vehicle id="954" pos="81.83" speed="8.32"/>
                <vehicle id="953" pos="99.62" speed="8.85"/>
                <vehicle id="975" pos="119.73" speed="8.05"/>
            </lane>
        </edge>
        <edge id="gneE48">
            <lane id="gneE48_0">
                <vehicle id="879" pos="143.32" speed="6.29"/>
                <vehicle id="871" pos="196.38" speed="6.26"/>
                <vehicle id="903" pos="252.06" speed="0.08"/>
                <vehicle id="897" pos="259.62" speed="0.01"/>
                <vehicle id="882" pos="267.13" speed="0.00"/>
                <vehicle id="796" pos="274.63" speed="0.00"/>
                <vehicle id="791" pos="282.13" speed="0.00"/>
                <vehicle id="858" pos="289.63" speed="0.00"/>
                <vehicle id="777" pos="297.14" speed="0.00"/>
                <vehicle id="705" pos="304.64" speed="0.00"/>
                <vehicle id="790" pos="312.14" speed="0.00"/>
                <vehicle id="817" pos="319.64" speed="0.00"/>
            </lane>
        </edge>
        <edge id="gneE49">
            <lane id="gneE49_0">
                <vehicle id="804" pos="26.79" speed="7.43"/>
                <vehicle id="960" pos="71.74" speed="7.51"/>
                <vehicle id="783" pos="258.68" speed="7.60"/>
                <vehicle id="949" pos="298.71" speed="7.50"/>
            </lane>
        </edge>
        <edge id="gneE5">
            <lane id="gneE5_0">
                <vehicle id="899" pos="4.04" speed="5.50"/>
                <vehicle id="964" pos="19.01" speed="5.49"/>
                <vehicle id="877" pos="35.94" speed="4.76"/>
                <vehicle id="980" pos="53.18" speed="4.78"/>
            </lane>
        </edge>
        <edge id="gneE50">
            <lane id="gneE50_0">
                <vehicle id="929" pos="325.48" speed="5.89"/>
                <vehicle id="815" pos="342.79" speed="5.00"/>
            </lane>
        </edge>
        <edge id="gneE51">
            <lane id="gneE51_0">
                <vehicle id="780" pos="138.42" speed="5.83"/>
                <vehicle id="896" pos="164.20" speed="5.84"/>
                <vehicle id="811" pos="283.28" speed="0.00"/>
                <vehicle id="844" pos="290.79" speed="0.00"/>
                <vehicle id="859" pos="298.45" speed="0.16"/>
                <vehicle id="901" pos="307.23" speed="1.18"/>
                <vehicle id="691" pos="317.51" speed="2.62"/>
                <vehicle id="891" pos="330.24" speed="4.34"/>
                <vehicle id="809" pos="340.87" speed="1.87"/>
                <vehicle id="803" pos="350.36" speed="1.03"/>
                <vehicle id="800" pos="358.28" speed="0.05"/>
                <vehicle id="846" pos="365.79" speed="0.01"/>
            </lane>
        </edge>
        <edge id="gneE52">
            <lane id="gneE52_0">
                <vehicle id="969" pos="130.57" speed="6.54"/>
                <vehicle id="688" pos="173.76" speed="6.73"/>
                <vehicle id="906" pos="250.24" speed="6.03"/>
                <vehicle id="923" pos="265.54" speed="5.83"/>
                <vehicle id="941" pos="307.93" speed="6.11"/>
            </lane>
        </edge>
        <edge id="gneE53">
            <lane id="gneE53_0">
                <vehicle id="958" pos="58.44" speed="6.09"/>
                <vehicle id="683" pos="202.15" speed="6.31"/>
                <vehicle id="955" pos="216.78" speed="6.14"/>
                <vehicle id="914" pos="320.66" speed="0.00"/>
                <vehicle id="892" pos="328.16" speed="0.00"/>
                <vehicle id="874" pos="335.66" speed="0.00"/>
                <vehicle id="867" pos="343.16" speed="0.00"/>
            </lane>
        </edge>
        <edge id="gneE54">
            <lane id="gneE54_0">
                <vehicle id="926" pos="52.59" speed="6.94"/>
                <vehicle id="922" pos="72.36" speed="5.93"/>
                <vehicle id="976" pos="88.46" speed="6.31"/>
            </lane>
        </edge>
        <edge id="gneE55">
            <lane id="gneE55_0">
                <vehicle id="983" pos="47.04" speed="7.08"/>
            </lane>
        </edge>
        <edge id="gneE56">
            <lane id="gneE56_0">
                <vehicle id="674" pos="159.28" speed="8.03"/>
            </lane>
        </edge>
        <edge id="gneE57">
            <lane id="gneE57_0">
                <vehicle id="986" pos="24.57" speed="6.96"/>
                <vehicle id="977" pos="89.45" speed="6.98"/>
                <vehicle id="973" pos="123.35" speed="7.90"/>
            </lane>
        </edge>
        <edge id="gneE58">
            <lane id="gneE58_0">
                <vehicle id="682" pos="281.00" speed="6.89"/>
            </lane>
        </edge>
        <edge id="gneE59">
            <lane id="gneE59_0">
                <vehicle id="987" pos="5.10" speed="0.00"/>
                <vehicle id="737" pos="18.50" speed="7.88"/>
                <vehicle id="957" pos="251.14" speed="7.91"/>
                <vehicle id="762" pos="272.73" speed="8.44"/>
                <vehicle id="548" pos="302.60" speed="1.16"/>
                <vehicle id="943" pos="310.23" speed="0.00"/>
                <vehicle id="932" pos="317.73" speed="0.00"/>
            </lane>
        </edge>
        <edge id="gneE6">
            <lane id="gneE6_0">
                <vehicle id="979" pos="73.80" speed="7.11"/>
                <vehicle id="933" pos="99.71" speed="7.46"/>
            </lane>
        </edge>
        <edge id="gneE60">
            <lane id="gneE60_0">
                <vehicle id="974" pos="98.34" speed="6.72"/>
                <vehicle id="912" pos="194.97" speed="0.24"/>
                <vehicle id="900" pos="202.54" speed="0.00"/>
                <vehicle id="940" pos="210.04" speed="0.00"/>
                <vehicle id="582" pos="217.54" speed="0.00"/>
                <vehicle id="890" pos="225.04" speed="0.00"/>
                <vehicle id="797" pos="232.54" speed="0.00"/>
                <vehicle id="887" pos="240.05" speed="0.00"/>
                <vehicle id="720" pos="247.55" speed="0.00"/>
                <vehicle id="647" pos="255.05" speed="0.00"/>
                <vehicle id="766" pos="262.55" speed="0.00"/>
                <vehicle id="765" pos="270.05" speed="0.00"/>
                <vehicle id="716" pos="277.55" speed="0.00"/>
                <vehicle id="822" pos="285.05" speed="0.00"/>
                <vehicle id="772" pos="292.55" speed="0.00"/>
                <vehicle id="749" pos="300.05" speed="0.00"/>
                <vehicle id="808" pos="307.56" speed="0.00"/>
                <vehicle id="729" pos="315.06" speed="0.00"/>
                <vehicle id="755" pos="322.56" speed="0.00"/>
                <vehicle id="616" pos="330.06" speed="0.00"/>
                <vehicle id="693" pos="337.56" speed="0.00"/>
            </lane>
        </edge>
        <edge id="gneE61">
            <lane id="gneE61_0">
                <vehicle id="754" pos="154.47" speed="6.95"/>
                <vehicle id="733" pos="249.61" speed="6.80"/>
            </lane>
        </edge>
        <edge id="gneE7">
            <lane id="gneE7_0">
                <vehicle id="942" pos="0.31" speed="5.02"/>
                <vehicle id="853" pos="31.57" speed="8.61"/>
                <vehicle id="624" pos="57.01" speed="8.28"/>
                <vehicle id="915" pos="118.16" speed="7.88"/>
                <vehicle id="961" pos="226.27" speed="7.86"/>
                <vehicle id="848" pos="256.95" speed="8.34"/>
            </lane>
        </edge>
        <edge id="gneE8">
            <lane id="gneE8_0">
                <vehicle id="956" pos="242.60" speed="7.52"/>
            </lane>
        </edge>
    </timestep>
