<?xml version="1.0"?>
<timestep time="992.00">
        <edge id=":gneJ11_0">
            <lane id=":gneJ11_0_0">
                <vehicle id="971" pos="3.50" speed="12.36"/>
            </lane>
        </edge>
        <edge id=":gneJ11_34">
            <lane id=":gneJ11_34_0">
                <vehicle id="693" pos="6.14" speed="3.85"/>
            </lane>
        </edge>
        <edge id=":gneJ15_2">
            <lane id=":gneJ15_2_0">
                <vehicle id="911" pos="10.20" speed="5.14"/>
            </lane>
        </edge>
        <edge id=":gneJ16_0">
            <lane id=":gneJ16_0_0">
                <vehicle id="937" pos="4.51" speed="5.47"/>
            </lane>
        </edge>
        <edge id=":gneJ3_3">
            <lane id=":gneJ3_3_0">
                <vehicle id="932" pos="6.02" speed="3.86"/>
            </lane>
        </edge>
        <edge id=":gneJ4_3">
            <lane id=":gneJ4_3_0">
                <vehicle id="873" pos="4.66" speed="9.53"/>
            </lane>
        </edge>
        <edge id=":gneJ6_6">
            <lane id=":gneJ6_6_0">
                <vehicle id="924" pos="4.71" speed="8.72"/>
            </lane>
        </edge>
        <edge id=":gneJ9_3">
            <lane id=":gneJ9_3_0">
                <vehicle id="883" pos="8.38" speed="5.95"/>
            </lane>
        </edge>
        <edge id="gneE10">
            <lane id="gneE10_0">
                <vehicle id="869" pos="120.63" speed="3.64"/>
                <vehicle id="963" pos="132.74" speed="4.33"/>
            </lane>
        </edge>
        <edge id="gneE11">
            <lane id="gneE11_0">
                <vehicle id="831" pos="23.07" speed="8.94"/>
                <vehicle id="913" pos="113.78" speed="7.80"/>
                <vehicle id="938" pos="132.48" speed="8.74"/>
            </lane>
        </edge>
        <edge id="gneE12">
            <lane id="gneE12_0">
                <vehicle id="B1_3" pos="17.99" speed="11.90"/>
                <vehicle id="810" pos="49.09" speed="13.02"/>
                <vehicle id="655" pos="72.90" speed="12.93"/>
                <vehicle id="807" pos="148.26" speed="13.54"/>
                <vehicle id="951" pos="178.84" speed="12.69"/>
                <vehicle id="919" pos="232.56" speed="13.69"/>
                <vehicle id="948" pos="282.29" speed="8.18"/>
                <vehicle id="910" pos="293.68" speed="0.00"/>
                <vehicle id="959" pos="301.18" speed="0.00"/>
            </lane>
        </edge>
        <edge id="gneE13">
            <lane id="gneE13_0">
                <vehicle id="868" pos="173.90" speed="8.78"/>
                <vehicle id="860" pos="256.17" speed="0.00"/>
                <vehicle id="821" pos="263.67" speed="0.00"/>
                <vehicle id="889" pos="271.17" speed="0.00"/>
                <vehicle id="829" pos="278.68" speed="0.00"/>
                <vehicle id="905" pos="286.18" speed="0.00"/>
                <vehicle id="845" pos="293.68" speed="0.00"/>
                <vehicle id="827" pos="301.18" speed="0.00"/>
            </lane>
        </edge>
        <edge id="gneE14">
            <lane id="gneE14_0">
                <vehicle id="992" pos="5.10" speed="0.00"/>
                <vehicle id="988" pos="25.90" speed="8.28"/>
            </lane>
        </edge>
        <edge id="gneE15">
            <lane id="gneE15_0">
                <vehicle id="735" pos="25.55" speed="8.02"/>
                <vehicle id="934" pos="153.67" speed="7.82"/>
            </lane>
        </edge>
        <edge id="gneE17">
            <lane id="gneE17_0">
                <vehicle id="989" pos="15.03" speed="5.31"/>
                <vehicle id="870" pos="204.94" speed="9.65"/>
                <vehicle id="888" pos="245.11" speed="9.55"/>
                <vehicle id="779" pos="283.71" speed="6.21"/>
            </lane>
        </edge>
        <edge id="gneE18">
            <lane id="gneE18_0">
                <vehicle id="614" pos="19.10" speed="8.82"/>
                <vehicle id="952" pos="49.48" speed="9.21"/>
                <vehicle id="798" pos="144.85" speed="9.27"/>
            </lane>
        </edge>
        <edge id="gneE19">
            <lane id="gneE19_0">
                <vehicle id="966" pos="74.22" speed="12.37"/>
                <vehicle id="967" pos="216.53" speed="1.08"/>
                <vehicle id="936" pos="225.44" speed="1.15"/>
                <vehicle id="748" pos="235.60" speed="2.38"/>
                <vehicle id="608" pos="244.44" speed="0.88"/>
                <vehicle id="944" pos="252.47" speed="0.39"/>
                <vehicle id="878" pos="260.31" speed="0.07"/>
                <vehicle id="532" pos="267.83" speed="0.01"/>
                <vehicle id="508" pos="275.34" speed="0.00"/>
                <vehicle id="904" pos="282.84" speed="0.00"/>
            </lane>
        </edge>
        <edge id="gneE20">
            <lane id="gneE20_0">
                <vehicle id="818" pos="61.09" speed="8.70"/>
                <vehicle id="881" pos="109.42" speed="8.44"/>
                <vehicle id="787" pos="146.98" speed="8.31"/>
                <vehicle id="793" pos="209.60" speed="8.86"/>
                <vehicle id="794" pos="254.11" speed="8.71"/>
                <vehicle id="875" pos="276.42" speed="8.34"/>
            </lane>
        </edge>
        <edge id="gneE23">
            <lane id="gneE23_0">
                <vehicle id="856" pos="52.14" speed="7.80"/>
                <vehicle id="852" pos="123.05" speed="7.58"/>
                <vehicle id="759" pos="140.78" speed="7.09"/>
                <vehicle id="747" pos="156.26" speed="6.95"/>
            </lane>
        </edge>
        <edge id="gneE24">
            <lane id="gneE24_0">
                <vehicle id="757" pos="43.78" speed="12.54"/>
                <vehicle id="812" pos="145.16" speed="11.72"/>
                <vehicle id="825" pos="166.62" speed="11.48"/>
            </lane>
        </edge>
        <edge id="gneE25">
            <lane id="gneE25_0">
                <vehicle id="721" pos="93.26" speed="8.74"/>
                <vehicle id="824" pos="178.12" speed="0.46"/>
                <vehicle id="947" pos="185.87" speed="0.06"/>
                <vehicle id="920" pos="193.65" speed="0.26"/>
                <vehicle id="872" pos="201.75" speed="0.41"/>
                <vehicle id="898" pos="211.87" speed="2.42"/>
                <vehicle id="886" pos="221.21" speed="1.51"/>
                <vehicle id="816" pos="230.01" speed="0.90"/>
                <vehicle id="830" pos="239.38" speed="1.62"/>
                <vehicle id="605" pos="251.75" speed="3.81"/>
                <vehicle id="855" pos="264.70" speed="5.25"/>
                <vehicle id="806" pos="278.31" speed="5.38"/>
                <vehicle id="651" pos="290.37" speed="2.96"/>
            </lane>
        </edge>
        <edge id="gneE26">
            <lane id="gneE26_0">
                <vehicle id="982" pos="41.79" speed="6.23"/>
                <vehicle id="895" pos="61.35" speed="6.05"/>
                <vehicle id="970" pos="139.86" speed="6.51"/>
                <vehicle id="935" pos="185.42" speed="6.64"/>
                <vehicle id="696" pos="199.83" speed="0.34"/>
                <vehicle id="939" pos="208.06" speed="0.52"/>
                <vehicle id="931" pos="215.67" speed="0.09"/>
                <vehicle id="719" pos="223.27" speed="0.06"/>
                <vehicle id="795" pos="230.81" speed="0.04"/>
                <vehicle id="850" pos="238.32" speed="0.00"/>
                <vehicle id="834" pos="245.82" speed="0.00"/>
                <vehicle id="801" pos="253.32" speed="0.00"/>
                <vehicle id="744" pos="260.82" speed="0.00"/>
                <vehicle id="799" pos="268.33" speed="0.00"/>
                <vehicle id="638" pos="275.83" speed="0.00"/>
                <vehicle id="633" pos="283.33" speed="0.00"/>
                <vehicle id="653" pos="290.83" speed="0.00"/>
            </lane>
        </edge>
        <edge id="gneE27">
            <lane id="gneE27_0">
                <vehicle id="981" pos="56.15" speed="5.01"/>
                <vehicle id="978" pos="75.77" speed="5.83"/>
                <vehicle id="968" pos="126.79" speed="5.18"/>
            </lane>
        </edge>
        <edge id="gneE28">
            <lane id="gneE28_0">
                <vehicle id="842" pos="24.41" speed="7.93"/>
                <vehicle id="828" pos="47.81" speed="8.73"/>
                <vehicle id="753" pos="66.17" speed="8.73"/>
                <vehicle id="917" pos="89.16" speed="8.71"/>
                <vehicle id="745" pos="113.17" speed="8.71"/>
                <vehicle id="847" pos="139.64" speed="7.88"/>
            </lane>
        </edge>
        <edge id="gneE3">
            <lane id="gneE3_0">
                <vehicle id="945" pos="121.56" speed="8.76"/>
            </lane>
        </edge>
        <edge id="gneE30">
            <lane id="gneE30_0">
                <vehicle id="826" pos="77.06" speed="8.62"/>
                <vehicle id="778" pos="143.61" speed="8.54"/>
                <vehicle id="972" pos="162.28" speed="8.38"/>
                <vehicle id="732" pos="196.06" speed="7.89"/>
                <vehicle id="880" pos="267.34" speed="8.19"/>
            </lane>
        </edge>
        <edge id="gneE31">
            <lane id="gneE31_0">
                <vehicle id="814" pos="22.47" speed="8.63"/>
                <vehicle id="841" pos="44.38" speed="8.44"/>
                <vehicle id="927" pos="126.33" speed="7.95"/>
                <vehicle id="946" pos="153.91" speed="7.79"/>
                <vehicle id="864" pos="184.92" speed="8.08"/>
                <vehicle id="857" pos="210.90" speed="8.19"/>
                <vehicle id="843" pos="230.05" speed="8.47"/>
                <vehicle id="866" pos="261.52" speed="8.55"/>
                <vehicle id="885" pos="279.28" speed="7.83"/>
            </lane>
        </edge>
        <edge id="gneE32">
            <lane id="gneE32_0">
                <vehicle id="596" pos="120.71" speed="7.55"/>
                <vehicle id="819" pos="165.72" speed="6.84"/>
                <vehicle id="752" pos="323.60" speed="7.60"/>
            </lane>
        </edge>
        <edge id="gneE38">
            <lane id="gneE38_0">
                <vehicle id="921" pos="9.08" speed="7.72"/>
                <vehicle id="925" pos="157.50" speed="7.74"/>
                <vehicle id="918" pos="213.45" speed="8.16"/>
                <vehicle id="893" pos="240.72" speed="8.03"/>
                <vehicle id="861" pos="319.14" speed="5.60"/>
                <vehicle id="832" pos="328.76" speed="0.79"/>
                <vehicle id="902" pos="340.21" speed="3.44"/>
            </lane>
        </edge>
        <edge id="gneE4">
            <lane id="gneE4_0">
                <vehicle id="991" pos="7.10" speed="2.00"/>
            </lane>
        </edge>
        <edge id="gneE42">
            <lane id="gneE42_0">
                <vehicle id="758" pos="6.38" speed="7.72"/>
                <vehicle id="962" pos="29.38" speed="7.09"/>
                <vehicle id="928" pos="110.86" speed="7.90"/>
            </lane>
        </edge>
        <edge id="gneE43">
            <lane id="gneE43_0">
                <vehicle id="916" pos="29.77" speed="5.79"/>
                <vehicle id="930" pos="224.30" speed="6.89"/>
                <vehicle id="839" pos="254.22" speed="0.00"/>
                <vehicle id="836" pos="261.72" speed="0.00"/>
                <vehicle id="837" pos="269.22" speed="0.00"/>
                <vehicle id="894" pos="276.72" speed="0.00"/>
                <vehicle id="657" pos="284.23" speed="0.00"/>
                <vehicle id="863" pos="291.73" speed="0.00"/>
                <vehicle id="767" pos="299.23" speed="0.00"/>
                <vehicle id="813" pos="306.73" speed="0.00"/>
            </lane>
        </edge>
        <edge id="gneE45">
            <lane id="gneE45_0">
                <vehicle id="823" pos="25.22" speed="8.54"/>
                <vehicle id="965" pos="57.59" speed="8.41"/>
                <vehicle id="802" pos="197.69" speed="8.78"/>
                <vehicle id="667" pos="273.07" speed="8.90"/>
            </lane>
        </edge>
        <edge id="gneE46">
            <lane id="gneE46_0">
                <vehicle id="907" pos="167.74" speed="9.53"/>
            </lane>
        </edge>
        <edge id="gneE47">
            <lane id="gneE47_0">
                <vehicle id="909" pos="9.97" speed="8.77"/>
                <vehicle id="908" pos="37.48" speed="8.17"/>
                <vehicle id="954" pos="98.72" speed="8.85"/>
                <vehicle id="953" pos="115.96" speed="7.80"/>
                <vehicle id="975" pos="136.70" speed="8.78"/>
            </lane>
        </edge>
        <edge id="gneE48">
            <lane id="gneE48_0">
                <vehicle id="879" pos="155.26" speed="5.85"/>
                <vehicle id="871" pos="209.22" speed="6.97"/>
                <vehicle id="903" pos="252.11" speed="0.02"/>
                <vehicle id="897" pos="259.63" speed="0.00"/>
                <vehicle id="882" pos="267.13" speed="0.00"/>
                <vehicle id="796" pos="274.63" speed="0.00"/>
                <vehicle id="791" pos="282.13" speed="0.00"/>
                <vehicle id="858" pos="289.63" speed="0.00"/>
                <vehicle id="777" pos="297.14" speed="0.00"/>
                <vehicle id="705" pos="304.64" speed="0.00"/>
                <vehicle id="790" pos="312.14" speed="0.00"/>
                <vehicle id="817" pos="319.64" speed="0.00"/>
            </lane>
        </edge>
        <edge id="gneE49">
            <lane id="gneE49_0">
                <vehicle id="750" pos="11.17" speed="6.90"/>
                <vehicle id="804" pos="42.02" speed="7.40"/>
                <vehicle id="960" pos="86.79" speed="7.77"/>
                <vehicle id="783" pos="273.07" speed="6.91"/>
                <vehicle id="949" pos="313.18" speed="7.55"/>
            </lane>
        </edge>
        <edge id="gneE5">
            <lane id="gneE5_0">
                <vehicle id="899" pos="13.99" speed="4.92"/>
                <vehicle id="964" pos="29.49" speed="5.02"/>
                <vehicle id="877" pos="47.11" speed="5.39"/>
                <vehicle id="980" pos="64.34" speed="5.45"/>
            </lane>
        </edge>
        <edge id="gneE50">
            <lane id="gneE50_0">
                <vehicle id="929" pos="336.57" speed="5.48"/>
                <vehicle id="815" pos="353.93" speed="5.86"/>
            </lane>
        </edge>
        <edge id="gneE51">
            <lane id="gneE51_0">
                <vehicle id="780" pos="151.96" speed="6.96"/>
                <vehicle id="896" pos="178.04" speed="6.86"/>
                <vehicle id="811" pos="283.36" speed="0.07"/>
                <vehicle id="844" pos="291.79" speed="0.89"/>
                <vehicle id="859" pos="300.82" speed="1.50"/>
                <vehicle id="901" pos="312.39" speed="3.36"/>
                <vehicle id="691" pos="324.45" speed="2.13"/>
                <vehicle id="891" pos="334.83" speed="2.29"/>
                <vehicle id="809" pos="343.07" speed="0.23"/>
                <vehicle id="803" pos="350.78" speed="0.03"/>
                <vehicle id="800" pos="358.30" speed="0.01"/>
                <vehicle id="846" pos="365.80" speed="0.00"/>
            </lane>
        </edge>
        <edge id="gneE52">
            <lane id="gneE52_0">
                <vehicle id="969" pos="143.51" speed="5.94"/>
                <vehicle id="688" pos="186.70" speed="5.97"/>
                <vehicle id="906" pos="262.51" speed="6.39"/>
                <vehicle id="923" pos="278.26" speed="6.01"/>
                <vehicle id="941" pos="320.30" speed="5.80"/>
            </lane>
        </edge>
        <edge id="gneE53">
            <lane id="gneE53_0">
                <vehicle id="958" pos="71.04" speed="5.79"/>
                <vehicle id="683" pos="214.19" speed="6.61"/>
                <vehicle id="955" pos="229.93" speed="6.54"/>
                <vehicle id="914" pos="320.66" speed="0.00"/>
                <vehicle id="892" pos="328.16" speed="0.00"/>
                <vehicle id="874" pos="335.66" speed="0.00"/>
                <vehicle id="867" pos="343.16" speed="0.00"/>
            </lane>
        </edge>
        <edge id="gneE54">
            <lane id="gneE54_0">
                <vehicle id="926" pos="65.46" speed="6.21"/>
                <vehicle id="922" pos="85.82" speed="6.79"/>
                <vehicle id="976" pos="100.16" speed="5.70"/>
            </lane>
        </edge>
        <edge id="gneE55">
            <lane id="gneE55_0">
                <vehicle id="950" pos="2.10" speed="7.74"/>
                <vehicle id="983" pos="62.68" speed="7.98"/>
            </lane>
        </edge>
        <edge id="gneE57">
            <lane id="gneE57_0">
                <vehicle id="986" pos="40.06" speed="7.97"/>
                <vehicle id="977" pos="103.67" speed="7.14"/>
                <vehicle id="973" pos="138.66" speed="7.63"/>
            </lane>
        </edge>
        <edge id="gneE58">
            <lane id="gneE58_0">
                <vehicle id="682" pos="295.77" speed="7.43"/>
            </lane>
        </edge>
        <edge id="gneE59">
            <lane id="gneE59_0">
                <vehicle id="987" pos="9.54" speed="3.08"/>
                <vehicle id="737" pos="35.13" speed="8.22"/>
                <vehicle id="957" pos="267.83" speed="8.53"/>
                <vehicle id="762" pos="290.10" speed="8.90"/>
                <vehicle id="548" pos="302.72" speed="0.03"/>
                <vehicle id="943" pos="311.50" speed="1.27"/>
            </lane>
        </edge>
        <edge id="gneE6">
            <lane id="gneE6_0">
                <vehicle id="979" pos="89.22" speed="7.55"/>
                <vehicle id="933" pos="115.05" speed="7.52"/>
            </lane>
        </edge>
        <edge id="gneE60">
            <lane id="gneE60_0">
                <vehicle id="974" pos="110.54" speed="5.74"/>
                <vehicle id="912" pos="195.04" speed="0.02"/>
                <vehicle id="900" pos="202.54" speed="0.00"/>
                <vehicle id="940" pos="210.04" speed="0.00"/>
                <vehicle id="582" pos="217.54" speed="0.00"/>
                <vehicle id="890" pos="225.04" speed="0.00"/>
                <vehicle id="797" pos="232.54" speed="0.00"/>
                <vehicle id="887" pos="240.05" speed="0.00"/>
                <vehicle id="720" pos="247.55" speed="0.00"/>
                <vehicle id="647" pos="255.05" speed="0.00"/>
                <vehicle id="766" pos="262.55" speed="0.00"/>
                <vehicle id="765" pos="270.05" speed="0.00"/>
                <vehicle id="716" pos="277.55" speed="0.00"/>
                <vehicle id="822" pos="285.05" speed="0.00"/>
                <vehicle id="772" pos="292.55" speed="0.00"/>
                <vehicle id="749" pos="300.05" speed="0.00"/>
                <vehicle id="808" pos="307.56" speed="0.00"/>
                <vehicle id="729" pos="315.06" speed="0.00"/>
                <vehicle id="755" pos="322.56" speed="0.00"/>
                <vehicle id="616" pos="331.95" speed="1.89"/>
            </lane>
        </edge>
        <edge id="gneE61">
            <lane id="gneE61_0">
                <vehicle id="754" pos="169.51" speed="7.33"/>
                <vehicle id="733" pos="264.57" speed="7.67"/>
            </lane>
        </edge>
        <edge id="gneE7">
            <lane id="gneE7_0">
                <vehicle id="942" pos="16.00" speed="8.58"/>
                <vehicle id="853" pos="47.98" speed="8.03"/>
                <vehicle id="624" pos="73.18" speed="8.42"/>
                <vehicle id="915" pos="134.80" speed="8.78"/>
                <vehicle id="961" pos="242.75" speed="8.61"/>
                <vehicle id="848" pos="274.02" speed="8.47"/>
            </lane>
        </edge>
        <edge id="gneE8">
            <lane id="gneE8_0">
                <vehicle id="990" pos="7.23" speed="2.13"/>
                <vehicle id="956" pos="257.14" speed="6.77"/>
            </lane>
        </edge>
    </timestep>
