<?xml version="1.0"?>
<timestep time="999.00">
        <edge id=":gneJ11_20">
            <lane id=":gneJ11_20_0">
                <vehicle id="867" pos="2.49" speed="2.59"/>
            </lane>
        </edge>
        <edge id=":gneJ11_41">
            <lane id=":gneJ11_41_0">
                <vehicle id="904" pos="19.36" speed="7.27"/>
            </lane>
        </edge>
        <edge id=":gneJ15_10">
            <lane id=":gneJ15_10_0">
                <vehicle id="759" pos="5.87" speed="7.98"/>
            </lane>
        </edge>
        <edge id=":gneJ15_18">
            <lane id=":gneJ15_18_0">
                <vehicle id="847" pos="4.41" speed="0.00"/>
            </lane>
        </edge>
        <edge id=":gneJ28_0">
            <lane id=":gneJ28_0_0">
                <vehicle id="975" pos="0.17" speed="8.07"/>
            </lane>
        </edge>
        <edge id=":gneJ3_3">
            <lane id=":gneJ3_3_0">
                <vehicle id="762" pos="5.56" speed="7.92"/>
            </lane>
        </edge>
        <edge id=":gneJ30_1">
            <lane id=":gneJ30_1_0">
                <vehicle id="976" pos="0.32" speed="6.31"/>
            </lane>
        </edge>
        <edge id=":gneJ4_0">
            <lane id=":gneJ4_0_0">
                <vehicle id="959" pos="1.46" speed="1.56"/>
            </lane>
        </edge>
        <edge id=":gneJ5_0">
            <lane id=":gneJ5_0_0">
                <vehicle id="956" pos="5.23" speed="7.61"/>
            </lane>
        </edge>
        <edge id=":gneJ8_1">
            <lane id=":gneJ8_1_0">
                <vehicle id="806" pos="8.07" speed="6.81"/>
            </lane>
        </edge>
        <edge id="gneE10">
            <lane id="gneE10_0">
                <vehicle id="827" pos="10.72" speed="5.69"/>
                <vehicle id="934" pos="26.68" speed="5.57"/>
                <vehicle id="869" pos="131.43" speed="0.03"/>
                <vehicle id="963" pos="138.94" speed="0.01"/>
            </lane>
        </edge>
        <edge id="gneE11">
            <lane id="gneE11_0">
                <vehicle id="924" pos="58.07" speed="8.81"/>
                <vehicle id="831" pos="80.41" speed="7.75"/>
            </lane>
        </edge>
        <edge id="gneE12">
            <lane id="gneE12_0">
                <vehicle id="913" pos="26.09" speed="9.38"/>
                <vehicle id="985" pos="45.71" speed="11.06"/>
                <vehicle id="B1_3" pos="110.61" speed="13.72"/>
                <vehicle id="810" pos="141.11" speed="13.04"/>
                <vehicle id="655" pos="164.86" speed="12.73"/>
                <vehicle id="807" pos="240.81" speed="13.67"/>
                <vehicle id="951" pos="265.89" speed="8.05"/>
                <vehicle id="919" pos="278.65" speed="0.19"/>
                <vehicle id="948" pos="286.18" speed="0.00"/>
                <vehicle id="910" pos="293.68" speed="0.00"/>
            </lane>
        </edge>
        <edge id="gneE13">
            <lane id="gneE13_0">
                <vehicle id="868" pos="240.08" speed="9.81"/>
                <vehicle id="860" pos="256.17" speed="0.00"/>
                <vehicle id="821" pos="263.67" speed="0.00"/>
                <vehicle id="889" pos="271.64" speed="0.46"/>
                <vehicle id="829" pos="282.06" speed="2.73"/>
                <vehicle id="905" pos="292.18" speed="1.86"/>
                <vehicle id="845" pos="301.05" speed="0.15"/>
            </lane>
        </edge>
        <edge id="gneE14">
            <lane id="gneE14_0">
                <vehicle id="651" pos="17.61" speed="9.60"/>
                <vehicle id="992" pos="56.62" speed="9.86"/>
                <vehicle id="988" pos="97.28" speed="10.71"/>
            </lane>
        </edge>
        <edge id="gneE15">
            <lane id="gneE15_0">
                <vehicle id="875" pos="45.03" speed="8.13"/>
                <vehicle id="735" pos="83.82" speed="8.83"/>
            </lane>
        </edge>
        <edge id="gneE17">
            <lane id="gneE17_0">
                <vehicle id="794" pos="23.07" speed="9.06"/>
                <vehicle id="883" pos="59.56" speed="9.42"/>
                <vehicle id="989" pos="78.97" speed="9.01"/>
                <vehicle id="870" pos="268.90" speed="8.96"/>
            </lane>
        </edge>
        <edge id="gneE18">
            <lane id="gneE18_0">
                <vehicle id="943" pos="36.80" speed="9.92"/>
                <vehicle id="932" pos="58.82" speed="9.90"/>
                <vehicle id="614" pos="86.80" speed="9.52"/>
                <vehicle id="952" pos="114.85" speed="8.83"/>
                <vehicle id="798" pos="209.69" speed="8.76"/>
            </lane>
        </edge>
        <edge id="gneE19">
            <lane id="gneE19_0">
                <vehicle id="966" pos="160.61" speed="12.76"/>
                <vehicle id="967" pos="222.64" speed="0.13"/>
                <vehicle id="936" pos="230.29" speed="0.10"/>
                <vehicle id="748" pos="237.83" speed="0.00"/>
                <vehicle id="608" pos="245.33" speed="0.00"/>
                <vehicle id="944" pos="252.83" speed="0.00"/>
                <vehicle id="878" pos="261.45" speed="1.11"/>
                <vehicle id="532" pos="272.79" speed="3.56"/>
            </lane>
        </edge>
        <edge id="gneE20">
            <lane id="gneE20_0">
                <vehicle id="812" pos="13.53" speed="8.79"/>
                <vehicle id="825" pos="30.77" speed="8.60"/>
                <vehicle id="971" pos="48.55" speed="8.59"/>
                <vehicle id="818" pos="118.95" speed="7.86"/>
                <vehicle id="881" pos="166.66" speed="8.76"/>
                <vehicle id="787" pos="204.78" speed="8.89"/>
                <vehicle id="793" pos="267.59" speed="8.75"/>
            </lane>
        </edge>
        <edge id="gneE23">
            <lane id="gneE23_0">
                <vehicle id="693" pos="35.68" speed="7.75"/>
                <vehicle id="856" pos="104.95" speed="7.39"/>
                <vehicle id="852" pos="173.09" speed="6.71"/>
            </lane>
        </edge>
        <edge id="gneE24">
            <lane id="gneE24_0">
                <vehicle id="911" pos="68.64" speed="12.78"/>
                <vehicle id="757" pos="132.09" speed="12.78"/>
            </lane>
        </edge>
        <edge id="gneE25">
            <lane id="gneE25_0">
                <vehicle id="996" pos="10.38" speed="3.29"/>
                <vehicle id="721" pos="158.92" speed="9.94"/>
                <vehicle id="824" pos="184.18" speed="1.54"/>
                <vehicle id="947" pos="193.28" speed="1.57"/>
                <vehicle id="920" pos="204.70" speed="2.89"/>
                <vehicle id="872" pos="216.92" speed="4.15"/>
                <vehicle id="898" pos="229.83" speed="5.23"/>
                <vehicle id="886" pos="241.36" speed="3.16"/>
                <vehicle id="816" pos="250.45" speed="1.31"/>
                <vehicle id="830" pos="261.03" speed="2.05"/>
                <vehicle id="605" pos="271.65" speed="2.97"/>
                <vehicle id="855" pos="283.45" speed="4.27"/>
            </lane>
        </edge>
        <edge id="gneE26">
            <lane id="gneE26_0">
                <vehicle id="982" pos="86.29" speed="6.95"/>
                <vehicle id="895" pos="104.15" speed="5.72"/>
                <vehicle id="970" pos="183.38" speed="4.52"/>
                <vehicle id="935" pos="193.27" speed="0.08"/>
                <vehicle id="696" pos="200.81" speed="0.01"/>
                <vehicle id="939" pos="208.32" speed="0.01"/>
                <vehicle id="931" pos="215.82" speed="0.00"/>
                <vehicle id="719" pos="223.32" speed="0.00"/>
                <vehicle id="795" pos="230.82" speed="0.00"/>
                <vehicle id="850" pos="238.32" speed="0.00"/>
                <vehicle id="834" pos="245.82" speed="0.00"/>
                <vehicle id="801" pos="253.32" speed="0.00"/>
                <vehicle id="744" pos="260.82" speed="0.00"/>
                <vehicle id="799" pos="268.33" speed="0.00"/>
                <vehicle id="638" pos="275.83" speed="0.00"/>
                <vehicle id="633" pos="283.33" speed="0.00"/>
                <vehicle id="653" pos="290.83" speed="0.00"/>
            </lane>
        </edge>
        <edge id="gneE27">
            <lane id="gneE27_0">
                <vehicle id="981" pos="92.77" speed="5.54"/>
                <vehicle id="978" pos="113.48" speed="4.86"/>
            </lane>
        </edge>
        <edge id="gneE28">
            <lane id="gneE28_0">
                <vehicle id="866" pos="25.24" speed="8.33"/>
                <vehicle id="842" pos="82.22" speed="8.86"/>
                <vehicle id="828" pos="105.16" speed="8.10"/>
                <vehicle id="753" pos="119.42" speed="5.17"/>
                <vehicle id="917" pos="130.23" speed="0.31"/>
                <vehicle id="745" pos="137.90" speed="0.02"/>
            </lane>
        </edge>
        <edge id="gneE3">
            <lane id="gneE3_0">
                <vehicle id="779" pos="47.87" speed="8.75"/>
            </lane>
        </edge>
        <edge id="gneE30">
            <lane id="gneE30_0">
                <vehicle id="968" pos="27.91" speed="8.79"/>
                <vehicle id="937" pos="54.29" speed="8.40"/>
                <vehicle id="826" pos="133.65" speed="7.79"/>
                <vehicle id="778" pos="202.37" speed="8.91"/>
                <vehicle id="972" pos="219.67" speed="8.11"/>
                <vehicle id="732" pos="254.91" speed="8.21"/>
            </lane>
        </edge>
        <edge id="gneE31">
            <lane id="gneE31_0">
                <vehicle id="848" pos="19.51" speed="8.91"/>
                <vehicle id="814" pos="82.90" speed="8.70"/>
                <vehicle id="841" pos="102.11" speed="7.81"/>
                <vehicle id="927" pos="182.84" speed="8.21"/>
                <vehicle id="946" pos="212.58" speed="8.16"/>
                <vehicle id="864" pos="244.04" speed="8.78"/>
                <vehicle id="857" pos="270.26" speed="7.87"/>
                <vehicle id="843" pos="289.61" speed="8.37"/>
            </lane>
        </edge>
        <edge id="gneE32">
            <lane id="gneE32_0">
                <vehicle id="995" pos="25.14" speed="6.76"/>
                <vehicle id="596" pos="171.65" speed="7.27"/>
                <vehicle id="819" pos="216.98" speed="6.85"/>
            </lane>
        </edge>
        <edge id="gneE38">
            <lane id="gneE38_0">
                <vehicle id="928" pos="9.06" speed="8.44"/>
                <vehicle id="921" pos="67.39" speed="8.28"/>
                <vehicle id="925" pos="215.34" speed="8.46"/>
                <vehicle id="918" pos="270.75" speed="7.99"/>
                <vehicle id="893" pos="298.53" speed="8.49"/>
                <vehicle id="861" pos="327.97" speed="0.01"/>
                <vehicle id="832" pos="335.48" speed="0.00"/>
                <vehicle id="902" pos="342.98" speed="0.00"/>
            </lane>
        </edge>
        <edge id="gneE4">
            <lane id="gneE4_0">
                <vehicle id="933" pos="10.42" speed="8.73"/>
                <vehicle id="991" pos="60.07" speed="9.12"/>
            </lane>
        </edge>
        <edge id="gneE41">
            <lane id="gneE41_0">
                <vehicle id="752" pos="31.72" speed="7.73"/>
            </lane>
        </edge>
        <edge id="gneE42">
            <lane id="gneE42_0">
                <vehicle id="758" pos="55.43" speed="6.89"/>
                <vehicle id="962" pos="81.27" speed="6.83"/>
            </lane>
        </edge>
        <edge id="gneE43">
            <lane id="gneE43_0">
                <vehicle id="916" pos="73.95" speed="5.93"/>
                <vehicle id="930" pos="246.72" speed="0.01"/>
                <vehicle id="839" pos="254.22" speed="0.00"/>
                <vehicle id="836" pos="261.72" speed="0.00"/>
                <vehicle id="837" pos="269.22" speed="0.00"/>
                <vehicle id="894" pos="276.72" speed="0.00"/>
                <vehicle id="657" pos="284.23" speed="0.00"/>
                <vehicle id="863" pos="291.73" speed="0.00"/>
                <vehicle id="767" pos="299.23" speed="0.00"/>
                <vehicle id="813" pos="306.73" speed="0.00"/>
            </lane>
        </edge>
        <edge id="gneE45">
            <lane id="gneE45_0">
                <vehicle id="747" pos="8.58" speed="8.50"/>
                <vehicle id="823" pos="83.87" speed="8.42"/>
                <vehicle id="965" pos="117.64" speed="8.35"/>
                <vehicle id="802" pos="256.47" speed="8.13"/>
            </lane>
        </edge>
        <edge id="gneE46">
            <lane id="gneE46_0">
                <vehicle id="667" pos="8.93" speed="9.79"/>
            </lane>
        </edge>
        <edge id="gneE47">
            <lane id="gneE47_0">
                <vehicle id="909" pos="67.46" speed="8.94"/>
                <vehicle id="908" pos="97.10" speed="8.66"/>
                <vehicle id="954" pos="157.29" speed="7.77"/>
                <vehicle id="953" pos="174.66" speed="8.40"/>
            </lane>
        </edge>
        <edge id="gneE48">
            <lane id="gneE48_0">
                <vehicle id="879" pos="199.16" speed="6.54"/>
                <vehicle id="871" pos="244.33" speed="0.39"/>
                <vehicle id="903" pos="252.13" speed="0.00"/>
                <vehicle id="897" pos="259.63" speed="0.00"/>
                <vehicle id="882" pos="267.13" speed="0.00"/>
                <vehicle id="796" pos="274.63" speed="0.00"/>
                <vehicle id="791" pos="282.13" speed="0.00"/>
                <vehicle id="858" pos="289.63" speed="0.00"/>
                <vehicle id="777" pos="297.14" speed="0.00"/>
                <vehicle id="705" pos="304.64" speed="0.00"/>
                <vehicle id="790" pos="312.14" speed="0.00"/>
                <vehicle id="817" pos="319.64" speed="0.00"/>
            </lane>
        </edge>
        <edge id="gneE49">
            <lane id="gneE49_0">
                <vehicle id="973" pos="9.87" speed="7.68"/>
                <vehicle id="750" pos="62.91" speed="7.46"/>
                <vehicle id="804" pos="93.16" speed="7.07"/>
                <vehicle id="960" pos="138.61" speed="7.03"/>
                <vehicle id="783" pos="312.05" speed="0.12"/>
                <vehicle id="949" pos="319.64" speed="0.00"/>
            </lane>
        </edge>
        <edge id="gneE5">
            <lane id="gneE5_0">
                <vehicle id="945" pos="11.00" speed="5.15"/>
                <vehicle id="873" pos="33.04" speed="5.90"/>
                <vehicle id="899" pos="50.61" speed="4.85"/>
                <vehicle id="964" pos="65.58" speed="5.89"/>
                <vehicle id="877" pos="84.10" speed="5.51"/>
                <vehicle id="980" pos="103.00" speed="5.82"/>
            </lane>
        </edge>
        <edge id="gneE50">
            <lane id="gneE50_0">
                <vehicle id="993" pos="26.04" speed="4.77"/>
                <vehicle id="929" pos="365.73" speed="0.23"/>
            </lane>
        </edge>
        <edge id="gneE51">
            <lane id="gneE51_0">
                <vehicle id="780" pos="197.23" speed="6.38"/>
                <vehicle id="896" pos="221.81" speed="5.82"/>
                <vehicle id="811" pos="297.31" speed="1.04"/>
                <vehicle id="844" pos="305.38" speed="0.40"/>
                <vehicle id="859" pos="313.16" speed="0.09"/>
                <vehicle id="901" pos="320.77" speed="0.03"/>
                <vehicle id="691" pos="328.28" speed="0.01"/>
                <vehicle id="891" pos="335.79" speed="0.00"/>
                <vehicle id="809" pos="343.30" speed="0.00"/>
                <vehicle id="803" pos="350.80" speed="0.00"/>
                <vehicle id="800" pos="358.30" speed="0.00"/>
                <vehicle id="846" pos="365.80" speed="0.00"/>
            </lane>
        </edge>
        <edge id="gneE52">
            <lane id="gneE52_0">
                <vehicle id="969" pos="187.78" speed="5.99"/>
                <vehicle id="688" pos="230.84" speed="6.37"/>
                <vehicle id="906" pos="306.07" speed="6.02"/>
                <vehicle id="923" pos="323.92" speed="6.26"/>
            </lane>
        </edge>
        <edge id="gneE53">
            <lane id="gneE53_0">
                <vehicle id="958" pos="114.06" speed="6.06"/>
                <vehicle id="683" pos="259.55" speed="6.95"/>
                <vehicle id="955" pos="273.55" speed="5.72"/>
                <vehicle id="914" pos="320.66" speed="0.00"/>
                <vehicle id="892" pos="328.16" speed="0.00"/>
                <vehicle id="874" pos="335.66" speed="0.00"/>
            </lane>
        </edge>
        <edge id="gneE54">
            <lane id="gneE54_0">
                <vehicle id="941" pos="11.03" speed="5.71"/>
                <vehicle id="926" pos="110.36" speed="6.84"/>
                <vehicle id="922" pos="127.21" speed="6.58"/>
            </lane>
        </edge>
        <edge id="gneE55">
            <lane id="gneE55_0">
                <vehicle id="907" pos="20.54" speed="6.76"/>
                <vehicle id="950" pos="53.02" speed="7.97"/>
                <vehicle id="983" pos="114.00" speed="7.08"/>
            </lane>
        </edge>
        <edge id="gneE56">
            <lane id="gneE56_0">
                <vehicle id="755" pos="14.04" speed="8.05"/>
            </lane>
        </edge>
        <edge id="gneE57">
            <lane id="gneE57_0">
                <vehicle id="986" pos="92.82" speed="7.63"/>
                <vehicle id="977" pos="155.47" speed="6.75"/>
            </lane>
        </edge>
        <edge id="gneE59">
            <lane id="gneE59_0">
                <vehicle id="987" pos="62.11" speed="7.71"/>
                <vehicle id="737" pos="93.32" speed="7.98"/>
                <vehicle id="957" pos="306.37" speed="6.29"/>
            </lane>
        </edge>
        <edge id="gneE6">
            <lane id="gneE6_0">
                <vehicle id="979" pos="140.38" speed="7.38"/>
            </lane>
        </edge>
        <edge id="gneE60">
            <lane id="gneE60_0">
                <vehicle id="974" pos="154.89" speed="5.97"/>
                <vehicle id="912" pos="195.04" speed="0.00"/>
                <vehicle id="900" pos="202.54" speed="0.00"/>
                <vehicle id="940" pos="210.04" speed="0.00"/>
                <vehicle id="582" pos="217.54" speed="0.00"/>
                <vehicle id="890" pos="225.04" speed="0.00"/>
                <vehicle id="797" pos="232.54" speed="0.00"/>
                <vehicle id="887" pos="240.05" speed="0.00"/>
                <vehicle id="720" pos="247.55" speed="0.00"/>
                <vehicle id="647" pos="255.05" speed="0.00"/>
                <vehicle id="766" pos="262.55" speed="0.00"/>
                <vehicle id="765" pos="270.05" speed="0.00"/>
                <vehicle id="716" pos="277.75" speed="0.20"/>
                <vehicle id="822" pos="286.93" speed="1.56"/>
                <vehicle id="772" pos="297.67" speed="3.23"/>
                <vehicle id="749" pos="312.69" speed="6.22"/>
                <vehicle id="808" pos="327.54" speed="5.79"/>
                <vehicle id="729" pos="336.83" speed="1.05"/>
            </lane>
        </edge>
        <edge id="gneE61">
            <lane id="gneE61_0">
                <vehicle id="997" pos="10.19" speed="3.77"/>
                <vehicle id="754" pos="219.89" speed="7.86"/>
                <vehicle id="733" pos="314.77" speed="7.26"/>
            </lane>
        </edge>
        <edge id="gneE7">
            <lane id="gneE7_0">
                <vehicle id="942" pos="74.80" speed="8.18"/>
                <vehicle id="853" pos="106.54" speed="8.63"/>
                <vehicle id="624" pos="131.60" speed="8.68"/>
                <vehicle id="915" pos="193.58" speed="8.19"/>
                <vehicle id="961" pos="301.20" speed="7.80"/>
            </lane>
        </edge>
        <edge id="gneE8">
            <lane id="gneE8_0">
                <vehicle id="990" pos="54.83" speed="6.81"/>
            </lane>
        </edge>
    </timestep>
